0 0.0 0.638671875 0.0361328125 0.1083984375
0 0.0 0.7978515625 0.1318359375 0.095703125
0 0.0 0.1875 0.021484375 0.0791015625
0 0.00390625 0.333984375 0.0615234375 0.037109375
0 0.080078125 0.326171875 0.080078125 0.0791015625
0 0.029296875 0.2890625 0.046875 0.0478515625
0 0.171875 0.30859375 0.068359375 0.052734375
0 0.171875 0.123046875 0.0673828125 0.0498046875
0 0.1982421875 0.037109375 0.041015625 0.0830078125
0 0.0029296875 0.138671875 0.0869140625 0.056640625
0 0.23046875 0.0 0.05859375 0.0244140625
0 0.3212890625 0.0 0.0732421875 0.0556640625
0 0.77734375 0.0 0.0673828125 0.09375
0 0.6435546875 0.0234375 0.0576171875 0.087890625
0 0.52734375 0.0791015625 0.13671875 0.078125
0 0.2275390625 0.1484375 0.0869140625 0.0498046875
0 0.412109375 0.1552734375 0.056640625 0.048828125
0 0.451171875 0.1494140625 0.2001953125 0.0625
0 0.45703125 0.205078125 0.10546875 0.0517578125
0 0.4072265625 0.2294921875 0.1328125 0.0859375
0 0.2802734375 0.2509765625 0.0546875 0.0498046875
0 0.2763671875 0.314453125 0.1142578125 0.07421875
0 0.3837890625 0.3212890625 0.169921875 0.09765625
0 0.591796875 0.337890625 0.0458984375 0.0556640625
0 0.5966796875 0.279296875 0.068359375 0.0546875
0 0.701171875 0.2978515625 0.052734375 0.0673828125
0 0.6923828125 0.1748046875 0.099609375 0.078125
0 0.7939453125 0.1865234375 0.1171875 0.0634765625
0 0.841796875 0.1181640625 0.0634765625 0.05078125
0 0.85546875 0.390625 0.078125 0.1015625
0 0.9287109375 0.412109375 0.05078125 0.0537109375
0 0.7451171875 0.404296875 0.0673828125 0.052734375
0 0.6181640625 0.451171875 0.0751953125 0.0439453125
0 0.427734375 0.42578125 0.1015625 0.0498046875
0 0.34765625 0.4375 0.0634765625 0.048828125
0 0.28515625 0.408203125 0.0673828125 0.0771484375
0 0.2451171875 0.515625 0.0732421875 0.060546875
0 0.4111328125 0.4892578125 0.05078125 0.0478515625
0 0.67578125 0.4755859375 0.0751953125 0.064453125
0 0.7509765625 0.462890625 0.087890625 0.0986328125
0 0.67578125 0.6689453125 0.0810546875 0.056640625
0 0.5966796875 0.693359375 0.0703125 0.08984375
0 0.4072265625 0.6201171875 0.068359375 0.0693359375
0 0.689453125 0.75 0.1005859375 0.0556640625
0 0.80078125 0.7373046875 0.1240234375 0.0546875
0 0.8779296875 0.712890625 0.0810546875 0.05078125
0 0.8349609375 0.830078125 0.150390625 0.150390625
0 0.7734375 0.9169921875 0.0615234375 0.0830078125
0 0.5908203125 0.8544921875 0.1708984375 0.087890625
0 0.35546875 0.8125 0.056640625 0.0625
0 0.240234375 0.9072265625 0.1357421875 0.0751953125
0 0.390625 0.9150390625 0.080078125 0.0849609375
0 0.4599609375 0.8779296875 0.0615234375 0.05859375
0 0.6845703125 0.494140625 0.158203125 0.0849609375
0 0.5390625 0.39453125 0.0849609375 0.072265625
