0 0.5966796875 0.259765625 0.0908203125 0.1044921875
0 0.2197265625 0.474609375 0.0927734375 0.0927734375
0 0.947265625 0.0419921875 0.052734375 0.1474609375
0 0.78125 0.5068359375 0.052734375 0.0595703125
0 0.2265625 0.2841796875 0.06640625 0.072265625
0 0.7734375 0.9404296875 0.09375 0.05859375
0 0.4443359375 0.578125 0.056640625 0.072265625
0 0.8193359375 0.1796875 0.0751953125 0.0869140625
0 0.9013671875 0.94140625 0.0625 0.0576171875
0 0.181640625 0.8271484375 0.060546875 0.072265625
0 0.88671875 0.52734375 0.0732421875 0.0947265625
0 0.7099609375 0.654296875 0.0791015625 0.134765625
0 0.5087890625 0.34375 0.0634765625 0.1142578125
0 0.064453125 0.7548828125 0.0830078125 0.08203125
0 0.009765625 0.9404296875 0.0693359375 0.0576171875
0 0.2021484375 0.7197265625 0.0859375 0.083984375
0 0.3623046875 0.7119140625 0.08203125 0.0703125
0 0.595703125 0.154296875 0.0625 0.0751953125
0 0.904296875 0.2822265625 0.037109375 0.064453125
0 0.5498046875 0.6572265625 0.0693359375 0.08203125
0 0.7294921875 0.3671875 0.0625 0.08203125
0 0.154296875 0.4814453125 0.046875 0.0849609375
0 0.5390625 0.4833984375 0.060546875 0.05859375
0 0.337890625 0.30859375 0.0771484375 0.0810546875
0 0.2431640625 0.125 0.0537109375 0.0908203125
0 0.224609375 0.6396484375 0.0751953125 0.0673828125
0 0.001953125 0.4765625 0.0498046875 0.0625
0 0.869140625 0.6123046875 0.060546875 0.0751953125
0 0.25 0.8037109375 0.0498046875 0.0576171875
0 0.9345703125 0.306640625 0.0654296875 0.107421875
0 0.1103515625 0.0 0.068359375 0.08984375
0 0.0390625 0.2578125 0.03515625 0.0625
0 0.0185546875 0.1728515625 0.0517578125 0.0693359375
0 0.0 0.244140625 0.03515625 0.08984375
0 0.39453125 0.154296875 0.0703125 0.1328125
0 0.33203125 0.162109375 0.0771484375 0.0771484375
0 0.283203125 0.0029296875 0.0537109375 0.068359375
0 0.31640625 0.0302734375 0.0498046875 0.0927734375
0 0.3232421875 0.1025390625 0.0478515625 0.107421875
0 0.384765625 0.3173828125 0.064453125 0.0849609375
0 0.5166015625 0.2666015625 0.060546875 0.0654296875
0 0.7021484375 0.3291015625 0.0576171875 0.068359375
0 0.49609375 0.6005859375 0.05078125 0.05078125
0 0.4384765625 0.6533203125 0.06640625 0.048828125
0 0.5029296875 0.6171875 0.078125 0.0927734375
0 0.357421875 0.8720703125 0.0849609375 0.0654296875
0 0.2587890625 0.9345703125 0.0517578125 0.0625
0 0.7587890625 0.7861328125 0.0625 0.068359375
0 0.5791015625 0.4443359375 0.1103515625 0.0947265625
0 0.9091796875 0.0546875 0.078125 0.1220703125
0 0.9443359375 0.2421875 0.0556640625 0.0771484375
0 0.8369140625 0.484375 0.080078125 0.072265625
