0 0.6923828125 0.669921875 0.107421875 0.064453125
0 0.6044921875 0.3896484375 0.0947265625 0.095703125
0 0.65234375 0.0947265625 0.0849609375 0.080078125
0 0.52734375 0.01171875 0.072265625 0.052734375
0 0.4970703125 0.6044921875 0.115234375 0.0654296875
0 0.90234375 0.27734375 0.091796875 0.09765625
0 0.607421875 0.529296875 0.1572265625 0.115234375
0 0.7119140625 0.1572265625 0.08984375 0.1025390625
0 0.169921875 0.6123046875 0.0498046875 0.0517578125
0 0.2119140625 0.5244140625 0.115234375 0.1103515625
0 0.244140625 0.4140625 0.0625 0.123046875
0 0.7919921875 0.4443359375 0.08984375 0.087890625
0 0.2001953125 0.1845703125 0.0947265625 0.0859375
0 0.884765625 0.509765625 0.115234375 0.1298828125
0 0.8193359375 0.904296875 0.107421875 0.095703125
0 0.32421875 0.63671875 0.0625 0.0625
0 0.7392578125 0.884765625 0.087890625 0.09765625
0 0.4541015625 0.7119140625 0.10546875 0.08984375
0 0.4345703125 0.544921875 0.08203125 0.126953125
0 0.01953125 0.697265625 0.115234375 0.109375
0 0.234375 0.001953125 0.0673828125 0.060546875
0 0.3017578125 0.001953125 0.060546875 0.0751953125
0 0.1748046875 0.4140625 0.0673828125 0.115234375
0 0.064453125 0.1123046875 0.0830078125 0.099609375
0 0.3095703125 0.751953125 0.0927734375 0.072265625
0 0.3447265625 0.3916015625 0.08984375 0.080078125
0 0.63671875 0.2529296875 0.03515625 0.0625
