0 0.2763671875 0.74609375 0.0615234375 0.08984375
0 0.7685546875 0.1943359375 0.0498046875 0.08203125
0 0.46875 0.796875 0.0517578125 0.07421875
0 0.568359375 0.482421875 0.068359375 0.0693359375
0 0.044921875 0.0009765625 0.099609375 0.048828125
0 0.92578125 0.443359375 0.046875 0.1376953125
0 0.4833984375 0.177734375 0.0458984375 0.0751953125
0 0.2275390625 0.6298828125 0.080078125 0.046875
0 0.3662109375 0.26171875 0.05859375 0.111328125
0 0.4072265625 0.35546875 0.068359375 0.0703125
0 0.0517578125 0.8408203125 0.076171875 0.1064453125
0 0.1875 0.423828125 0.12890625 0.12890625
0 0.7890625 0.0 0.0400390625 0.0810546875
0 0.1796875 0.869140625 0.0927734375 0.0517578125
0 0.3359375 0.8779296875 0.109375 0.0478515625
0 0.314453125 0.2158203125 0.052734375 0.0771484375
0 0.7919921875 0.587890625 0.06640625 0.103515625
0 0.0 0.779296875 0.12890625 0.0947265625
0 0.84375 0.44140625 0.05078125 0.1044921875
0 0.830078125 0.28515625 0.06640625 0.0693359375
0 0.5185546875 0.91796875 0.1416015625 0.08203125
0 0.5302734375 0.4111328125 0.0283203125 0.076171875
0 0.8115234375 0.56640625 0.046875 0.0712890625
0 0.4697265625 0.61328125 0.052734375 0.0791015625
0 0.8779296875 0.0 0.0419921875 0.0732421875
0 0.6943359375 0.583984375 0.1025390625 0.08203125
0 0.330078125 0.5703125 0.0517578125 0.0693359375
0 0.0 0.8916015625 0.0302734375 0.0537109375
0 0.2021484375 0.2451171875 0.0537109375 0.0673828125
0 0.6806640625 0.51171875 0.0751953125 0.078125
0 0.408203125 0.0732421875 0.0390625 0.158203125
0 0.396484375 0.70703125 0.107421875 0.0390625
0 0.1767578125 0.7578125 0.064453125 0.0498046875
0 0.9658203125 0.896484375 0.0322265625 0.076171875
0 0.462890625 0.4658203125 0.05078125 0.091796875
0 0.8427734375 0.6669921875 0.0849609375 0.041015625
0 0.06640625 0.583984375 0.0654296875 0.0498046875
0 0.7177734375 0.0390625 0.0400390625 0.076171875
0 0.8623046875 0.0458984375 0.0400390625 0.064453125
0 0.681640625 0.005859375 0.0380859375 0.0771484375
0 0.0234375 0.6015625 0.064453125 0.0439453125
0 0.7099609375 0.6025390625 0.0517578125 0.080078125
0 0.8740234375 0.759765625 0.029296875 0.0712890625
0 0.2607421875 0.6044921875 0.05859375 0.056640625
0 0.212890625 0.806640625 0.0595703125 0.0625
0 0.2939453125 0.4111328125 0.0283203125 0.123046875
0 0.486328125 0.9169921875 0.05078125 0.0634765625
0 0.255859375 0.263671875 0.1201171875 0.0693359375
0 0.1337890625 0.908203125 0.1162109375 0.0732421875
0 0.7431640625 0.8359375 0.0283203125 0.0927734375
0 0.1142578125 0.9580078125 0.0400390625 0.0419921875
0 0.5234375 0.7890625 0.0283203125 0.0927734375
0 0.251953125 0.0732421875 0.0673828125 0.0498046875
0 0.884765625 0.3046875 0.0546875 0.0517578125
0 0.5859375 0.5673828125 0.04296875 0.0908203125
0 0.486328125 0.61328125 0.0615234375 0.0771484375
0 0.6318359375 0.599609375 0.025390625 0.0615234375
0 0.283203125 0.9658203125 0.0439453125 0.0341796875
0 0.4638671875 0.25390625 0.033203125 0.056640625
0 0.0048828125 0.556640625 0.041015625 0.064453125
0 0.359375 0.83984375 0.0322265625 0.05859375
0 0.822265625 0.0 0.0263671875 0.0458984375
0 0.4697265625 0.37109375 0.0712890625 0.0283203125
0 0.892578125 0.2392578125 0.1025390625 0.04296875
0 0.53515625 0.84765625 0.060546875 0.04296875
0 0.1943359375 0.0 0.0361328125 0.0302734375
0 0.7744140625 0.98046875 0.0517578125 0.01953125
0 0.0556640625 0.719140625 0.05322265625 0.08847656250000002
0 0.712890625 0.7529296875 0.0390625 0.037109375
0 0.759765625 0.919921875 0.0546875 0.0400390625
0 0.341796875 0.119140625 0.046875 0.0654296875
0 0.6376953125 0.2939453125 0.0458984375 0.046875
0 0.603515625 0.3857421875 0.04296875 0.05078125
0 0.5009765625 0.8876953125 0.052734375 0.0361328125
0 0.5625 0.3046875 0.05078125 0.037109375
0 0.74609375 0.537109375 0.0771484375 0.0439453125
0 0.6533203125 0.515625 0.0625 0.044921875
0 0.111328125 0.0966796875 0.033203125 0.060546875
0 0.9423828125 0.2724609375 0.0400390625 0.05859375
0 0.0 0.990234375 0.0419921875 0.009765625
0 0.232421875 0.0419921875 0.0380859375 0.0693359375
0 0.560546875 0.5556640625 0.0732421875 0.0556640625
0 0.9150390625 0.0 0.0283203125 0.029296875
0 0.0 0.0224609375 0.037109375 0.033203125
0 0.4501953125 0.3330078125 0.041015625 0.0361328125
0 0.580078125 0.2978515625 0.0654296875 0.0693359375
0 0.568359375 0.55859375 0.064453125 0.0791015625
