0 0.4072265625 0.025390625 0.048828125 0.064453125
0 0.44921875 0.017578125 0.0654296875 0.1015625
0 0.21875 0.1201171875 0.1376953125 0.1083984375
0 0.1669921875 0.2060546875 0.0849609375 0.0869140625
0 0.39453125 0.21875 0.0859375 0.07421875
0 0.3544921875 0.2978515625 0.0595703125 0.109375
0 0.419921875 0.341796875 0.0595703125 0.0498046875
0 0.400390625 0.3759765625 0.07421875 0.05859375
0 0.283203125 0.3564453125 0.0732421875 0.068359375
0 0.345703125 0.4052734375 0.0576171875 0.0673828125
0 0.33203125 0.45703125 0.0751953125 0.06640625
0 0.4775390625 0.5048828125 0.0537109375 0.064453125
0 0.1103515625 0.607421875 0.158203125 0.0732421875
0 0.173828125 0.650390625 0.0927734375 0.1025390625
0 0.24609375 0.685546875 0.1357421875 0.0517578125
0 0.244140625 0.72265625 0.126953125 0.0986328125
0 0.291015625 0.625 0.1806640625 0.0869140625
0 0.400390625 0.7294921875 0.109375 0.087890625
0 0.1357421875 0.8330078125 0.095703125 0.0771484375
0 0.51953125 0.705078125 0.080078125 0.0830078125
0 0.6142578125 0.7451171875 0.0869140625 0.0595703125
0 0.61328125 0.798828125 0.0732421875 0.083984375
0 0.5830078125 0.59765625 0.1103515625 0.0810546875
0 0.72265625 0.564453125 0.048828125 0.0537109375
0 0.7626953125 0.5849609375 0.048828125 0.0537109375
0 0.48046875 0.947265625 0.0888671875 0.052734375
0 0.7470703125 0.9169921875 0.1474609375 0.0830078125
0 0.9052734375 0.58203125 0.05078125 0.08984375
0 0.8515625 0.3798828125 0.076171875 0.15234375
0 0.7978515625 0.341796875 0.0654296875 0.0830078125
0 0.853515625 0.0478515625 0.0712890625 0.0595703125
0 0.6396484375 0.0078125 0.1083984375 0.064453125
0 0.4970703125 0.169921875 0.0615234375 0.0732421875
0 0.5517578125 0.1357421875 0.068359375 0.0673828125
0 0.349609375 0.7373046875 0.0869140625 0.103515625
0 0.9755859375 0.5419921875 0.0244140625 0.0546875
