0 0.013671875 0.791015625 0.0673828125 0.0810546875
0 0.244140625 0.904296875 0.0849609375 0.0654296875
0 0.462890625 0.8818359375 0.1396484375 0.08203125
0 0.3779296875 0.951171875 0.0810546875 0.048828125
0 0.595703125 0.82421875 0.0849609375 0.080078125
0 0.6650390625 0.890625 0.07421875 0.083984375
0 0.869140625 0.8056640625 0.1181640625 0.0849609375
0 0.9345703125 0.9228515625 0.0654296875 0.0537109375
0 0.732421875 0.7333984375 0.087890625 0.0703125
0 0.7080078125 0.6484375 0.068359375 0.0634765625
0 0.7998046875 0.587890625 0.064453125 0.0712890625
0 0.83984375 0.5283203125 0.1337890625 0.07421875
0 0.892578125 0.4873046875 0.107421875 0.0830078125
0 0.8603515625 0.673828125 0.0849609375 0.056640625
0 0.9189453125 0.732421875 0.0810546875 0.0654296875
0 0.15234375 0.7841796875 0.06640625 0.080078125
0 0.1005859375 0.6845703125 0.0849609375 0.0947265625
0 0.27734375 0.71875 0.1083984375 0.060546875
0 0.001953125 0.42578125 0.0712890625 0.05078125
0 0.177734375 0.3642578125 0.0693359375 0.0693359375
0 0.23046875 0.3271484375 0.0869140625 0.087890625
0 0.2548828125 0.2841796875 0.0810546875 0.0693359375
0 0.3681640625 0.3232421875 0.0576171875 0.0517578125
0 0.4990234375 0.3095703125 0.078125 0.068359375
0 0.408203125 0.1953125 0.0703125 0.0693359375
0 0.0908203125 0.0244140625 0.087890625 0.10546875
0 0.21875 0.1474609375 0.0625 0.1064453125
0 0.455078125 0.5107421875 0.107421875 0.0869140625
0 0.470703125 0.6416015625 0.109375 0.078125
0 0.5576171875 0.72265625 0.09375 0.0654296875
0 0.6904296875 0.4453125 0.09765625 0.0654296875
0 0.50390625 0.447265625 0.083984375 0.0498046875
0 0.701171875 0.255859375 0.0732421875 0.0751953125
0 0.806640625 0.20703125 0.0791015625 0.0947265625
0 0.9443359375 0.3173828125 0.0556640625 0.0966796875
0 0.0712890625 0.2373046875 0.08984375 0.05859375
0 0.0 0.25390625 0.06640625 0.052734375
0 0.0322265625 0.1337890625 0.0888671875 0.0703125
0 0.2119140625 0.0 0.0751953125 0.0439453125
0 0.00390625 0.4609375 0.0849609375 0.0439453125
0 0.6611328125 0.0 0.0966796875 0.041015625
0 0.841796875 0.0 0.0888671875 0.0498046875
0 0.8681640625 0.033203125 0.0849609375 0.087890625
0 0.53125 0.1708984375 0.0712890625 0.0576171875
0 0.6025390625 0.21875 0.0693359375 0.0693359375
0 0.302734375 0.16015625 0.0908203125 0.0869140625
0 0.3564453125 0.115234375 0.0986328125 0.060546875
0 0.12890625 0.84765625 0.056640625 0.0537109375
0 0.5693359375 0.6123046875 0.064453125 0.103515625
0 0.80859375 0.6943359375 0.07421875 0.0615234375
0 0.8056640625 0.3408203125 0.1025390625 0.044921875
0 0.8447265625 0.8359375 0.0654296875 0.052734375
0 0.5927734375 0.0224609375 0.046875 0.0478515625
0 0.4375 0.154296875 0.1005859375 0.072265625
0 0.6650390625 0.8359375 0.0859375 0.0625
0 0.154296875 0.2841796875 0.068359375 0.0546875
0 0.3125 0.3212890625 0.056640625 0.0556640625
