0 0.6806640625 0.5966796875 0.0771484375 0.08984375
0 0.1376953125 0.0 0.09765625 0.0478515625
0 0.8583984375 0.23046875 0.06640625 0.1064453125
0 0.0 0.3154296875 0.13671875 0.08203125
0 0.2529296875 0.83984375 0.0751953125 0.0478515625
0 0.759765625 0.6083984375 0.072265625 0.0517578125
0 0.89453125 0.076171875 0.080078125 0.0712890625
0 0.3291015625 0.029296875 0.0703125 0.0712890625
0 0.7998046875 0.93359375 0.126953125 0.06640625
0 0.048828125 0.392578125 0.09765625 0.0576171875
0 0.775390625 0.5703125 0.0732421875 0.0537109375
0 0.0 0.5771484375 0.1025390625 0.0771484375
0 0.0751953125 0.9765625 0.1240234375 0.0234375
0 0.7802734375 0.05078125 0.1015625 0.0654296875
0 0.0498046875 0.8935546875 0.1328125 0.0625
0 0.0732421875 0.6533203125 0.146484375 0.0810546875
0 0.0 0.7470703125 0.126953125 0.1162109375
0 0.291015625 0.0009765625 0.095703125 0.0703125
0 0.7333984375 0.00390625 0.0947265625 0.0693359375
0 0.8115234375 0.70703125 0.111328125 0.0830078125
0 0.3017578125 0.5029296875 0.0849609375 0.0947265625
0 0.1796875 0.27734375 0.1318359375 0.0908203125
0 0.78515625 0.517578125 0.0615234375 0.0537109375
0 0.6572265625 0.025390625 0.1005859375 0.1015625
0 0.12890625 0.4228515625 0.125 0.1201171875
0 0.7705078125 0.4462890625 0.056640625 0.056640625
0 0.869140625 0.5263671875 0.0556640625 0.0869140625
0 0.9580078125 0.4453125 0.0419921875 0.0751953125
0 0.80078125 0.2119140625 0.076171875 0.052734375
0 0.1865234375 0.7626953125 0.1005859375 0.083984375
0 0.150390625 0.8369140625 0.091796875 0.0595703125
0 0.0 0.8828125 0.0830078125 0.0576171875
0 0.166015625 0.5068359375 0.0966796875 0.0712890625
0 0.0244140625 0.4384765625 0.0703125 0.07421875
0 0.0 0.482421875 0.0537109375 0.07421875
0 0.26953125 0.4580078125 0.05859375 0.0888671875
0 0.1669921875 0.228515625 0.1083984375 0.0810546875
0 0.0068359375 0.2353515625 0.1376953125 0.076171875
0 0.029296875 0.703125 0.12890625 0.0517578125
0 0.96875 0.029296875 0.0302734375 0.048828125
