0 0.130859375 0.033203125 0.09765625 0.056640625
0 0.2841796875 0.03125 0.0546875 0.0595703125
0 0.2890625 0.091796875 0.0595703125 0.0576171875
0 0.3173828125 0.0537109375 0.0751953125 0.05859375
0 0.3388671875 0.0 0.076171875 0.0771484375
0 0.3857421875 0.0 0.0703125 0.05078125
0 0.0 0.0 0.0458984375 0.076171875
0 0.447265625 0.169921875 0.0732421875 0.0693359375
0 0.615234375 0.1787109375 0.1298828125 0.076171875
0 0.76171875 0.1064453125 0.072265625 0.083984375
0 0.953125 0.1064453125 0.046875 0.0859375
0 0.912109375 0.0498046875 0.083984375 0.0634765625
0 0.869140625 0.08984375 0.060546875 0.0478515625
0 0.8271484375 0.03125 0.107421875 0.06640625
0 0.7109375 0.0 0.103515625 0.0908203125
0 0.2080078125 0.453125 0.076171875 0.072265625
0 0.2666015625 0.48046875 0.083984375 0.0625
0 0.314453125 0.5205078125 0.068359375 0.0810546875
0 0.0 0.4326171875 0.076171875 0.078125
0 0.005859375 0.5546875 0.0673828125 0.0615234375
0 0.0185546875 0.611328125 0.076171875 0.0703125
0 0.1826171875 0.55859375 0.0791015625 0.0576171875
0 0.181640625 0.626953125 0.087890625 0.0576171875
0 0.1640625 0.6953125 0.0771484375 0.0498046875
0 0.068359375 0.681640625 0.0869140625 0.07421875
0 0.072265625 0.8857421875 0.10546875 0.0625
0 0.2412109375 0.94921875 0.068359375 0.05078125
0 0.2392578125 0.896484375 0.0546875 0.0517578125
0 0.5771484375 0.6025390625 0.076171875 0.0625
0 0.671875 0.5712890625 0.1083984375 0.115234375
0 0.580078125 0.537109375 0.0703125 0.0537109375
0 0.5244140625 0.4423828125 0.0595703125 0.0546875
0 0.462890625 0.5185546875 0.0595703125 0.05078125
0 0.4697265625 0.560546875 0.0966796875 0.0439453125
0 0.318359375 0.58984375 0.1181640625 0.0810546875
0 0.447265625 0.9013671875 0.08203125 0.046875
0 0.482421875 0.8017578125 0.068359375 0.044921875
0 0.6533203125 0.8427734375 0.0537109375 0.068359375
0 0.7333984375 0.861328125 0.072265625 0.0546875
0 0.8857421875 0.8779296875 0.0771484375 0.060546875
0 0.595703125 0.9384765625 0.064453125 0.0615234375
0 0.6376953125 0.978515625 0.06640625 0.021484375
0 0.693359375 0.947265625 0.083984375 0.052734375
0 0.791015625 0.94921875 0.0546875 0.05078125
0 0.861328125 0.921875 0.0654296875 0.0439453125
0 0.8759765625 0.966796875 0.0625 0.033203125
0 0.4521484375 0.9443359375 0.1083984375 0.0556640625
0 0.3818359375 0.9765625 0.08203125 0.0234375
0 0.982421875 0.517578125 0.017578125 0.05078125
0 0.8720703125 0.419921875 0.0869140625 0.064453125
0 0.8525390625 0.50390625 0.060546875 0.0546875
0 0.3818359375 0.06640625 0.048828125 0.0615234375
0 0.4189453125 0.06640625 0.0732421875 0.0712890625
0 0.5546875 0.0 0.09375 0.0625
0 0.0458984375 0.779296875 0.0634765625 0.0703125
