0 0.0 0.1708984375 0.08203125 0.052734375
0 0.1201171875 0.0908203125 0.1123046875 0.0869140625
0 0.03515625 0.0126953125 0.1240234375 0.0791015625
0 0.2939453125 0.087890625 0.091796875 0.091796875
0 0.197265625 0.154296875 0.10546875 0.0986328125
0 0.0478515625 0.9892578125 0.0537109375 0.0107421875
0 0.0 0.9365234375 0.119140625 0.0634765625
0 0.111328125 0.8173828125 0.078125 0.0625
0 0.0 0.83984375 0.09765625 0.0517578125
0 0.2451171875 0.9267578125 0.14453125 0.0732421875
0 0.0400390625 0.439453125 0.0595703125 0.1494140625
0 0.0 0.458984375 0.0322265625 0.0673828125
0 0.25 0.28515625 0.220703125 0.1279296875
0 0.16015625 0.314453125 0.1494140625 0.0830078125
0 0.138671875 0.4423828125 0.064453125 0.1162109375
0 0.326171875 0.431640625 0.07421875 0.0498046875
0 0.234375 0.4970703125 0.1826171875 0.0869140625
0 0.287109375 0.5947265625 0.1533203125 0.052734375
0 0.3095703125 0.6572265625 0.123046875 0.1953125
0 0.18359375 0.7626953125 0.0830078125 0.05078125
0 0.9013671875 0.9853515625 0.0986328125 0.0146484375
0 0.87890625 0.91796875 0.1123046875 0.0625
0 0.5341796875 0.7333984375 0.0888671875 0.1962890625
0 0.5947265625 0.72265625 0.123046875 0.1669921875
0 0.833984375 0.802734375 0.166015625 0.064453125
0 0.8271484375 0.712890625 0.1728515625 0.0830078125
0 0.6669921875 0.3203125 0.0556640625 0.1845703125
0 0.8828125 0.3251953125 0.0927734375 0.080078125
0 0.62890625 0.2421875 0.169921875 0.0546875
0 0.59375 0.0830078125 0.1494140625 0.1162109375
0 0.775390625 0.0791015625 0.1162109375 0.1064453125
0 0.8193359375 0.208984375 0.1474609375 0.150390625
0 0.9765625 0.0390625 0.0234375 0.08984375
0 0.4287109375 0.115234375 0.0859375 0.142578125
0 0.638671875 0.0 0.1337890625 0.0322265625
