0 0.0224609375 0.0 0.078125 0.0595703125
0 0.0 0.142578125 0.041015625 0.068359375
0 0.0 0.2080078125 0.0478515625 0.0751953125
0 0.0 0.734375 0.0439453125 0.0615234375
0 0.0 0.623046875 0.013671875 0.05859375
0 0.0 0.3779296875 0.013671875 0.0498046875
0 0.0390625 0.380859375 0.0830078125 0.07421875
0 0.1220703125 0.2109375 0.0654296875 0.0849609375
0 0.1845703125 0.20703125 0.05859375 0.078125
0 0.076171875 0.8427734375 0.0625 0.09375
0 0.263671875 0.8427734375 0.0869140625 0.087890625
0 0.0927734375 0.953125 0.0537109375 0.046875
0 0.12890625 0.533203125 0.07421875 0.076171875
0 0.216796875 0.4677734375 0.0478515625 0.046875
0 0.25390625 0.421875 0.0673828125 0.0458984375
0 0.400390625 0.5302734375 0.0693359375 0.0634765625
0 0.4091796875 0.59375 0.0654296875 0.0537109375
0 0.3173828125 0.7158203125 0.052734375 0.0654296875
0 0.3056640625 0.2841796875 0.0947265625 0.07421875
0 0.2685546875 0.0224609375 0.064453125 0.060546875
0 0.4091796875 0.1513671875 0.10546875 0.07421875
0 0.521484375 0.291015625 0.0673828125 0.072265625
0 0.1572265625 0.0 0.076171875 0.0751953125
0 0.6533203125 0.0634765625 0.099609375 0.0673828125
0 0.7197265625 0.24609375 0.08984375 0.064453125
0 0.8076171875 0.208984375 0.091796875 0.0625
0 0.7021484375 0.3056640625 0.0732421875 0.1025390625
0 0.7392578125 0.4345703125 0.068359375 0.0625
0 0.5859375 0.4423828125 0.0537109375 0.06640625
0 0.59765625 0.5517578125 0.0634765625 0.0595703125
0 0.56640625 0.6357421875 0.060546875 0.08203125
0 0.69140625 0.59375 0.0927734375 0.0693359375
0 0.67578125 0.7783203125 0.060546875 0.0615234375
0 0.6767578125 0.8388671875 0.0615234375 0.0576171875
0 0.8349609375 0.755859375 0.1171875 0.1103515625
0 0.859375 0.8759765625 0.1220703125 0.1083984375
0 0.9697265625 0.8427734375 0.0302734375 0.0634765625
0 0.9658203125 0.6181640625 0.0341796875 0.05078125
0 0.896484375 0.6201171875 0.0634765625 0.060546875
0 0.8623046875 0.4990234375 0.11328125 0.0673828125
0 0.7626953125 0.505859375 0.08203125 0.05859375
0 0.85546875 0.3271484375 0.0830078125 0.0615234375
0 0.9462890625 0.1708984375 0.0537109375 0.0673828125
0 0.9375 0.0 0.0556640625 0.0224609375
0 0.1748046875 0.962890625 0.04296875 0.037109375
