0 0.8154296875 0.484375 0.0859375 0.0791015625
0 0.7373046875 0.1376953125 0.0771484375 0.0869140625
0 0.8671875 0.3720703125 0.0947265625 0.080078125
0 0.9296875 0.08203125 0.0703125 0.115234375
0 0.876953125 0.037109375 0.080078125 0.115234375
0 0.064453125 0.0048828125 0.0546875 0.1220703125
0 0.7890625 0.001953125 0.068359375 0.1044921875
