0 0.1865234375 0.0419921875 0.0791015625 0.134765625
0 0.1162109375 0.1279296875 0.068359375 0.0546875
0 0.384765625 0.1142578125 0.0693359375 0.0771484375
0 0.447265625 0.1826171875 0.0673828125 0.0791015625
0 0.3544921875 0.2490234375 0.080078125 0.0771484375
0 0.021484375 0.35546875 0.0859375 0.0556640625
0 0.021484375 0.3173828125 0.0625 0.2373046875
0 0.0595703125 0.5458984375 0.0712890625 0.0693359375
0 0.0859375 0.4736328125 0.150390625 0.12890625
0 0.30078125 0.419921875 0.068359375 0.064453125
0 0.4091796875 0.3876953125 0.068359375 0.07421875
0 0.4921875 0.33203125 0.072265625 0.09375
0 0.560546875 0.349609375 0.099609375 0.1123046875
0 0.5908203125 0.220703125 0.1005859375 0.1298828125
0 0.69921875 0.2548828125 0.1494140625 0.0947265625
0 0.8203125 0.3701171875 0.1005859375 0.0634765625
0 0.85546875 0.2509765625 0.1005859375 0.0859375
0 0.0087890625 0.6689453125 0.0859375 0.0673828125
0 0.125 0.708984375 0.0546875 0.060546875
0 0.23828125 0.6904296875 0.056640625 0.0869140625
0 0.173828125 0.7763671875 0.0703125 0.0625
0 0.2421875 0.7958984375 0.0703125 0.0556640625
0 0.3212890625 0.7451171875 0.05859375 0.060546875
0 0.3037109375 0.8037109375 0.072265625 0.087890625
0 0.3583984375 0.8515625 0.0654296875 0.078125
0 0.025390625 0.8232421875 0.142578125 0.09765625
0 0.111328125 0.9189453125 0.06640625 0.0546875
0 0.8349609375 0.529296875 0.068359375 0.0625
0 0.908203125 0.615234375 0.07421875 0.0966796875
0 0.9658203125 0.701171875 0.0341796875 0.0859375
0 0.8974609375 0.7138671875 0.060546875 0.0654296875
0 0.80859375 0.662109375 0.072265625 0.115234375
0 0.7294921875 0.6533203125 0.0859375 0.095703125
0 0.8427734375 0.861328125 0.087890625 0.060546875
0 0.8935546875 0.412109375 0.0732421875 0.0673828125
0 0.93359375 0.326171875 0.06640625 0.0888671875
0 0.9638671875 0.2353515625 0.0361328125 0.056640625
0 0.9560546875 0.12109375 0.0439453125 0.0654296875
0 0.951171875 0.07421875 0.048828125 0.0517578125
0 0.794921875 0.0849609375 0.068359375 0.0712890625
0 0.5576171875 0.0771484375 0.0888671875 0.1328125
0 0.7109375 0.0029296875 0.0703125 0.1005859375
0 0.6474609375 0.00390625 0.06640625 0.0546875
0 0.642578125 0.9326171875 0.0771484375 0.0673828125
0 0.5048828125 0.8642578125 0.1083984375 0.0830078125
0 0.4541015625 0.6533203125 0.0576171875 0.0625
0 0.505859375 0.6318359375 0.072265625 0.0615234375
0 0.6533203125 0.6669921875 0.0673828125 0.0634765625
0 0.587890625 0.591796875 0.0498046875 0.0595703125
0 0.6259765625 0.57421875 0.080078125 0.046875
0 0.755859375 0.4873046875 0.0458984375 0.060546875
0 0.896484375 0.5673828125 0.0478515625 0.052734375
0 0.4833984375 0.025390625 0.091796875 0.0419921875
0 0.31640625 0.3076171875 0.1396484375 0.09765625
0 0.0771484375 0.44140625 0.064453125 0.0712890625
0 0.103515625 0.0 0.0546875 0.0322265625
0 0.1689453125 0.0 0.0322265625 0.01953125
0 0.6826171875 0.0625 0.0400390625 0.0390625
0 0.0009765625 0.2490234375 0.0205078125 0.0439453125
0 0.0107421875 0.6015625 0.037109375 0.0400390625
0 0.0 0.5712890625 0.02734375 0.056640625
0 0.974609375 0.4267578125 0.025390625 0.0537109375
0 0.880859375 0.31640625 0.0537109375 0.0634765625
0 0.6162109375 0.0615234375 0.0478515625 0.0703125
0 0.302734375 0.71875 0.0498046875 0.0673828125
