0 0.255859375 0.1630859375 0.08203125 0.0576171875
0 0.1953125 0.21875 0.0771484375 0.0576171875
0 0.068359375 0.103515625 0.0732421875 0.0712890625
0 0.115234375 0.0224609375 0.11328125 0.0810546875
0 0.4013671875 0.2861328125 0.0751953125 0.0615234375
0 0.501953125 0.2919921875 0.076171875 0.0693359375
0 0.50390625 0.224609375 0.080078125 0.0693359375
0 0.482421875 0.0419921875 0.0498046875 0.0849609375
0 0.5302734375 0.087890625 0.0810546875 0.0849609375
0 0.6953125 0.11328125 0.0986328125 0.080078125
0 0.7177734375 0.0 0.09765625 0.0654296875
0 0.9052734375 0.107421875 0.091796875 0.099609375
0 0.876953125 0.216796875 0.099609375 0.0888671875
0 0.818359375 0.1748046875 0.0791015625 0.0703125
0 0.978515625 0.3916015625 0.021484375 0.0771484375
0 0.82421875 0.30859375 0.0673828125 0.0771484375
0 0.7109375 0.240234375 0.0888671875 0.080078125
0 0.59375 0.5537109375 0.0869140625 0.0712890625
0 0.5322265625 0.59765625 0.11328125 0.083984375
0 0.345703125 0.46875 0.0947265625 0.0732421875
0 0.2763671875 0.466796875 0.0654296875 0.0693359375
0 0.4306640625 0.453125 0.0556640625 0.0849609375
0 0.1318359375 0.443359375 0.0830078125 0.0986328125
0 0.1455078125 0.341796875 0.1083984375 0.0849609375
0 0.0458984375 0.341796875 0.11328125 0.0712890625
0 0.0263671875 0.5517578125 0.10546875 0.08203125
0 0.2802734375 0.609375 0.109375 0.087890625
0 0.8056640625 0.484375 0.111328125 0.07421875
0 0.853515625 0.5673828125 0.080078125 0.1162109375
0 0.95703125 0.6416015625 0.04296875 0.1083984375
0 0.8720703125 0.7451171875 0.0712890625 0.0751953125
0 0.7998046875 0.6923828125 0.091796875 0.083984375
0 0.6494140625 0.73828125 0.1005859375 0.0751953125
0 0.357421875 0.7998046875 0.0673828125 0.0498046875
0 0.0419921875 0.865234375 0.119140625 0.125
0 0.603515625 0.9384765625 0.09765625 0.0615234375
0 0.740234375 0.9267578125 0.0751953125 0.0732421875
0 0.8818359375 0.87890625 0.05859375 0.080078125
0 0.982421875 0.9052734375 0.017578125 0.0556640625
0 0.6171875 0.2744140625 0.06640625 0.0712890625
0 0.9609375 0.3056640625 0.0390625 0.0615234375
0 0.0 0.099609375 0.060546875 0.08203125
0 0.0 0.25390625 0.07421875 0.0400390625
0 0.431640625 0.0 0.052734375 0.0791015625
0 0.935546875 0.75390625 0.064453125 0.060546875
