0 0.255859375 0.001953125 0.087890625 0.06640625
0 0.3359375 0.390625 0.0810546875 0.0712890625
0 0.5810546875 0.7900390625 0.091796875 0.072265625
0 0.3740234375 0.0390625 0.05859375 0.0751953125
0 0.5703125 0.25390625 0.130859375 0.0654296875
0 0.044921875 0.8857421875 0.0634765625 0.0927734375
0 0.7470703125 0.033203125 0.078125 0.0771484375
0 0.115234375 0.20703125 0.103515625 0.068359375
0 0.7109375 0.125 0.076171875 0.0791015625
0 0.0673828125 0.8076171875 0.0927734375 0.0859375
0 0.0078125 0.2400390625 0.0625 0.09375
0 0.5673828125 0.62109375 0.041015625 0.0966796875
0 0.900390625 0.2421875 0.0673828125 0.0830078125
0 0.91796875 0.2099609375 0.08203125 0.09375
0 0.63671875 0.4228515625 0.0751953125 0.0771484375
0 0.583984375 0.708984375 0.0771484375 0.0517578125
0 0.8779296875 0.52734375 0.0439453125 0.095703125
0 0.564453125 0.4658203125 0.0712890625 0.048828125
0 0.2353515625 0.392578125 0.080078125 0.060546875
0 0.6337890625 0.3193359375 0.107421875 0.0478515625
0 0.1240234375 0.490234375 0.154296875 0.0595703125
0 0.4453125 0.1923828125 0.060546875 0.0634765625
0 0.888671875 0.705078125 0.044921875 0.0869140625
0 0.369140625 0.83984375 0.09765625 0.0615234375
0 0.7890625 0.26171875 0.1220703125 0.1396484375
0 0.2783203125 0.560546875 0.0703125 0.0517578125
0 0.595703125 0.03125 0.041015625 0.076171875
0 0.013671875 0.587890625 0.115234375 0.046875
0 0.00390625 0.1484375 0.0439453125 0.08203125
0 0.2744140625 0.2451171875 0.046875 0.119140625
0 0.1953125 0.5810546875 0.091796875 0.0654296875
0 0.8759765625 0.4404296875 0.0859375 0.0537109375
0 0.359375 0.9033203125 0.078125 0.0654296875
0 0.3818359375 0.6298828125 0.0830078125 0.052734375
0 0.8515625 0.01953125 0.0830078125 0.0390625
0 0.2265625 0.9072265625 0.080078125 0.0634765625
0 0.9296875 0.64453125 0.0634765625 0.052734375
0 0.0576171875 0.6376953125 0.1318359375 0.1220703125
0 0.3642578125 0.0009765625 0.0888671875 0.02734375
0 0.2373046875 0.623046875 0.0546875 0.078125
0 0.0771484375 0.0439453125 0.0634765625 0.1220703125
0 0.4208984375 0.3837890625 0.0595703125 0.0400390625
0 0.775390625 0.001953125 0.1005859375 0.1015625
0 0.59375 0.921875 0.052734375 0.0380859375
0 0.0693359375 0.0634765625 0.109375 0.05078125
0 0.66796875 0.5048828125 0.0439453125 0.1123046875
0 0.19140625 0.1064453125 0.0947265625 0.0546875
0 0.7001953125 0.5810546875 0.041015625 0.0712890625
0 0.6611328125 0.0 0.0439453125 0.0302734375
0 0.021484375 0.5185546875 0.0927734375 0.0458984375
0 0.9072265625 0.08203125 0.05859375 0.0654296875
0 0.7353515625 0.6572265625 0.0478515625 0.05859375
0 0.935546875 0.724609375 0.064453125 0.0517578125
0 0.001953125 0.361328125 0.05078125 0.0595703125
0 0.2998046875 0.7841796875 0.0888671875 0.0595703125
0 0.1875 0.2744140625 0.0625 0.0703125
0 0.310546875 0.1875 0.0859375 0.119140625
0 0.1220703125 0.5078125 0.064453125 0.083984375
0 0.642578125 0.36328125 0.111328125 0.0478515625
0 0.7607421875 0.671875 0.0908203125 0.11328125
0 0.4794921875 0.3515625 0.0546875 0.06640625
0 0.158203125 0.451171875 0.0576171875 0.046875
0 0.4931640625 0.1826171875 0.05859375 0.0673828125
0 0.2783203125 0.3701171875 0.05859375 0.0615234375
0 0.25390625 0.4794921875 0.0712890625 0.03515625
0 0.6298828125 0.4111328125 0.099609375 0.03515625
0 0.3974609375 0.2158203125 0.0478515625 0.0400390625
0 0.05859375 0.3701171875 0.06640625 0.0625
0 0.216796875 0.1767578125 0.0517578125 0.0498046875
0 0.0263671875 0.8349609375 0.0732421875 0.06640625
0 0.900390625 0.14453125 0.04296875 0.041015625
0 0.9853515625 0.01953125 0.0146484375 0.0400390625
0 0.4814453125 0.8466796875 0.0537109375 0.0537109375
0 0.3447265625 0.4599609375 0.05078125 0.0458984375
0 0.4208984375 0.2392578125 0.0615234375 0.08203125
0 0.5849609375 0.98046875 0.029296875 0.01953125
0 0.3193359375 0.548828125 0.091796875 0.033203125
0 0.095703125 0.4736328125 0.0419921875 0.0302734375
0 0.2119140625 0.4345703125 0.0322265625 0.046875
0 0.208984375 0.34765625 0.04296875 0.033203125
0 0.5556640625 0.3369140625 0.0810546875 0.068359375
0 0.2685546875 0.1328125 0.0859375 0.0791015625
