0 0.7294921875 0.0146484375 0.1474609375 0.1669921875
0 0.4501953125 0.0146484375 0.1142578125 0.1044921875
0 0.0 0.2919921875 0.03125 0.12890625
0 0.7392578125 0.408203125 0.146484375 0.0986328125
0 0.6943359375 0.498046875 0.1767578125 0.1357421875
0 0.908203125 0.6025390625 0.091796875 0.0703125
0 0.0 0.6826171875 0.0419921875 0.1201171875
0 0.1328125 0.0 0.140625 0.044921875
0 0.037109375 0.025390625 0.068359375 0.080078125
0 0.240234375 0.0234375 0.083984375 0.1103515625
0 0.0 0.43359375 0.0322265625 0.09375
0 0.0283203125 0.708984375 0.1220703125 0.1806640625
0 0.0751953125 0.8349609375 0.07421875 0.0927734375
0 0.0078125 0.931640625 0.0703125 0.068359375
0 0.2216796875 0.8544921875 0.0771484375 0.1455078125
0 0.419921875 0.6337890625 0.0693359375 0.083984375
0 0.4228515625 0.4921875 0.1494140625 0.12109375
0 0.3642578125 0.427734375 0.1103515625 0.08203125
0 0.806640625 0.712890625 0.091796875 0.09375
0 0.9443359375 0.7626953125 0.0556640625 0.140625
0 0.7578125 0.8017578125 0.0703125 0.1650390625
0 0.8447265625 0.80078125 0.0810546875 0.15625
0 0.9765625 0.4423828125 0.0234375 0.076171875
0 0.865234375 0.31640625 0.0830078125 0.0751953125
0 0.583984375 0.0 0.083984375 0.0595703125
0 0.8642578125 0.0 0.0986328125 0.0439453125
0 0.0166015625 0.72265625 0.1591796875 0.1611328125
0 0.7685546875 0.5947265625 0.1015625 0.0927734375
