0 0.1298828125 0.6044921875 0.1201171875 0.1220703125
0 0.3544921875 0.9072265625 0.1171875 0.0693359375
0 0.4541015625 0.1123046875 0.1279296875 0.0751953125
0 0.4873046875 0.875 0.134765625 0.0693359375
0 0.638671875 0.818359375 0.0771484375 0.08203125
0 0.806640625 0.2119140625 0.1357421875 0.087890625
0 0.01171875 0.044921875 0.078125 0.0771484375
0 0.322265625 0.1796875 0.09765625 0.1025390625
0 0.466796875 0.2119140625 0.1904296875 0.0751953125
0 0.0771484375 0.08203125 0.1875 0.080078125
0 0.51171875 0.5849609375 0.177734375 0.1171875
0 0.3193359375 0.2802734375 0.1845703125 0.14453125
0 0.216796875 0.224609375 0.087890625 0.0751953125
0 0.7392578125 0.1494140625 0.1357421875 0.0673828125
0 0.3544921875 0.5166015625 0.1552734375 0.1455078125
0 0.6572265625 0.5595703125 0.0947265625 0.0703125
0 0.4892578125 0.8271484375 0.0703125 0.0576171875
0 0.20703125 0.3544921875 0.0927734375 0.205078125
0 0.6044921875 0.0 0.0751953125 0.056640625
0 0.6318359375 0.4091796875 0.1328125 0.0732421875
0 0.1298828125 0.4443359375 0.091796875 0.0703125
0 0.7919921875 0.7470703125 0.2080078125 0.0595703125
0 0.7548828125 0.466796875 0.1748046875 0.220703125
0 0.0849609375 0.0 0.125 0.078125
0 0.744140625 0.626953125 0.130859375 0.087890625
0 0.2646484375 0.607421875 0.08203125 0.1318359375
0 0.77734375 0.921875 0.1650390625 0.078125
0 0.7041015625 0.056640625 0.1708984375 0.0703125
0 0.3125 0.119140625 0.125 0.0654296875
0 0.46484375 0.03125 0.1572265625 0.0625
0 0.2373046875 0.0 0.20703125 0.0869140625
0 0.0419921875 0.3046875 0.1220703125 0.134765625
0 0.2890625 0.7919921875 0.142578125 0.115234375
0 0.6572265625 0.2021484375 0.1650390625 0.0947265625
0 0.0498046875 0.70703125 0.0947265625 0.2197265625
0 0.0 0.2822265625 0.0576171875 0.0927734375
0 0.7685546875 0.3603515625 0.072265625 0.1025390625
0 0.068359375 0.91015625 0.080078125 0.08984375
0 0.46484375 0.732421875 0.064453125 0.0595703125
0 0.3291015625 0.599609375 0.1376953125 0.09765625
0 0.7001953125 0.296875 0.072265625 0.107421875
0 0.5048828125 0.65234375 0.0947265625 0.0595703125
0 0.6494140625 0.92578125 0.1875 0.07421875
0 0.83203125 0.83984375 0.0625 0.0693359375
0 0.529296875 0.3193359375 0.0830078125 0.078125
0 0.5771484375 0.44921875 0.08984375 0.0673828125
0 0.732421875 0.2373046875 0.0966796875 0.080078125
0 0.0546875 0.294921875 0.0869140625 0.0625
0 0.681640625 0.626953125 0.068359375 0.0673828125
0 0.76171875 0.0 0.115234375 0.001953125
0 0.287109375 0.7392578125 0.064453125 0.087890625
0 0.2568359375 0.6142578125 0.205078125 0.052734375
0 0.8271484375 0.787109375 0.1728515625 0.126953125
0 0.8173828125 0.7119140625 0.0849609375 0.0546875
0 0.70703125 0.51953125 0.29296875 0.142578125
0 0.671875 0.4599609375 0.1201171875 0.0869140625
0 0.1669921875 0.2294921875 0.0703125 0.0478515625
0 0.451171875 0.3603515625 0.1171875 0.0625
0 0.8818359375 0.3125 0.052734375 0.0947265625
0 0.9599609375 0.1416015625 0.0400390625 0.1904296875
0 0.625 0.02734375 0.19921875 0.0546875
0 0.51171875 0.0068359375 0.142578125 0.087890625
0 0.232421875 0.001953125 0.1943359375 0.123046875
0 0.7685546875 0.8798828125 0.146484375 0.08984375
0 0.3134765625 0.3076171875 0.0751953125 0.083984375
0 0.736328125 0.75390625 0.11328125 0.091796875
0 0.4111328125 0.38671875 0.072265625 0.0615234375
