0 0.05078125 0.1552734375 0.05859375 0.0859375
0 0.138671875 0.1748046875 0.1416015625 0.0888671875
0 0.1064453125 0.2646484375 0.1015625 0.05859375
0 0.0 0.4716796875 0.080078125 0.08203125
0 0.0 0.3271484375 0.05859375 0.0625
0 0.12109375 0.345703125 0.107421875 0.0595703125
0 0.1083984375 0.4033203125 0.0625 0.0751953125
0 0.3125 0.5244140625 0.0634765625 0.083984375
0 0.06640625 0.5810546875 0.0439453125 0.0439453125
0 0.078125 0.619140625 0.0888671875 0.154296875
0 0.0 0.65234375 0.046875 0.0986328125
0 0.138671875 0.8076171875 0.1044921875 0.11328125
0 0.060546875 0.9130859375 0.0517578125 0.0869140625
0 0.2666015625 0.8291015625 0.078125 0.0625
0 0.283203125 0.912109375 0.0966796875 0.083984375
0 0.0 0.8046875 0.06640625 0.07421875
0 0.0 0.935546875 0.0546875 0.064453125
0 0.052734375 0.0 0.1396484375 0.1025390625
0 0.767578125 0.0 0.0986328125 0.1259765625
0 0.5263671875 0.0478515625 0.080078125 0.0732421875
0 0.583984375 0.0341796875 0.1337890625 0.0869140625
0 0.671875 0.11328125 0.109375 0.0703125
0 0.6650390625 0.1953125 0.068359375 0.0625
0 0.6748046875 0.240234375 0.0751953125 0.0810546875
0 0.615234375 0.203125 0.044921875 0.0537109375
0 0.3896484375 0.1552734375 0.1181640625 0.09375
0 0.3564453125 0.244140625 0.05859375 0.095703125
0 0.287109375 0.392578125 0.150390625 0.0732421875
0 0.470703125 0.2587890625 0.0986328125 0.07421875
0 0.6083984375 0.28515625 0.0576171875 0.0615234375
0 0.65234375 0.330078125 0.0615234375 0.0595703125
0 0.5498046875 0.37890625 0.1064453125 0.0703125
0 0.642578125 0.4150390625 0.06640625 0.08984375
0 0.453125 0.4609375 0.08203125 0.076171875
0 0.734375 0.5 0.048828125 0.052734375
0 0.8203125 0.4375 0.0703125 0.0810546875
0 0.42578125 0.6748046875 0.087890625 0.0625
0 0.4755859375 0.74609375 0.0703125 0.060546875
0 0.400390625 0.7626953125 0.076171875 0.080078125
0 0.658203125 0.7373046875 0.0673828125 0.0693359375
0 0.6396484375 0.796875 0.05859375 0.0625
0 0.689453125 0.7890625 0.1083984375 0.09375
0 0.7734375 0.8994140625 0.05078125 0.0751953125
0 0.72265625 0.9462890625 0.048828125 0.0537109375
0 0.5771484375 0.8857421875 0.060546875 0.076171875
0 0.8603515625 0.8984375 0.0673828125 0.0966796875
0 0.9189453125 0.5263671875 0.0810546875 0.1650390625
0 0.8994140625 0.3798828125 0.0517578125 0.076171875
0 0.94921875 0.3330078125 0.05078125 0.0771484375
0 0.7958984375 0.2900390625 0.056640625 0.056640625
0 0.9560546875 0.728515625 0.0439453125 0.083984375
0 0.10546875 0.6259765625 0.08203125 0.109375
