0 0.0 0.232421875 0.072265625 0.10546875
0 0.0 0.0 0.0712890625 0.0322265625
0 0.0234375 0.109375 0.125 0.0625
0 0.9423828125 0.037109375 0.0576171875 0.099609375
0 0.853515625 0.0693359375 0.0712890625 0.0830078125
0 0.8173828125 0.0 0.06640625 0.0537109375
0 0.927734375 0.1875 0.072265625 0.0537109375
0 0.5234375 0.0 0.1162109375 0.0400390625
0 0.44140625 0.0048828125 0.083984375 0.0654296875
0 0.369140625 0.0830078125 0.0654296875 0.08203125
0 0.5556640625 0.1142578125 0.07421875 0.083984375
0 0.681640625 0.1806640625 0.08203125 0.0693359375
0 0.6201171875 0.22265625 0.064453125 0.0595703125
0 0.7421875 0.23046875 0.09765625 0.07421875
0 0.8291015625 0.1982421875 0.07421875 0.064453125
0 0.6416015625 0.2861328125 0.103515625 0.0595703125
0 0.9453125 0.3359375 0.0546875 0.0712890625
0 0.810546875 0.474609375 0.07421875 0.0830078125
0 0.6962890625 0.375 0.0791015625 0.068359375
0 0.529296875 0.384765625 0.103515625 0.0771484375
0 0.603515625 0.4775390625 0.0517578125 0.0771484375
0 0.55078125 0.484375 0.052734375 0.0791015625
0 0.74609375 0.5205078125 0.0595703125 0.072265625
0 0.6943359375 0.6005859375 0.0654296875 0.0478515625
0 0.3837890625 0.423828125 0.091796875 0.0703125
0 0.2724609375 0.2216796875 0.0908203125 0.0654296875
0 0.1396484375 0.44140625 0.078125 0.0625
0 0.2958984375 0.48828125 0.0712890625 0.1064453125
0 0.37890625 0.5322265625 0.0771484375 0.103515625
0 0.1259765625 0.2236328125 0.080078125 0.0625
0 0.087890625 0.3056640625 0.078125 0.0673828125
0 0.1865234375 0.166015625 0.08203125 0.068359375
0 0.251953125 0.1318359375 0.0537109375 0.056640625
0 0.4765625 0.6884765625 0.0869140625 0.0732421875
0 0.109375 0.728515625 0.201171875 0.1103515625
0 0.2646484375 0.7685546875 0.099609375 0.126953125
0 0.505859375 0.759765625 0.15625 0.072265625
0 0.6611328125 0.7177734375 0.115234375 0.0771484375
0 0.5068359375 0.8330078125 0.1103515625 0.1435546875
0 0.4384765625 0.830078125 0.080078125 0.0849609375
0 0.3134765625 0.9033203125 0.0859375 0.0771484375
0 0.2275390625 0.859375 0.115234375 0.1015625
0 0.1806640625 0.82421875 0.0625 0.076171875
0 0.095703125 0.8935546875 0.0771484375 0.0830078125
0 0.0 0.92578125 0.078125 0.07421875
0 0.2255859375 0.96875 0.072265625 0.03125
0 0.6650390625 0.869140625 0.072265625 0.0771484375
0 0.751953125 0.9326171875 0.111328125 0.0673828125
0 0.8095703125 0.8701171875 0.099609375 0.068359375
0 0.8603515625 0.9501953125 0.1025390625 0.0478515625
0 0.9794921875 0.8935546875 0.0205078125 0.0625
0 0.896484375 0.767578125 0.103515625 0.111328125
0 0.859375 0.6767578125 0.109375 0.087890625
0 0.0 0.7197265625 0.056640625 0.0712890625
0 0.0 0.4150390625 0.0478515625 0.0625
0 0.642578125 0.025390625 0.0771484375 0.091796875
0 0.9013671875 0.4287109375 0.0703125 0.0888671875
0 0.1982421875 0.103515625 0.0439453125 0.068359375
0 0.384765625 0.9375 0.08984375 0.0361328125
0 0.3720703125 0.91015625 0.0986328125 0.037109375
0 0.73828125 0.677734375 0.0810546875 0.064453125
0 0.5322265625 0.37109375 0.076171875 0.0546875
0 0.8056640625 0.404296875 0.041015625 0.0400390625
