0 0.9375 0.0244140625 0.0625 0.1171875
0 0.7578125 0.326171875 0.07421875 0.05859375
0 0.796875 0.1357421875 0.0927734375 0.0703125
0 0.0390625 0.3310546875 0.080078125 0.1005859375
0 0.0517578125 0.5947265625 0.1103515625 0.0927734375
0 0.8369140625 0.75 0.0869140625 0.0625
0 0.6298828125 0.5595703125 0.1171875 0.107421875
0 0.0478515625 0.048828125 0.0947265625 0.1318359375
0 0.0 0.2216796875 0.056640625 0.0634765625
0 0.634765625 0.318359375 0.0625 0.111328125
0 0.6337890625 0.943359375 0.09765625 0.0517578125
0 0.8544921875 0.8193359375 0.099609375 0.0947265625
0 0.158203125 0.1494140625 0.052734375 0.0810546875
0 0.7919921875 0.5390625 0.0625 0.068359375
0 0.751953125 0.8671875 0.0625 0.0771484375
0 0.9326171875 0.404296875 0.0673828125 0.0712890625
0 0.6474609375 0.07421875 0.109375 0.1103515625
0 0.638671875 0.205078125 0.0703125 0.048828125
0 0.546875 0.2392578125 0.080078125 0.1201171875
