0 0.0 0.9208984375 0.033203125 0.0703125
0 0.0166015625 0.791015625 0.0947265625 0.0810546875
0 0.0625 0.8701171875 0.09765625 0.060546875
0 0.095703125 0.8115234375 0.0732421875 0.056640625
0 0.150390625 0.69140625 0.06640625 0.1005859375
0 0.078125 0.66796875 0.068359375 0.08984375
0 0.0009765625 0.5712890625 0.0615234375 0.080078125
0 0.0 0.5205078125 0.0498046875 0.068359375
0 0.146484375 0.5712890625 0.087890625 0.1103515625
0 0.029296875 0.376953125 0.072265625 0.0654296875
0 0.0546875 0.318359375 0.1162109375 0.0908203125
0 0.16015625 0.419921875 0.076171875 0.05859375
0 0.091796875 0.0 0.091796875 0.052734375
0 0.033203125 0.0234375 0.0888671875 0.0751953125
0 0.193359375 0.08984375 0.0771484375 0.0693359375
0 0.23828125 0.0546875 0.0966796875 0.0732421875
0 0.326171875 0.0546875 0.0625 0.0556640625
0 0.4248046875 0.0703125 0.0732421875 0.078125
0 0.3505859375 0.21484375 0.080078125 0.048828125
0 0.3466796875 0.298828125 0.0791015625 0.0673828125
0 0.3271484375 0.3544921875 0.0546875 0.0634765625
0 0.474609375 0.3232421875 0.0595703125 0.0849609375
0 0.2666015625 0.39453125 0.0712890625 0.0732421875
0 0.2578125 0.4873046875 0.0712890625 0.08203125
0 0.3125 0.53125 0.07421875 0.08203125
0 0.4033203125 0.5400390625 0.056640625 0.068359375
0 0.3798828125 0.3984375 0.109375 0.0634765625
0 0.4951171875 0.4033203125 0.0615234375 0.1064453125
0 0.427734375 0.45703125 0.1005859375 0.0771484375
0 0.5546875 0.42578125 0.0595703125 0.0712890625
0 0.3798828125 0.6259765625 0.0693359375 0.0791015625
0 0.4638671875 0.552734375 0.0751953125 0.103515625
0 0.5703125 0.580078125 0.080078125 0.07421875
0 0.5234375 0.677734375 0.064453125 0.1298828125
0 0.40625 0.740234375 0.0576171875 0.1025390625
0 0.3037109375 0.884765625 0.078125 0.091796875
0 0.3935546875 0.9482421875 0.0791015625 0.0517578125
0 0.3984375 0.849609375 0.1044921875 0.087890625
0 0.3466796875 0.8310546875 0.068359375 0.064453125
0 0.53515625 0.904296875 0.078125 0.095703125
0 0.7314453125 0.8994140625 0.0771484375 0.068359375
0 0.7900390625 0.92578125 0.078125 0.07421875
0 0.8701171875 0.912109375 0.08984375 0.0791015625
0 0.685546875 0.7548828125 0.0810546875 0.08984375
0 0.6474609375 0.6064453125 0.1005859375 0.1337890625
0 0.748046875 0.6474609375 0.0556640625 0.0859375
0 0.802734375 0.6396484375 0.060546875 0.0859375
0 0.814453125 0.70703125 0.0888671875 0.0517578125
0 0.828125 0.7724609375 0.080078125 0.076171875
0 0.861328125 0.525390625 0.0810546875 0.078125
0 0.6025390625 0.4541015625 0.0791015625 0.0712890625
0 0.63671875 0.5166015625 0.0634765625 0.0791015625
0 0.703125 0.458984375 0.0830078125 0.0830078125
0 0.6806640625 0.353515625 0.0703125 0.0751953125
0 0.826171875 0.3349609375 0.0703125 0.0654296875
0 0.880859375 0.365234375 0.0556640625 0.0546875
0 0.646484375 0.388671875 0.0595703125 0.0576171875
0 0.8203125 0.4658203125 0.0859375 0.0625
0 0.94921875 0.583984375 0.05078125 0.068359375
0 0.89453125 0.853515625 0.0732421875 0.0654296875
0 0.9423828125 0.8154296875 0.0576171875 0.0654296875
0 0.6220703125 0.05859375 0.0927734375 0.08203125
0 0.6806640625 0.03125 0.087890625 0.095703125
0 0.7646484375 0.0263671875 0.1083984375 0.0654296875
0 0.7001953125 0.1103515625 0.0771484375 0.080078125
0 0.8818359375 0.10546875 0.0771484375 0.0751953125
0 0.876953125 0.1943359375 0.0751953125 0.072265625
0 0.7578125 0.083984375 0.0205078125 0.0380859375
0 0.8740234375 0.5185546875 0.05078125 0.0869140625
0 0.44921875 0.7734375 0.0693359375 0.0498046875
0 0.6611328125 0.82421875 0.0546875 0.05859375
0 0.607421875 0.9716796875 0.103515625 0.0283203125
0 0.9453125 0.921875 0.041015625 0.04296875
