0 0.830078125 0.0 0.0869140625 0.0244140625
0 0.8896484375 0.009765625 0.099609375 0.076171875
0 0.6162109375 0.0 0.072265625 0.0947265625
0 0.6904296875 0.0185546875 0.083984375 0.07421875
0 0.6083984375 0.109375 0.0869140625 0.0654296875
0 0.05859375 0.0146484375 0.0703125 0.111328125
0 0.1533203125 0.1474609375 0.111328125 0.0673828125
0 0.0458984375 0.2021484375 0.0859375 0.0634765625
0 0.298828125 0.3232421875 0.1181640625 0.103515625
0 0.2412109375 0.4248046875 0.099609375 0.0751953125
0 0.451171875 0.4404296875 0.1337890625 0.103515625
0 0.4208984375 0.5712890625 0.1015625 0.087890625
0 0.1474609375 0.642578125 0.125 0.0634765625
0 0.0 0.6611328125 0.1083984375 0.0810546875
0 0.267578125 0.8525390625 0.1240234375 0.0712890625
0 0.4150390625 0.81640625 0.1494140625 0.0810546875
0 0.58984375 0.5849609375 0.150390625 0.09375
0 0.7900390625 0.658203125 0.0849609375 0.076171875
0 0.9072265625 0.6298828125 0.0927734375 0.142578125
0 0.828125 0.3837890625 0.0869140625 0.083984375
0 0.7236328125 0.3017578125 0.0751953125 0.056640625
0 0.58203125 0.2509765625 0.1005859375 0.076171875
0 0.4775390625 0.189453125 0.091796875 0.0751953125
0 0.5068359375 0.11328125 0.08984375 0.0693359375
0 0.8828125 0.1669921875 0.0908203125 0.0712890625
0 0.8017578125 0.1650390625 0.07421875 0.064453125
0 0.74609375 0.953125 0.150390625 0.046875
0 0.1376953125 0.9580078125 0.13671875 0.0419921875
0 0.1640625 0.9130859375 0.08984375 0.052734375
0 0.3662109375 0.5458984375 0.1103515625 0.07421875
