0 0.4150390625 0.005859375 0.111328125 0.125
0 0.33984375 0.0 0.0595703125 0.0458984375
0 0.8359375 0.0 0.0732421875 0.0654296875
0 0.970703125 0.125 0.029296875 0.080078125
0 0.736328125 0.12890625 0.0703125 0.0703125
0 0.6455078125 0.2265625 0.11328125 0.0791015625
0 0.568359375 0.224609375 0.0908203125 0.0751953125
0 0.1806640625 0.1533203125 0.109375 0.1171875
0 0.0263671875 0.1455078125 0.1044921875 0.0556640625
0 0.931640625 0.3857421875 0.068359375 0.0791015625
0 0.7998046875 0.2861328125 0.0771484375 0.0888671875
0 0.609375 0.326171875 0.0712890625 0.0791015625
0 0.470703125 0.337890625 0.0859375 0.1025390625
0 0.357421875 0.3359375 0.109375 0.0712890625
0 0.11328125 0.2900390625 0.068359375 0.080078125
0 0.1923828125 0.4111328125 0.08203125 0.0771484375
0 0.0 0.39453125 0.0703125 0.083984375
0 0.068359375 0.4765625 0.0771484375 0.0751953125
0 0.0205078125 0.5654296875 0.1083984375 0.083984375
0 0.0283203125 0.6474609375 0.0556640625 0.0947265625
0 0.1533203125 0.607421875 0.0654296875 0.0830078125
0 0.322265625 0.4951171875 0.0498046875 0.0751953125
0 0.345703125 0.611328125 0.0654296875 0.07421875
0 0.3505859375 0.69921875 0.0908203125 0.0810546875
0 0.228515625 0.7841796875 0.107421875 0.0712890625
0 0.08984375 0.8916015625 0.1171875 0.0693359375
0 0.0146484375 0.8681640625 0.0673828125 0.0625
0 0.6689453125 0.6787109375 0.076171875 0.123046875
0 0.59765625 0.583984375 0.083984375 0.1015625
0 0.72265625 0.50390625 0.0830078125 0.095703125
0 0.7470703125 0.3935546875 0.0751953125 0.0927734375
0 0.587890625 0.4130859375 0.0537109375 0.0556640625
0 0.5244140625 0.482421875 0.0673828125 0.0615234375
0 0.935546875 0.595703125 0.064453125 0.0966796875
0 0.8203125 0.9130859375 0.0732421875 0.0693359375
0 0.2431640625 0.2919921875 0.0703125 0.0615234375
0 0.0 0.271484375 0.0546875 0.0693359375
0 0.0 0.7880859375 0.052734375 0.0673828125
0 0.6015625 0.9501953125 0.1103515625 0.0498046875
0 0.8818359375 0.4912109375 0.05078125 0.068359375
