0 0.2265625 0.0537109375 0.08984375 0.091796875
0 0.505859375 0.0859375 0.0625 0.1005859375
0 0.5361328125 0.2646484375 0.09765625 0.095703125
0 0.447265625 0.189453125 0.06640625 0.0390625
0 0.28125 0.3544921875 0.0625 0.05859375
0 0.1923828125 0.447265625 0.078125 0.0458984375
0 0.0224609375 0.44140625 0.1376953125 0.0751953125
0 0.064453125 0.0 0.091796875 0.0576171875
0 0.373046875 0.0 0.080078125 0.03125
0 0.525390625 0.0029296875 0.0810546875 0.0625
0 0.6650390625 0.0 0.080078125 0.05859375
0 0.9921875 0.0 0.0078125 0.0146484375
0 0.9599609375 0.0478515625 0.0400390625 0.1162109375
0 0.7294921875 0.1337890625 0.083984375 0.080078125
0 0.7744140625 0.287109375 0.0654296875 0.0732421875
0 0.8310546875 0.333984375 0.0625 0.09375
0 0.671875 0.2802734375 0.087890625 0.0908203125
0 0.919921875 0.5205078125 0.080078125 0.0810546875
0 0.064453125 0.609375 0.087890625 0.064453125
0 0.009765625 0.71484375 0.052734375 0.095703125
0 0.046875 0.71484375 0.0361328125 0.0654296875
0 0.189453125 0.748046875 0.099609375 0.0771484375
0 0.318359375 0.7333984375 0.0908203125 0.0810546875
0 0.1533203125 0.8173828125 0.0791015625 0.0810546875
0 0.15234375 0.9013671875 0.0556640625 0.0546875
0 0.0029296875 0.923828125 0.0546875 0.060546875
0 0.4375 0.9033203125 0.05859375 0.083984375
0 0.3251953125 0.814453125 0.0732421875 0.0654296875
0 0.55078125 0.8388671875 0.068359375 0.0537109375
0 0.615234375 0.853515625 0.05859375 0.0693359375
0 0.6591796875 0.8720703125 0.0771484375 0.05859375
0 0.6005859375 0.595703125 0.0732421875 0.1416015625
0 0.7109375 0.6357421875 0.0849609375 0.0673828125
0 0.5361328125 0.59375 0.0693359375 0.0732421875
0 0.341796875 0.5078125 0.1171875 0.0908203125
0 0.8037109375 0.869140625 0.1240234375 0.0751953125
0 0.9462890625 0.908203125 0.0537109375 0.0908203125
0 0.7216796875 0.923828125 0.0625 0.0732421875
0 0.5224609375 0.92578125 0.0634765625 0.0703125
0 0.59375 0.9404296875 0.052734375 0.0595703125
0 0.4130859375 0.8212890625 0.072265625 0.0546875
0 0.517578125 0.357421875 0.12109375 0.0810546875
0 0.4970703125 0.78515625 0.0791015625 0.068359375
