0 0.115234375 0.91796875 0.0791015625 0.08203125
0 0.2021484375 0.8310546875 0.0830078125 0.0859375
0 0.6494140625 0.3486328125 0.046875 0.0791015625
0 0.001953125 0.861328125 0.1064453125 0.0712890625
0 0.0 0.6171875 0.1083984375 0.0712890625
0 0.6904296875 0.201171875 0.0595703125 0.1025390625
0 0.0048828125 0.318359375 0.076171875 0.06640625
0 0.1611328125 0.0 0.05859375 0.0673828125
0 0.71875 0.0673828125 0.076171875 0.0703125
0 0.2138671875 0.7763671875 0.076171875 0.078125
0 0.923828125 0.462890625 0.076171875 0.05859375
0 0.8671875 0.544921875 0.064453125 0.0849609375
0 0.8759765625 0.115234375 0.0625 0.1337890625
0 0.341796875 0.3583984375 0.068359375 0.087890625
0 0.33984375 0.6806640625 0.087890625 0.0732421875
0 0.8017578125 0.1865234375 0.072265625 0.1181640625
0 0.9541015625 0.5234375 0.03515625 0.095703125
0 0.451171875 0.63671875 0.0546875 0.0908203125
0 0.142578125 0.02734375 0.0546875 0.0751953125
0 0.708984375 0.2958984375 0.080078125 0.1220703125
0 0.9384765625 0.056640625 0.0478515625 0.0732421875
0 0.0380859375 0.0810546875 0.09375 0.0927734375
0 0.529296875 0.0673828125 0.1015625 0.0947265625
0 0.1923828125 0.68359375 0.09375 0.078125
0 0.009765625 0.53515625 0.0517578125 0.0810546875
0 0.501953125 0.40234375 0.05078125 0.1435546875
0 0.703125 0.36328125 0.060546875 0.1015625
0 0.615234375 0.2666015625 0.064453125 0.078125
0 0.423828125 0.5126953125 0.080078125 0.064453125
0 0.8486328125 0.142578125 0.0419921875 0.0712890625
0 0.8544921875 0.6337890625 0.0419921875 0.0908203125
0 0.7412109375 0.7939453125 0.1220703125 0.169921875
0 0.4580078125 0.5634765625 0.0859375 0.0625
0 0.50390625 0.0 0.07421875 0.056640625
0 0.380859375 0.3193359375 0.083984375 0.0537109375
0 0.0625 0.2314453125 0.037109375 0.0751953125
0 0.337890625 0.8125 0.056640625 0.0791015625
0 0.28125 0.2431640625 0.0732421875 0.1005859375
0 0.1533203125 0.2666015625 0.0673828125 0.0634765625
0 0.1142578125 0.6767578125 0.0986328125 0.083984375
0 0.7412109375 0.2822265625 0.0400390625 0.0810546875
0 0.0478515625 0.6796875 0.048828125 0.0693359375
0 0.783203125 0.6435546875 0.046875 0.06640625
0 0.091796875 0.0 0.0458984375 0.080078125
0 0.3779296875 0.232421875 0.064453125 0.1083984375
0 0.73828125 0.96484375 0.0380859375 0.03515625
0 0.337890625 0.591796875 0.10546875 0.0859375
0 0.2998046875 0.3193359375 0.1064453125 0.0654296875
0 0.2412109375 0.3154296875 0.0966796875 0.0849609375
0 0.2177734375 0.212890625 0.0361328125 0.072265625
0 0.22265625 0.2685546875 0.078125 0.052734375
0 0.4970703125 0.6396484375 0.0234375 0.0703125
0 0.359375 0.5556640625 0.046875 0.07421875
0 0.9365234375 0.3486328125 0.0634765625 0.0693359375
0 0.9296875 0.958984375 0.0703125 0.0283203125
0 0.359375 0.6328125 0.0517578125 0.0830078125
0 0.443359375 0.958984375 0.08984375 0.041015625
0 0.5791015625 0.57421875 0.078125 0.099609375
0 0.23828125 0.9404296875 0.0556640625 0.048828125
0 0.271484375 0.166015625 0.05078125 0.05078125
0 0.5986328125 0.595703125 0.0966796875 0.0322265625
0 0.6435546875 0.1484375 0.0654296875 0.052734375
0 0.8876953125 0.6025390625 0.0400390625 0.0634765625
0 0.771484375 0.0 0.044921875 0.0380859375
0 0.033203125 0.5078125 0.0478515625 0.0654296875
0 0.7333984375 0.873046875 0.1376953125 0.0517578125
0 0.6728515625 0.318359375 0.029296875 0.0703125
0 0.03515625 0.923828125 0.056640625 0.0419921875
0 0.0 0.5458984375 0.037109375 0.060546875
0 0.546875 0.9326171875 0.0849609375 0.041015625
0 0.205078125 0.9248046875 0.048828125 0.0654296875
0 0.12890625 0.384765625 0.046875 0.05859375
