0 0.9619140625 0.2919921875 0.0380859375 0.11328125
0 0.451171875 0.658203125 0.068359375 0.0771484375
0 0.0390625 0.3330078125 0.107421875 0.0478515625
0 0.8857421875 0.0 0.0654296875 0.08984375
0 0.6806640625 0.0009765625 0.111328125 0.044921875
0 0.7373046875 0.8564453125 0.1201171875 0.060546875
0 0.26171875 0.380859375 0.109375 0.0732421875
0 0.064453125 0.1875 0.09765625 0.0693359375
0 0.3779296875 0.8701171875 0.1044921875 0.0595703125
0 0.2392578125 0.4423828125 0.11328125 0.052734375
0 0.1552734375 0.2939453125 0.046875 0.083984375
0 0.5732421875 0.515625 0.0859375 0.0546875
0 0.611328125 0.673828125 0.0712890625 0.048828125
0 0.2705078125 0.1982421875 0.1259765625 0.0634765625
0 0.2353515625 0.17578125 0.0537109375 0.0732421875
0 0.1552734375 0.5302734375 0.1171875 0.0380859375
0 0.0263671875 0.57421875 0.0966796875 0.037109375
0 0.255859375 0.0 0.1416015625 0.0439453125
0 0.560546875 0.40234375 0.0439453125 0.0615234375
0 0.08203125 0.09375 0.11328125 0.0546875
0 0.1103515625 0.7568359375 0.107421875 0.0390625
0 0.271484375 0.91796875 0.080078125 0.0576171875
0 0.8154296875 0.7236328125 0.0576171875 0.0380859375
0 0.0 0.6904296875 0.048828125 0.029296875
0 0.3701171875 0.5927734375 0.1064453125 0.0595703125
0 0.4931640625 0.548828125 0.08203125 0.056640625
0 0.23046875 0.568359375 0.080078125 0.08203125
0 0.234375 0.5048828125 0.173828125 0.0390625
0 0.5458984375 0.8017578125 0.1240234375 0.05859375
0 0.75390625 0.5849609375 0.1142578125 0.0478515625
0 0.1396484375 0.560546875 0.0869140625 0.0546875
0 0.7587890625 0.7724609375 0.0859375 0.0439453125
0 0.0009765625 0.0263671875 0.0888671875 0.0478515625
0 0.4599609375 0.259765625 0.0859375 0.0361328125
0 0.939453125 0.4052734375 0.060546875 0.0439453125
0 0.5458984375 0.3515625 0.162109375 0.072265625
0 0.640625 0.8330078125 0.03515625 0.0810546875
0 0.435546875 0.4208984375 0.064453125 0.0439453125
0 0.0009765625 0.22265625 0.0546875 0.0693359375
0 0.1552734375 0.044921875 0.1005859375 0.08984375
0 0.8857421875 0.0849609375 0.07421875 0.046875
0 0.443359375 0.6103515625 0.056640625 0.046875
0 0.7724609375 0.2431640625 0.12109375 0.0390625
0 0.771484375 0.5234375 0.0791015625 0.0439453125
0 0.2919921875 0.1591796875 0.1015625 0.041015625
0 0.529296875 0.875 0.1103515625 0.052734375
0 0.9326171875 0.533203125 0.0673828125 0.03515625
0 0.771484375 0.451171875 0.0546875 0.072265625
0 0.853515625 0.7783203125 0.0732421875 0.0625
0 0.0 0.671875 0.048828125 0.0341796875
0 0.029296875 0.9306640625 0.11328125 0.0361328125
0 0.6923828125 0.4560546875 0.083984375 0.0400390625
0 0.53515625 0.5703125 0.10546875 0.03125
0 0.1171875 0.4912109375 0.08203125 0.0390625
0 0.0 0.423828125 0.052734375 0.0341796875
0 0.4150390625 0.826171875 0.099609375 0.0517578125
0 0.2236328125 0.2490234375 0.1064453125 0.03125
0 0.0009765625 0.0498046875 0.05859375 0.0517578125
0 0.68359375 0.512109375 0.10048828124999998 0.15585937500000002
0 0.697265625 0.08984375 0.0380859375 0.080078125
0 0.5595703125 0.16015625 0.09765625 0.0458984375
0 0.544921875 0.384765625 0.1171875 0.0615234375
0 0.5966796875 0.2109375 0.1435546875 0.0439453125
0 0.41796875 0.2314453125 0.0791015625 0.046875
0 0.0 0.7890625 0.04296875 0.041015625
0 0.666015625 0.388671875 0.0712890625 0.0419921875
0 0.0 0.087890625 0.0478515625 0.0439453125
0 0.7607421875 0.7919921875 0.0546875 0.0517578125
0 0.0654296875 0.8935546875 0.1337890625 0.044921875
0 0.65234375 0.7802734375 0.0546875 0.033203125
0 0.9013671875 0.890625 0.0595703125 0.037109375
0 0.67578125 0.060546875 0.1103515625 0.046875
0 0.078125 0.0703125 0.1279296875 0.0439453125
0 0.0009765625 0.453125 0.0517578125 0.03125
