0 0.6474609375 0.75390625 0.0849609375 0.08203125
0 0.7861328125 0.3837890625 0.0625 0.07421875
0 0.8251953125 0.01171875 0.07421875 0.0693359375
0 0.0 0.7490234375 0.0537109375 0.04296875
0 0.169921875 0.283203125 0.072265625 0.0546875
0 0.5966796875 0.2470703125 0.0458984375 0.0654296875
0 0.18359375 0.0771484375 0.078125 0.0712890625
0 0.7275390625 0.7490234375 0.08984375 0.060546875
0 0.2783203125 0.125 0.0576171875 0.0654296875
0 0.892578125 0.71875 0.083984375 0.0751953125
0 0.169921875 0.4111328125 0.0888671875 0.0634765625
0 0.923828125 0.0302734375 0.052734375 0.0439453125
0 0.564453125 0.578125 0.1015625 0.0693359375
0 0.509765625 0.1513671875 0.076171875 0.046875
0 0.6474609375 0.0 0.0546875 0.0537109375
0 0.1435546875 0.1435546875 0.107421875 0.0712890625
0 0.1201171875 0.419921875 0.1123046875 0.0693359375
0 0.837890625 0.751953125 0.123046875 0.0654296875
0 0.0927734375 0.1826171875 0.0654296875 0.0419921875
0 0.1826171875 0.7099609375 0.0986328125 0.0419921875
0 0.5673828125 0.1103515625 0.1162109375 0.0654296875
0 0.2939453125 0.7021484375 0.056640625 0.0361328125
0 0.060546875 0.849609375 0.1357421875 0.0712890625
0 0.1435546875 0.951171875 0.0810546875 0.0400390625
0 0.001953125 0.3759765625 0.0869140625 0.064453125
0 0.2421875 0.869140625 0.0576171875 0.037109375
0 0.73046875 0.0087890625 0.0556640625 0.04296875
0 0.33984375 0.0009765625 0.0517578125 0.0322265625
0 0.158203125 0.73046875 0.0703125 0.0478515625
0 0.3486328125 0.6591796875 0.0498046875 0.0283203125
0 0.4736328125 0.05859375 0.080078125 0.05078125
0 0.2529296875 0.7548828125 0.0478515625 0.0732421875
0 0.3212890625 0.833984375 0.05859375 0.033203125
0 0.70703125 0.0859375 0.0830078125 0.0546875
0 0.560546875 0.8505859375 0.0380859375 0.0703125
0 0.8564453125 0.681640625 0.05859375 0.048828125
0 0.767578125 0.330078125 0.0546875 0.04296875
0 0.814453125 0.50390625 0.0419921875 0.0546875
0 0.5419921875 0.203125 0.091796875 0.0595703125
0 0.6533203125 0.8203125 0.0791015625 0.05078125
0 0.1083984375 0.5107421875 0.078125 0.0390625
0 0.67578125 0.5263671875 0.0751953125 0.0595703125
0 0.716796875 0.953125 0.0478515625 0.046875
0 0.6015625 0.53125 0.08203125 0.05078125
0 0.890625 0.662109375 0.0478515625 0.0546875
0 0.025390625 0.8212890625 0.0849609375 0.0380859375
0 0.0380859375 0.0 0.0869140625 0.0126953125
0 0.9423828125 0.201171875 0.033203125 0.0478515625
0 0.7958984375 0.0908203125 0.0576171875 0.0712890625
0 0.595703125 0.4345703125 0.1259765625 0.0634765625
0 0.029296875 0.0712890625 0.0791015625 0.060546875
0 0.361328125 0.7998046875 0.048828125 0.0419921875
0 0.125 0.1064453125 0.072265625 0.0361328125
0 0.5517578125 0.810546875 0.07421875 0.0537109375
0 0.4248046875 0.8955078125 0.046875 0.033203125
0 0.36328125 0.8671875 0.09375 0.056640625
0 0.8896484375 0.4951171875 0.041015625 0.0361328125
0 0.89453125 0.111328125 0.044921875 0.0458984375
0 0.6787109375 0.099609375 0.07421875 0.0654296875
0 0.0224609375 0.8466796875 0.06640625 0.037109375
