0 0.82421875 0.169921875 0.09765625 0.08984375
0 0.6923828125 0.0244140625 0.0673828125 0.0673828125
0 0.7197265625 0.154296875 0.08984375 0.0703125
0 0.9267578125 0.1591796875 0.0732421875 0.0830078125
0 0.8291015625 0.001953125 0.0703125 0.1201171875
0 0.869140625 0.0390625 0.0732421875 0.0830078125
0 0.921875 0.0 0.072265625 0.044921875
