0 0.01171875 0.25 0.1103515625 0.0947265625
0 0.0 0.4794921875 0.0390625 0.1201171875
0 0.7216796875 0.544921875 0.1357421875 0.1220703125
0 0.357421875 0.0 0.1123046875 0.0693359375
0 0.2822265625 0.14453125 0.109375 0.0927734375
0 0.109375 0.45703125 0.087890625 0.099609375
0 0.7724609375 0.162109375 0.125 0.072265625
0 0.1767578125 0.8046875 0.125 0.080078125
0 0.546875 0.171875 0.0927734375 0.0849609375
0 0.76953125 0.0 0.169921875 0.0595703125
0 0.3349609375 0.3515625 0.099609375 0.0908203125
0 0.169921875 0.2646484375 0.08984375 0.0703125
0 0.359375 0.447265625 0.1923828125 0.1669921875
0 0.7255859375 0.318359375 0.0927734375 0.07421875
0 0.3662109375 0.751953125 0.08984375 0.1455078125
0 0.0 0.7294921875 0.0224609375 0.0830078125
0 0.169921875 0.0 0.1142578125 0.046875
0 0.07421875 0.0 0.107421875 0.0498046875
0 0.197265625 0.6396484375 0.08203125 0.080078125
0 0.13671875 0.876953125 0.125 0.115234375
0 0.46484375 0.1396484375 0.064453125 0.0751953125
0 0.029296875 0.404296875 0.1005859375 0.072265625
0 0.5771484375 0.6796875 0.080078125 0.08203125
0 0.8642578125 0.8798828125 0.115234375 0.08203125
0 0.7646484375 0.6640625 0.0927734375 0.060546875
0 0.4248046875 0.349609375 0.1201171875 0.1123046875
0 0.2216796875 0.494140625 0.0654296875 0.060546875
0 0.6494140625 0.859375 0.1826171875 0.1298828125
0 0.875 0.080078125 0.125 0.0830078125
0 0.876953125 0.5791015625 0.1103515625 0.0908203125
0 0.654296875 0.091796875 0.1923828125 0.0849609375
0 0.6318359375 0.3818359375 0.080078125 0.0673828125
0 0.1220703125 0.1875 0.0576171875 0.0546875
0 0.162109375 0.5791015625 0.072265625 0.068359375
0 0.3017578125 0.89453125 0.078125 0.0947265625
0 0.6298828125 0.125 0.109375 0.0869140625
0 0.26953125 0.8642578125 0.080078125 0.0732421875
0 0.935546875 0.0 0.064453125 0.0234375
0 0.0 0.6796875 0.07421875 0.0927734375
0 0.9521484375 0.70703125 0.0478515625 0.072265625
0 0.39453125 0.6318359375 0.1123046875 0.060546875
0 0.7041015625 0.6845703125 0.080078125 0.08984375
0 0.921875 0.3291015625 0.078125 0.078125
