0 0.0 0.0517578125 0.0537109375 0.091796875
0 0.0205078125 0.1728515625 0.11328125 0.109375
0 0.005859375 0.2900390625 0.087890625 0.107421875
0 0.16796875 0.2060546875 0.0830078125 0.0966796875
0 0.36328125 0.2861328125 0.1904296875 0.0947265625
0 0.0 0.5478515625 0.0205078125 0.1083984375
0 0.0 0.6552734375 0.046875 0.0849609375
0 0.0283203125 0.6953125 0.0517578125 0.0791015625
0 0.0185546875 0.7275390625 0.1220703125 0.158203125
0 0.0185546875 0.97265625 0.0771484375 0.02734375
0 0.1318359375 0.849609375 0.0634765625 0.150390625
0 0.2890625 0.955078125 0.158203125 0.044921875
0 0.255859375 0.880859375 0.0771484375 0.064453125
0 0.20703125 0.6416015625 0.107421875 0.0791015625
0 0.2568359375 0.6669921875 0.126953125 0.09765625
0 0.3818359375 0.7783203125 0.0888671875 0.09375
0 0.3818359375 0.583984375 0.0810546875 0.0595703125
0 0.4970703125 0.576171875 0.0751953125 0.0576171875
0 0.4111328125 0.349609375 0.095703125 0.228515625
0 0.5673828125 0.22265625 0.099609375 0.142578125
0 0.72265625 0.48046875 0.15625 0.1533203125
0 0.9150390625 0.447265625 0.0849609375 0.2314453125
0 0.71875 0.9306640625 0.0712890625 0.0576171875
0 0.9248046875 0.955078125 0.068359375 0.044921875
0 0.697265625 0.0673828125 0.0830078125 0.068359375
0 0.5634765625 0.0 0.0634765625 0.0703125
0 0.05859375 0.267578125 0.1318359375 0.076171875
0 0.0 0.1474609375 0.04296875 0.0625
0 0.4443359375 0.1748046875 0.0615234375 0.080078125
0 0.78515625 0.609375 0.109375 0.150390625
