0 0.458984375 0.0 0.1337890625 0.0205078125
0 0.6474609375 0.1689453125 0.09765625 0.076171875
0 0.474609375 0.08984375 0.115234375 0.109375
0 0.5654296875 0.1728515625 0.09375 0.0634765625
0 0.365234375 0.12890625 0.1279296875 0.076171875
0 0.4453125 0.224609375 0.0927734375 0.0712890625
0 0.2646484375 0.20703125 0.0927734375 0.0966796875
0 0.240234375 0.2265625 0.068359375 0.0439453125
0 0.185546875 0.2587890625 0.1005859375 0.0498046875
0 0.22265625 0.2900390625 0.095703125 0.0576171875
0 0.23828125 0.337890625 0.1474609375 0.0791015625
0 0.1533203125 0.2978515625 0.0673828125 0.1884765625
0 0.0244140625 0.32421875 0.142578125 0.0751953125
0 0.0224609375 0.22265625 0.0849609375 0.2099609375
0 0.056640625 0.1689453125 0.0703125 0.0556640625
0 0.5419921875 0.2998046875 0.123046875 0.0595703125
0 0.4970703125 0.3359375 0.150390625 0.0712890625
0 0.4453125 0.4296875 0.0869140625 0.0693359375
0 0.765625 0.3505859375 0.171875 0.1455078125
0 0.7392578125 0.33984375 0.154296875 0.1279296875
0 0.8134765625 0.236328125 0.111328125 0.0498046875
0 0.982421875 0.3515625 0.017578125 0.080078125
0 0.75 0.62890625 0.0673828125 0.091796875
0 0.740234375 0.82421875 0.06640625 0.10546875
0 0.5380859375 0.703125 0.1748046875 0.0751953125
0 0.3837890625 0.685546875 0.111328125 0.0986328125
0 0.37109375 0.640625 0.0693359375 0.05078125
0 0.2587890625 0.6552734375 0.0966796875 0.0576171875
0 0.1416015625 0.69921875 0.15625 0.0673828125
0 0.001953125 0.6357421875 0.05859375 0.111328125
0 0.0 0.7509765625 0.115234375 0.0625
0 0.1708984375 0.7919921875 0.1630859375 0.115234375
0 0.2861328125 0.880859375 0.0810546875 0.1123046875
0 0.3720703125 0.8935546875 0.0869140625 0.1064453125
0 0.4423828125 0.806640625 0.080078125 0.068359375
0 0.1220703125 0.8994140625 0.0908203125 0.095703125
0 0.005859375 0.810546875 0.0625 0.189453125
0 0.072265625 0.7919921875 0.0927734375 0.078125
0 0.0 0.6181640625 0.10546875 0.1044921875
0 0.95703125 0.4345703125 0.04296875 0.044921875
