0 0.181640625 0.849609375 0.0849609375 0.06640625
0 0.0 0.591796875 0.07421875 0.1103515625
0 0.4404296875 0.4677734375 0.09765625 0.1064453125
0 0.90234375 0.4521484375 0.0537109375 0.0908203125
0 0.6435546875 0.2587890625 0.04296875 0.0546875
0 0.6650390625 0.556640625 0.0654296875 0.0888671875
0 0.1298828125 0.6474609375 0.0478515625 0.0478515625
0 0.103515625 0.814453125 0.068359375 0.0595703125
0 0.8876953125 0.0 0.08203125 0.119140625
0 0.6875 0.9501953125 0.083984375 0.0498046875
0 0.0234375 0.884765625 0.126953125 0.09375
0 0.849609375 0.4755859375 0.1005859375 0.130859375
0 0.0009765625 0.3818359375 0.0458984375 0.076171875
0 0.0 0.103515625 0.115234375 0.1298828125
0 0.2958984375 0.4287109375 0.06640625 0.0888671875
0 0.7666015625 0.8251953125 0.0654296875 0.0732421875
0 0.9423828125 0.06640625 0.0576171875 0.130859375
0 0.2568359375 0.1005859375 0.056640625 0.12890625
0 0.447265625 0.693359375 0.12109375 0.1005859375
0 0.9130859375 0.8642578125 0.0712890625 0.09765625
0 0.5458984375 0.0087890625 0.0859375 0.1279296875
0 0.9013671875 0.2880859375 0.0888671875 0.13671875
0 0.4248046875 0.154296875 0.0927734375 0.060546875
0 0.2998046875 0.59375 0.1123046875 0.0732421875
0 0.9423828125 0.2333984375 0.0546875 0.0927734375
0 0.0185546875 0.404296875 0.0537109375 0.0654296875
0 0.8681640625 0.6484375 0.08203125 0.0634765625
0 0.947265625 0.6787109375 0.052734375 0.083984375
0 0.5908203125 0.5009765625 0.06640625 0.0703125
0 0.6572265625 0.4853515625 0.05859375 0.0673828125
0 0.7529296875 0.560546875 0.076171875 0.0771484375
0 0.7021484375 0.6748046875 0.0712890625 0.080078125
0 0.734375 0.7333984375 0.08203125 0.078125
0 0.64453125 0.693359375 0.07421875 0.109375
0 0.2119140625 0.921875 0.0810546875 0.060546875
0 0.3740234375 0.341796875 0.0634765625 0.05859375
0 0.71875 0.490234375 0.052734375 0.0517578125
0 0.7607421875 0.4638671875 0.0654296875 0.0634765625
0 0.9443359375 0.4775390625 0.0556640625 0.0556640625
0 0.6689453125 0.6513671875 0.0537109375 0.037109375
