0 0.03515625 0.337890625 0.1044921875 0.123046875
0 0.6025390625 0.3515625 0.1005859375 0.0654296875
0 0.0 0.1884765625 0.078125 0.10546875
0 0.0244140625 0.6376953125 0.0791015625 0.0947265625
0 0.6298828125 0.0 0.09765625 0.0517578125
0 0.5732421875 0.9365234375 0.0947265625 0.060546875
0 0.7998046875 0.5419921875 0.0947265625 0.1044921875
0 0.625 0.1982421875 0.0478515625 0.0771484375
0 0.72265625 0.1298828125 0.0810546875 0.0751953125
0 0.810546875 0.380859375 0.0625 0.0986328125
0 0.150390625 0.095703125 0.080078125 0.0576171875
0 0.673828125 0.7412109375 0.0732421875 0.1279296875
0 0.1806640625 0.798828125 0.0615234375 0.0869140625
0 0.3310546875 0.486328125 0.130859375 0.0986328125
0 0.482421875 0.052734375 0.08203125 0.0771484375
0 0.29296875 0.5341796875 0.087890625 0.0595703125
0 0.603515625 0.5126953125 0.0908203125 0.0693359375
0 0.9306640625 0.3115234375 0.041015625 0.0576171875
0 0.748046875 0.3076171875 0.1845703125 0.1083984375
0 0.46875 0.498046875 0.099609375 0.103515625
0 0.9677734375 0.044921875 0.0322265625 0.02734375
0 0.208984375 0.0556640625 0.07421875 0.041015625
0 0.40625 0.4453125 0.1142578125 0.060546875
0 0.7314453125 0.9541015625 0.0400390625 0.0458984375
0 0.0673828125 0.5478515625 0.12109375 0.0986328125
0 0.2666015625 0.3681640625 0.09375 0.04296875
0 0.5224609375 0.775390625 0.115234375 0.16015625
0 0.0048828125 0.7783203125 0.0888671875 0.029296875
0 0.25 0.25390625 0.10546875 0.0546875
0 0.9677734375 0.6630859375 0.0322265625 0.037109375
0 0.3193359375 0.7958984375 0.0625 0.0654296875
0 0.26171875 0.9072265625 0.048828125 0.0908203125
0 0.345703125 0.6953125 0.095703125 0.056640625
0 0.1220703125 0.1845703125 0.1005859375 0.0966796875
0 0.4755859375 0.115234375 0.0595703125 0.0341796875
0 0.326171875 0.91015625 0.060546875 0.046875
0 0.9404296875 0.494140625 0.0595703125 0.0498046875
0 0.3359375 0.8369140625 0.08203125 0.076171875
0 0.921875 0.0126953125 0.060546875 0.0498046875
0 0.7138671875 0.0009765625 0.0947265625 0.0380859375
0 0.0712890625 0.0 0.0400390625 0.0419921875
0 0.6982421875 0.6396484375 0.1044921875 0.044921875
0 0.1044921875 0.9755859375 0.126953125 0.0244140625
0 0.3232421875 0.2109375 0.12109375 0.0810546875
0 0.0234375 0.8515625 0.060546875 0.0517578125
0 0.7685546875 0.5615234375 0.044921875 0.0732421875
0 0.578125 0.708984375 0.068359375 0.0380859375
0 0.0 0.1328125 0.0537109375 0.0537109375
0 0.1640625 0.7158203125 0.078125 0.0341796875
0 0.646484375 0.8330078125 0.0390625 0.0361328125
0 0.0068359375 0.126953125 0.15625 0.1279296875
0 0.1171875 0.734375 0.080078125 0.0361328125
0 0.8955078125 0.974609375 0.033203125 0.0234375
0 0.587890625 0.5029296875 0.0888671875 0.029296875
0 0.625 0.70703125 0.0498046875 0.03515625
0 0.5380859375 0.9814453125 0.087890625 0.0185546875
0 0.0908203125 0.66796875 0.0498046875 0.04296875
0 0.9521484375 0.697265625 0.0478515625 0.037109375
0 0.494140625 0.728515625 0.0703125 0.056640625
0 0.333984375 0.171875 0.091796875 0.04296875
0 0.0 0.9111328125 0.0703125 0.0458984375
0 0.365234375 0.880859375 0.0859375 0.0810546875
0 0.2685546875 0.2294921875 0.177734375 0.099609375
0 0.2373046875 0.9482421875 0.20703125 0.0517578125
