0 0.1103515625 0.0 0.0859375 0.0400390625
0 0.859375 0.0 0.10546875 0.11328125
0 0.7021484375 0.0302734375 0.0751953125 0.080078125
0 0.6201171875 0.0380859375 0.095703125 0.0791015625
0 0.54296875 0.03125 0.060546875 0.064453125
0 0.4423828125 0.0 0.0654296875 0.060546875
0 0.2421875 0.08984375 0.08203125 0.09375
0 0.0673828125 0.208984375 0.091796875 0.076171875
0 0.1494140625 0.2587890625 0.0791015625 0.072265625
0 0.0439453125 0.30078125 0.0654296875 0.13671875
0 0.3037109375 0.2451171875 0.0712890625 0.0791015625
0 0.375 0.287109375 0.0498046875 0.0634765625
0 0.431640625 0.185546875 0.134765625 0.0595703125
0 0.4423828125 0.1533203125 0.0556640625 0.0458984375
0 0.62890625 0.2958984375 0.0634765625 0.0732421875
0 0.642578125 0.37109375 0.10546875 0.228515625
0 0.576171875 0.435546875 0.06640625 0.1181640625
0 0.47265625 0.470703125 0.09375 0.1298828125
0 0.6962890625 0.16796875 0.1533203125 0.099609375
0 0.9130859375 0.17578125 0.0625 0.0576171875
0 0.9287109375 0.2177734375 0.0712890625 0.1025390625
0 0.8984375 0.349609375 0.0859375 0.0791015625
0 0.9228515625 0.5458984375 0.0771484375 0.08984375
0 0.896484375 0.701171875 0.0498046875 0.064453125
0 0.6962890625 0.7509765625 0.064453125 0.068359375
0 0.54296875 0.5966796875 0.07421875 0.1025390625
0 0.5341796875 0.6904296875 0.072265625 0.107421875
0 0.4052734375 0.7314453125 0.0830078125 0.0859375
0 0.296875 0.6708984375 0.0625 0.06640625
0 0.2275390625 0.3779296875 0.12890625 0.2841796875
0 0.095703125 0.470703125 0.1630859375 0.0673828125
0 0.0 0.5087890625 0.0888671875 0.1748046875
0 0.1025390625 0.658203125 0.0810546875 0.1748046875
0 0.2060546875 0.73828125 0.0625 0.109375
0 0.3193359375 0.8154296875 0.2138671875 0.0947265625
0 0.287109375 0.921875 0.087890625 0.052734375
0 0.052734375 0.958984375 0.072265625 0.037109375
0 0.0 0.94921875 0.0546875 0.044921875
0 0.44921875 0.931640625 0.154296875 0.068359375
0 0.728515625 0.953125 0.0654296875 0.046875
0 0.875 0.8701171875 0.0966796875 0.0625
0 0.912109375 0.9560546875 0.0771484375 0.0439453125
0 0.76171875 0.556640625 0.07421875 0.05859375
0 0.3837890625 0.474609375 0.07421875 0.0986328125
0 0.1259765625 0.3427734375 0.0595703125 0.056640625
