0 0.0 0.6396484375 0.119140625 0.1689453125
0 0.3359375 0.8310546875 0.0830078125 0.15625
0 0.2646484375 0.59765625 0.1044921875 0.119140625
0 0.2294921875 0.4482421875 0.1064453125 0.095703125
0 0.001953125 0.4873046875 0.1298828125 0.0732421875
0 0.0 0.287109375 0.146484375 0.1103515625
0 0.46875 0.2646484375 0.12109375 0.0810546875
0 0.6748046875 0.2919921875 0.1318359375 0.1162109375
0 0.4873046875 0.3896484375 0.0771484375 0.1171875
0 0.1376953125 0.0419921875 0.091796875 0.162109375
0 0.0087890625 0.8046875 0.0498046875 0.1416015625
0 0.0546875 0.8701171875 0.06640625 0.068359375
0 0.1416015625 0.9677734375 0.087890625 0.0322265625
0 0.4267578125 0.986328125 0.0498046875 0.013671875
0 0.2060546875 0.6708984375 0.0966796875 0.0791015625
0 0.33984375 0.4580078125 0.08203125 0.0693359375
0 0.1875 0.376953125 0.0751953125 0.052734375
0 0.2451171875 0.123046875 0.078125 0.0732421875
0 0.431640625 0.083984375 0.1123046875 0.06640625
0 0.3818359375 0.0 0.09375 0.041015625
0 0.55078125 0.4814453125 0.091796875 0.072265625
0 0.6494140625 0.5166015625 0.060546875 0.0400390625
0 0.845703125 0.421875 0.1376953125 0.0830078125
0 0.86328125 0.5380859375 0.1142578125 0.0771484375
0 0.771484375 0.6396484375 0.1123046875 0.0673828125
0 0.8466796875 0.6708984375 0.083984375 0.0615234375
0 0.7119140625 0.5654296875 0.0908203125 0.0546875
0 0.517578125 0.6611328125 0.1142578125 0.1376953125
0 0.427734375 0.6142578125 0.08984375 0.1357421875
0 0.5908203125 0.55859375 0.083984375 0.068359375
0 0.904296875 0.8974609375 0.087890625 0.07421875
0 0.623046875 0.0029296875 0.1201171875 0.111328125
0 0.927734375 0.0 0.072265625 0.06640625
