0 0.08203125 0.05859375 0.0654296875 0.1123046875
0 0.244140625 0.1279296875 0.0751953125 0.091796875
0 0.021484375 0.2119140625 0.0869140625 0.0771484375
0 0.1513671875 0.2470703125 0.080078125 0.0498046875
0 0.18359375 0.2880859375 0.0810546875 0.0537109375
0 0.2958984375 0.2626953125 0.0986328125 0.08984375
0 0.0380859375 0.6923828125 0.072265625 0.0576171875
0 0.1005859375 0.6103515625 0.0859375 0.09765625
0 0.181640625 0.5478515625 0.125 0.0595703125
0 0.1689453125 0.5927734375 0.158203125 0.087890625
0 0.291015625 0.5126953125 0.1494140625 0.1630859375
0 0.359375 0.7041015625 0.0859375 0.0712890625
0 0.3173828125 0.6630859375 0.0654296875 0.0888671875
0 0.5087890625 0.6240234375 0.115234375 0.103515625
0 0.2666015625 0.76171875 0.2607421875 0.0859375
0 0.3056640625 0.8310546875 0.1015625 0.1689453125
0 0.109375 0.884765625 0.0751953125 0.115234375
0 0.439453125 0.9072265625 0.125 0.07421875
0 0.8046875 0.876953125 0.1904296875 0.123046875
0 0.896484375 0.830078125 0.068359375 0.169921875
0 0.919921875 0.4384765625 0.080078125 0.078125
0 0.7158203125 0.6357421875 0.091796875 0.0751953125
0 0.6904296875 0.515625 0.1298828125 0.169921875
0 0.62109375 0.529296875 0.1455078125 0.0625
0 0.8037109375 0.5205078125 0.080078125 0.0654296875
0 0.7529296875 0.44140625 0.0703125 0.0849609375
0 0.7783203125 0.3271484375 0.0869140625 0.1455078125
0 0.6748046875 0.34765625 0.0791015625 0.14453125
0 0.55078125 0.35546875 0.15234375 0.09765625
0 0.923828125 0.234375 0.076171875 0.060546875
0 0.8056640625 0.1689453125 0.08984375 0.0546875
0 0.6376953125 0.2138671875 0.0751953125 0.078125
0 0.55859375 0.130859375 0.0986328125 0.0849609375
0 0.6279296875 0.0 0.1650390625 0.2158203125
