0 0.021484375 0.1435546875 0.0859375 0.1064453125
0 0.0 0.0 0.0556640625 0.064453125
0 0.0751953125 0.0 0.0771484375 0.1318359375
0 0.1630859375 0.0 0.076171875 0.0673828125
0 0.1552734375 0.1259765625 0.14453125 0.0869140625
0 0.306640625 0.0 0.103515625 0.1416015625
0 0.376953125 0.0830078125 0.05859375 0.0869140625
0 0.3935546875 0.033203125 0.1044921875 0.0810546875
0 0.5234375 0.076171875 0.0732421875 0.0751953125
0 0.6025390625 0.0263671875 0.0927734375 0.0810546875
0 0.7294921875 0.056640625 0.076171875 0.05859375
0 0.583984375 0.1748046875 0.0712890625 0.068359375
0 0.498046875 0.1689453125 0.0615234375 0.0947265625
0 0.474609375 0.255859375 0.0546875 0.0703125
0 0.4462890625 0.22265625 0.0439453125 0.0859375
0 0.5400390625 0.2587890625 0.0625 0.0478515625
0 0.486328125 0.33203125 0.0673828125 0.0732421875
0 0.6259765625 0.3212890625 0.0634765625 0.0751953125
0 0.9326171875 0.1904296875 0.0673828125 0.068359375
0 0.88671875 0.0 0.052734375 0.056640625
0 0.0 0.69921875 0.0322265625 0.0927734375
0 0.0185546875 0.740234375 0.0732421875 0.1064453125
0 0.0947265625 0.9453125 0.0654296875 0.052734375
0 0.0927734375 0.912109375 0.05859375 0.0390625
0 0.2021484375 0.982421875 0.078125 0.017578125
0 0.123046875 0.65234375 0.0732421875 0.08984375
0 0.1728515625 0.6728515625 0.0546875 0.0634765625
0 0.318359375 0.787109375 0.095703125 0.0771484375
0 0.4375 0.76953125 0.0712890625 0.078125
0 0.5 0.599609375 0.0703125 0.078125
0 0.669921875 0.69921875 0.0654296875 0.0830078125
0 0.5556640625 0.84375 0.046875 0.064453125
0 0.60546875 0.8935546875 0.080078125 0.0908203125
0 0.771484375 0.76171875 0.0693359375 0.0498046875
0 0.7939453125 0.6689453125 0.064453125 0.0908203125
0 0.849609375 0.6923828125 0.08203125 0.052734375
0 0.849609375 0.7451171875 0.0927734375 0.0693359375
0 0.44921875 0.84375 0.060546875 0.0546875
0 0.2431640625 0.4306640625 0.0576171875 0.060546875
0 0.0 0.3125 0.044921875 0.052734375
0 0.5595703125 0.5546875 0.044921875 0.0927734375
