0 0.173828125 0.392578125 0.1015625 0.0615234375
0 0.0244140625 0.388671875 0.0947265625 0.083984375
0 0.669921875 0.41796875 0.099609375 0.064453125
0 0.0 0.6982421875 0.0986328125 0.0537109375
0 0.0673828125 0.3076171875 0.1015625 0.080078125
0 0.0 0.4453125 0.091796875 0.0546875
0 0.9541015625 0.12109375 0.0458984375 0.0556640625
0 0.4326171875 0.76171875 0.1123046875 0.0712890625
0 0.6865234375 0.0595703125 0.0986328125 0.1025390625
0 0.8798828125 0.4296875 0.1181640625 0.0458984375
0 0.8779296875 0.9462890625 0.0830078125 0.05078125
0 0.9091796875 0.0009765625 0.0908203125 0.0810546875
0 0.615234375 0.3486328125 0.1494140625 0.076171875
0 0.890625 0.564453125 0.1064453125 0.0556640625
0 0.4306640625 0.4052734375 0.1640625 0.0498046875
0 0.1005859375 0.75 0.1845703125 0.0771484375
0 0.7265625 0.8583984375 0.1279296875 0.0498046875
0 0.5537109375 0.0703125 0.1298828125 0.0751953125
0 0.6640625 0.5537109375 0.1123046875 0.076171875
0 0.150390625 0.0087890625 0.146484375 0.0908203125
0 0.3359375 0.544921875 0.11328125 0.0361328125
0 0.78515625 0.826171875 0.0693359375 0.05078125
0 0.7373046875 0.9228515625 0.1025390625 0.0703125
0 0.0390625 0.0380859375 0.1669921875 0.09765625
0 0.4287109375 0.673828125 0.154296875 0.1025390625
0 0.6181640625 0.009765625 0.0703125 0.0576171875
0 0.6591796875 0.1484375 0.1455078125 0.0966796875
0 0.232421875 0.326171875 0.08984375 0.0498046875
0 0.611328125 0.9345703125 0.0830078125 0.0302734375
0 0.4697265625 0.568359375 0.125 0.0400390625
0 0.0 0.626953125 0.1259765625 0.04296875
0 0.7587890625 0.1533203125 0.1142578125 0.0263671875
0 0.2568359375 0.3798828125 0.15625 0.0732421875
0 0.3759765625 0.51171875 0.15625 0.0283203125
0 0.41796875 0.80859375 0.1201171875 0.0546875
0 0.599609375 0.630859375 0.12890625 0.033203125
0 0.4599609375 0.90625 0.1328125 0.033203125
0 0.7529296875 0.3369140625 0.1787109375 0.037109375
0 0.7900390625 0.5078125 0.1533203125 0.0517578125
0 0.693359375 0.951171875 0.1025390625 0.048828125
0 0.8447265625 0.71484375 0.1005859375 0.0751953125
0 0.0732421875 0.1767578125 0.150390625 0.0498046875
0 0.23046875 0.587890625 0.1669921875 0.04296875
0 0.224609375 0.8779296875 0.15625 0.0458984375
0 0.20703125 0.1591796875 0.0673828125 0.03515625
0 0.91015625 0.7451171875 0.0888671875 0.029296875
0 0.708984375 0.78125 0.146484375 0.03125
0 0.947265625 0.607421875 0.052734375 0.037109375
0 0.0 0.119140625 0.1396484375 0.03515625
0 0.3837890625 0.79296875 0.1142578125 0.041015625
0 0.6201171875 0.21875 0.1640625 0.0390625
0 0.0009765625 0.1435546875 0.0888671875 0.06640625
0 0.0009765625 0.205078125 0.0791015625 0.02734375
0 0.9091796875 0.828125 0.0908203125 0.0341796875
0 0.822265625 0.794921875 0.080078125 0.05078125
0 0.703125 0.0166015625 0.0634765625 0.0166015625
0 0.2900390625 0.0341796875 0.126953125 0.0322265625
0 0.001953125 0.5439453125 0.1806640625 0.041015625
0 0.3134765625 0.21875 0.197265625 0.0595703125
0 0.1005859375 0.236328125 0.154296875 0.044921875
0 0.755859375 0.0625 0.0859375 0.0927734375
0 0.8896484375 0.55078125 0.109375 0.0380859375
0 0.8193359375 0.306640625 0.078125 0.0322265625
0 0.2587890625 0.3623046875 0.126953125 0.033203125
0 0.25390625 0.283203125 0.1767578125 0.0400390625
0 0.1201171875 0.1572265625 0.14453125 0.06640625
0 0.3193359375 0.1875 0.1416015625 0.0732421875
0 0.361328125 0.197265625 0.208984375 0.080078125
0 0.466796875 0.9326171875 0.1279296875 0.0673828125
0 0.0 0.517578125 0.1357421875 0.03515625
0 0.0 0.75 0.05859375 0.037109375
0 0.189453125 0.0 0.126953125 0.0244140625
