0 0.0126953125 0.2646484375 0.0712890625 0.154296875
0 0.203125 0.3525390625 0.0859375 0.115234375
0 0.2802734375 0.2255859375 0.078125 0.0888671875
0 0.1357421875 0.0009765625 0.07421875 0.13671875
0 0.3583984375 0.0 0.1298828125 0.1015625
0 0.0 0.4814453125 0.0244140625 0.0751953125
0 0.0322265625 0.5458984375 0.1162109375 0.080078125
0 0.0869140625 0.4775390625 0.078125 0.064453125
0 0.177734375 0.5595703125 0.0546875 0.0654296875
0 0.3037109375 0.5341796875 0.10546875 0.142578125
0 0.466796875 0.544921875 0.0908203125 0.060546875
0 0.4453125 0.69140625 0.1318359375 0.0625
0 0.0341796875 0.9130859375 0.1162109375 0.048828125
0 0.14453125 0.77734375 0.0771484375 0.0810546875
0 0.2646484375 0.796875 0.06640625 0.08984375
0 0.0 0.8037109375 0.0390625 0.1552734375
0 0.810546875 0.9736328125 0.06640625 0.0263671875
0 0.8662109375 0.7822265625 0.0732421875 0.15234375
0 0.970703125 0.6328125 0.029296875 0.111328125
0 0.927734375 0.646484375 0.0634765625 0.091796875
0 0.9560546875 0.73828125 0.0439453125 0.1494140625
0 0.806640625 0.515625 0.091796875 0.1064453125
0 0.77734375 0.4169921875 0.0693359375 0.0654296875
0 0.6318359375 0.458984375 0.0888671875 0.0703125
0 0.49609375 0.4453125 0.099609375 0.0869140625
0 0.5146484375 0.2783203125 0.0927734375 0.16015625
0 0.6220703125 0.1484375 0.0771484375 0.1953125
0 0.625 0.1826171875 0.064453125 0.08984375
0 0.6845703125 0.1572265625 0.08203125 0.115234375
0 0.69921875 0.08203125 0.0966796875 0.1220703125
0 0.8759765625 0.328125 0.1103515625 0.0791015625
0 0.833984375 0.021484375 0.1103515625 0.1337890625
0 0.98046875 0.0361328125 0.01953125 0.11328125
0 0.2099609375 0.0 0.072265625 0.03515625
