0 0.3251953125 0.97265625 0.1181640625 0.02734375
0 0.1416015625 0.931640625 0.0693359375 0.0537109375
0 0.052734375 0.8818359375 0.087890625 0.0693359375
0 0.494140625 0.8359375 0.0625 0.0869140625
0 0.421875 0.8125 0.0556640625 0.0595703125
0 0.6611328125 0.837890625 0.138671875 0.0615234375
0 0.7744140625 0.7890625 0.11328125 0.0595703125
0 0.7548828125 0.646484375 0.1767578125 0.10546875
0 0.7236328125 0.7333984375 0.060546875 0.080078125
0 0.25 0.7451171875 0.091796875 0.0830078125
0 0.3310546875 0.6572265625 0.0595703125 0.09765625
0 0.0966796875 0.513671875 0.103515625 0.07421875
0 0.0 0.5185546875 0.0498046875 0.0830078125
0 0.1474609375 0.611328125 0.09375 0.0771484375
0 0.0185546875 0.6953125 0.1123046875 0.109375
0 0.2900390625 0.5810546875 0.05859375 0.0712890625
0 0.3798828125 0.599609375 0.0556640625 0.0595703125
0 0.4326171875 0.5498046875 0.1123046875 0.0556640625
0 0.6494140625 0.521484375 0.1806640625 0.0703125
0 0.3544921875 0.4248046875 0.0693359375 0.060546875
0 0.3955078125 0.4521484375 0.11328125 0.0576171875
0 0.330078125 0.4990234375 0.060546875 0.052734375
0 0.19140625 0.4169921875 0.0849609375 0.0703125
0 0.087890625 0.3759765625 0.068359375 0.0791015625
0 0.1083984375 0.2939453125 0.0771484375 0.08984375
0 0.2021484375 0.275390625 0.0732421875 0.125
0 0.640625 0.291015625 0.083984375 0.1083984375
0 0.62890625 0.44921875 0.0703125 0.068359375
0 0.7783203125 0.4013671875 0.1201171875 0.1123046875
0 0.0439453125 0.1103515625 0.09765625 0.1337890625
0 0.2158203125 0.0361328125 0.1005859375 0.15234375
0 0.3466796875 0.0478515625 0.1025390625 0.2080078125
0 0.4365234375 0.0791015625 0.1044921875 0.1611328125
0 0.490234375 0.248046875 0.072265625 0.09765625
0 0.5703125 0.1884765625 0.0859375 0.1474609375
0 0.650390625 0.1748046875 0.07421875 0.115234375
0 0.6640625 0.0009765625 0.0771484375 0.1279296875
0 0.7841796875 0.0703125 0.1044921875 0.166015625
0 0.88671875 0.04296875 0.11328125 0.1640625
0 0.9365234375 0.251953125 0.060546875 0.08984375
0 0.916015625 0.412109375 0.083984375 0.0537109375
0 0.90234375 0.58203125 0.0732421875 0.0634765625
0 0.8740234375 0.478515625 0.07421875 0.0712890625
0 0.5498046875 0.6162109375 0.072265625 0.052734375
0 0.212890625 0.5341796875 0.0625 0.0654296875
0 0.40625 0.8681640625 0.0576171875 0.048828125
0 0.6103515625 0.80859375 0.0537109375 0.0517578125
0 0.625 0.85546875 0.04296875 0.0595703125
0 0.369140625 0.5048828125 0.08203125 0.0576171875
0 0.3642578125 0.376953125 0.0830078125 0.0595703125
0 0.412109375 0.3173828125 0.07421875 0.060546875
0 0.08203125 0.66015625 0.0615234375 0.0849609375
0 0.6953125 0.3818359375 0.048828125 0.0625
0 0.8134765625 0.5439453125 0.0654296875 0.037109375
0 0.822265625 0.9755859375 0.1005859375 0.0244140625
0 0.982421875 0.8505859375 0.017578125 0.0625
