0 0.0498046875 0.109375 0.09765625 0.09375
0 0.22265625 0.060546875 0.11328125 0.0751953125
0 0.435546875 0.115234375 0.0830078125 0.1171875
0 0.45703125 0.22265625 0.0712890625 0.0634765625
0 0.2919921875 0.208984375 0.125 0.0654296875
0 0.1611328125 0.23046875 0.1201171875 0.1015625
0 0.4248046875 0.0087890625 0.0673828125 0.0869140625
0 0.6318359375 0.234375 0.0654296875 0.0615234375
0 0.1787109375 0.3896484375 0.0771484375 0.0927734375
0 0.0 0.35546875 0.0263671875 0.0634765625
0 0.0 0.810546875 0.0478515625 0.0771484375
0 0.0703125 0.6650390625 0.060546875 0.0751953125
0 0.3876953125 0.7841796875 0.0791015625 0.083984375
0 0.306640625 0.7880859375 0.056640625 0.0771484375
0 0.228515625 0.7958984375 0.0576171875 0.0654296875
0 0.2939453125 0.6416015625 0.091796875 0.0712890625
0 0.212890625 0.6552734375 0.0654296875 0.0673828125
0 0.1728515625 0.951171875 0.07421875 0.048828125
0 0.25 0.986328125 0.078125 0.013671875
0 0.5263671875 0.71875 0.0830078125 0.0732421875
0 0.5205078125 0.806640625 0.0947265625 0.0703125
0 0.6435546875 0.7607421875 0.1103515625 0.0673828125
0 0.6337890625 0.6884765625 0.0830078125 0.0654296875
0 0.818359375 0.75390625 0.0849609375 0.072265625
0 0.6708984375 0.859375 0.072265625 0.0595703125
0 0.5859375 0.9228515625 0.0634765625 0.072265625
0 0.6669921875 0.986328125 0.091796875 0.013671875
0 0.875 0.8671875 0.0556640625 0.0634765625
0 0.970703125 0.7900390625 0.029296875 0.119140625
0 0.822265625 0.1611328125 0.14453125 0.0595703125
0 0.822265625 0.1220703125 0.0771484375 0.037109375
0 0.7724609375 0.001953125 0.0517578125 0.0400390625
0 0.68359375 0.0478515625 0.0615234375 0.0771484375
0 0.443359375 0.853515625 0.0634765625 0.0732421875
