0 0.5859375 0.5302734375 0.1328125 0.107421875
0 0.40234375 0.0224609375 0.1669921875 0.09375
0 0.0 0.1796875 0.1396484375 0.1171875
0 0.2666015625 0.6416015625 0.1083984375 0.0849609375
0 0.8447265625 0.6025390625 0.1201171875 0.13671875
0 0.74609375 0.0810546875 0.1875 0.169921875
0 0.0 0.70703125 0.091796875 0.1171875
0 0.501953125 0.091796875 0.1728515625 0.123046875
0 0.1337890625 0.3193359375 0.1025390625 0.0908203125
0 0.435546875 0.3583984375 0.138671875 0.1162109375
0 0.259765625 0.8603515625 0.1025390625 0.0849609375
0 0.55859375 0.3564453125 0.1298828125 0.107421875
0 0.3017578125 0.0 0.115234375 0.099609375
0 0.0849609375 0.529296875 0.1298828125 0.1328125
0 0.322265625 0.759765625 0.1220703125 0.107421875
0 0.08984375 0.830078125 0.091796875 0.1044921875
0 0.751953125 0.8515625 0.1171875 0.078125
0 0.1923828125 0.5966796875 0.0966796875 0.095703125
0 0.1943359375 0.01953125 0.0927734375 0.0654296875
0 0.798828125 0.73046875 0.0869140625 0.076171875
