0 0.0 0.708984375 0.037109375 0.0791015625
0 0.0576171875 0.8037109375 0.072265625 0.0595703125
0 0.0 0.4345703125 0.0517578125 0.083984375
0 0.0 0.26171875 0.08984375 0.07421875
0 0.0 0.166015625 0.0966796875 0.0732421875
0 0.0 0.0 0.0673828125 0.0244140625
0 0.216796875 0.2626953125 0.08203125 0.068359375
0 0.146484375 0.349609375 0.0771484375 0.087890625
0 0.2734375 0.4111328125 0.0703125 0.087890625
0 0.3515625 0.3916015625 0.056640625 0.0654296875
0 0.328125 0.3544921875 0.05859375 0.056640625
0 0.4755859375 0.2705078125 0.0751953125 0.0830078125
0 0.3447265625 0.185546875 0.0732421875 0.060546875
0 0.5107421875 0.142578125 0.0908203125 0.095703125
0 0.599609375 0.423828125 0.0654296875 0.0732421875
0 0.6806640625 0.3828125 0.068359375 0.0791015625
0 0.7060546875 0.328125 0.0693359375 0.064453125
0 0.771484375 0.3857421875 0.076171875 0.072265625
0 0.693359375 0.6669921875 0.125 0.076171875
0 0.1181640625 0.662109375 0.0615234375 0.06640625
0 0.369140625 0.7568359375 0.0751953125 0.0693359375
0 0.23046875 0.7685546875 0.0546875 0.0537109375
0 0.2626953125 0.8154296875 0.0673828125 0.0703125
0 0.1376953125 0.8603515625 0.0673828125 0.1044921875
0 0.1640625 0.955078125 0.0751953125 0.044921875
0 0.59765625 0.9091796875 0.0947265625 0.0888671875
0 0.7041015625 0.796875 0.0576171875 0.07421875
0 0.7578125 0.8056640625 0.08984375 0.0703125
0 0.7275390625 0.7451171875 0.0810546875 0.0634765625
0 0.8642578125 0.7451171875 0.1357421875 0.0791015625
0 0.93359375 0.841796875 0.06640625 0.0712890625
0 0.388671875 0.2646484375 0.0419921875 0.0546875
0 0.8486328125 0.091796875 0.125 0.083984375
0 0.19140625 0.333984375 0.0517578125 0.0576171875
0 0.16015625 0.9111328125 0.080078125 0.0703125
0 0.75390625 0.654296875 0.0615234375 0.0380859375
