0 0.23828125 0.8916015625 0.0732421875 0.091796875
0 0.8193359375 0.5224609375 0.060546875 0.0966796875
0 0.279296875 0.158203125 0.087890625 0.1494140625
0 0.6953125 0.0048828125 0.08984375 0.126953125
0 0.8525390625 0.6875 0.0615234375 0.080078125
0 0.4794921875 0.2412109375 0.087890625 0.1005859375
0 0.5439453125 0.0 0.029296875 0.08984375
0 0.3994140625 0.6318359375 0.080078125 0.109375
0 0.70703125 0.345703125 0.064453125 0.111328125
0 0.8330078125 0.9111328125 0.072265625 0.0888671875
0 0.8583984375 0.3779296875 0.083984375 0.087890625
0 0.6845703125 0.537109375 0.0615234375 0.0732421875
0 0.9150390625 0.2666015625 0.0615234375 0.1552734375
0 0.3505859375 0.1064453125 0.0673828125 0.1572265625
0 0.0 0.6630859375 0.1328125 0.0966796875
0 0.314453125 0.923828125 0.033203125 0.076171875
0 0.0537109375 0.3193359375 0.09375 0.1005859375
0 0.2822265625 0.6474609375 0.103515625 0.0751953125
0 0.603515625 0.23828125 0.0283203125 0.1455078125
0 0.431640625 0.5048828125 0.109375 0.146484375
0 0.2744140625 0.0 0.056640625 0.0625
0 0.939453125 0.005859375 0.0546875 0.15625
0 0.7978515625 0.37109375 0.072265625 0.0947265625
0 0.3310546875 0.705078125 0.09765625 0.099609375
0 0.2998046875 0.8046875 0.0654296875 0.060546875
0 0.388671875 0.70703125 0.095703125 0.1044921875
0 0.787109375 0.177734375 0.0576171875 0.134765625
0 0.9599609375 0.78515625 0.03515625 0.0546875
0 0.0263671875 0.0966796875 0.109375 0.1484375
0 0.830078125 0.3037109375 0.0869140625 0.0556640625
0 0.6181640625 0.5244140625 0.0478515625 0.0595703125
0 0.064453125 0.7919921875 0.060546875 0.0673828125
0 0.9697265625 0.705078125 0.0302734375 0.076171875
0 0.138671875 0.7548828125 0.1435546875 0.052734375
0 0.728515625 0.880859375 0.072265625 0.0576171875
0 0.7607421875 0.8115234375 0.04296875 0.05859375
0 0.0224609375 0.380859375 0.0712890625 0.05859375
0 0.7412109375 0.9287109375 0.0595703125 0.0458984375
0 0.8857421875 0.923828125 0.109375 0.0546875
0 0.0771484375 0.3857421875 0.0654296875 0.130859375
0 0.1806640625 0.8037109375 0.0361328125 0.0576171875
0 0.0205078125 0.216796875 0.126953125 0.16796875
0 0.4072265625 0.306640625 0.052734375 0.173828125
0 0.9638671875 0.0205078125 0.0361328125 0.1015625
0 0.70703125 0.869140625 0.0849609375 0.0224609375
0 0.3876953125 0.115234375 0.029296875 0.0625
0 0.12109375 0.10546875 0.076171875 0.0849609375
0 0.107421875 0.06640625 0.107421875 0.09765625
0 0.0 0.9345703125 0.1875 0.0458984375
0 0.7841796875 0.4638671875 0.076171875 0.076171875
