0 0.89453125 0.0458984375 0.0751953125 0.107421875
0 0.3994140625 0.2724609375 0.1005859375 0.0537109375
0 0.453125 0.6845703125 0.1259765625 0.08203125
0 0.0712890625 0.1435546875 0.1044921875 0.0791015625
0 0.115234375 0.7373046875 0.15625 0.0771484375
0 0.7529296875 0.9365234375 0.0927734375 0.0615234375
0 0.87109375 0.2724609375 0.0859375 0.046875
0 0.2578125 0.1103515625 0.1044921875 0.0771484375
0 0.1533203125 0.4306640625 0.1748046875 0.0595703125
0 0.498046875 0.5439453125 0.0986328125 0.0517578125
0 0.0 0.7138671875 0.1298828125 0.09375
0 0.833984375 0.546875 0.146484375 0.0712890625
0 0.9833984375 0.5380859375 0.0166015625 0.0478515625
0 0.2060546875 0.8037109375 0.1015625 0.0986328125
0 0.52734375 0.4560546875 0.1767578125 0.1044921875
0 0.7275390625 0.5517578125 0.1064453125 0.0888671875
0 0.4541015625 0.8251953125 0.080078125 0.0458984375
0 0.84375 0.0419921875 0.0712890625 0.08984375
0 0.0947265625 0.25390625 0.177734375 0.0576171875
0 0.4716796875 0.0595703125 0.0908203125 0.0546875
0 0.22265625 0.1923828125 0.0458984375 0.060546875
0 0.5478515625 0.1357421875 0.0712890625 0.0712890625
0 0.2763671875 0.2421875 0.09375 0.041015625
0 0.337890625 0.0 0.14453125 0.095703125
0 0.0009765625 0.7861328125 0.0673828125 0.04296875
0 0.3447265625 0.3564453125 0.080078125 0.080078125
0 0.2900390625 0.658203125 0.1181640625 0.060546875
0 0.2197265625 0.9150390625 0.103515625 0.044921875
0 0.6337890625 0.8251953125 0.123046875 0.060546875
0 0.03515625 0.9697265625 0.1044921875 0.025390625
0 0.4453125 0.1884765625 0.1005859375 0.03125
0 0.5263671875 0.5048828125 0.064453125 0.03515625
0 0.7861328125 0.197265625 0.1708984375 0.0625
0 0.0810546875 0.869140625 0.0732421875 0.0341796875
0 0.1220703125 0.330078125 0.18359375 0.0751953125
0 0.7548828125 0.251953125 0.08984375 0.0517578125
0 0.03125 0.4755859375 0.060546875 0.0625
0 0.8837890625 0.974609375 0.0654296875 0.025390625
0 0.015625 0.822265625 0.111328125 0.0224609375
0 0.0 0.0556640625 0.041015625 0.04296875
0 0.76171875 0.1103515625 0.1474609375 0.0810546875
0 0.275390625 0.0146484375 0.126953125 0.1396484375
0 0.271484375 0.001953125 0.0908203125 0.0517578125
0 0.0888671875 0.591796875 0.205078125 0.0478515625
0 0.58984375 0.77734375 0.0830078125 0.037109375
0 0.703125 0.06640625 0.0458984375 0.0341796875
0 0.30078125 0.2119140625 0.04296875 0.03515625
0 0.80859375 0.462890625 0.083984375 0.095703125
0 0.177734375 0.3173828125 0.1142578125 0.048828125
0 0.3896484375 0.359375 0.0927734375 0.1064453125
0 0.1982421875 0.3837890625 0.1201171875 0.0556640625
0 0.1767578125 0.486328125 0.0703125 0.04296875
0 0.17578125 0.1943359375 0.0771484375 0.041015625
0 0.849609375 0.5009765625 0.0927734375 0.0517578125
0 0.7294921875 0.0966796875 0.0986328125 0.0703125
0 0.0078125 0.5263671875 0.1298828125 0.0498046875
0 0.337890625 0.8544921875 0.0625 0.0556640625
0 0.494140625 0.931640625 0.0703125 0.0478515625
0 0.544921875 0.9140625 0.09375 0.04296875
0 0.548828125 0.9462890625 0.099609375 0.0537109375
