0 0.0517578125 0.7470703125 0.123046875 0.0927734375
0 0.537109375 0.609375 0.162109375 0.0830078125
0 0.57421875 0.841796875 0.0927734375 0.087890625
0 0.13671875 0.5546875 0.08984375 0.0849609375
0 0.9345703125 0.8720703125 0.0654296875 0.060546875
0 0.8447265625 0.2724609375 0.1552734375 0.1572265625
0 0.064453125 0.65234375 0.1796875 0.1025390625
0 0.9248046875 0.4619140625 0.0751953125 0.1103515625
0 0.2373046875 0.46484375 0.1572265625 0.134765625
0 0.3271484375 0.4169921875 0.1044921875 0.0751953125
0 0.1845703125 0.8271484375 0.0673828125 0.0673828125
0 0.9345703125 0.056640625 0.0654296875 0.0830078125
0 0.306640625 0.2197265625 0.0478515625 0.080078125
0 0.7265625 0.9443359375 0.0859375 0.0556640625
0 0.13671875 0.2666015625 0.078125 0.1103515625
0 0.7646484375 0.2744140625 0.072265625 0.1025390625
0 0.0625 0.1572265625 0.0771484375 0.0625
0 0.7724609375 0.6298828125 0.0869140625 0.08203125
0 0.02734375 0.8369140625 0.0869140625 0.060546875
0 0.4423828125 0.009765625 0.07421875 0.1171875
0 0.0087890625 0.9091796875 0.1328125 0.0751953125
0 0.5693359375 0.7470703125 0.044921875 0.0576171875
0 0.732421875 0.01953125 0.0771484375 0.0771484375
0 0.7119140625 0.6669921875 0.0771484375 0.0576171875
0 0.037109375 0.32421875 0.072265625 0.033203125
0 0.3515625 0.7265625 0.1083984375 0.068359375
0 0.69921875 0.7294921875 0.0556640625 0.0498046875
0 0.5947265625 0.0791015625 0.142578125 0.1875
0 0.8515625 0.181640625 0.1005859375 0.2001953125
0 0.8095703125 0.0517578125 0.0498046875 0.0625
0 0.1943359375 0.001953125 0.1181640625 0.1201171875
0 0.330078125 0.3037109375 0.154296875 0.0546875
0 0.5546875 0.1943359375 0.0849609375 0.150390625
0 0.25 0.3798828125 0.064453125 0.0595703125
0 0.6572265625 0.7666015625 0.142578125 0.0703125
0 0.7998046875 0.9619140625 0.0849609375 0.0380859375
0 0.0810546875 0.4072265625 0.080078125 0.119140625
0 0.5693359375 0.33203125 0.0625 0.0576171875
0 0.1328125 0.181640625 0.04296875 0.0439453125
0 0.7197265625 0.13671875 0.0576171875 0.0927734375
0 0.4599609375 0.001953125 0.08203125 0.025390625
0 0.119140625 0.404296875 0.080078125 0.0673828125
0 0.001953125 0.4970703125 0.044921875 0.072265625
0 0.439453125 0.6845703125 0.123046875 0.1123046875
0 0.6640625 0.0498046875 0.0751953125 0.1875
0 0.33203125 0.20703125 0.037109375 0.0654296875
0 0.0244140625 0.3017578125 0.0849609375 0.0380859375
0 0.31640625 0.3447265625 0.0771484375 0.099609375
0 0.64453125 0.7822265625 0.04296875 0.0595703125
0 0.109375 0.314453125 0.0546875 0.052734375
0 0.0439453125 0.4580078125 0.1083984375 0.146484375
