0 0.6494140625 0.875 0.0625 0.0849609375
0 0.7021484375 0.6669921875 0.08203125 0.115234375
0 0.7470703125 0.779296875 0.0673828125 0.078125
0 0.744140625 0.9453125 0.06640625 0.0546875
0 0.8818359375 0.8369140625 0.0673828125 0.076171875
0 0.6572265625 0.1416015625 0.0849609375 0.1103515625
0 0.7373046875 0.224609375 0.099609375 0.1220703125
0 0.759765625 0.33984375 0.0673828125 0.0771484375
0 0.69921875 0.3818359375 0.0654296875 0.0673828125
0 0.7216796875 0.5302734375 0.0703125 0.0615234375
0 0.662109375 0.607421875 0.064453125 0.064453125
0 0.94921875 0.6201171875 0.05078125 0.0693359375
0 0.8291015625 0.091796875 0.0654296875 0.1103515625
0 0.875 0.4970703125 0.091796875 0.0712890625
0 0.7822265625 0.001953125 0.0498046875 0.1328125
0 0.93359375 0.822265625 0.041015625 0.0830078125
0 0.5703125 0.05859375 0.0654296875 0.08203125
0 0.7724609375 0.134765625 0.0693359375 0.099609375
0 0.6396484375 0.044921875 0.0576171875 0.0498046875
0 0.564453125 0.001953125 0.06640625 0.0654296875
0 0.8515625 0.001953125 0.0625 0.0751953125
0 0.95703125 0.001953125 0.0400390625 0.0498046875
0 0.876953125 0.08203125 0.0849609375 0.08984375
0 0.732421875 0.0322265625 0.046875 0.134765625
0 0.671875 0.0966796875 0.0654296875 0.0654296875
0 0.9287109375 0.5546875 0.0673828125 0.0556640625
0 0.8076171875 0.9228515625 0.0517578125 0.0498046875
