0 0.46484375 0.8955078125 0.068359375 0.083984375
0 0.0 0.037109375 0.0361328125 0.1201171875
0 0.0 0.3779296875 0.048828125 0.076171875
0 0.8310546875 0.001953125 0.048828125 0.0771484375
0 0.3310546875 0.005859375 0.052734375 0.1162109375
0 0.509765625 0.4150390625 0.0751953125 0.068359375
0 0.5888671875 0.0146484375 0.0810546875 0.1083984375
0 0.3564453125 0.3759765625 0.0361328125 0.0849609375
0 0.9404296875 0.0849609375 0.056640625 0.0771484375
0 0.005859375 0.8076171875 0.0498046875 0.06640625
0 0.2607421875 0.564453125 0.087890625 0.0712890625
0 0.2236328125 0.0625 0.0703125 0.0947265625
0 0.0 0.8876953125 0.125 0.0869140625
0 0.0625 0.162109375 0.0478515625 0.0849609375
0 0.4169921875 0.0810546875 0.0888671875 0.0693359375
0 0.8017578125 0.279296875 0.0595703125 0.1162109375
0 0.177734375 0.611328125 0.0869140625 0.05078125
0 0.2431640625 0.66796875 0.0791015625 0.0859375
0 0.26171875 0.8525390625 0.080078125 0.08984375
0 0.830078125 0.5625 0.0576171875 0.08203125
0 0.61328125 0.1220703125 0.0595703125 0.0810546875
0 0.0 0.58984375 0.0791015625 0.0693359375
0 0.501953125 0.6064453125 0.0771484375 0.0615234375
0 0.68359375 0.666015625 0.04296875 0.0830078125
0 0.458984375 0.0 0.0302734375 0.095703125
0 0.591796875 0.1826171875 0.056640625 0.1279296875
0 0.4453125 0.3564453125 0.052734375 0.103515625
0 0.310546875 0.7607421875 0.1396484375 0.1279296875
0 0.6591796875 0.2099609375 0.0576171875 0.1201171875
0 0.7021484375 0.900390625 0.0556640625 0.068359375
0 0.96875 0.40234375 0.03125 0.06640625
0 0.39453125 0.7021484375 0.056640625 0.0556640625
0 0.171875 0.4130859375 0.125 0.0693359375
0 0.16015625 0.326171875 0.07421875 0.0986328125
0 0.552734375 0.31640625 0.044921875 0.0927734375
0 0.083984375 0.712890625 0.060546875 0.048828125
0 0.4150390625 0.4970703125 0.09765625 0.09765625
0 0.3515625 0.2490234375 0.041015625 0.1416015625
0 0.16796875 0.46875 0.0673828125 0.0830078125
0 0.5703125 0.654296875 0.0517578125 0.115234375
0 0.7314453125 0.0 0.0537109375 0.0341796875
0 0.9658203125 0.841796875 0.0341796875 0.0751953125
0 0.5361328125 0.9033203125 0.0712890625 0.0546875
0 0.7314453125 0.134765625 0.0810546875 0.0556640625
0 0.783203125 0.8330078125 0.1396484375 0.072265625
0 0.3671875 0.2470703125 0.0498046875 0.080078125
0 0.8515625 0.9541015625 0.0869140625 0.0458984375
0 0.36328125 0.107421875 0.029296875 0.06640625
0 0.9755859375 0.9501953125 0.0224609375 0.0478515625
0 0.7919921875 0.373046875 0.0302734375 0.06640625
0 0.939453125 0.5712890625 0.0322265625 0.072265625
0 0.51171875 0.0 0.072265625 0.060546875
0 0.794921875 0.5400390625 0.0517578125 0.0869140625
0 0.6337890625 0.2666015625 0.05078125 0.0751953125
0 0.115234375 0.888671875 0.0576171875 0.0537109375
0 0.6279296875 0.9765625 0.0556640625 0.0234375
0 0.0 0.5625 0.041015625 0.0458984375
0 0.771484375 0.740234375 0.099609375 0.0576171875
0 0.1337890625 0.8564453125 0.0810546875 0.0380859375
0 0.45703125 0.4501953125 0.072265625 0.0439453125
0 0.5556640625 0.2275390625 0.044921875 0.0341796875
0 0.0791015625 0.0537109375 0.0390625 0.0634765625
0 0.134765625 0.216796875 0.056640625 0.076171875
0 0.58203125 0.064453125 0.041015625 0.076171875
0 0.857421875 0.828125 0.1015625 0.03515625
0 0.0 0.0205078125 0.0419921875 0.046875
0 0.5302734375 0.2890625 0.0302734375 0.0771484375
0 0.974609375 0.1806640625 0.025390625 0.064453125
0 0.0 0.9248046875 0.0224609375 0.072265625
0 0.2421875 0.74609375 0.080078125 0.07421875
0 0.216796875 0.7978515625 0.046875 0.072265625
0 0.1533203125 0.783203125 0.0498046875 0.03125
0 0.13671875 0.90625 0.1591796875 0.0859375
0 0.2294921875 0.8037109375 0.1396484375 0.0439453125
0 0.6318359375 0.0 0.0615234375 0.0419921875
