0 0.6240234375 0.0029296875 0.177734375 0.12890625
0 0.4892578125 0.6572265625 0.1142578125 0.0966796875
0 0.7822265625 0.63671875 0.126953125 0.09765625
0 0.41796875 0.5888671875 0.2431640625 0.1083984375
0 0.908203125 0.6201171875 0.0888671875 0.08984375
0 0.162109375 0.3291015625 0.09765625 0.0869140625
0 0.3154296875 0.306640625 0.123046875 0.1103515625
0 0.3466796875 0.08203125 0.087890625 0.1220703125
0 0.0498046875 0.619140625 0.0625 0.060546875
0 0.33203125 0.001953125 0.111328125 0.07421875
0 0.3623046875 0.2197265625 0.1650390625 0.2568359375
0 0.2919921875 0.091796875 0.2080078125 0.2626953125
0 0.7353515625 0.552734375 0.0830078125 0.0703125
