0 0.45703125 0.5751953125 0.091796875 0.05078125
0 0.0517578125 0.5703125 0.0888671875 0.0380859375
0 0.7978515625 0.3212890625 0.087890625 0.0634765625
0 0.1142578125 0.208984375 0.095703125 0.0673828125
0 0.23828125 0.4033203125 0.0537109375 0.0751953125
0 0.1796875 0.3505859375 0.080078125 0.0419921875
0 0.9326171875 0.0263671875 0.0673828125 0.052734375
0 0.4765625 0.267578125 0.123046875 0.0400390625
0 0.8447265625 0.150390625 0.11328125 0.1201171875
0 0.4208984375 0.203125 0.07421875 0.0654296875
0 0.5732421875 0.048828125 0.1240234375 0.0595703125
0 0.2705078125 0.5556640625 0.0888671875 0.037109375
0 0.9541015625 0.111328125 0.0458984375 0.083984375
0 0.6875 0.4140625 0.1123046875 0.0380859375
0 0.0205078125 0.7685546875 0.09765625 0.046875
0 0.859375 0.6376953125 0.05859375 0.0458984375
0 0.306640625 0.6103515625 0.0771484375 0.046875
0 0.5849609375 0.0009765625 0.068359375 0.041015625
0 0.1064453125 0.4208984375 0.1015625 0.041015625
0 0.001953125 0.8193359375 0.119140625 0.0732421875
0 0.02734375 0.12109375 0.09765625 0.0859375
0 0.6142578125 0.4755859375 0.1513671875 0.048828125
0 0.1767578125 0.107421875 0.1298828125 0.0751953125
0 0.7275390625 0.9052734375 0.091796875 0.0634765625
0 0.7705078125 0.5732421875 0.0654296875 0.0546875
0 0.41015625 0.90234375 0.111328125 0.0439453125
0 0.6396484375 0.1044921875 0.076171875 0.109375
0 0.1796875 0.1630859375 0.1435546875 0.0791015625
0 0.2861328125 0.2763671875 0.072265625 0.107421875
0 0.744140625 0.7587890625 0.1259765625 0.0654296875
0 0.19140625 0.568359375 0.0810546875 0.0390625
0 0.9111328125 0.6064453125 0.05078125 0.05078125
0 0.974609375 0.2958984375 0.025390625 0.05859375
0 0.7685546875 0.6923828125 0.1376953125 0.0302734375
0 0.0224609375 0.400390625 0.0908203125 0.0537109375
0 0.505859375 0.482421875 0.1259765625 0.046875
0 0.69140625 0.9453125 0.0400390625 0.052734375
0 0.6728515625 0.0 0.0986328125 0.0400390625
0 0.5966796875 0.6552734375 0.109375 0.033203125
0 0.50390625 0.8486328125 0.0986328125 0.0478515625
0 0.2509765625 0.240234375 0.1494140625 0.0458984375
0 0.30078125 0.85546875 0.1044921875 0.0546875
0 0.5322265625 0.4501953125 0.216796875 0.0390625
0 0.537109375 0.1162109375 0.1337890625 0.083984375
0 0.345703125 0.0 0.0419921875 0.037109375
0 0.361328125 0.96875 0.0458984375 0.029296875
0 0.3466796875 0.8095703125 0.134765625 0.0400390625
0 0.5634765625 0.67578125 0.1513671875 0.0712890625
0 0.439453125 0.6455078125 0.087890625 0.05078125
0 0.3046875 0.91796875 0.056640625 0.05859375
0 0.00390625 0.9169921875 0.1318359375 0.0625
0 0.8408203125 0.275390625 0.0400390625 0.076171875
0 0.4501953125 0.1884765625 0.107421875 0.0380859375
0 0.03125 0.646484375 0.1015625 0.06640625
0 0.45703125 0.0888671875 0.1171875 0.0634765625
0 0.7060546875 0.2978515625 0.095703125 0.02734375
0 0.08203125 0.65234375 0.11328125 0.0400390625
0 0.6767578125 0.771484375 0.0751953125 0.033203125
0 0.4521484375 0.9521484375 0.1689453125 0.0400390625
0 0.486328125 0.1533203125 0.0927734375 0.0380859375
0 0.0009765625 0.9873046875 0.0556640625 0.0126953125
0 0.3544921875 0.1806640625 0.095703125 0.0380859375
0 0.5986328125 0.6220703125 0.10546875 0.03125
0 0.0341796875 0.455078125 0.068359375 0.03125
0 0.0791015625 0.3759765625 0.08984375 0.0458984375
0 0.4541015625 0.78515625 0.1103515625 0.033203125
0 0.63525390625 0.82373046875 0.15019531249999996 0.04697265625000002
0 0.48046875 0.837890625 0.0673828125 0.0185546875
0 0.267578125 0.625 0.0830078125 0.0478515625
0 0.703125 0.818359375 0.0693359375 0.0361328125
0 0.109375 0.9765625 0.1181640625 0.0234375
0 0.0224609375 0.3662109375 0.0771484375 0.0341796875
0 0.5810546875 0.52734375 0.0634765625 0.0205078125
0 0.0224609375 0.744140625 0.140625 0.0341796875
0 0.0 0.16796875 0.0341796875 0.064453125
0 0.8955078125 0.1337890625 0.0673828125 0.02734375
0 0.7392578125 0.3154296875 0.0478515625 0.0595703125
0 0.208984375 0.3017578125 0.125 0.076171875
0 0.75390625 0.9599609375 0.0654296875 0.033203125
0 0.03515625 0.4501953125 0.0673828125 0.021484375
0 0.60546875 0.8271484375 0.0810546875 0.0546875
0 0.3583984375 0.837890625 0.134765625 0.0244140625
0 0.1123046875 0.7841796875 0.1025390625 0.0390625
0 0.2177734375 0.77734375 0.0400390625 0.0390625
0 0.1552734375 0.7451171875 0.0908203125 0.0341796875
0 0.0 0.734375 0.1328125 0.037109375
0 0.7529296875 0.232421875 0.0654296875 0.0625
