0 0.0 0.41796875 0.0341796875 0.080078125
0 0.0 0.52734375 0.03515625 0.0947265625
0 0.3515625 0.7119140625 0.0693359375 0.0986328125
0 0.01171875 0.033203125 0.0615234375 0.1025390625
0 0.5810546875 0.0078125 0.0517578125 0.1201171875
0 0.7568359375 0.8916015625 0.046875 0.10546875
0 0.3994140625 0.0009765625 0.06640625 0.0986328125
0 0.5234375 0.2119140625 0.0751953125 0.140625
0 0.314453125 0.0146484375 0.0439453125 0.091796875
0 0.724609375 0.52734375 0.0615234375 0.0712890625
0 0.03515625 0.62890625 0.0400390625 0.1015625
0 0.4365234375 0.46875 0.0537109375 0.076171875
0 0.0966796875 0.443359375 0.060546875 0.09375
0 0.1953125 0.400390625 0.04296875 0.1123046875
0 0.19140625 0.55859375 0.0390625 0.0771484375
0 0.541015625 0.8232421875 0.0478515625 0.0751953125
0 0.9091796875 0.2890625 0.033203125 0.1181640625
0 0.142578125 0.177734375 0.0625 0.080078125
0 0.2861328125 0.6943359375 0.0849609375 0.0908203125
0 0.939453125 0.095703125 0.0283203125 0.099609375
0 0.0380859375 0.5166015625 0.0478515625 0.0732421875
0 0.330078125 0.8046875 0.068359375 0.0693359375
0 0.515625 0.0205078125 0.04296875 0.14453125
0 0.8486328125 0.39453125 0.076171875 0.1201171875
0 0.01953125 0.7998046875 0.037109375 0.083984375
0 0.818359375 0.435546875 0.0634765625 0.1220703125
0 0.6953125 0.8037109375 0.0439453125 0.08203125
0 0.5751953125 0.1552734375 0.0498046875 0.115234375
0 0.6064453125 0.3271484375 0.109375 0.1220703125
0 0.001953125 0.1484375 0.0712890625 0.09375
0 0.5166015625 0.6884765625 0.0546875 0.076171875
0 0.1826171875 0.271484375 0.13671875 0.1103515625
0 0.373046875 0.4248046875 0.0400390625 0.0986328125
0 0.787109375 0.8505859375 0.0576171875 0.08203125
0 0.39453125 0.4052734375 0.07421875 0.07421875
0 0.81640625 0.1728515625 0.083984375 0.0888671875
0 0.267578125 0.8291015625 0.0830078125 0.05078125
0 0.787109375 0.841796875 0.0673828125 0.060546875
0 0.5888671875 0.115234375 0.0546875 0.0732421875
0 0.146484375 0.822265625 0.0439453125 0.0625
0 0.7958984375 0.0 0.0341796875 0.1025390625
0 0.3486328125 0.3544921875 0.0283203125 0.11328125
0 0.5537109375 0.642578125 0.0576171875 0.1572265625
0 0.7568359375 0.31640625 0.0244140625 0.1015625
0 0.7275390625 0.1279296875 0.0263671875 0.1689453125
0 0.1630859375 0.0625 0.068359375 0.095703125
0 0.9150390625 0.0 0.048828125 0.07421875
0 0.326171875 0.369140625 0.0263671875 0.083984375
0 0.419921875 0.7294921875 0.0361328125 0.1123046875
0 0.1904296875 0.509765625 0.0732421875 0.0458984375
0 0.75 0.0 0.04296875 0.056640625
0 0.9072265625 0.7607421875 0.025390625 0.0908203125
0 0.3115234375 0.154296875 0.0498046875 0.0849609375
0 0.87109375 0.00390625 0.072265625 0.13671875
0 0.8037109375 0.7890625 0.0634765625 0.056640625
0 0.1591796875 0.03125 0.0859375 0.0712890625
0 0.501953125 0.859375 0.025390625 0.0693359375
0 0.615234375 0.361328125 0.02734375 0.1279296875
0 0.59375 0.67578125 0.0537109375 0.1103515625
0 0.623046875 0.5888671875 0.0283203125 0.123046875
0 0.73828125 0.7998046875 0.0654296875 0.06640625
0 0.2783203125 0.0478515625 0.0322265625 0.1318359375
0 0.607421875 0.6845703125 0.0947265625 0.1201171875
0 0.0625 0.2138671875 0.0400390625 0.0673828125
0 0.384765625 0.154296875 0.0517578125 0.1123046875
0 0.1904296875 0.0 0.0302734375 0.068359375
0 0.1171875 0.8857421875 0.0556640625 0.068359375
0 0.5224609375 0.2021484375 0.078125 0.09765625
0 0.0 0.1630859375 0.0302734375 0.134765625
0 0.25 0.05859375 0.0458984375 0.0654296875
0 0.099609375 0.8447265625 0.04296875 0.083984375
0 0.056640625 0.47265625 0.0517578125 0.0498046875
0 0.201171875 0.0810546875 0.0859375 0.0703125
0 0.4453125 0.865234375 0.044921875 0.0546875
0 0.232421875 0.5 0.044921875 0.0556640625
0 0.6884765625 0.2646484375 0.0322265625 0.0576171875
0 0.80078125 0.0126953125 0.0322265625 0.0595703125
0 0.4521484375 0.828125 0.0439453125 0.0439453125
