0 0.4345703125 0.224609375 0.1123046875 0.0927734375
0 0.4111328125 0.5361328125 0.1240234375 0.1064453125
0 0.666015625 0.5048828125 0.1083984375 0.1025390625
0 0.5849609375 0.384765625 0.091796875 0.0546875
0 0.724609375 0.109375 0.125 0.1005859375
0 0.5693359375 0.2822265625 0.080078125 0.0849609375
0 0.91015625 0.4697265625 0.0576171875 0.06640625
0 0.3134765625 0.2900390625 0.0595703125 0.05859375
0 0.4423828125 0.119140625 0.1220703125 0.0732421875
0 0.466796875 0.0673828125 0.080078125 0.0625
0 0.4794921875 0.875 0.0830078125 0.0869140625
0 0.619140625 0.1298828125 0.0654296875 0.13671875
0 0.322265625 0.046875 0.1376953125 0.060546875
0 0.501953125 0.83984375 0.0625 0.0576171875
0 0.544921875 0.8984375 0.095703125 0.0361328125
0 0.3466796875 0.0791015625 0.1005859375 0.1005859375
0 0.904296875 0.001953125 0.087890625 0.0830078125
0 0.77734375 0.001953125 0.0576171875 0.0927734375
0 0.5361328125 0.001953125 0.068359375 0.0625
0 0.654296875 0.2216796875 0.0556640625 0.0703125
0 0.9267578125 0.2001953125 0.0498046875 0.0517578125
