0 0.7822265625 0.5322265625 0.1318359375 0.1650390625
0 0.82421875 0.0 0.1298828125 0.037109375
0 0.8994140625 0.5048828125 0.1005859375 0.07421875
0 0.474609375 0.3291015625 0.1044921875 0.10546875
0 0.4072265625 0.3818359375 0.080078125 0.134765625
0 0.5224609375 0.884765625 0.150390625 0.1044921875
0 0.5068359375 0.64453125 0.1455078125 0.115234375
0 0.01953125 0.26171875 0.0849609375 0.0556640625
0 0.2998046875 0.19140625 0.115234375 0.1015625
0 0.31640625 0.5888671875 0.126953125 0.099609375
0 0.6875 0.2548828125 0.125 0.0947265625
0 0.2646484375 0.0439453125 0.091796875 0.08203125
0 0.7421875 0.662109375 0.0595703125 0.0546875
0 0.3408203125 0.126953125 0.0791015625 0.0810546875
