0 0.443359375 0.01171875 0.087890625 0.0908203125
0 0.5498046875 0.0 0.052734375 0.0244140625
0 0.8359375 0.1484375 0.1044921875 0.0859375
0 0.58203125 0.0595703125 0.1015625 0.0712890625
0 0.5771484375 0.1337890625 0.080078125 0.0830078125
0 0.30859375 0.12890625 0.080078125 0.103515625
0 0.205078125 0.10546875 0.08203125 0.1015625
0 0.1435546875 0.02734375 0.1181640625 0.095703125
0 0.0 0.1640625 0.0703125 0.107421875
0 0.0 0.013671875 0.076171875 0.115234375
0 0.802734375 0.4423828125 0.111328125 0.08984375
0 0.7587890625 0.537109375 0.0732421875 0.0810546875
0 0.8408203125 0.53515625 0.0732421875 0.0791015625
0 0.6337890625 0.373046875 0.1142578125 0.083984375
0 0.7568359375 0.32421875 0.0927734375 0.0947265625
0 0.50390625 0.5009765625 0.103515625 0.1953125
0 0.6123046875 0.505859375 0.0712890625 0.068359375
0 0.4375 0.576171875 0.0419921875 0.099609375
0 0.515625 0.71875 0.083984375 0.2509765625
0 0.77734375 0.8154296875 0.080078125 0.0869140625
0 0.8125 0.9072265625 0.119140625 0.0927734375
0 0.18359375 0.5654296875 0.1484375 0.21484375
0 0.0791015625 0.5576171875 0.1044921875 0.080078125
0 0.0537109375 0.404296875 0.072265625 0.0849609375
0 0.279296875 0.873046875 0.130859375 0.126953125
0 0.0576171875 0.7568359375 0.115234375 0.099609375
0 0.0 0.671875 0.0625 0.0927734375
0 0.1953125 0.4814453125 0.05859375 0.041015625
