0 0.912109375 0.779296875 0.087890625 0.09375
0 0.748046875 0.837890625 0.16015625 0.0830078125
0 0.4736328125 0.6005859375 0.091796875 0.15234375
0 0.6689453125 0.640625 0.1103515625 0.1396484375
0 0.5693359375 0.3916015625 0.0888671875 0.115234375
0 0.794921875 0.3994140625 0.080078125 0.0712890625
0 0.84765625 0.279296875 0.11328125 0.12109375
0 0.8583984375 0.1943359375 0.1357421875 0.07421875
0 0.369140625 0.15234375 0.107421875 0.1455078125
0 0.248046875 0.240234375 0.126953125 0.099609375
0 0.1083984375 0.1748046875 0.083984375 0.1689453125
0 0.16015625 0.7626953125 0.1025390625 0.119140625
0 0.306640625 0.708984375 0.099609375 0.1181640625
0 0.2607421875 0.5224609375 0.16015625 0.1572265625
0 0.12109375 0.5029296875 0.0810546875 0.09765625
0 0.267578125 0.0771484375 0.0927734375 0.0771484375
0 0.1953125 0.02734375 0.05078125 0.068359375
0 0.5615234375 0.099609375 0.08203125 0.076171875
0 0.69921875 0.09765625 0.0654296875 0.08203125
0 0.7734375 0.1552734375 0.0654296875 0.11328125
0 0.63671875 0.201171875 0.0673828125 0.0908203125
0 0.6630859375 0.326171875 0.048828125 0.0439453125
0 0.73046875 0.0 0.08984375 0.083984375
0 0.5849609375 0.0 0.0947265625 0.0517578125
0 0.44921875 0.2470703125 0.052734375 0.0986328125
0 0.505859375 0.341796875 0.10546875 0.0498046875
0 0.18359375 0.376953125 0.0595703125 0.0693359375
0 0.033203125 0.1884765625 0.0654296875 0.1064453125
0 0.6845703125 0.44921875 0.12109375 0.1240234375
0 0.5966796875 0.6962890625 0.087890625 0.04296875
0 0.5 0.82421875 0.0625 0.12109375
0 0.5546875 0.8994140625 0.275390625 0.1005859375
0 0.62109375 0.83984375 0.048828125 0.046875
0 0.095703125 0.677734375 0.0771484375 0.0576171875
0 0.0 0.6005859375 0.0439453125 0.0859375
0 0.06640625 0.765625 0.0927734375 0.0556640625
0 0.1875 0.9345703125 0.1015625 0.0654296875
0 0.5771484375 0.7392578125 0.0556640625 0.0537109375
0 0.55859375 0.80859375 0.0556640625 0.0625
0 0.251953125 0.591796875 0.0732421875 0.05859375
0 0.275390625 0.3359375 0.0966796875 0.0546875
