0 0.1640625 0.3857421875 0.080078125 0.0732421875
0 0.1572265625 0.1318359375 0.076171875 0.0908203125
0 0.0419921875 0.0654296875 0.095703125 0.09765625
0 0.5888671875 0.119140625 0.076171875 0.087890625
0 0.65234375 0.1162109375 0.099609375 0.16796875
0 0.748046875 0.1806640625 0.138671875 0.099609375
0 0.8056640625 0.109375 0.103515625 0.083984375
0 0.9130859375 0.71875 0.0869140625 0.0625
0 0.5517578125 0.259765625 0.056640625 0.080078125
0 0.681640625 0.2978515625 0.0703125 0.0732421875
0 0.7509765625 0.33984375 0.0888671875 0.076171875
0 0.8125 0.4375 0.1435546875 0.0810546875
0 0.8486328125 0.4931640625 0.0673828125 0.08984375
0 0.572265625 0.564453125 0.1171875 0.0732421875
0 0.2509765625 0.521484375 0.0927734375 0.099609375
0 0.345703125 0.568359375 0.07421875 0.0869140625
0 0.0986328125 0.6005859375 0.068359375 0.095703125
0 0.14453125 0.923828125 0.12890625 0.0732421875
0 0.453125 0.7587890625 0.08984375 0.1103515625
0 0.4560546875 0.71875 0.10546875 0.064453125
0 0.6064453125 0.837890625 0.0986328125 0.0634765625
0 0.7626953125 0.8388671875 0.095703125 0.0869140625
0 0.75 0.9384765625 0.1318359375 0.0615234375
0 0.8603515625 0.5927734375 0.0546875 0.0439453125
0 0.8662109375 0.703125 0.048828125 0.0546875
0 0.9248046875 0.373046875 0.0751953125 0.0546875
0 0.9375 0.2880859375 0.0625 0.0673828125
0 0.8447265625 0.27734375 0.068359375 0.0615234375
0 0.9169921875 0.2138671875 0.0751953125 0.080078125
0 0.2548828125 0.3173828125 0.052734375 0.07421875
0 0.1171875 0.3935546875 0.076171875 0.0634765625
0 0.3134765625 0.6923828125 0.0693359375 0.0478515625
0 0.109375 0.87890625 0.068359375 0.0693359375
0 0.58203125 0.236328125 0.0693359375 0.060546875
0 0.8583984375 0.9404296875 0.1015625 0.0595703125
