0 0.1962890625 0.318359375 0.0751953125 0.15234375
0 0.6943359375 0.0673828125 0.083984375 0.1005859375
0 0.212890625 0.6005859375 0.0712890625 0.119140625
0 0.3388671875 0.0 0.1220703125 0.1513671875
0 0.0 0.8056640625 0.046875 0.1435546875
0 0.18359375 0.1279296875 0.09375 0.1826171875
0 0.7109375 0.6982421875 0.1435546875 0.080078125
0 0.8349609375 0.2021484375 0.091796875 0.078125
0 0.7099609375 0.89453125 0.2041015625 0.10546875
0 0.48828125 0.0224609375 0.1201171875 0.1044921875
0 0.0419921875 0.9443359375 0.0908203125 0.0556640625
0 0.6689453125 0.6435546875 0.109375 0.078125
0 0.3955078125 0.060546875 0.10546875 0.119140625
0 0.2802734375 0.6708984375 0.0556640625 0.1123046875
0 0.044921875 0.232421875 0.109375 0.1728515625
0 0.9208984375 0.703125 0.0791015625 0.109375
0 0.0 0.3896484375 0.142578125 0.2255859375
0 0.4912109375 0.3837890625 0.087890625 0.1943359375
0 0.4072265625 0.3642578125 0.0732421875 0.1669921875
0 0.615234375 0.2275390625 0.0712890625 0.0732421875
0 0.3046875 0.2197265625 0.0654296875 0.1279296875
0 0.6044921875 0.0712890625 0.0849609375 0.173828125
0 0.7333984375 0.228515625 0.083984375 0.1318359375
0 0.0 0.5615234375 0.0927734375 0.1123046875
0 0.7197265625 0.75390625 0.185546875 0.1181640625
0 0.9482421875 0.2822265625 0.0517578125 0.083984375
0 0.021484375 0.0009765625 0.0849609375 0.1103515625
0 0.0556640625 0.8525390625 0.123046875 0.08984375
0 0.2666015625 0.7587890625 0.0712890625 0.06640625
0 0.2880859375 0.615234375 0.0576171875 0.0703125
0 0.0 0.1240234375 0.068359375 0.2060546875
0 0.3720703125 0.2607421875 0.07421875 0.10546875
0 0.291015625 0.3603515625 0.0751953125 0.0771484375
0 0.5126953125 0.0634765625 0.0546875 0.1279296875
0 0.5283203125 0.1484375 0.068359375 0.1123046875
