0 0.0 0.9765625 0.0224609375 0.0234375
0 0.615234375 0.9052734375 0.1669921875 0.0947265625
0 0.212890625 0.9130859375 0.279296875 0.0869140625
0 0.345703125 0.7451171875 0.103515625 0.162109375
0 0.23046875 0.712890625 0.111328125 0.0771484375
0 0.1171875 0.8037109375 0.09765625 0.1513671875
0 0.0 0.7978515625 0.0341796875 0.109375
0 0.0 0.6611328125 0.0458984375 0.119140625
0 0.1181640625 0.6494140625 0.0947265625 0.0849609375
0 0.1904296875 0.5400390625 0.1533203125 0.1171875
0 0.5419921875 0.6787109375 0.26171875 0.12109375
0 0.8017578125 0.693359375 0.1708984375 0.1044921875
0 0.9248046875 0.7646484375 0.0751953125 0.1015625
0 0.0087890625 0.3515625 0.125 0.2265625
0 0.0244140625 0.0263671875 0.0869140625 0.0771484375
0 0.115234375 0.0166015625 0.126953125 0.12109375
0 0.083984375 0.1552734375 0.130859375 0.119140625
0 0.2900390625 0.1552734375 0.080078125 0.0732421875
0 0.337890625 0.208984375 0.09375 0.0771484375
0 0.2109375 0.32421875 0.0908203125 0.0634765625
0 0.125 0.326171875 0.095703125 0.0673828125
0 0.44921875 0.09375 0.1025390625 0.240234375
0 0.4130859375 0.228515625 0.095703125 0.138671875
0 0.6787109375 0.1533203125 0.12109375 0.109375
0 0.626953125 0.001953125 0.099609375 0.076171875
0 0.5166015625 0.0 0.1005859375 0.09765625
0 0.8681640625 0.1435546875 0.126953125 0.103515625
0 0.931640625 0.318359375 0.068359375 0.0888671875
