0 0.0 0.1044921875 0.0458984375 0.0869140625
0 0.06640625 0.0830078125 0.06640625 0.1279296875
0 0.0712890625 0.2421875 0.0556640625 0.0615234375
0 0.0478515625 0.4736328125 0.0546875 0.0546875
0 0.1494140625 0.4853515625 0.072265625 0.1201171875
0 0.0556640625 0.7080078125 0.0615234375 0.06640625
0 0.1259765625 0.6806640625 0.068359375 0.068359375
0 0.095703125 0.775390625 0.11328125 0.0703125
0 0.029296875 0.7744140625 0.060546875 0.064453125
0 0.0 0.8271484375 0.04296875 0.05078125
0 0.8349609375 0.93359375 0.1171875 0.06640625
0 0.5341796875 0.8984375 0.064453125 0.080078125
0 0.4501953125 0.9677734375 0.0908203125 0.0322265625
0 0.4677734375 0.8857421875 0.05859375 0.0595703125
0 0.5400390625 0.8330078125 0.0595703125 0.0556640625
0 0.3154296875 0.955078125 0.078125 0.044921875
0 0.2314453125 0.9765625 0.0634765625 0.0234375
0 0.2978515625 0.8798828125 0.0576171875 0.056640625
0 0.33203125 0.80078125 0.0693359375 0.0654296875
0 0.412109375 0.7861328125 0.0703125 0.06640625
0 0.3125 0.7412109375 0.0791015625 0.05078125
0 0.400390625 0.734375 0.0625 0.0556640625
0 0.3857421875 0.658203125 0.0693359375 0.08203125
0 0.6279296875 0.75 0.056640625 0.0595703125
0 0.9267578125 0.7626953125 0.0712890625 0.083984375
0 0.900390625 0.6630859375 0.072265625 0.0595703125
0 0.783203125 0.625 0.068359375 0.1162109375
0 0.6533203125 0.62890625 0.0869140625 0.0693359375
0 0.5546875 0.607421875 0.11328125 0.0556640625
0 0.908203125 0.5634765625 0.0849609375 0.087890625
0 0.951171875 0.3818359375 0.048828125 0.0791015625
0 0.4306640625 0.5791015625 0.0869140625 0.0712890625
0 0.2646484375 0.5712890625 0.0615234375 0.087890625
0 0.40625 0.4404296875 0.060546875 0.0546875
0 0.8974609375 0.2529296875 0.087890625 0.107421875
0 0.8623046875 0.08984375 0.099609375 0.1005859375
0 0.939453125 0.001953125 0.060546875 0.0732421875
0 0.623046875 0.00390625 0.0712890625 0.099609375
0 0.6025390625 0.1142578125 0.068359375 0.0849609375
0 0.62890625 0.28515625 0.0849609375 0.0771484375
0 0.48828125 0.2470703125 0.06640625 0.06640625
0 0.619140625 0.361328125 0.0478515625 0.05078125
0 0.2294921875 0.2392578125 0.0927734375 0.083984375
0 0.970703125 0.2568359375 0.029296875 0.0771484375
