0 0.0439453125 0.849609375 0.078125 0.0537109375
0 0.16796875 0.91796875 0.0703125 0.0654296875
0 0.0 0.71484375 0.03125 0.0439453125
0 0.0 0.595703125 0.0439453125 0.0947265625
0 0.0 0.501953125 0.0244140625 0.083984375
0 0.0 0.203125 0.0458984375 0.078125
0 0.0361328125 0.2607421875 0.0625 0.0712890625
0 0.2880859375 0.11328125 0.0771484375 0.0615234375
0 0.33203125 0.28125 0.076171875 0.111328125
0 0.2333984375 0.455078125 0.0625 0.0576171875
0 0.6796875 0.4228515625 0.072265625 0.1337890625
0 0.6328125 0.484375 0.0556640625 0.048828125
0 0.5634765625 0.5146484375 0.083984375 0.1103515625
0 0.6474609375 0.580078125 0.0849609375 0.0751953125
0 0.6591796875 0.634765625 0.0869140625 0.0615234375
0 0.6484375 0.6650390625 0.0927734375 0.0830078125
0 0.5849609375 0.7900390625 0.1142578125 0.0810546875
0 0.5517578125 0.85546875 0.095703125 0.0625
0 0.2421875 0.71484375 0.0595703125 0.056640625
0 0.2958984375 0.8046875 0.0595703125 0.05078125
0 0.3154296875 0.73828125 0.1083984375 0.0634765625
0 0.4326171875 0.73046875 0.064453125 0.0703125
0 0.3564453125 0.80078125 0.048828125 0.044921875
0 0.3623046875 0.625 0.0712890625 0.0869140625
0 0.453125 0.634765625 0.0634765625 0.0712890625
0 0.8203125 0.759765625 0.0693359375 0.072265625
0 0.7001953125 0.9033203125 0.0654296875 0.0712890625
0 0.8623046875 0.82421875 0.1318359375 0.0693359375
0 0.892578125 0.6552734375 0.083984375 0.056640625
0 0.9462890625 0.6015625 0.0537109375 0.056640625
0 0.4736328125 0.0751953125 0.0732421875 0.1005859375
0 0.6181640625 0.11328125 0.0732421875 0.0927734375
0 0.7529296875 0.115234375 0.0869140625 0.08984375
0 0.810546875 0.0009765625 0.087890625 0.076171875
0 0.955078125 0.0 0.0390625 0.0546875
