0 0.5048828125 0.3623046875 0.099609375 0.0751953125
0 0.71875 0.0 0.12109375 0.068359375
0 0.626953125 0.126953125 0.107421875 0.09765625
0 0.537109375 0.482421875 0.16015625 0.0849609375
0 0.78125 0.50390625 0.099609375 0.126953125
0 0.8154296875 0.078125 0.15234375 0.0849609375
0 0.587890625 0.6142578125 0.12109375 0.091796875
0 0.7919921875 0.6396484375 0.095703125 0.1748046875
0 0.7060546875 0.6943359375 0.05078125 0.0537109375
0 0.5068359375 0.671875 0.072265625 0.107421875
0 0.7705078125 0.25390625 0.111328125 0.1083984375
0 0.6884765625 0.5791015625 0.0673828125 0.115234375
0 0.533203125 0.7802734375 0.1162109375 0.0771484375
0 0.8896484375 0.7578125 0.0869140625 0.09765625
0 0.9033203125 0.6123046875 0.0966796875 0.125
0 0.39453125 0.1162109375 0.072265625 0.0849609375
0 0.93359375 0.2744140625 0.06640625 0.0576171875
0 0.587890625 0.662109375 0.0625 0.115234375
