0 0.1806640625 0.1953125 0.13671875 0.0908203125
0 0.072265625 0.130859375 0.0888671875 0.0625
0 0.0634765625 0.1953125 0.072265625 0.0751953125
0 0.1201171875 0.08203125 0.0888671875 0.0693359375
0 0.2802734375 0.0341796875 0.0771484375 0.0830078125
0 0.3857421875 0.0498046875 0.0732421875 0.068359375
0 0.3681640625 0.181640625 0.0830078125 0.0869140625
0 0.34765625 0.2744140625 0.126953125 0.0732421875
0 0.470703125 0.220703125 0.08984375 0.0634765625
0 0.4921875 0.30859375 0.0712890625 0.0751953125
0 0.626953125 0.2744140625 0.068359375 0.0693359375
0 0.7607421875 0.2802734375 0.0546875 0.0634765625
0 0.810546875 0.1513671875 0.0732421875 0.0810546875
0 0.830078125 0.0302734375 0.0732421875 0.1015625
0 0.72265625 0.0166015625 0.0859375 0.0869140625
0 0.6591796875 0.005859375 0.0556640625 0.087890625
0 0.568359375 0.0068359375 0.1025390625 0.1025390625
0 0.9130859375 0.2587890625 0.0869140625 0.0888671875
0 0.94921875 0.0 0.05078125 0.08203125
0 0.9189453125 0.5439453125 0.0810546875 0.0810546875
0 0.806640625 0.59375 0.1123046875 0.099609375
0 0.7841796875 0.5244140625 0.0673828125 0.0732421875
0 0.701171875 0.455078125 0.0869140625 0.0986328125
0 0.93359375 0.6376953125 0.06640625 0.0595703125
0 0.8818359375 0.69921875 0.1044921875 0.0732421875
0 0.8876953125 0.9091796875 0.1123046875 0.0908203125
0 0.7822265625 0.857421875 0.0947265625 0.1015625
0 0.6923828125 0.84375 0.07421875 0.123046875
0 0.7109375 0.751953125 0.0849609375 0.087890625
0 0.712890625 0.609375 0.0556640625 0.099609375
0 0.611328125 0.6220703125 0.09375 0.0830078125
0 0.5439453125 0.453125 0.076171875 0.0908203125
0 0.4384765625 0.4931640625 0.0703125 0.0791015625
0 0.36328125 0.5068359375 0.0654296875 0.0810546875
0 0.9306640625 0.3974609375 0.0693359375 0.0615234375
0 0.20703125 0.583984375 0.0810546875 0.0654296875
0 0.078125 0.353515625 0.0830078125 0.0869140625
0 0.056640625 0.595703125 0.0986328125 0.0751953125
0 0.107421875 0.5458984375 0.10546875 0.0693359375
0 0.0302734375 0.6708984375 0.103515625 0.08984375
0 0.0 0.7666015625 0.0654296875 0.0673828125
0 0.216796875 0.80859375 0.0810546875 0.0830078125
0 0.0 0.8818359375 0.076171875 0.0634765625
0 0.48046875 0.7666015625 0.12109375 0.0986328125
0 0.44921875 0.6787109375 0.0849609375 0.08203125
0 0.0 0.52734375 0.076171875 0.0546875
0 0.4013671875 0.93359375 0.0849609375 0.06640625
0 0.3837890625 0.8701171875 0.0947265625 0.068359375
0 0.0 0.2099609375 0.0546875 0.0615234375
0 0.5 0.1298828125 0.0634765625 0.072265625
0 0.2255859375 0.04296875 0.048828125 0.123046875
0 0.0322265625 0.796875 0.1298828125 0.072265625
