0 0.6279296875 0.6318359375 0.0703125 0.0771484375
0 0.5810546875 0.01953125 0.0595703125 0.0869140625
0 0.2880859375 0.8828125 0.099609375 0.08203125
0 0.6533203125 0.0224609375 0.0693359375 0.0947265625
0 0.5146484375 0.8095703125 0.0947265625 0.185546875
0 0.1435546875 0.5703125 0.0693359375 0.1064453125
0 0.7744140625 0.3369140625 0.1279296875 0.111328125
0 0.0673828125 0.3330078125 0.0869140625 0.072265625
0 0.7109375 0.333984375 0.0634765625 0.0908203125
0 0.4638671875 0.697265625 0.0859375 0.1064453125
0 0.1044921875 0.234375 0.12890625 0.138671875
0 0.228515625 0.1552734375 0.0673828125 0.119140625
0 0.8076171875 0.9404296875 0.0576171875 0.0576171875
0 0.2509765625 0.810546875 0.095703125 0.0703125
0 0.7138671875 0.7490234375 0.0244140625 0.0927734375
0 0.8515625 0.54296875 0.0546875 0.109375
0 0.431640625 0.6064453125 0.03125 0.1103515625
0 0.4453125 0.2255859375 0.119140625 0.0732421875
0 0.4501953125 0.5341796875 0.06640625 0.0830078125
0 0.9091796875 0.60546875 0.0419921875 0.107421875
0 0.1123046875 0.8271484375 0.03515625 0.10546875
0 0.845703125 0.30078125 0.037109375 0.09375
0 0.6474609375 0.2412109375 0.0810546875 0.0693359375
0 0.7783203125 0.7451171875 0.0322265625 0.0625
0 0.1943359375 0.0 0.0380859375 0.0673828125
0 0.6923828125 0.1220703125 0.025390625 0.072265625
0 0.46875 0.5810546875 0.0439453125 0.078125
0 0.63671875 0.0732421875 0.029296875 0.099609375
0 0.185546875 0.4462890625 0.0400390625 0.16796875
0 0.908203125 0.5400390625 0.0400390625 0.09375
0 0.8671875 0.86328125 0.0322265625 0.1318359375
0 0.162109375 0.8046875 0.123046875 0.171875
0 0.9248046875 0.2724609375 0.0751953125 0.0712890625
0 0.49609375 0.31640625 0.1904296875 0.0791015625
0 0.9091796875 0.9248046875 0.0234375 0.068359375
0 0.7314453125 0.951171875 0.046875 0.048828125
0 0.4306640625 0.0 0.02734375 0.056640625
0 0.0908203125 0.1064453125 0.11328125 0.0380859375
0 0.8212890625 0.8369140625 0.0498046875 0.0556640625
0 0.12109375 0.103515625 0.0419921875 0.0830078125
0 0.5400390625 0.0 0.029296875 0.0751953125
0 0.15234375 0.775390625 0.0693359375 0.0390625
0 0.634765625 0.8466796875 0.0380859375 0.1533203125
0 0.2099609375 0.9052734375 0.0732421875 0.078125
0 0.880859375 0.119140625 0.041015625 0.0546875
0 0.833984375 0.65625 0.080078125 0.05078125
0 0.01171875 0.837890625 0.06640625 0.04296875
0 0.728515625 0.0 0.0419921875 0.02734375
0 0.4580078125 0.4833984375 0.0576171875 0.0498046875
0 0.435546875 0.9052734375 0.0810546875 0.0556640625
0 0.5166015625 0.041015625 0.1015625 0.2138671875
0 0.7529296875 0.0556640625 0.0302734375 0.0693359375
0 0.625 0.28125 0.173828125 0.083984375
0 0.06640625 0.5380859375 0.0595703125 0.05859375
0 0.0439453125 0.208984375 0.083984375 0.0703125
0 0.0 0.0 0.029296875 0.0263671875
0 0.0 0.013671875 0.1171875 0.06640625
