0 0.1181640625 0.2275390625 0.064453125 0.087890625
0 0.0 0.380859375 0.0439453125 0.11328125
0 0.953125 0.640625 0.046875 0.08984375
0 0.41015625 0.255859375 0.0478515625 0.0888671875
0 0.9052734375 0.2646484375 0.08203125 0.0654296875
0 0.3525390625 0.03515625 0.0361328125 0.0859375
0 0.1650390625 0.001953125 0.033203125 0.08984375
0 0.486328125 0.0791015625 0.033203125 0.10546875
0 0.333984375 0.4794921875 0.0244140625 0.0654296875
0 0.421875 0.14453125 0.029296875 0.0654296875
0 0.3837890625 0.1953125 0.0615234375 0.0498046875
0 0.3818359375 0.3798828125 0.0390625 0.080078125
0 0.490234375 0.3408203125 0.0361328125 0.0751953125
0 0.2431640625 0.068359375 0.046875 0.08203125
0 0.0146484375 0.0703125 0.02734375 0.072265625
0 0.68359375 0.6376953125 0.0439453125 0.0908203125
0 0.16796875 0.3447265625 0.03125 0.064453125
0 0.5986328125 0.146484375 0.0498046875 0.080078125
0 0.4423828125 0.0224609375 0.0263671875 0.0986328125
0 0.125 0.5673828125 0.046875 0.0771484375
0 0.1220703125 0.3671875 0.0498046875 0.068359375
0 0.8037109375 0.4072265625 0.0322265625 0.0830078125
0 0.9208984375 0.7138671875 0.029296875 0.076171875
0 0.6337890625 0.95703125 0.03125 0.04296875
0 0.330078125 0.009765625 0.025390625 0.09375
0 0.869140625 0.14453125 0.048828125 0.08203125
0 0.8046875 0.3359375 0.0458984375 0.0732421875
0 0.6376953125 0.1005859375 0.025390625 0.0859375
0 0.0634765625 0.0 0.0400390625 0.041015625
0 0.259765625 0.4208984375 0.0341796875 0.0517578125
0 0.0 0.490234375 0.015625 0.0400390625
0 0.9697265625 0.0205078125 0.0302734375 0.0615234375
0 0.1298828125 0.5927734375 0.029296875 0.09375
0 0.0 0.1806640625 0.0302734375 0.0283203125
0 0.8818359375 0.119140625 0.1025390625 0.056640625
0 0.3544921875 0.6474609375 0.0341796875 0.068359375
0 0.8505859375 0.564453125 0.029296875 0.05859375
0 0.177734375 0.5927734375 0.05078125 0.046875
0 0.47265625 0.72265625 0.0283203125 0.056640625
0 0.548828125 0.96484375 0.04296875 0.03515625
0 0.2060546875 0.7470703125 0.06640625 0.0595703125
0 0.1396484375 0.1357421875 0.029296875 0.0556640625
0 0.0166015625 0.716796875 0.04296875 0.0625
0 0.185546875 0.6884765625 0.0654296875 0.052734375
0 0.931640625 0.2958984375 0.041015625 0.0966796875
0 0.2783203125 0.74609375 0.0546875 0.05078125
0 0.419921875 0.767578125 0.052734375 0.025390625
0 0.1064453125 0.443359375 0.0615234375 0.033203125
0 0.9638671875 0.5078125 0.033203125 0.048828125
0 0.5087890625 0.427734375 0.05078125 0.044921875
0 0.556640625 0.8291015625 0.03125 0.052734375
0 0.41015625 0.7197265625 0.0478515625 0.0546875
0 0.94921875 0.4697265625 0.0263671875 0.0537109375
0 0.0 0.78515625 0.03515625 0.0458984375
0 0.365234375 0.826171875 0.044921875 0.046875
0 0.015625 0.865234375 0.044921875 0.0400390625
0 0.658203125 0.015625 0.0341796875 0.0439453125
0 0.4619140625 0.056640625 0.03515625 0.068359375
0 0.19140625 0.5703125 0.0517578125 0.04296875
0 0.740234375 0.7666015625 0.0498046875 0.0546875
0 0.7744140625 0.8095703125 0.041015625 0.060546875
0 0.6591796875 0.8017578125 0.056640625 0.03515625
0 0.375 0.1533203125 0.044921875 0.04296875
