0 0.9052734375 0.421875 0.0556640625 0.1025390625
0 0.775390625 0.271484375 0.0625 0.123046875
0 0.0849609375 0.03515625 0.05078125 0.0986328125
0 0.625 0.673828125 0.07421875 0.0830078125
0 0.2705078125 0.6142578125 0.0849609375 0.09765625
0 0.6025390625 0.330078125 0.0986328125 0.05859375
0 0.0 0.4072265625 0.0380859375 0.08203125
0 0.1376953125 0.388671875 0.064453125 0.0791015625
0 0.5712890625 0.220703125 0.0986328125 0.0693359375
0 0.9033203125 0.1279296875 0.0693359375 0.0966796875
0 0.5966796875 0.712890625 0.1123046875 0.0869140625
0 0.5693359375 0.03125 0.1044921875 0.0712890625
0 0.1171875 0.7451171875 0.138671875 0.056640625
0 0.541015625 0.90625 0.134765625 0.0439453125
0 0.732421875 0.0 0.0654296875 0.08203125
0 0.7578125 0.1728515625 0.0732421875 0.076171875
0 0.865234375 0.328125 0.052734375 0.091796875
0 0.7373046875 0.494140625 0.0849609375 0.046875
0 0.0 0.2685546875 0.0859375 0.1044921875
0 0.91015625 0.861328125 0.0771484375 0.0673828125
0 0.0966796875 0.9150390625 0.1318359375 0.0849609375
0 0.556640625 0.9326171875 0.0517578125 0.0673828125
0 0.73828125 0.51953125 0.0771484375 0.05859375
0 0.7900390625 0.0 0.0986328125 0.12890625
0 0.2490234375 0.279296875 0.08203125 0.0771484375
0 0.5673828125 0.728515625 0.0830078125 0.0859375
0 0.36328125 0.1767578125 0.0947265625 0.10546875
0 0.5712890625 0.0859375 0.1162109375 0.0771484375
0 0.7294921875 0.1103515625 0.07421875 0.087890625
0 0.0361328125 0.85546875 0.0830078125 0.037109375
0 0.9072265625 0.9052734375 0.060546875 0.0595703125
0 0.857421875 0.41796875 0.048828125 0.078125
0 0.919921875 0.080078125 0.041015625 0.0859375
0 0.9677734375 0.3017578125 0.0322265625 0.0751953125
0 0.0107421875 0.736328125 0.091796875 0.080078125
0 0.0205078125 0.1376953125 0.1015625 0.044921875
0 0.0009765625 0.38671875 0.0751953125 0.0478515625
0 0.0380859375 0.1044921875 0.0830078125 0.0546875
0 0.5009765625 0.9619140625 0.0546875 0.0380859375
0 0.66796875 0.64453125 0.0595703125 0.0546875
0 0.556640625 0.392578125 0.0986328125 0.044921875
0 0.5478515625 0.453125 0.060546875 0.037109375
0 0.583984375 0.8359375 0.08203125 0.03125
0 0.8759765625 0.794921875 0.078125 0.048828125
0 0.0234375 0.0126953125 0.05859375 0.1044921875
0 0.0439453125 0.3740234375 0.056640625 0.0322265625
0 0.767578125 0.8291015625 0.109375 0.0478515625
0 0.8369140625 0.458984375 0.0537109375 0.0703125
0 0.90234375 0.0244140625 0.0546875 0.078125
0 0.47265625 0.3837890625 0.076171875 0.0732421875
0 0.03515625 0.2451171875 0.048828125 0.029296875
0 0.3466796875 0.7880859375 0.0810546875 0.0517578125
0 0.2109375 0.52734375 0.0830078125 0.0478515625
0 0.6767578125 0.8623046875 0.0537109375 0.048828125
0 0.302734375 0.365234375 0.08984375 0.064453125
0 0.69921875 0.6142578125 0.052734375 0.048828125
0 0.06640625 0.4072265625 0.056640625 0.0458984375
0 0.974609375 0.17578125 0.025390625 0.0634765625
0 0.9658203125 0.8271484375 0.0341796875 0.0458984375
0 0.892578125 0.5234375 0.0830078125 0.03515625
0 0.97265625 0.6640625 0.02734375 0.0595703125
0 0.8779296875 0.0 0.037109375 0.0263671875
0 0.974609375 0.607421875 0.025390625 0.052734375
0 0.0556640625 0.6953125 0.1708984375 0.0546875
0 0.1103515625 0.6767578125 0.1083984375 0.0380859375
