0 0.0 0.9853515625 0.037109375 0.0146484375
0 0.0 0.802734375 0.1181640625 0.064453125
0 0.0 0.712890625 0.064453125 0.0830078125
0 0.0 0.0390625 0.078125 0.08984375
0 0.0732421875 0.0 0.0732421875 0.1474609375
0 0.162109375 0.15625 0.0439453125 0.056640625
0 0.125 0.212890625 0.0546875 0.068359375
0 0.2763671875 0.1865234375 0.0810546875 0.087890625
0 0.3115234375 0.056640625 0.0556640625 0.0810546875
0 0.3642578125 0.0 0.056640625 0.0703125
0 0.3974609375 0.24609375 0.0693359375 0.07421875
0 0.3271484375 0.431640625 0.0791015625 0.072265625
0 0.388671875 0.349609375 0.1259765625 0.1796875
0 0.212890625 0.447265625 0.0888671875 0.119140625
0 0.052734375 0.330078125 0.111328125 0.1474609375
0 0.0673828125 0.453125 0.1669921875 0.16796875
0 0.056640625 0.681640625 0.0830078125 0.068359375
0 0.0849609375 0.84765625 0.0908203125 0.1025390625
0 0.259765625 0.9130859375 0.171875 0.0869140625
0 0.4638671875 0.8603515625 0.087890625 0.1357421875
0 0.33984375 0.7890625 0.1064453125 0.05078125
0 0.591796875 0.9765625 0.0791015625 0.0234375
0 0.638671875 0.91796875 0.0712890625 0.0732421875
0 0.5439453125 0.7724609375 0.0859375 0.1162109375
0 0.640625 0.7646484375 0.0859375 0.0634765625
0 0.91015625 0.884765625 0.056640625 0.08984375
0 0.927734375 0.7998046875 0.072265625 0.138671875
0 0.9228515625 0.6767578125 0.0751953125 0.07421875
0 0.4833984375 0.408203125 0.0615234375 0.134765625
0 0.7509765625 0.4873046875 0.0498046875 0.1875
0 0.76171875 0.6796875 0.0576171875 0.16015625
0 0.7783203125 0.318359375 0.1474609375 0.13671875
0 0.4658203125 0.2177734375 0.1044921875 0.0888671875
0 0.5244140625 0.337890625 0.0732421875 0.0712890625
0 0.3974609375 0.0478515625 0.15234375 0.0732421875
0 0.658203125 0.0712890625 0.1064453125 0.125
0 0.7900390625 0.0478515625 0.0791015625 0.1650390625
0 0.8876953125 0.0400390625 0.068359375 0.1103515625
0 0.7509765625 0.0 0.1220703125 0.0302734375
0 0.9521484375 0.1591796875 0.0478515625 0.05078125
0 0.955078125 0.5224609375 0.044921875 0.044921875
0 0.28515625 0.0 0.060546875 0.046875
