0 0.5595703125 0.6787109375 0.083984375 0.12890625
0 0.607421875 0.26171875 0.0693359375 0.0849609375
0 0.109375 0.2216796875 0.1025390625 0.0751953125
0 0.751953125 0.5771484375 0.0947265625 0.0947265625
0 0.3271484375 0.3193359375 0.0849609375 0.10546875
0 0.8994140625 0.8837890625 0.1005859375 0.1103515625
0 0.08203125 0.3466796875 0.044921875 0.0673828125
0 0.4716796875 0.5693359375 0.115234375 0.087890625
0 0.7265625 0.3896484375 0.0927734375 0.1044921875
0 0.20703125 0.1591796875 0.080078125 0.1025390625
0 0.90234375 0.4521484375 0.072265625 0.0947265625
0 0.8447265625 0.33984375 0.0849609375 0.080078125
0 0.0712890625 0.634765625 0.1025390625 0.0595703125
0 0.8916015625 0.744140625 0.1083984375 0.0908203125
0 0.287109375 0.529296875 0.080078125 0.060546875
0 0.3134765625 0.0 0.091796875 0.052734375
