0 0.3017578125 0.0390625 0.060546875 0.08203125
0 0.1865234375 0.263671875 0.0703125 0.1064453125
0 0.25 0.2060546875 0.0400390625 0.1201171875
0 0.0 0.3720703125 0.0341796875 0.060546875
0 0.392578125 0.01953125 0.0712890625 0.0703125
0 0.37783203125 0.92744140625 0.14033203125000004 0.06074218749999993
0 0.3330078125 0.3232421875 0.0341796875 0.068359375
0 0.1865234375 0.07421875 0.060546875 0.0634765625
0 0.005859375 0.0771484375 0.0693359375 0.0380859375
0 0.490234375 0.2265625 0.0830078125 0.0380859375
0 0.0 0.6572265625 0.0302734375 0.0595703125
0 0.3125 0.6728515625 0.087890625 0.0615234375
0 0.087890625 0.771484375 0.0693359375 0.0693359375
0 0.6552734375 0.0146484375 0.056640625 0.02734375
0 0.7802734375 0.7578125 0.044921875 0.0751953125
0 0.1328125 0.451171875 0.0322265625 0.0712890625
0 0.9638671875 0.38671875 0.0361328125 0.080078125
0 0.75 0.0537109375 0.0400390625 0.08203125
0 0.74609375 0.251953125 0.0556640625 0.0419921875
0 0.146484375 0.4130859375 0.0595703125 0.05078125
0 0.650390625 0.9580078125 0.0556640625 0.0390625
0 0.9609375 0.466796875 0.0390625 0.06640625
0 0.322265625 0.787109375 0.0634765625 0.0458984375
0 0.603515625 0.4208984375 0.0625 0.046875
0 0.16796875 0.73046875 0.0888671875 0.0478515625
0 0.0380859375 0.5263671875 0.0302734375 0.0576171875
0 0.201171875 0.0009765625 0.0380859375 0.046875
0 0.39453125 0.1953125 0.0625 0.05078125
0 0.9541015625 0.80078125 0.0439453125 0.0576171875
0 0.3896484375 0.0966796875 0.080078125 0.0634765625
0 0.833984375 0.6474609375 0.0478515625 0.0546875
0 0.974609375 0.02734375 0.025390625 0.072265625
0 0.341796875 0.583984375 0.0439453125 0.03125
0 0.310546875 0.505859375 0.044921875 0.03125
0 0.09375 0.7197265625 0.05078125 0.0517578125
0 0.884765625 0.28125 0.08984375 0.0546875
0 0.4697265625 0.3408203125 0.052734375 0.033203125
0 0.8212890625 0.931640625 0.060546875 0.037109375
0 0.9580078125 0.75 0.037109375 0.0576171875
0 0.5712890625 0.646484375 0.0654296875 0.05078125
0 0.435546875 0.107421875 0.05859375 0.0654296875
0 0.9619140625 0.173828125 0.0380859375 0.046875
0 0.9140625 0.8916015625 0.0439453125 0.05078125
0 0.818359375 0.724609375 0.033203125 0.0625
0 0.4658203125 0.490234375 0.0830078125 0.0625
0 0.1787109375 0.4892578125 0.037109375 0.0703125
0 0.0 0.815625 0.029296875 0.05117187499999998
0 0.552734375 0.75390625 0.046875 0.0576171875
0 0.0693359375 0.826171875 0.0791015625 0.029296875
0 0.826171875 0.6943359375 0.0244140625 0.0556640625
0 0.451171875 0.546875 0.076171875 0.033203125
0 0.2236328125 0.4873046875 0.048828125 0.046875
0 0.0859375 0.52998046875 0.08583984375 0.04335937499999998
0 0.7216796875 0.8896484375 0.0751953125 0.0498046875
0 0.564453125 0.46484375 0.0390625 0.03515625
0 0.8193359375 0.259765625 0.0498046875 0.05078125
0 0.9306640625 0.974609375 0.02734375 0.025390625
0 0.728515625 0.4453125 0.0498046875 0.06640625
0 0.91015625 0.4228515625 0.0595703125 0.0703125
0 0.9677734375 0.599609375 0.0322265625 0.083984375
0 0.6005859375 0.5224609375 0.087890625 0.044921875
0 0.419921875 0.396484375 0.0751953125 0.0810546875
0 0.56640625 0.4990234375 0.0927734375 0.0595703125
