0 0.427734375 0.3994140625 0.0634765625 0.0947265625
0 0.845703125 0.4345703125 0.052734375 0.080078125
0 0.119140625 0.3505859375 0.064453125 0.083984375
0 0.7080078125 0.1650390625 0.0966796875 0.0634765625
0 0.392578125 0.083984375 0.0576171875 0.0859375
0 0.0 0.373046875 0.0380859375 0.076171875
0 0.3408203125 0.5537109375 0.0732421875 0.064453125
0 0.5419921875 0.4365234375 0.0712890625 0.1044921875
0 0.1279296875 0.03515625 0.0439453125 0.0947265625
0 0.384765625 0.7783203125 0.0458984375 0.083984375
0 0.0 0.611328125 0.078125 0.0517578125
0 0.3291015625 0.111328125 0.0703125 0.0771484375
0 0.0 0.1123046875 0.07421875 0.087890625
0 0.8798828125 0.17578125 0.0400390625 0.080078125
0 0.9169921875 0.80859375 0.048828125 0.0712890625
0 0.4052734375 0.53125 0.083984375 0.0537109375
0 0.33984375 0.8623046875 0.0517578125 0.07421875
0 0.0556640625 0.46875 0.0595703125 0.064453125
0 0.1474609375 0.4873046875 0.0302734375 0.0712890625
0 0.4521484375 0.7236328125 0.05078125 0.0673828125
0 0.541015625 0.2353515625 0.0341796875 0.0615234375
0 0.5576171875 0.00390625 0.0576171875 0.0654296875
0 0.6630859375 0.7470703125 0.05078125 0.0771484375
0 0.611328125 0.4404296875 0.0419921875 0.076171875
0 0.060546875 0.380859375 0.103515625 0.0732421875
0 0.4150390625 0.2314453125 0.0595703125 0.0517578125
0 0.828125 0.9541015625 0.0380859375 0.0458984375
0 0.4248046875 0.5009765625 0.0615234375 0.0341796875
0 0.498046875 0.384765625 0.0546875 0.072265625
0 0.6884765625 0.2236328125 0.0546875 0.2080078125
0 0.115234375 0.55859375 0.060546875 0.0478515625
0 0.0 0.8818359375 0.0224609375 0.03515625
0 0.4775390625 0.490234375 0.06640625 0.046875
0 0.0556640625 0.2666015625 0.05078125 0.0458984375
0 0.44140625 0.7783203125 0.056640625 0.0419921875
0 0.5615234375 0.560546875 0.06640625 0.0478515625
0 0.0 0.55859375 0.0517578125 0.056640625
0 0.1376953125 0.689453125 0.0576171875 0.0341796875
0 0.80078125 0.490234375 0.041015625 0.0517578125
0 0.9560546875 0.58203125 0.0439453125 0.0419921875
0 0.02734375 0.0556640625 0.033203125 0.0654296875
0 0.0166015625 0.556640625 0.091796875 0.0576171875
0 0.6396484375 0.578125 0.0400390625 0.0556640625
0 0.72265625 0.548828125 0.0439453125 0.046875
0 0.8291015625 0.1220703125 0.033203125 0.0771484375
0 0.5546875 0.38671875 0.0537109375 0.0576171875
0 0.060546875 0.88671875 0.1044921875 0.0419921875
0 0.6689453125 0.8837890625 0.0458984375 0.041015625
0 0.1884765625 0.8720703125 0.0703125 0.0361328125
0 0.771484375 0.244140625 0.0419921875 0.0419921875
0 0.4287109375 0.6162109375 0.056640625 0.1005859375
0 0.478515625 0.6708984375 0.0458984375 0.0654296875
0 0.0517578125 0.0 0.0517578125 0.01953125
0 0.7099609375 0.802734375 0.0498046875 0.0673828125
0 0.5517578125 0.8564453125 0.0322265625 0.0458984375
0 0.8564453125 0.046875 0.056640625 0.1064453125
0 0.9755859375 0.0 0.0244140625 0.04296875
0 0.685546875 0.5712890625 0.0390625 0.0439453125
0 0.9541015625 0.7666015625 0.0458984375 0.0439453125
0 0.009765625 0.4599609375 0.07421875 0.0400390625
0 0.0947265625 0.4296875 0.08203125 0.0576171875
0 0.548828125 0.017578125 0.0625 0.0654296875
0 0.0 0.4775390625 0.01953125 0.033203125
0 0.8515625 0.0 0.048828125 0.0634765625
