0 0.001953125 0.349609375 0.1201171875 0.1171875
0 0.669921875 0.71484375 0.1298828125 0.1123046875
0 0.162109375 0.0341796875 0.0947265625 0.1328125
0 0.6630859375 0.4814453125 0.095703125 0.10546875
0 0.0634765625 0.72265625 0.07421875 0.08203125
0 0.349609375 0.2138671875 0.072265625 0.134765625
0 0.5517578125 0.4521484375 0.0927734375 0.0625
0 0.314453125 0.7890625 0.1201171875 0.0703125
0 0.13671875 0.57421875 0.095703125 0.142578125
0 0.439453125 0.3466796875 0.1474609375 0.10546875
0 0.044921875 0.6396484375 0.0693359375 0.0625
0 0.287109375 0.6220703125 0.0673828125 0.1826171875
0 0.83203125 0.76171875 0.08984375 0.1376953125
0 0.0 0.0791015625 0.0615234375 0.1142578125
0 0.3017578125 0.1796875 0.0751953125 0.0751953125
0 0.654296875 0.306640625 0.1328125 0.0625
0 0.4169921875 0.63671875 0.087890625 0.10546875
0 0.1796875 0.0 0.08203125 0.0498046875
0 0.46484375 0.0 0.0595703125 0.037109375
0 0.33984375 0.0166015625 0.0693359375 0.0654296875
0 0.0 0.82421875 0.1015625 0.1103515625
0 0.716796875 0.2919921875 0.169921875 0.16015625
0 0.384765625 0.556640625 0.1318359375 0.0849609375
0 0.091796875 0.0693359375 0.0625 0.060546875
0 0.6318359375 0.849609375 0.1552734375 0.1474609375
0 0.0693359375 0.5048828125 0.078125 0.13671875
0 0.3447265625 0.6318359375 0.0947265625 0.1826171875
0 0.5419921875 0.5341796875 0.1201171875 0.0908203125
0 0.876953125 0.40234375 0.1123046875 0.14453125
0 0.2041015625 0.904296875 0.0849609375 0.095703125
0 0.7744140625 0.404296875 0.125 0.1025390625
0 0.3974609375 0.01171875 0.0673828125 0.087890625
0 0.234375 0.634765625 0.044921875 0.080078125
0 0.9130859375 0.1435546875 0.0869140625 0.091796875
0 0.1396484375 0.0 0.0546875 0.0322265625
0 0.89453125 0.7470703125 0.09765625 0.0947265625
0 0.3798828125 0.5693359375 0.0849609375 0.087890625
0 0.607421875 0.8671875 0.0869140625 0.1328125
0 0.0595703125 0.46484375 0.0625 0.091796875
0 0.732421875 0.33984375 0.1669921875 0.1572265625
0 0.0693359375 0.9169921875 0.078125 0.080078125
0 0.322265625 0.9443359375 0.0849609375 0.052734375
0 0.921875 0.0390625 0.078125 0.0576171875
0 0.0068359375 0.419921875 0.1123046875 0.056640625
0 0.14453125 0.58203125 0.0703125 0.0625
0 0.9248046875 0.6669921875 0.0751953125 0.0751953125
0 0.921875 0.7421875 0.078125 0.1025390625
0 0.876953125 0.95703125 0.0771484375 0.04296875
0 0.634765625 0.88671875 0.08203125 0.11328125
