0 0.412109375 0.5478515625 0.0947265625 0.1064453125
0 0.505859375 0.75390625 0.1240234375 0.1103515625
0 0.76953125 0.234375 0.1728515625 0.080078125
0 0.400390625 0.3427734375 0.1162109375 0.1171875
0 0.7412109375 0.3388671875 0.1533203125 0.0810546875
0 0.84375 0.5126953125 0.1162109375 0.0771484375
0 0.556640625 0.22265625 0.1376953125 0.13671875
0 0.4609375 0.03125 0.068359375 0.0703125
0 0.294921875 0.7841796875 0.0693359375 0.080078125
0 0.162109375 0.3984375 0.099609375 0.0888671875
0 0.333984375 0.6708984375 0.064453125 0.0556640625
0 0.4208984375 0.7294921875 0.0888671875 0.05859375
0 0.2236328125 0.5009765625 0.1015625 0.0712890625
0 0.7744140625 0.001953125 0.0576171875 0.064453125
0 0.953125 0.607421875 0.046875 0.046875
