0 0.1171875 0.0283203125 0.0576171875 0.0869140625
0 0.251953125 0.0 0.091796875 0.1337890625
0 0.4248046875 0.0 0.0791015625 0.08203125
0 0.822265625 0.0 0.0927734375 0.0634765625
0 0.48828125 0.0 0.107421875 0.0517578125
0 0.5498046875 0.1689453125 0.123046875 0.0654296875
0 0.7880859375 0.185546875 0.0869140625 0.0888671875
0 0.84375 0.091796875 0.0732421875 0.1015625
0 0.708984375 0.318359375 0.0537109375 0.0771484375
0 0.4453125 0.380859375 0.0615234375 0.09375
0 0.490234375 0.3974609375 0.0703125 0.1064453125
0 0.2763671875 0.4130859375 0.0986328125 0.0888671875
0 0.099609375 0.4951171875 0.1015625 0.140625
0 0.0 0.578125 0.0322265625 0.2001953125
0 0.0 0.4609375 0.0302734375 0.099609375
0 0.0 0.7958984375 0.0205078125 0.095703125
0 0.1748046875 0.69921875 0.0751953125 0.0966796875
0 0.23046875 0.828125 0.115234375 0.0712890625
0 0.19921875 0.87890625 0.126953125 0.08984375
0 0.130859375 0.9208984375 0.0859375 0.0791015625
0 0.2978515625 0.5703125 0.0703125 0.126953125
0 0.3515625 0.5400390625 0.083984375 0.10546875
0 0.4404296875 0.615234375 0.076171875 0.091796875
0 0.57421875 0.58984375 0.1005859375 0.1708984375
0 0.5341796875 0.720703125 0.0654296875 0.0732421875
0 0.6376953125 0.462890625 0.0751953125 0.115234375
0 0.7822265625 0.5087890625 0.0654296875 0.14453125
0 0.740234375 0.611328125 0.0595703125 0.140625
0 0.0 0.255859375 0.0224609375 0.08203125
0 0.740234375 0.9248046875 0.0859375 0.068359375
0 0.828125 0.865234375 0.142578125 0.083984375
0 0.8916015625 0.751953125 0.0693359375 0.091796875
0 0.97265625 0.7666015625 0.02734375 0.0732421875
0 0.953125 0.556640625 0.0390625 0.0771484375
0 0.9287109375 0.4052734375 0.0712890625 0.0986328125
0 0.0 0.173828125 0.0556640625 0.076171875
0 0.919921875 0.23046875 0.080078125 0.0751953125
0 0.927734375 0.1650390625 0.05078125 0.06640625
0 0.9296875 0.0 0.0458984375 0.0478515625
