0 0.64453125 0.0498046875 0.125 0.0771484375
0 0.3662109375 0.380859375 0.10546875 0.09765625
0 0.4892578125 0.6796875 0.0751953125 0.0703125
0 0.5595703125 0.296875 0.08984375 0.0703125
0 0.7119140625 0.619140625 0.087890625 0.0751953125
0 0.1845703125 0.529296875 0.150390625 0.1025390625
0 0.689453125 0.52734375 0.10546875 0.07421875
0 0.193359375 0.822265625 0.060546875 0.0673828125
0 0.5234375 0.4658203125 0.1015625 0.0732421875
0 0.029296875 0.162109375 0.078125 0.09765625
0 0.33203125 0.8974609375 0.080078125 0.08984375
0 0.759765625 0.7841796875 0.109375 0.158203125
0 0.7666015625 0.4072265625 0.0732421875 0.072265625
0 0.22265625 0.126953125 0.0771484375 0.0849609375
0 0.4716796875 0.001953125 0.1103515625 0.1298828125
0 0.423828125 0.923828125 0.0673828125 0.0703125
0 0.9267578125 0.33203125 0.0732421875 0.08203125
0 0.869140625 0.0 0.1279296875 0.1689453125
0 0.0341796875 0.76953125 0.11328125 0.080078125
0 0.8994140625 0.15234375 0.087890625 0.109375
0 0.2099609375 0.056640625 0.091796875 0.060546875
0 0.5146484375 0.412109375 0.0771484375 0.0546875
0 0.751953125 0.3349609375 0.15234375 0.08203125
0 0.177734375 0.1865234375 0.0625 0.0615234375
0 0.3232421875 0.1796875 0.0703125 0.080078125
0 0.94921875 0.0869140625 0.05078125 0.1376953125
0 0.15234375 0.9375 0.0576171875 0.0546875
0 0.5947265625 0.6943359375 0.0927734375 0.078125
0 0.099609375 0.82421875 0.087890625 0.060546875
0 0.859375 0.662109375 0.08984375 0.16015625
0 0.3515625 0.6572265625 0.0830078125 0.1123046875
0 0.591796875 0.7568359375 0.0703125 0.0576171875
0 0.58203125 0.529296875 0.0654296875 0.0556640625
0 0.3720703125 0.7197265625 0.150390625 0.080078125
0 0.5146484375 0.109375 0.0625 0.0751953125
0 0.3828125 0.201171875 0.078125 0.1640625
0 0.876953125 0.296875 0.0703125 0.0830078125
0 0.8798828125 0.806640625 0.1201171875 0.078125
0 0.1923828125 0.001953125 0.080078125 0.0576171875
0 0.9423828125 0.6474609375 0.0546875 0.0693359375
0 0.1796875 0.4921875 0.0703125 0.0703125
0 0.302734375 0.0009765625 0.1162109375 0.0634765625
0 0.001953125 0.931640625 0.072265625 0.068359375
0 0.0009765625 0.0 0.0751953125 0.0791015625
0 0.001953125 0.654296875 0.0546875 0.0556640625
0 0.8798828125 0.822265625 0.0771484375 0.0673828125
0 0.001953125 0.3642578125 0.0751953125 0.080078125
0 0.443359375 0.158203125 0.07421875 0.0849609375
0 0.8369140625 0.4091796875 0.0751953125 0.0556640625
0 0.0 0.7685546875 0.0361328125 0.0771484375
0 0.001953125 0.1123046875 0.0400390625 0.0673828125
0 0.361328125 0.3369140625 0.0546875 0.0498046875
0 0.421875 0.427734375 0.0419921875 0.03515625
0 0.6474609375 0.724609375 0.0771484375 0.080078125
0 0.8896484375 0.65234375 0.0625 0.08203125
