0 0.302734375 0.0849609375 0.076171875 0.0771484375
0 0.1181640625 0.111328125 0.173828125 0.1005859375
0 0.169921875 0.177734375 0.1806640625 0.208984375
0 0.052734375 0.146484375 0.0810546875 0.0986328125
0 0.5859375 0.0087890625 0.083984375 0.103515625
0 0.5029296875 0.16796875 0.2109375 0.08203125
0 0.5478515625 0.2705078125 0.0830078125 0.1015625
0 0.310546875 0.431640625 0.103515625 0.095703125
0 0.783203125 0.2158203125 0.07421875 0.1708984375
0 0.8427734375 0.2724609375 0.0947265625 0.1328125
0 0.802734375 0.4130859375 0.083984375 0.06640625
0 0.75390625 0.50390625 0.0751953125 0.08203125
0 0.6669921875 0.337890625 0.09765625 0.1220703125
0 0.6611328125 0.455078125 0.08984375 0.1484375
0 0.5576171875 0.3935546875 0.10546875 0.0712890625
0 0.9228515625 0.4150390625 0.0771484375 0.0810546875
0 0.1142578125 0.6748046875 0.1669921875 0.1220703125
0 0.6220703125 0.65234375 0.0830078125 0.1025390625
0 0.515625 0.83984375 0.080078125 0.16015625
0 0.6337890625 0.8251953125 0.0849609375 0.16015625
0 0.7939453125 0.8642578125 0.0751953125 0.107421875
0 0.7509765625 0.9169921875 0.0830078125 0.0830078125
0 0.8828125 0.9267578125 0.0634765625 0.068359375
0 0.9677734375 0.9228515625 0.0322265625 0.0712890625
0 0.931640625 0.5595703125 0.06640625 0.26171875
0 0.8974609375 0.0791015625 0.060546875 0.1328125
0 0.939453125 0.107421875 0.060546875 0.146484375
0 0.7607421875 0.0205078125 0.1484375 0.140625
0 0.1298828125 0.001953125 0.10546875 0.09375
0 0.66015625 0.9619140625 0.0966796875 0.0380859375
0 0.7724609375 0.474609375 0.080078125 0.0703125
0 0.0 0.013671875 0.033203125 0.0732421875
0 0.0 0.0869140625 0.041015625 0.1064453125
0 0.8544921875 0.2470703125 0.09375 0.0771484375
0 0.8349609375 0.2412109375 0.1064453125 0.107421875
0 0.7421875 0.3828125 0.0517578125 0.05859375
