0 0.005859375 0.529296875 0.087890625 0.0869140625
0 0.0654296875 0.6611328125 0.1259765625 0.1220703125
0 0.7255859375 0.2861328125 0.0634765625 0.046875
0 0.0126953125 0.318359375 0.087890625 0.1962890625
0 0.1376953125 0.5390625 0.087890625 0.083984375
0 0.1640625 0.16796875 0.2001953125 0.1640625
0 0.0029296875 0.4697265625 0.1240234375 0.1044921875
0 0.4111328125 0.0224609375 0.2119140625 0.1591796875
0 0.43359375 0.005859375 0.2392578125 0.103515625
0 0.001953125 0.697265625 0.107421875 0.1337890625
0 0.330078125 0.26171875 0.1474609375 0.103515625
0 0.8515625 0.9111328125 0.087890625 0.0732421875
0 0.25 0.9267578125 0.1943359375 0.0732421875
0 0.208984375 0.498046875 0.1552734375 0.1162109375
0 0.0 0.029296875 0.1064453125 0.0869140625
0 0.587890625 0.8583984375 0.1015625 0.0869140625
0 0.14453125 0.8154296875 0.0869140625 0.1845703125
0 0.439453125 0.4306640625 0.197265625 0.05078125
0 0.65625 0.703125 0.1005859375 0.044921875
0 0.4423828125 0.6025390625 0.10546875 0.04296875
0 0.0048828125 0.62109375 0.0693359375 0.044921875
