0 0.2451171875 0.0 0.072265625 0.0546875
0 0.140625 0.083984375 0.05859375 0.064453125
0 0.0869140625 0.33203125 0.0888671875 0.072265625
0 0.0 0.5390625 0.0498046875 0.083984375
0 0.0146484375 0.697265625 0.072265625 0.0751953125
0 0.0478515625 0.783203125 0.072265625 0.0849609375
0 0.16796875 0.7685546875 0.0986328125 0.0556640625
0 0.0986328125 0.8671875 0.076171875 0.078125
0 0.142578125 0.9296875 0.0654296875 0.052734375
0 0.087890625 0.4560546875 0.080078125 0.05859375
0 0.2265625 0.306640625 0.0625 0.0625
0 0.373046875 0.2958984375 0.056640625 0.080078125
0 0.341796875 0.5419921875 0.095703125 0.05859375
0 0.3173828125 0.44140625 0.095703125 0.076171875
0 0.427734375 0.580078125 0.07421875 0.119140625
0 0.3349609375 0.673828125 0.0693359375 0.0712890625
0 0.42578125 0.693359375 0.083984375 0.0830078125
0 0.53515625 0.6279296875 0.0771484375 0.0869140625
0 0.328125 0.0283203125 0.0693359375 0.0869140625
0 0.4189453125 0.087890625 0.0478515625 0.0771484375
0 0.5166015625 0.1337890625 0.06640625 0.111328125
0 0.3798828125 0.2431640625 0.0654296875 0.0517578125
0 0.6806640625 0.2392578125 0.0703125 0.0791015625
0 0.748046875 0.2001953125 0.09375 0.0869140625
0 0.53515625 0.0 0.0888671875 0.03125
0 0.57421875 0.0 0.06640625 0.091796875
0 0.671875 0.0 0.123046875 0.033203125
0 0.890625 0.2939453125 0.0712890625 0.0771484375
0 0.873046875 0.2451171875 0.07421875 0.072265625
0 0.740234375 0.41796875 0.09375 0.0673828125
0 0.861328125 0.4736328125 0.0693359375 0.0634765625
0 0.91796875 0.5166015625 0.08203125 0.0791015625
0 0.873046875 0.6064453125 0.0634765625 0.08984375
0 0.7470703125 0.634765625 0.0771484375 0.064453125
0 0.8564453125 0.7373046875 0.11328125 0.109375
0 0.9326171875 0.8583984375 0.0673828125 0.0556640625
0 0.755859375 0.8896484375 0.0791015625 0.0830078125
0 0.546875 0.8017578125 0.091796875 0.078125
0 0.4091796875 0.83203125 0.0546875 0.08984375
0 0.529296875 0.87109375 0.0400390625 0.0478515625
0 0.4443359375 0.478515625 0.0673828125 0.046875
0 0.78515625 0.943359375 0.0849609375 0.056640625
0 0.8525390625 0.005859375 0.0810546875 0.080078125
0 0.748046875 0.0419921875 0.0703125 0.0625
0 0.5361328125 0.259765625 0.05859375 0.076171875
0 0.55078125 0.587890625 0.0791015625 0.0537109375
0 0.56640625 0.76171875 0.064453125 0.0615234375
0 0.962890625 0.67578125 0.037109375 0.0703125
0 0.650390625 0.1171875 0.064453125 0.0556640625
0 0.861328125 0.091796875 0.052734375 0.0283203125
0 0.353515625 0.6396484375 0.060546875 0.103515625
