0 0.92578125 0.3701171875 0.0673828125 0.0791015625
0 0.1025390625 0.0927734375 0.0810546875 0.1142578125
0 0.4248046875 0.5078125 0.04296875 0.0908203125
0 0.1064453125 0.814453125 0.0927734375 0.0849609375
0 0.01171875 0.8779296875 0.05078125 0.0986328125
0 0.22265625 0.0859375 0.0595703125 0.072265625
0 0.0 0.166015625 0.0498046875 0.0810546875
0 0.171875 0.2392578125 0.095703125 0.072265625
0 0.369140625 0.19140625 0.076171875 0.064453125
0 0.083984375 0.5673828125 0.0703125 0.0576171875
0 0.287109375 0.2763671875 0.0576171875 0.0693359375
0 0.1953125 0.6337890625 0.0810546875 0.0498046875
0 0.8876953125 0.40625 0.041015625 0.078125
0 0.5859375 0.1279296875 0.0439453125 0.1025390625
0 0.8447265625 0.1259765625 0.060546875 0.07421875
0 0.0 0.46484375 0.048828125 0.0576171875
0 0.8623046875 0.8232421875 0.0556640625 0.0673828125
0 0.6884765625 0.82421875 0.103515625 0.05078125
0 0.890625 0.0888671875 0.083984375 0.0947265625
0 0.044921875 0.4580078125 0.0712890625 0.1064453125
0 0.9404296875 0.5537109375 0.0595703125 0.046875
0 0.4931640625 0.9716796875 0.052734375 0.0263671875
0 0.5263671875 0.6376953125 0.0537109375 0.115234375
0 0.0 0.013671875 0.0380859375 0.0478515625
0 0.060546875 0.7783203125 0.0615234375 0.04296875
0 0.7529296875 0.048828125 0.05859375 0.041015625
0 0.0791015625 0.0009765625 0.0361328125 0.0263671875
0 0.451171875 0.3876953125 0.0732421875 0.0302734375
0 0.75 0.28125 0.064453125 0.05078125
0 0.4658203125 0.08984375 0.0859375 0.0419921875
0 0.3505859375 0.052734375 0.0732421875 0.0439453125
0 0.6025390625 0.744140625 0.080078125 0.0556640625
0 0.18359375 0.5556640625 0.0537109375 0.0322265625
0 0.919921875 0.8935546875 0.0458984375 0.06640625
0 0.6025390625 0.9658203125 0.0419921875 0.02734375
0 0.7470703125 0.2138671875 0.0537109375 0.0546875
0 0.0537109375 0.9033203125 0.087890625 0.0341796875
0 0.5966796875 0.6630859375 0.0634765625 0.04296875
0 0.373046875 0.5966796875 0.05859375 0.0185546875
0 0.8798828125 0.58203125 0.0302734375 0.0791015625
0 0.74609375 0.6357421875 0.029296875 0.0615234375
0 0.3818359375 0.89453125 0.091796875 0.0380859375
0 0.78125 0.8857421875 0.0625 0.0517578125
0 0.8994140625 0.484375 0.0361328125 0.0576171875
0 0.470703125 0.4248046875 0.0947265625 0.0400390625
0 0.197265625 0.787109375 0.0517578125 0.0400390625
0 0.91015625 0.9462890625 0.0595703125 0.0341796875
0 0.3544921875 0.0 0.0380859375 0.0244140625
0 0.591796875 0.0703125 0.0478515625 0.052734375
0 0.4287109375 0.0439453125 0.041015625 0.048828125
0 0.8818359375 0.623046875 0.048828125 0.0869140625
0 0.30859375 0.1533203125 0.0439453125 0.0458984375
0 0.6748046875 0.701171875 0.056640625 0.0576171875
0 0.5234375 0.330078125 0.0498046875 0.05078125
0 0.1630859375 0.60546875 0.0595703125 0.0625
0 0.8125 0.388671875 0.041015625 0.0322265625
0 0.71484375 0.3046875 0.0400390625 0.044921875
0 0.6376953125 0.462890625 0.0927734375 0.0556640625
0 0.2880859375 0.033203125 0.0791015625 0.0576171875
0 0.3056640625 0.787109375 0.107421875 0.0478515625
0 0.1904296875 0.9580078125 0.12890625 0.0419921875
0 0.6015625 0.70703125 0.0703125 0.037109375
0 0.962890625 0.69140625 0.037109375 0.0869140625
