0 0.01953125 0.6552734375 0.048828125 0.1025390625
0 0.0791015625 0.931640625 0.0712890625 0.068359375
0 0.427734375 0.708984375 0.0654296875 0.080078125
0 0.00390625 0.0458984375 0.052734375 0.080078125
0 0.259765625 0.03515625 0.0478515625 0.09765625
0 0.1396484375 0.2958984375 0.0439453125 0.0810546875
0 0.083984375 0.0224609375 0.0888671875 0.0908203125
0 0.7177734375 0.275390625 0.0380859375 0.1044921875
0 0.759765625 0.7578125 0.0654296875 0.0712890625
0 0.3525390625 0.07421875 0.046875 0.076171875
0 0.560546875 0.0 0.0498046875 0.07421875
0 0.716796875 0.583984375 0.06640625 0.08984375
0 0.564453125 0.0439453125 0.0400390625 0.087890625
0 0.5419921875 0.716796875 0.0390625 0.087890625
0 0.896484375 0.376953125 0.0380859375 0.07421875
0 0.0087890625 0.5927734375 0.068359375 0.080078125
0 0.5634765625 0.1318359375 0.0439453125 0.0771484375
0 0.8740234375 0.03515625 0.04296875 0.0791015625
0 0.2197265625 0.0419921875 0.0419921875 0.09375
0 0.2138671875 0.3251953125 0.0439453125 0.0693359375
0 0.578125 0.37109375 0.03515625 0.0888671875
0 0.3125 0.7646484375 0.0615234375 0.0712890625
0 0.1845703125 0.6259765625 0.0283203125 0.083984375
0 0.169921875 0.4091796875 0.0498046875 0.060546875
0 0.427734375 0.1220703125 0.0341796875 0.0830078125
0 0.59765625 0.0068359375 0.0712890625 0.1103515625
0 0.4580078125 0.814453125 0.0322265625 0.091796875
0 0.630859375 0.880859375 0.0380859375 0.1083984375
0 0.25390625 0.4150390625 0.03515625 0.0751953125
0 0.4541015625 0.6064453125 0.037109375 0.087890625
0 0.3251953125 0.1044921875 0.029296875 0.0576171875
0 0.80078125 0.005859375 0.044921875 0.0693359375
0 0.3046875 0.25390625 0.0732421875 0.0400390625
0 0.3837890625 0.955078125 0.046875 0.04296875
0 0.90625 0.1220703125 0.025390625 0.0654296875
0 0.6787109375 0.705078125 0.04296875 0.0751953125
0 0.8232421875 0.71484375 0.052734375 0.0751953125
0 0.6953125 0.3916015625 0.033203125 0.080078125
0 0.4091796875 0.087890625 0.06640625 0.056640625
0 0.2412109375 0.78515625 0.03515625 0.07421875
0 0.6083984375 0.4169921875 0.0361328125 0.06640625
0 0.9453125 0.34765625 0.029296875 0.072265625
0 0.6865234375 0.658203125 0.041015625 0.06640625
0 0.7177734375 0.0458984375 0.0439453125 0.0849609375
0 0.03515625 0.1396484375 0.0498046875 0.052734375
0 0.85546875 0.7177734375 0.041015625 0.0751953125
0 0.1953125 0.8359375 0.05078125 0.052734375
0 0.7998046875 0.2607421875 0.0263671875 0.0576171875
0 0.099609375 0.62109375 0.0517578125 0.1171875
0 0.48046875 0.0625 0.03515625 0.07421875
0 0.0849609375 0.611328125 0.056640625 0.0498046875
0 0.5966796875 0.603515625 0.048828125 0.11328125
0 0.5478515625 0.1337890625 0.029296875 0.0791015625
0 0.9697265625 0.4541015625 0.0302734375 0.0615234375
0 0.921875 0.4873046875 0.0419921875 0.060546875
0 0.716796875 0.455078125 0.0732421875 0.046875
0 0.2744140625 0.9697265625 0.0654296875 0.0302734375
0 0.1484375 0.953125 0.03125 0.046875
0 0.4111328125 0.58984375 0.0419921875 0.0546875
0 0.810546875 0.1865234375 0.0654296875 0.029296875
0 0.173828125 0.9765625 0.05078125 0.0234375
0 0.4052734375 0.775390625 0.0439453125 0.0458984375
0 0.8154296875 0.6962890625 0.03515625 0.0546875
0 0.92578125 0.0 0.029296875 0.0302734375
0 0.357421875 0.421875 0.078125 0.0498046875
0 0.1044921875 0.7216796875 0.0751953125 0.0810546875
0 0.9326171875 0.4365234375 0.03515625 0.0390625
0 0.2314453125 0.7919921875 0.03515625 0.06640625
0 0.22265625 0.5498046875 0.0400390625 0.0751953125
