0 0.0146484375 0.3515625 0.0791015625 0.095703125
0 0.4658203125 0.3984375 0.0576171875 0.0859375
0 0.900390625 0.564453125 0.0556640625 0.083984375
0 0.3837890625 0.158203125 0.0478515625 0.07421875
0 0.7021484375 0.6943359375 0.0625 0.07421875
0 0.7744140625 0.8134765625 0.0791015625 0.0908203125
0 0.0546875 0.7529296875 0.0625 0.08984375
0 0.6142578125 0.28515625 0.0556640625 0.0986328125
0 0.1318359375 0.0537109375 0.044921875 0.076171875
0 0.2783203125 0.0224609375 0.0537109375 0.123046875
0 0.1162109375 0.2841796875 0.0556640625 0.095703125
0 0.044921875 0.1533203125 0.0498046875 0.126953125
0 0.9677734375 0.005859375 0.0322265625 0.078125
0 0.140625 0.5625 0.060546875 0.0947265625
0 0.6845703125 0.44921875 0.0576171875 0.0947265625
0 0.6064453125 0.439453125 0.0380859375 0.1064453125
0 0.560546875 0.1103515625 0.041015625 0.1123046875
0 0.724609375 0.1142578125 0.05078125 0.095703125
0 0.8720703125 0.1171875 0.0537109375 0.0927734375
0 0.2294921875 0.1435546875 0.05078125 0.08984375
0 0.6953125 0.232421875 0.033203125 0.1005859375
0 0.0 0.478515625 0.0224609375 0.0908203125
0 0.841796875 0.1396484375 0.03125 0.09375
0 0.4794921875 0.552734375 0.0263671875 0.0625
0 0.7412109375 0.5615234375 0.0361328125 0.07421875
0 0.3017578125 0.267578125 0.052734375 0.099609375
0 0.3125 0.2783203125 0.0712890625 0.0439453125
0 0.20703125 0.5595703125 0.0361328125 0.0830078125
0 0.9404296875 0.279296875 0.0380859375 0.076171875
0 0.8134765625 0.7578125 0.0458984375 0.1005859375
0 0.1357421875 0.0 0.05078125 0.083984375
0 0.052734375 0.0 0.0439453125 0.0810546875
0 0.5 0.05859375 0.05078125 0.1259765625
0 0.4326171875 0.951171875 0.037109375 0.048828125
0 0.8759765625 0.38671875 0.07421875 0.0673828125
0 0.564453125 0.27734375 0.0439453125 0.078125
0 0.869140625 0.5712890625 0.0419921875 0.0771484375
0 0.8076171875 0.7236328125 0.0302734375 0.0576171875
0 0.6806640625 0.0478515625 0.0283203125 0.0625
0 0.853515625 0.3125 0.044921875 0.109375
0 0.12109375 0.2177734375 0.0400390625 0.083984375
0 0.5439453125 0.7802734375 0.0498046875 0.07421875
0 0.9482421875 0.3798828125 0.04296875 0.068359375
0 0.4541015625 0.0 0.046875 0.06640625
0 0.3310546875 0.2314453125 0.0537109375 0.0556640625
0 0.2158203125 0.28515625 0.0498046875 0.1142578125
0 0.15234375 0.826171875 0.1181640625 0.0439453125
0 0.21875 0.8037109375 0.0322265625 0.076171875
0 0.6552734375 0.234375 0.0439453125 0.0693359375
0 0.953125 0.9677734375 0.037109375 0.0322265625
0 0.0634765625 0.974609375 0.0625 0.025390625
0 0.896484375 0.84765625 0.025390625 0.0673828125
0 0.8623046875 0.0 0.0380859375 0.046875
0 0.298828125 0.568359375 0.08203125 0.068359375
0 0.5078125 0.6376953125 0.0458984375 0.056640625
0 0.3251953125 0.69140625 0.046875 0.060546875
0 0.5908203125 0.189453125 0.060546875 0.056640625
0 0.7978515625 0.0 0.048828125 0.064453125
0 0.427734375 0.607421875 0.1083984375 0.0673828125
0 0.77734375 0.0 0.029296875 0.056640625
0 0.23828125 0.56640625 0.0244140625 0.06640625
0 0.146484375 0.974609375 0.046875 0.025390625
0 0.7587890625 0.439453125 0.05078125 0.0634765625
0 0.2978515625 0.0 0.048828125 0.0185546875
0 0.9150390625 0.4150390625 0.05078125 0.0927734375
0 0.9833984375 0.6513671875 0.0166015625 0.080078125
0 0.248046875 0.78125 0.0478515625 0.0810546875
0 0.1240234375 0.4228515625 0.1181640625 0.1123046875
0 0.2861328125 0.7314453125 0.0517578125 0.060546875
0 0.4345703125 0.701171875 0.03515625 0.052734375
0 0.38671875 0.6904296875 0.0546875 0.072265625
0 0.2470703125 0.94921875 0.03515625 0.05078125
0 0.267578125 0.91015625 0.044921875 0.06640625
0 0.2998046875 0.8349609375 0.04296875 0.0556640625
0 0.306640625 0.8955078125 0.05078125 0.068359375
0 0.3349609375 0.869140625 0.052734375 0.0791015625
0 0.3466796875 0.9423828125 0.0712890625 0.0576171875
0 0.298828125 0.9814453125 0.0830078125 0.0185546875
