0 0.5361328125 0.1845703125 0.0771484375 0.115234375
0 0.6865234375 0.2109375 0.05859375 0.0576171875
0 0.77734375 0.2080078125 0.046875 0.0419921875
0 0.748046875 0.25 0.0537109375 0.0556640625
0 0.919921875 0.09765625 0.052734375 0.087890625
0 0.837890625 0.404296875 0.0966796875 0.0439453125
0 0.900390625 0.4892578125 0.0615234375 0.08984375
0 0.962890625 0.4931640625 0.037109375 0.0732421875
0 0.65234375 0.3271484375 0.0615234375 0.0595703125
0 0.5283203125 0.3935546875 0.06640625 0.06640625
0 0.59765625 0.43359375 0.083984375 0.0654296875
0 0.7451171875 0.4482421875 0.0615234375 0.0556640625
0 0.7138671875 0.3896484375 0.0927734375 0.0517578125
0 0.7470703125 0.33984375 0.0673828125 0.0576171875
0 0.857421875 0.3212890625 0.0732421875 0.080078125
0 0.529296875 0.4931640625 0.056640625 0.060546875
0 0.3388671875 0.423828125 0.068359375 0.064453125
0 0.2548828125 0.37109375 0.0869140625 0.091796875
0 0.3017578125 0.248046875 0.0947265625 0.0732421875
0 0.279296875 0.1376953125 0.1044921875 0.109375
0 0.14453125 0.2041015625 0.08203125 0.06640625
0 0.05859375 0.2509765625 0.068359375 0.052734375
0 0.0224609375 0.32421875 0.08984375 0.0615234375
0 0.0478515625 0.4091796875 0.1171875 0.0732421875
0 0.0 0.240234375 0.06640625 0.078125
0 0.5537109375 0.013671875 0.07421875 0.083984375
0 0.8857421875 0.7109375 0.087890625 0.076171875
0 0.7333984375 0.576171875 0.0693359375 0.12890625
0 0.7890625 0.736328125 0.0859375 0.083984375
0 0.87109375 0.791015625 0.12109375 0.10546875
0 0.8466796875 0.8984375 0.080078125 0.1015625
0 0.6845703125 0.955078125 0.0810546875 0.044921875
0 0.5986328125 0.9296875 0.068359375 0.0703125
0 0.4736328125 0.8388671875 0.083984375 0.0888671875
0 0.4130859375 0.8779296875 0.080078125 0.060546875
0 0.421875 0.9423828125 0.0751953125 0.0576171875
0 0.6015625 0.8056640625 0.080078125 0.080078125
0 0.6708984375 0.7294921875 0.0732421875 0.0810546875
0 0.6025390625 0.6455078125 0.0830078125 0.068359375
0 0.4638671875 0.58984375 0.083984375 0.1025390625
0 0.4365234375 0.689453125 0.0556640625 0.05859375
0 0.4326171875 0.7685546875 0.0810546875 0.0634765625
0 0.5205078125 0.724609375 0.0634765625 0.0703125
0 0.294921875 0.72265625 0.080078125 0.072265625
0 0.1533203125 0.7373046875 0.1162109375 0.0751953125
0 0.03125 0.61328125 0.109375 0.0654296875
0 0.0908203125 0.685546875 0.0732421875 0.048828125
0 0.1494140625 0.865234375 0.0654296875 0.0732421875
0 0.171875 0.8642578125 0.140625 0.1357421875
0 0.0 0.814453125 0.068359375 0.068359375
0 0.5859375 0.7099609375 0.048828125 0.044921875
0 0.9404296875 0.3837890625 0.0595703125 0.076171875
0 0.2900390625 0.8974609375 0.068359375 0.056640625
0 0.0009765625 0.197265625 0.1015625 0.0439453125
