0 0.7939453125 0.671875 0.068359375 0.0927734375
0 0.484375 0.0 0.08984375 0.0849609375
0 0.8017578125 0.3623046875 0.064453125 0.087890625
0 0.8330078125 0.4794921875 0.07421875 0.1015625
0 0.7431640625 0.44921875 0.083984375 0.07421875
0 0.4208984375 0.9091796875 0.0859375 0.0791015625
0 0.6943359375 0.0732421875 0.0703125 0.0947265625
0 0.146484375 0.0 0.0927734375 0.0751953125
0 0.673828125 0.75 0.0693359375 0.0791015625
0 0.0810546875 0.3408203125 0.0849609375 0.0986328125
0 0.0009765625 0.822265625 0.078125 0.095703125
0 0.9765625 0.2900390625 0.0234375 0.0986328125
0 0.0537109375 0.6796875 0.0849609375 0.080078125
0 0.6572265625 0.8701171875 0.1025390625 0.0615234375
0 0.4140625 0.6513671875 0.0791015625 0.064453125
0 0.69921875 0.3369140625 0.0654296875 0.1103515625
0 0.8916015625 0.169921875 0.0556640625 0.1396484375
0 0.9404296875 0.44921875 0.048828125 0.107421875
0 0.578125 0.09765625 0.103515625 0.1240234375
0 0.083984375 0.216796875 0.087890625 0.1044921875
0 0.41796875 0.482421875 0.138671875 0.0595703125
0 0.53125 0.7978515625 0.0751953125 0.0751953125
0 0.7138671875 0.6484375 0.078125 0.0927734375
0 0.2314453125 0.826171875 0.0751953125 0.05859375
0 0.0185546875 0.0126953125 0.115234375 0.0947265625
0 0.2705078125 0.7021484375 0.107421875 0.1240234375
0 0.435546875 0.0166015625 0.091796875 0.1376953125
0 0.125 0.626953125 0.1083984375 0.1171875
0 0.03515625 0.828125 0.0908203125 0.0712890625
0 0.7197265625 0.7099609375 0.0615234375 0.1005859375
0 0.02734375 0.4287109375 0.1201171875 0.095703125
0 0.341796875 0.150390625 0.0830078125 0.0732421875
0 0.4140625 0.671875 0.076171875 0.08203125
0 0.6337890625 0.474609375 0.060546875 0.0546875
0 0.2958984375 0.3837890625 0.0947265625 0.0986328125
0 0.3564453125 0.548828125 0.0322265625 0.0888671875
0 0.1005859375 0.00390625 0.087890625 0.0966796875
0 0.6005859375 0.85546875 0.0693359375 0.064453125
0 0.0859375 0.435546875 0.1015625 0.076171875
0 0.5048828125 0.056640625 0.06640625 0.1171875
0 0.431640625 0.732421875 0.1064453125 0.103515625
0 0.6259765625 0.2705078125 0.04296875 0.0771484375
0 0.8544921875 0.1650390625 0.03515625 0.06640625
0 0.6611328125 0.3037109375 0.0439453125 0.1044921875
0 0.3994140625 0.2119140625 0.091796875 0.1220703125
0 0.373046875 0.712890625 0.0849609375 0.0947265625
0 0.7607421875 0.8251953125 0.072265625 0.0595703125
0 0.4033203125 0.3583984375 0.04296875 0.080078125
0 0.2353515625 0.861328125 0.0791015625 0.05859375
0 0.453125 0.1181640625 0.091796875 0.0546875
0 0.1552734375 0.7958984375 0.091796875 0.0771484375
0 0.2197265625 0.97265625 0.083984375 0.02734375
0 0.0009765625 0.4931640625 0.0556640625 0.0556640625
0 0.228515625 0.3837890625 0.1044921875 0.0888671875
0 0.296875 0.6630859375 0.0869140625 0.08984375
0 0.0498046875 0.107421875 0.072265625 0.0908203125
0 0.2587890625 0.365234375 0.0830078125 0.09375
0 0.0 0.0205078125 0.0537109375 0.1025390625
0 0.2939453125 0.3154296875 0.0947265625 0.15234375
0 0.4326171875 0.419921875 0.0546875 0.05859375
0 0.173828125 0.07421875 0.048828125 0.0439453125
0 0.0927734375 0.1640625 0.095703125 0.091796875
0 0.0 0.93359375 0.046875 0.04296875
0 0.736328125 0.4580078125 0.052734375 0.0654296875
