0 0.779296875 0.5849609375 0.064453125 0.150390625
0 0.828125 0.3544921875 0.171875 0.0712890625
0 0.78515625 0.400390625 0.21484375 0.0615234375
0 0.2626953125 0.0849609375 0.1220703125 0.0703125
0 0.37890625 0.05859375 0.140625 0.0654296875
0 0.201171875 0.01171875 0.076171875 0.115234375
0 0.01171875 0.4150390625 0.056640625 0.1220703125
0 0.0 0.1875 0.03125 0.0615234375
0 0.4169921875 0.1064453125 0.0673828125 0.0869140625
0 0.685546875 0.1708984375 0.205078125 0.060546875
0 0.212890625 0.2236328125 0.126953125 0.1826171875
0 0.3876953125 0.5751953125 0.1201171875 0.1240234375
0 0.6572265625 0.0 0.1298828125 0.0537109375
0 0.861328125 0.5419921875 0.13671875 0.0849609375
0 0.0322265625 0.9560546875 0.1015625 0.0439453125
0 0.2890625 0.6640625 0.1298828125 0.09765625
0 0.8017578125 0.0 0.1171875 0.0048828125
0 0.140625 0.4501953125 0.1767578125 0.12109375
0 0.828125 0.4765625 0.140625 0.0712890625
0 0.396484375 0.9638671875 0.083984375 0.0361328125
0 0.58203125 0.962890625 0.0625 0.037109375
0 0.6640625 0.666015625 0.1083984375 0.1044921875
0 0.5439453125 0.521484375 0.05859375 0.0458984375
0 0.484375 0.51171875 0.064453125 0.0693359375
0 0.1220703125 0.2841796875 0.0625 0.056640625
0 0.5546875 0.2236328125 0.0791015625 0.0986328125
0 0.4853515625 0.3154296875 0.1728515625 0.0849609375
0 0.62890625 0.341796875 0.0791015625 0.080078125
0 0.662109375 0.3359375 0.1484375 0.05859375
0 0.748046875 0.1240234375 0.158203125 0.060546875
0 0.4111328125 0.2822265625 0.0517578125 0.1259765625
0 0.3955078125 0.2646484375 0.10546875 0.0830078125
0 0.326171875 0.216796875 0.05859375 0.12109375
0 0.3720703125 0.228515625 0.1103515625 0.0859375
0 0.3828125 0.1728515625 0.08203125 0.0751953125
0 0.3310546875 0.1728515625 0.08984375 0.0966796875
0 0.0 0.369140625 0.0302734375 0.1083984375
0 0.9580078125 0.015625 0.0419921875 0.0712890625
0 0.0 0.5546875 0.033203125 0.0498046875
