0 0.05859375 0.1025390625 0.0478515625 0.1240234375
0 0.2451171875 0.1044921875 0.0341796875 0.080078125
0 0.123046875 0.0166015625 0.0478515625 0.0517578125
0 0.1591796875 0.0 0.0712890625 0.0419921875
0 0.2880859375 0.03125 0.0556640625 0.0546875
0 0.4482421875 0.08984375 0.046875 0.052734375
0 0.5859375 0.046875 0.056640625 0.1171875
0 0.6318359375 0.1337890625 0.0498046875 0.1005859375
0 0.67578125 0.1162109375 0.05859375 0.0576171875
0 0.83984375 0.1533203125 0.072265625 0.0478515625
0 0.7763671875 0.025390625 0.0703125 0.046875
0 0.837890625 0.0 0.0859375 0.0263671875
0 0.8466796875 0.236328125 0.1015625 0.0693359375
0 0.3251953125 0.265625 0.119140625 0.0478515625
0 0.0 0.27734375 0.0263671875 0.0830078125
0 0.0 0.4619140625 0.0419921875 0.056640625
0 0.1162109375 0.474609375 0.0693359375 0.072265625
0 0.212890625 0.462890625 0.0537109375 0.048828125
0 0.1826171875 0.3857421875 0.0615234375 0.0673828125
0 0.2578125 0.3544921875 0.0517578125 0.052734375
0 0.2978515625 0.3544921875 0.06640625 0.056640625
0 0.38671875 0.31640625 0.076171875 0.0439453125
0 0.689453125 0.3583984375 0.0517578125 0.0498046875
0 0.9052734375 0.43359375 0.064453125 0.0625
0 0.640625 0.4375 0.064453125 0.0732421875
0 0.693359375 0.4658203125 0.05859375 0.044921875
0 0.173828125 0.2666015625 0.076171875 0.0654296875
0 0.134765625 0.318359375 0.0537109375 0.0888671875
0 0.1865234375 0.3134765625 0.0615234375 0.041015625
0 0.474609375 0.4677734375 0.0478515625 0.048828125
0 0.5078125 0.5068359375 0.0673828125 0.0654296875
0 0.521484375 0.560546875 0.0771484375 0.0546875
0 0.6083984375 0.521484375 0.0615234375 0.041015625
0 0.6962890625 0.55859375 0.06640625 0.0478515625
0 0.7705078125 0.576171875 0.068359375 0.119140625
0 0.9345703125 0.6337890625 0.0654296875 0.0517578125
0 0.80859375 0.7099609375 0.1005859375 0.0693359375
0 0.7451171875 0.7412109375 0.123046875 0.0732421875
0 0.6884765625 0.7177734375 0.0546875 0.046875
0 0.6240234375 0.701171875 0.0517578125 0.056640625
0 0.0625 0.5810546875 0.04296875 0.08203125
0 0.20703125 0.638671875 0.076171875 0.1064453125
0 0.1650390625 0.677734375 0.0546875 0.0595703125
0 0.1123046875 0.697265625 0.041015625 0.0419921875
0 0.1240234375 0.7548828125 0.056640625 0.0615234375
0 0.2470703125 0.810546875 0.0693359375 0.052734375
0 0.3359375 0.5283203125 0.0908203125 0.0625
0 0.458984375 0.7158203125 0.072265625 0.046875
0 0.3857421875 0.7333984375 0.10546875 0.037109375
0 0.3125 0.740234375 0.0810546875 0.046875
0 0.3544921875 0.7041015625 0.056640625 0.0390625
0 0.6748046875 0.7890625 0.0751953125 0.03515625
0 0.845703125 0.86328125 0.078125 0.052734375
0 0.9365234375 0.8251953125 0.0634765625 0.05078125
0 0.9404296875 0.9345703125 0.0546875 0.0654296875
0 0.7958984375 0.9296875 0.068359375 0.0703125
0 0.66796875 0.82421875 0.046875 0.05859375
0 0.42578125 0.8427734375 0.076171875 0.05078125
0 0.37890625 0.892578125 0.0400390625 0.0478515625
0 0.314453125 0.8720703125 0.0341796875 0.076171875
0 0.2099609375 0.9375 0.1005859375 0.0546875
0 0.5341796875 0.0927734375 0.0615234375 0.0234375
0 0.3232421875 0.7685546875 0.1005859375 0.0517578125
0 0.0556640625 0.876953125 0.0693359375 0.05859375
0 0.2783203125 0.568359375 0.052734375 0.05859375
