0 0.6982421875 0.859375 0.138671875 0.07421875
0 0.59765625 0.68359375 0.1025390625 0.0625
0 0.43359375 0.6162109375 0.109375 0.0947265625
0 0.15234375 0.556640625 0.08203125 0.078125
0 0.3310546875 0.8115234375 0.08203125 0.087890625
0 0.486328125 0.892578125 0.099609375 0.1005859375
0 0.099609375 0.681640625 0.08984375 0.0849609375
0 0.125 0.8046875 0.091796875 0.09765625
0 0.3212890625 0.5009765625 0.107421875 0.0810546875
0 0.3017578125 0.8720703125 0.080078125 0.115234375
0 0.4326171875 0.8212890625 0.1025390625 0.095703125
0 0.3798828125 0.947265625 0.0693359375 0.052734375
0 0.654296875 0.666015625 0.134765625 0.064453125
