0 0.6533203125 0.9140625 0.06640625 0.080078125
0 0.697265625 0.6513671875 0.0732421875 0.0625
0 0.787109375 0.068359375 0.07421875 0.099609375
0 0.7607421875 0.7998046875 0.048828125 0.041015625
0 0.763671875 0.8994140625 0.078125 0.0947265625
0 0.5009765625 0.6220703125 0.0732421875 0.0869140625
0 0.384765625 0.3154296875 0.087890625 0.0654296875
0 0.67578125 0.5732421875 0.078125 0.052734375
0 0.7138671875 0.734375 0.0927734375 0.05078125
0 0.6318359375 0.099609375 0.076171875 0.099609375
0 0.486328125 0.873046875 0.0478515625 0.08984375
0 0.111328125 0.578125 0.087890625 0.0869140625
0 0.0966796875 0.26953125 0.123046875 0.1318359375
0 0.8232421875 0.2353515625 0.0712890625 0.064453125
0 0.763671875 0.2958984375 0.09765625 0.0546875
0 0.0009765625 0.208984375 0.091796875 0.1015625
0 0.16796875 0.4677734375 0.1162109375 0.0947265625
0 0.068359375 0.314453125 0.06640625 0.0546875
0 0.22265625 0.2353515625 0.0927734375 0.1083984375
0 0.447265625 0.1796875 0.1455078125 0.0771484375
0 0.505859375 0.0888671875 0.07421875 0.0478515625
0 0.8662109375 0.787109375 0.0625 0.060546875
0 0.263671875 0.1484375 0.1025390625 0.130859375
0 0.267578125 0.724609375 0.0927734375 0.0517578125
0 0.7783203125 0.337890625 0.0517578125 0.0751953125
0 0.1728515625 0.11328125 0.142578125 0.080078125
0 0.623046875 0.7685546875 0.0576171875 0.0537109375
0 0.587890625 0.599609375 0.0390625 0.0771484375
0 0.75 0.3759765625 0.0419921875 0.0517578125
0 0.3232421875 0.16015625 0.0869140625 0.1064453125
0 0.060546875 0.73046875 0.10546875 0.0400390625
0 0.326171875 0.0927734375 0.0595703125 0.056640625
0 0.5390625 0.6015625 0.0556640625 0.0380859375
0 0.5986328125 0.3359375 0.05859375 0.060546875
0 0.484375 0.0 0.056640625 0.0556640625
0 0.6943359375 0.0625 0.05859375 0.0439453125
0 0.3984375 0.7119140625 0.0732421875 0.037109375
0 0.3271484375 0.123046875 0.1064453125 0.0947265625
0 0.9130859375 0.935546875 0.0859375 0.0390625
0 0.5185546875 0.548828125 0.107421875 0.04296875
0 0.0146484375 0.6396484375 0.099609375 0.03125
0 0.8955078125 0.33984375 0.0361328125 0.0751953125
0 0.0 0.2470703125 0.033203125 0.0380859375
0 0.3056640625 0.640625 0.1474609375 0.0615234375
0 0.1142578125 0.6591796875 0.1533203125 0.08203125
0 0.84375 0.0 0.0595703125 0.0390625
0 0.943359375 0.9765625 0.0517578125 0.0234375
0 0.8095703125 0.4033203125 0.052734375 0.041015625
0 0.0 0.6083984375 0.078125 0.029296875
0 0.7158203125 0.0 0.0908203125 0.0146484375
0 0.505859375 0.0 0.0458984375 0.0556640625
0 0.0009765625 0.9677734375 0.0390625 0.0302734375
0 0.0 0.8271484375 0.03515625 0.064453125
0 0.6630859375 0.9833984375 0.0458984375 0.0166015625
0 0.0009765625 0.904296875 0.037109375 0.046875
0 0.7060546875 0.32421875 0.0517578125 0.0498046875
0 0.4033203125 0.7275390625 0.072265625 0.037109375
0 0.626953125 0.638671875 0.0595703125 0.0380859375
0 0.9736328125 0.57421875 0.0263671875 0.0390625
0 0.9482421875 0.77734375 0.0517578125 0.0390625
0 0.9111328125 0.58203125 0.0888671875 0.0888671875
0 0.83203125 0.5849609375 0.0927734375 0.05859375
0 0.7890625 0.580078125 0.0947265625 0.0703125
0 0.4892578125 0.712890625 0.0712890625 0.052734375
