0 0.2890625 0.41796875 0.08203125 0.10546875
0 0.61328125 0.4609375 0.0732421875 0.095703125
0 0.4384765625 0.1728515625 0.0859375 0.0615234375
0 0.2421875 0.70703125 0.083984375 0.056640625
0 0.419921875 0.900390625 0.1025390625 0.0615234375
0 0.732421875 0.0009765625 0.1484375 0.0439453125
0 0.5966796875 0.7861328125 0.0654296875 0.0537109375
0 0.4248046875 0.216796875 0.0576171875 0.0693359375
0 0.33984375 0.1005859375 0.087890625 0.09375
0 0.392578125 0.08203125 0.0712890625 0.0712890625
0 0.5673828125 0.1591796875 0.064453125 0.0673828125
0 0.8193359375 0.47265625 0.068359375 0.060546875
0 0.103515625 0.80859375 0.09375 0.0439453125
0 0.78515625 0.1396484375 0.080078125 0.0634765625
0 0.6611328125 0.9423828125 0.0556640625 0.0576171875
0 0.1142578125 0.0771484375 0.0966796875 0.0791015625
0 0.5302734375 0.4208984375 0.068359375 0.072265625
0 0.0634765625 0.4765625 0.091796875 0.05078125
0 0.8515625 0.9716796875 0.0556640625 0.0283203125
0 0.0732421875 0.4619140625 0.0947265625 0.0380859375
0 0.87109375 0.779296875 0.03515625 0.0859375
0 0.97265625 0.57421875 0.02734375 0.0400390625
0 0.6572265625 0.6435546875 0.0419921875 0.1396484375
0 0.732421875 0.7158203125 0.0546875 0.037109375
0 0.1279296875 0.3505859375 0.1279296875 0.0341796875
0 0.9384765625 0.6142578125 0.0615234375 0.033203125
0 0.65625 0.072265625 0.140625 0.041015625
0 0.6328125 0.427734375 0.0693359375 0.0517578125
0 0.1103515625 0.3125 0.0947265625 0.0361328125
0 0.2529296875 0.2568359375 0.072265625 0.029296875
0 0.0595703125 0.19921875 0.05859375 0.0498046875
0 0.2978515625 0.234375 0.068359375 0.0341796875
0 0.3837890625 0.0244140625 0.048828125 0.0322265625
0 0.5244140625 0.720703125 0.1181640625 0.060546875
0 0.0380859375 0.8486328125 0.0810546875 0.029296875
0 0.640625 0.59375 0.0576171875 0.0322265625
0 0.505859375 0.484375 0.0712890625 0.060546875
0 0.8564453125 0.279296875 0.0673828125 0.0361328125
0 0.3359375 0.8408203125 0.087890625 0.041015625
0 0.53515625 0.5439453125 0.076171875 0.0380859375
0 0.0234375 0.869140625 0.0537109375 0.0302734375
0 0.37109375 0.732421875 0.072265625 0.0419921875
0 0.0810546875 0.5732421875 0.052734375 0.07421875
0 0.61328125 0.91015625 0.064453125 0.033203125
0 0.6328125 0.2275390625 0.0771484375 0.0302734375
0 0.42578125 0.5185546875 0.072265625 0.0341796875
0 0.09375 0.921875 0.1357421875 0.0400390625
0 0.83984375 0.064453125 0.05859375 0.0546875
0 0.7783203125 0.4931640625 0.025390625 0.052734375
0 0.89453125 0.5458984375 0.048828125 0.03515625
0 0.0888671875 0.6650390625 0.07421875 0.0302734375
0 0.0751953125 0.7470703125 0.1025390625 0.0439453125
0 0.5732421875 0.6142578125 0.0732421875 0.0185546875
0 0.041015625 0.251953125 0.1044921875 0.0302734375
0 0.396484375 0.6611328125 0.0751953125 0.0361328125
0 0.39453125 0.3359375 0.0634765625 0.044921875
0 0.890625 0.6298828125 0.0498046875 0.0390625
0 0.205078125 0.388671875 0.0693359375 0.0361328125
0 0.876953125 0.2353515625 0.0537109375 0.021484375
0 0.234375 0.806640625 0.052734375 0.03125
0 0.876953125 0.0634765625 0.06640625 0.0283203125
0 0.1689453125 0.42578125 0.052734375 0.0341796875
0 0.478515625 0.6923828125 0.0859375 0.02734375
0 0.13671875 0.6494140625 0.078125 0.0283203125
0 0.2353515625 0.5400390625 0.1025390625 0.0380859375
0 0.9619140625 0.806640625 0.029296875 0.05859375
0 0.544921875 0.2900390625 0.0546875 0.0283203125
0 0.001953125 0.345703125 0.1044921875 0.0302734375
0 0.7470703125 0.662109375 0.056640625 0.04296875
0 0.4716796875 0.4599609375 0.0478515625 0.0703125
0 0.2177734375 0.162109375 0.046875 0.0361328125
0 0.0 0.2646484375 0.0439453125 0.0361328125
0 0.568359375 0.173828125 0.048828125 0.0712890625
0 0.234375 0.6201171875 0.0849609375 0.0341796875
0 0.0849609375 0.8818359375 0.0556640625 0.0244140625
0 0.001953125 0.0263671875 0.0625 0.0478515625
0 0.0 0.119140625 0.0419921875 0.046875
0 0.828125 0.7548828125 0.1005859375 0.0283203125
0 0.626953125 0.3486328125 0.0888671875 0.0458984375
0 0.2744140625 0.8720703125 0.0927734375 0.0322265625
0 0.1474609375 0.271484375 0.044921875 0.0390625
0 0.3583984375 0.560546875 0.05859375 0.021484375
0 0.3994140625 0.0 0.041015625 0.0185546875
0 0.111328125 0.41796875 0.060546875 0.0205078125
0 0.078125 0.28515625 0.0537109375 0.0302734375
0 0.326171875 0.3193359375 0.0654296875 0.0546875
0 0.4697265625 0.73828125 0.0654296875 0.0791015625
0 0.7392578125 0.576171875 0.0380859375 0.0517578125
0 0.8037109375 0.90625 0.0537109375 0.044921875
0 0.7392578125 0.9072265625 0.0439453125 0.0458984375
