0 0.8896484375 0.4921875 0.0966796875 0.15625
0 0.1640625 0.5458984375 0.1376953125 0.126953125
0 0.8671875 0.1640625 0.1044921875 0.1474609375
0 0.7529296875 0.1474609375 0.107421875 0.1396484375
0 0.2109375 0.421875 0.1318359375 0.1103515625
0 0.5634765625 0.255859375 0.103515625 0.103515625
0 0.208984375 0.0224609375 0.1064453125 0.1279296875
0 0.8583984375 0.046875 0.0830078125 0.1103515625
0 0.0986328125 0.455078125 0.0986328125 0.1142578125
0 0.779296875 0.5146484375 0.1103515625 0.1103515625
0 0.28515625 0.7529296875 0.1220703125 0.083984375
0 0.619140625 0.3818359375 0.091796875 0.076171875
0 0.7568359375 0.4482421875 0.07421875 0.0703125
0 0.8173828125 0.439453125 0.080078125 0.099609375
0 0.001953125 0.001953125 0.087890625 0.115234375
0 0.1201171875 0.380859375 0.095703125 0.07421875
0 0.0068359375 0.142578125 0.0576171875 0.0712890625
0 0.1875 0.0048828125 0.0810546875 0.091796875
0 0.9091796875 0.9462890625 0.083984375 0.0517578125
0 0.8896484375 0.0048828125 0.0986328125 0.1044921875
