0 0.560546875 0.0009765625 0.0576171875 0.11328125
0 0.22265625 0.7470703125 0.060546875 0.078125
0 0.1298828125 0.0712890625 0.0986328125 0.068359375
0 0.0390625 0.0791015625 0.0576171875 0.08203125
0 0.119140625 0.4365234375 0.0546875 0.09765625
0 0.625 0.318359375 0.046875 0.0869140625
0 0.1845703125 0.35546875 0.111328125 0.072265625
0 0.6650390625 0.0 0.0888671875 0.126953125
0 0.810546875 0.208984375 0.07421875 0.125
0 0.623046875 0.7587890625 0.0830078125 0.06640625
0 0.3447265625 0.7275390625 0.0458984375 0.087890625
0 0.767578125 0.421875 0.126953125 0.0966796875
0 0.142578125 0.9091796875 0.0927734375 0.0517578125
0 0.01171875 0.6796875 0.0966796875 0.0576171875
0 0.23828125 0.162109375 0.0380859375 0.1015625
0 0.388671875 0.4912109375 0.1015625 0.0537109375
0 0.9326171875 0.6865234375 0.0390625 0.111328125
0 0.5751953125 0.091796875 0.064453125 0.06640625
0 0.2666015625 0.703125 0.091796875 0.0888671875
0 0.9111328125 0.009765625 0.0322265625 0.1005859375
0 0.55078125 0.6279296875 0.078125 0.1201171875
0 0.40234375 0.3349609375 0.041015625 0.0947265625
0 0.1513671875 0.5625 0.0556640625 0.1748046875
0 0.763671875 0.830078125 0.046875 0.1513671875
0 0.8447265625 0.033203125 0.0439453125 0.087890625
0 0.009765625 0.00390625 0.05859375 0.064453125
0 0.04296875 0.9375 0.07421875 0.0625
0 0.8583984375 0.8916015625 0.0771484375 0.044921875
0 0.3046875 0.607421875 0.05859375 0.0732421875
0 0.6708984375 0.3251953125 0.041015625 0.1064453125
0 0.5048828125 0.9345703125 0.09765625 0.0517578125
0 0.8037109375 0.8359375 0.056640625 0.056640625
0 0.1259765625 0.734375 0.029296875 0.11328125
0 0.6923828125 0.958984375 0.10546875 0.041015625
0 0.1640625 0.236328125 0.1396484375 0.0595703125
0 0.0966796875 0.5859375 0.0537109375 0.083984375
0 0.1171875 0.1171875 0.052734375 0.05859375
0 0.4970703125 0.09375 0.04296875 0.076171875
0 0.0234375 0.2294921875 0.0888671875 0.0546875
0 0.1357421875 0.3046875 0.07402343750000001 0.04052734375
0 0.0673828125 0.36328125 0.0498046875 0.0732421875
0 0.0009765625 0.2890625 0.107421875 0.0810546875
0 0.9140625 0.9833984375 0.0478515625 0.0166015625
0 0.0 0.91015625 0.0576171875 0.0546875
0 0.0869140625 0.255859375 0.06640625 0.140625
0 0.142578125 0.5087890625 0.0517578125 0.064453125
0 0.392578125 0.4423828125 0.0361328125 0.05859375
0 0.90625 0.724609375 0.0322265625 0.0712890625
0 0.212890625 0.603515625 0.0556640625 0.04296875
0 0.0 0.95703125 0.05859375 0.04296875
0 0.9619140625 0.5283203125 0.0380859375 0.0517578125
0 0.08984375 0.876953125 0.0654296875 0.041015625
0 0.580078125 0.6669921875 0.0693359375 0.072265625
