0 0.0859375 0.09375 0.0869140625 0.12109375
0 0.0439453125 0.2958984375 0.10546875 0.142578125
0 0.2919921875 0.23046875 0.0849609375 0.0849609375
0 0.4306640625 0.12890625 0.115234375 0.103515625
0 0.48046875 0.0068359375 0.0576171875 0.0673828125
0 0.849609375 0.0634765625 0.1044921875 0.109375
0 0.0 0.333984375 0.0380859375 0.0771484375
0 0.0 0.587890625 0.056640625 0.123046875
0 0.130859375 0.568359375 0.107421875 0.0849609375
0 0.2724609375 0.375 0.0751953125 0.0859375
0 0.333984375 0.3876953125 0.0751953125 0.0830078125
0 0.4423828125 0.462890625 0.08203125 0.0849609375
0 0.578125 0.5224609375 0.10546875 0.0927734375
0 0.560546875 0.34765625 0.1298828125 0.12890625
0 0.0439453125 0.7109375 0.087890625 0.0810546875
0 0.232421875 0.75 0.0673828125 0.087890625
0 0.1015625 0.8857421875 0.0595703125 0.1142578125
0 0.44921875 0.8916015625 0.0947265625 0.1015625
0 0.181640625 0.931640625 0.10546875 0.068359375
0 0.30859375 0.6220703125 0.0927734375 0.1025390625
0 0.4453125 0.6728515625 0.1025390625 0.099609375
0 0.6689453125 0.6767578125 0.103515625 0.099609375
0 0.7109375 0.806640625 0.0888671875 0.0810546875
0 0.708984375 0.375 0.0830078125 0.1220703125
0 0.7900390625 0.443359375 0.125 0.1171875
0 0.93359375 0.5126953125 0.06640625 0.0810546875
0 0.935546875 0.357421875 0.064453125 0.1328125
0 0.98046875 0.9130859375 0.01953125 0.0869140625
0 0.9423828125 0.9150390625 0.0576171875 0.0751953125
0 0.7744140625 0.9189453125 0.0732421875 0.0810546875
0 0.681640625 0.505859375 0.1123046875 0.1474609375
