0 0.916015625 0.6552734375 0.083984375 0.08203125
0 0.8251953125 0.86328125 0.060546875 0.0693359375
0 0.7646484375 0.8203125 0.0537109375 0.0673828125
0 0.791015625 0.7890625 0.0849609375 0.068359375
0 0.8056640625 0.6865234375 0.0576171875 0.076171875
0 0.71875 0.6640625 0.0625 0.0498046875
0 0.6904296875 0.642578125 0.0458984375 0.056640625
0 0.6240234375 0.6025390625 0.0771484375 0.064453125
0 0.630859375 0.458984375 0.0537109375 0.0810546875
0 0.6611328125 0.4560546875 0.0654296875 0.083984375
0 0.5439453125 0.3349609375 0.076171875 0.078125
0 0.5732421875 0.3125 0.0625 0.0625
0 0.6669921875 0.2099609375 0.0693359375 0.103515625
0 0.8427734375 0.2666015625 0.0703125 0.072265625
0 0.955078125 0.150390625 0.044921875 0.078125
0 0.666015625 0.03125 0.095703125 0.07421875
0 0.74609375 0.0166015625 0.0546875 0.0712890625
0 0.5419921875 0.072265625 0.0771484375 0.103515625
0 0.4912109375 0.1298828125 0.0517578125 0.087890625
0 0.537109375 0.166015625 0.0673828125 0.0771484375
0 0.3779296875 0.21484375 0.0673828125 0.0869140625
0 0.65234375 0.7626953125 0.0634765625 0.060546875
0 0.5712890625 0.7099609375 0.09375 0.0791015625
0 0.560546875 0.7744140625 0.0947265625 0.07421875
0 0.4091796875 0.9619140625 0.0908203125 0.0380859375
0 0.25390625 0.9462890625 0.091796875 0.0517578125
0 0.15234375 0.916015625 0.080078125 0.060546875
0 0.0 0.802734375 0.0947265625 0.06640625
0 0.0029296875 0.6845703125 0.0869140625 0.099609375
0 0.119140625 0.73046875 0.0673828125 0.0634765625
0 0.1962890625 0.751953125 0.087890625 0.060546875
0 0.173828125 0.8212890625 0.08203125 0.060546875
0 0.2548828125 0.6220703125 0.0712890625 0.119140625
0 0.3837890625 0.7626953125 0.0693359375 0.072265625
0 0.462890625 0.8134765625 0.095703125 0.0595703125
0 0.580078125 0.8759765625 0.0556640625 0.0576171875
0 0.421875 0.642578125 0.08984375 0.056640625
0 0.37890625 0.681640625 0.083984375 0.048828125
0 0.486328125 0.7109375 0.0673828125 0.05859375
0 0.3837890625 0.5537109375 0.072265625 0.0625
0 0.3486328125 0.4873046875 0.0810546875 0.078125
0 0.1640625 0.51953125 0.09765625 0.05859375
0 0.333984375 0.6123046875 0.064453125 0.044921875
0 0.0712890625 0.46875 0.068359375 0.0810546875
0 0.013671875 0.5322265625 0.1142578125 0.072265625
0 0.0205078125 0.59375 0.087890625 0.05078125
0 0.0 0.630859375 0.0732421875 0.046875
0 0.12109375 0.3583984375 0.083984375 0.0546875
0 0.17578125 0.328125 0.0830078125 0.068359375
0 0.123046875 0.1884765625 0.080078125 0.076171875
0 0.0 0.2373046875 0.0732421875 0.0537109375
0 0.001953125 0.1123046875 0.0712890625 0.0546875
0 0.0 0.0 0.083984375 0.06640625
0 0.1083984375 0.0 0.0556640625 0.0517578125
0 0.1806640625 0.0 0.0732421875 0.072265625
0 0.2412109375 0.0546875 0.0751953125 0.0791015625
0 0.236328125 0.1240234375 0.087890625 0.0791015625
0 0.3720703125 0.0478515625 0.068359375 0.0927734375
0 0.3525390625 0.0 0.05859375 0.0419921875
0 0.4638671875 0.0 0.0634765625 0.060546875
0 0.23046875 0.6962890625 0.091796875 0.056640625
0 0.7255859375 0.095703125 0.0595703125 0.0927734375
0 0.78515625 0.1669921875 0.078125 0.078125
0 0.794921875 0.08984375 0.0732421875 0.103515625
0 0.0556640625 0.8125 0.0400390625 0.04296875
0 0.5546875 0.4658203125 0.0341796875 0.0458984375
0 0.1376953125 0.33984375 0.0693359375 0.033203125
