0 0.7919921875 0.1806640625 0.05859375 0.1201171875
0 0.46484375 0.4794921875 0.091796875 0.1103515625
0 0.005859375 0.45703125 0.1552734375 0.0849609375
0 0.73046875 0.0 0.0654296875 0.064453125
0 0.0 0.4677734375 0.0498046875 0.1064453125
0 0.1796875 0.2099609375 0.103515625 0.1044921875
0 0.4931640625 0.11328125 0.0751953125 0.1611328125
0 0.8486328125 0.9052734375 0.11328125 0.0478515625
0 0.0 0.205078125 0.08203125 0.048828125
0 0.3232421875 0.2314453125 0.0625 0.072265625
0 0.779296875 0.330078125 0.1201171875 0.060546875
0 0.7236328125 0.861328125 0.0595703125 0.1328125
0 0.2646484375 0.5341796875 0.0869140625 0.142578125
0 0.0634765625 0.63671875 0.1357421875 0.0625
0 0.5166015625 0.36328125 0.0693359375 0.0478515625
0 0.068359375 0.203125 0.1298828125 0.048828125
0 0.6064453125 0.939453125 0.0546875 0.060546875
0 0.8798828125 0.0263671875 0.0712890625 0.0703125
0 0.08203125 0.0126953125 0.142578125 0.064453125
0 0.3740234375 0.1806640625 0.076171875 0.1201171875
0 0.8564453125 0.048828125 0.109375 0.0732421875
0 0.154296875 0.4453125 0.1123046875 0.095703125
0 0.548828125 0.1298828125 0.1337890625 0.16015625
0 0.888671875 0.1865234375 0.080078125 0.0810546875
0 0.1279296875 0.1357421875 0.087890625 0.0419921875
0 0.62109375 0.7685546875 0.12109375 0.0380859375
0 0.62890625 0.1318359375 0.10546875 0.0732421875
0 0.318359375 0.197265625 0.0966796875 0.07421875
0 0.6611328125 0.7021484375 0.0673828125 0.06640625
0 0.033203125 0.568359375 0.154296875 0.0869140625
0 0.0 0.859375 0.115234375 0.072265625
0 0.0 0.564453125 0.0673828125 0.0751953125
0 0.9140625 0.8740234375 0.0859375 0.05859375
0 0.6611328125 0.53515625 0.0556640625 0.052734375
0 0.1337890625 0.6767578125 0.072265625 0.09375
0 0.53125 0.8017578125 0.0654296875 0.0576171875
0 0.5263671875 0.8115234375 0.052734375 0.1357421875
0 0.4677734375 0.0009765625 0.0859375 0.037109375
0 0.31640625 0.8662109375 0.11328125 0.0576171875
0 0.2021484375 0.060546875 0.046875 0.076171875
0 0.9892578125 0.341796875 0.0107421875 0.0205078125
0 0.8916015625 0.96484375 0.044921875 0.03515625
0 0.0 0.0048828125 0.0439453125 0.05859375
0 0.80859375 0.8046875 0.068359375 0.0400390625
0 0.587890625 0.6572265625 0.0595703125 0.0595703125
0 0.943359375 0.263671875 0.056640625 0.0224609375
0 0.841796875 0.1591796875 0.1337890625 0.03125
0 0.7431640625 0.640625 0.0732421875 0.0615234375
0 0.09765625 0.970703125 0.146484375 0.029296875
0 0.8349609375 0.6962890625 0.064453125 0.0546875
0 0.7939453125 0.6337890625 0.1025390625 0.0361328125
0 0.611328125 0.6298828125 0.0478515625 0.0439453125
0 0.263671875 0.8671875 0.1220703125 0.07421875
0 0.763671875 0.1572265625 0.072265625 0.0234375
0 0.255859375 0.0 0.0419921875 0.0263671875
0 0.177734375 0.66796875 0.12890625 0.0546875
0 0.3037109375 0.951171875 0.1259765625 0.048828125
0 0.0634765625 0.6923828125 0.0849609375 0.0390625
0 0.0009765625 0.623046875 0.0634765625 0.0283203125
0 0.916015625 0.697265625 0.083984375 0.037109375
0 0.173828125 0.8935546875 0.1513671875 0.041015625
0 0.0 0.12890625 0.048828125 0.046875
0 0.7451171875 0.74609375 0.0849609375 0.037109375
0 0.9150390625 0.8408203125 0.0849609375 0.0400390625
0 0.3095703125 0.7392578125 0.0615234375 0.03515625
0 0.228515625 0.9560546875 0.1162109375 0.0439453125
0 0.3046875 0.0 0.056640625 0.04296875
