0 0.12109375 0.2666015625 0.0576171875 0.0712890625
0 0.671875 0.9169921875 0.0595703125 0.0830078125
0 0.6240234375 0.658203125 0.0810546875 0.0400390625
0 0.548828125 0.400390625 0.09375 0.0810546875
0 0.6494140625 0.08984375 0.09375 0.076171875
0 0.0 0.3095703125 0.1005859375 0.134765625
0 0.6650390625 0.25390625 0.087890625 0.0556640625
0 0.6064453125 0.419921875 0.1142578125 0.0693359375
0 0.2841796875 0.02734375 0.0732421875 0.0673828125
0 0.6708984375 0.5107421875 0.0673828125 0.09765625
0 0.802734375 0.51953125 0.1064453125 0.0673828125
0 0.0 0.173828125 0.0908203125 0.0791015625
0 0.0400390625 0.41796875 0.08984375 0.109375
0 0.0595703125 0.4326171875 0.0771484375 0.1064453125
0 0.1767578125 0.60546875 0.0830078125 0.0546875
0 0.0 0.689453125 0.08203125 0.1005859375
0 0.0751953125 0.7001953125 0.0615234375 0.095703125
0 0.306640625 0.80859375 0.0478515625 0.080078125
0 0.150390625 0.8837890625 0.072265625 0.0830078125
0 0.0244140625 0.9208984375 0.107421875 0.0791015625
0 0.09375 0.931640625 0.087890625 0.068359375
0 0.669921875 0.81640625 0.0771484375 0.056640625
0 0.9013671875 0.369140625 0.056640625 0.044921875
0 0.5546875 0.701171875 0.103515625 0.2041015625
0 0.048828125 0.0595703125 0.08203125 0.0595703125
0 0.0234375 0.119140625 0.0859375 0.0517578125
0 0.8974609375 0.267578125 0.0517578125 0.08203125
0 0.126953125 0.3515625 0.068359375 0.056640625
0 0.1328125 0.5400390625 0.08203125 0.0458984375
0 0.1494140625 0.7998046875 0.0849609375 0.068359375
0 0.2763671875 0.7998046875 0.0478515625 0.0341796875
0 0.671875 0.765625 0.0859375 0.056640625
0 0.0009765625 0.0 0.0732421875 0.04296875
