0 0.00390625 0.015625 0.1142578125 0.0673828125
0 0.107421875 0.259765625 0.08984375 0.08203125
0 0.0517578125 0.1123046875 0.1328125 0.1044921875
0 0.6923828125 0.13671875 0.0849609375 0.080078125
0 0.6396484375 0.6123046875 0.0673828125 0.0693359375
0 0.6875 0.2890625 0.1123046875 0.0859375
0 0.4599609375 0.029296875 0.072265625 0.09765625
0 0.029296875 0.4248046875 0.087890625 0.0673828125
0 0.0 0.2998046875 0.0849609375 0.08203125
0 0.51953125 0.2216796875 0.0927734375 0.0625
0 0.2265625 0.0 0.177734375 0.0517578125
0 0.7646484375 0.07421875 0.166015625 0.0869140625
0 0.5625 0.5625 0.1298828125 0.0673828125
0 0.4091796875 0.2568359375 0.115234375 0.1103515625
0 0.009765625 0.8271484375 0.09765625 0.09765625
0 0.134765625 0.38671875 0.072265625 0.0927734375
0 0.80078125 0.9287109375 0.10546875 0.052734375
0 0.572265625 0.3720703125 0.08203125 0.0703125
0 0.0 0.5791015625 0.001953125 0.0751953125
0 0.671875 0.77734375 0.107421875 0.1123046875
0 0.6298828125 0.3642578125 0.0771484375 0.0673828125
0 0.6025390625 0.9453125 0.087890625 0.0546875
0 0.0 0.46484375 0.001953125 0.0673828125
0 0.4462890625 0.916015625 0.1279296875 0.083984375
0 0.625 0.83203125 0.1474609375 0.0849609375
