0 0.45703125 0.3271484375 0.0849609375 0.0869140625
0 0.6142578125 0.4248046875 0.0830078125 0.0869140625
0 0.466796875 0.2216796875 0.0927734375 0.1201171875
0 0.33203125 0.1796875 0.1103515625 0.1123046875
0 0.58984375 0.7744140625 0.0947265625 0.0947265625
0 0.4873046875 0.7998046875 0.072265625 0.0751953125
0 0.568359375 0.2421875 0.05078125 0.0732421875
0 0.4248046875 0.6259765625 0.064453125 0.048828125
0 0.01953125 0.08984375 0.08984375 0.091796875
0 0.5322265625 0.744140625 0.080078125 0.0732421875
0 0.607421875 0.001953125 0.1171875 0.044921875
0 0.0 0.2119140625 0.0400390625 0.0546875
0 0.3447265625 0.2724609375 0.099609375 0.0966796875
0 0.39453125 0.1591796875 0.080078125 0.107421875
0 0.5380859375 0.27734375 0.0537109375 0.0751953125
