0 0.0 0.0361328125 0.0517578125 0.1005859375
0 0.0107421875 0.1240234375 0.076171875 0.0478515625
0 0.0908203125 0.0009765625 0.0859375 0.1220703125
0 0.2744140625 0.0009765625 0.0859375 0.08984375
0 0.3037109375 0.1103515625 0.0654296875 0.0634765625
0 0.1884765625 0.1767578125 0.0546875 0.0498046875
0 0.0908203125 0.24609375 0.0703125 0.044921875
0 0.1650390625 0.271484375 0.08984375 0.05859375
0 0.228515625 0.3173828125 0.0654296875 0.060546875
0 0.0517578125 0.361328125 0.072265625 0.068359375
0 0.0341796875 0.6005859375 0.091796875 0.0654296875
0 0.0126953125 0.658203125 0.080078125 0.05078125
0 0.255859375 0.697265625 0.07421875 0.095703125
0 0.18359375 0.8056640625 0.107421875 0.076171875
0 0.2587890625 0.9013671875 0.07421875 0.0625
0 0.2099609375 0.923828125 0.0478515625 0.048828125
0 0.0810546875 0.9287109375 0.0625 0.0712890625
0 0.171875 0.9453125 0.0556640625 0.0546875
0 0.3095703125 0.9482421875 0.10546875 0.0517578125
0 0.6416015625 0.9287109375 0.0771484375 0.0712890625
0 0.544921875 0.861328125 0.06640625 0.0986328125
0 0.45703125 0.8349609375 0.0478515625 0.0458984375
0 0.361328125 0.7724609375 0.056640625 0.0654296875
0 0.4189453125 0.775390625 0.0556640625 0.0576171875
0 0.3681640625 0.6962890625 0.0517578125 0.0517578125
0 0.5205078125 0.7314453125 0.064453125 0.0654296875
0 0.6669921875 0.7001953125 0.0703125 0.07421875
0 0.748046875 0.7998046875 0.064453125 0.0673828125
0 0.8125 0.77734375 0.09765625 0.0576171875
0 0.830078125 0.8505859375 0.0810546875 0.0595703125
0 0.921875 0.7978515625 0.078125 0.072265625
0 0.9619140625 0.6494140625 0.0380859375 0.08984375
0 0.572265625 0.591796875 0.078125 0.0859375
0 0.751953125 0.6005859375 0.05078125 0.0654296875
0 0.814453125 0.5146484375 0.0654296875 0.08984375
0 0.703125 0.4296875 0.0693359375 0.076171875
0 0.4423828125 0.3896484375 0.103515625 0.068359375
0 0.35546875 0.427734375 0.07421875 0.1337890625
0 0.7021484375 0.33203125 0.0859375 0.06640625
0 0.5458984375 0.25 0.1015625 0.08203125
0 0.720703125 0.25390625 0.060546875 0.0517578125
0 0.83203125 0.267578125 0.109375 0.0693359375
0 0.673828125 0.1328125 0.0634765625 0.06640625
0 0.9140625 0.0966796875 0.0625 0.06640625
0 0.4267578125 0.232421875 0.0888671875 0.041015625
0 0.478515625 0.283203125 0.068359375 0.0654296875
0 0.8974609375 0.0009765625 0.095703125 0.0361328125
0 0.85546875 0.4677734375 0.0654296875 0.0615234375
0 0.8828125 0.5244140625 0.09765625 0.0478515625
0 0.9658203125 0.5107421875 0.0341796875 0.126953125
0 0.001953125 0.3203125 0.0390625 0.0830078125
0 0.8720703125 0.60546875 0.064453125 0.0419921875
0 0.791015625 0.685546875 0.056640625 0.0546875
0 0.5263671875 0.5419921875 0.046875 0.056640625
0 0.0 0.2294921875 0.0400390625 0.0654296875
0 0.1220703125 0.5048828125 0.0419921875 0.0419921875
0 0.6162109375 0.57421875 0.0458984375 0.05078125
0 0.0 0.8466796875 0.04296875 0.0556640625
0 0.533203125 0.5947265625 0.044921875 0.05859375
0 0.4853515625 0.62109375 0.0478515625 0.05078125
0 0.80859375 0.0009765625 0.0576171875 0.0263671875
0 0.01171875 0.9765625 0.048828125 0.021484375
