0 0.0 0.9521484375 0.0302734375 0.0478515625
0 0.2509765625 0.9599609375 0.1171875 0.0400390625
0 0.220703125 0.8291015625 0.072265625 0.1220703125
0 0.318359375 0.833984375 0.0625 0.0458984375
0 0.3173828125 0.9130859375 0.072265625 0.068359375
0 0.4453125 0.935546875 0.0693359375 0.064453125
0 0.484375 0.8642578125 0.0625 0.0595703125
0 0.5166015625 0.90625 0.072265625 0.072265625
0 0.6494140625 0.9443359375 0.109375 0.0556640625
0 0.7861328125 0.9580078125 0.0810546875 0.0419921875
0 0.8095703125 0.8798828125 0.08203125 0.08984375
0 0.947265625 0.765625 0.052734375 0.0654296875
0 0.396484375 0.6142578125 0.0712890625 0.099609375
0 0.466796875 0.6181640625 0.0595703125 0.0791015625
0 0.5947265625 0.60546875 0.0693359375 0.072265625
0 0.4853515625 0.544921875 0.08984375 0.0712890625
0 0.392578125 0.5380859375 0.068359375 0.078125
0 0.248046875 0.4970703125 0.07421875 0.0751953125
0 0.66796875 0.564453125 0.06640625 0.0546875
0 0.701171875 0.599609375 0.0625 0.0625
0 0.744140625 0.5322265625 0.1181640625 0.111328125
0 0.927734375 0.517578125 0.072265625 0.0712890625
0 0.8203125 0.3369140625 0.0771484375 0.0859375
0 0.8037109375 0.390625 0.080078125 0.1328125
0 0.4921875 0.234375 0.091796875 0.0703125
0 0.6162109375 0.23828125 0.08203125 0.07421875
0 0.53125 0.3046875 0.0703125 0.064453125
0 0.21875 0.21875 0.0693359375 0.0654296875
0 0.18359375 0.173828125 0.0556640625 0.0625
0 0.4248046875 0.162109375 0.064453125 0.0732421875
0 0.37890625 0.0927734375 0.087890625 0.0810546875
0 0.34375 0.0263671875 0.0712890625 0.064453125
0 0.3671875 0.0 0.0615234375 0.0380859375
0 0.4921875 0.033203125 0.06640625 0.0830078125
0 0.59765625 0.0458984375 0.0634765625 0.0615234375
0 0.8330078125 0.0 0.0673828125 0.0400390625
0 0.7568359375 0.0107421875 0.1005859375 0.0751953125
0 0.7919921875 0.087890625 0.0947265625 0.0693359375
0 0.9404296875 0.12890625 0.0595703125 0.0859375
0 0.130859375 0.0654296875 0.068359375 0.06640625
0 0.0244140625 0.2021484375 0.0595703125 0.0732421875
0 0.048828125 0.2529296875 0.0810546875 0.0810546875
0 0.064453125 0.537109375 0.0625 0.068359375
0 0.0283203125 0.5849609375 0.0693359375 0.0732421875
0 0.0 0.720703125 0.083984375 0.0771484375
0 0.8349609375 0.58984375 0.083984375 0.0791015625
0 0.0009765625 0.1630859375 0.052734375 0.052734375
0 0.0 0.3828125 0.017578125 0.0517578125
0 0.50390625 0.134765625 0.037109375 0.0478515625
0 0.77734375 0.060546875 0.0595703125 0.0546875
0 0.779296875 0.4501953125 0.0419921875 0.0634765625
0 0.267578125 0.8974609375 0.07421875 0.08984375
0 0.015625 0.939453125 0.0439453125 0.060546875
0 0.05078125 0.962890625 0.0419921875 0.037109375
