0 0.6650390625 0.0 0.138671875 0.0322265625
0 0.62890625 0.078125 0.08984375 0.0712890625
0 0.576171875 0.1201171875 0.1162109375 0.1142578125
0 0.185546875 0.0 0.0888671875 0.0859375
0 0.0 0.142578125 0.0703125 0.1259765625
0 0.1591796875 0.228515625 0.107421875 0.109375
0 0.09765625 0.2646484375 0.0927734375 0.119140625
0 0.2109375 0.359375 0.12109375 0.107421875
0 0.8203125 0.330078125 0.0810546875 0.0849609375
0 0.6201171875 0.3916015625 0.0849609375 0.0712890625
0 0.8154296875 0.4296875 0.1044921875 0.0830078125
0 0.720703125 0.4189453125 0.0849609375 0.1826171875
0 0.7265625 0.6181640625 0.0771484375 0.0908203125
0 0.810546875 0.5166015625 0.0751953125 0.1142578125
0 0.8173828125 0.6318359375 0.1015625 0.1201171875
0 0.5673828125 0.5146484375 0.080078125 0.0849609375
0 0.4072265625 0.482421875 0.107421875 0.0732421875
0 0.3515625 0.578125 0.0888671875 0.0810546875
0 0.4091796875 0.619140625 0.0908203125 0.12109375
0 0.5107421875 0.587890625 0.0791015625 0.0712890625
0 0.595703125 0.6435546875 0.0654296875 0.0693359375
0 0.453125 0.7626953125 0.0791015625 0.0888671875
0 0.22265625 0.73828125 0.103515625 0.083984375
0 0.1337890625 0.7744140625 0.134765625 0.1767578125
0 0.0 0.83203125 0.078125 0.0849609375
0 0.0205078125 0.47265625 0.0927734375 0.0830078125
0 0.5322265625 0.755859375 0.0966796875 0.080078125
0 0.5673828125 0.83984375 0.07421875 0.0732421875
0 0.4287109375 0.8701171875 0.103515625 0.1220703125
0 0.30859375 0.806640625 0.1064453125 0.1240234375
0 0.7607421875 0.830078125 0.1328125 0.1416015625
0 0.306640625 0.044921875 0.091796875 0.0595703125
0 0.306640625 0.0 0.080078125 0.017578125
0 0.3671875 0.1669921875 0.0673828125 0.076171875
0 0.5537109375 0.3076171875 0.0810546875 0.0859375
0 0.6982421875 0.2060546875 0.0615234375 0.0693359375
0 0.6240234375 0.837890625 0.1103515625 0.095703125
0 0.302734375 0.2998046875 0.091796875 0.1103515625
0 0.0 0.56640625 0.0634765625 0.0751953125
0 0.359375 0.4287109375 0.0966796875 0.0751953125
0 0.833984375 0.08984375 0.05859375 0.046875
