0 0.328125 0.0 0.0693359375 0.021484375
0 0.2265625 0.0 0.0615234375 0.056640625
0 0.16015625 0.017578125 0.1064453125 0.080078125
0 0.0419921875 0.0 0.09375 0.0439453125
0 0.0 0.171875 0.0498046875 0.1083984375
0 0.0 0.22265625 0.1318359375 0.0810546875
0 0.0263671875 0.091796875 0.08203125 0.0546875
0 0.0 0.0732421875 0.0166015625 0.05859375
0 0.4736328125 0.03515625 0.0908203125 0.0517578125
0 0.5322265625 0.0 0.0615234375 0.0458984375
0 0.6298828125 0.0107421875 0.0986328125 0.0615234375
0 0.1025390625 0.0 0.0654296875 0.03125
0 0.7177734375 0.0283203125 0.0732421875 0.046875
0 0.787109375 0.060546875 0.10546875 0.0732421875
0 0.916015625 0.0693359375 0.0830078125 0.0732421875
0 0.8486328125 0.140625 0.0419921875 0.0478515625
0 0.890625 0.1748046875 0.0546875 0.0703125
0 0.626953125 0.1025390625 0.044921875 0.046875
0 0.64453125 0.130859375 0.05078125 0.0546875
0 0.431640625 0.19921875 0.0625 0.072265625
0 0.2578125 0.1474609375 0.0595703125 0.08203125
0 0.1455078125 0.265625 0.0615234375 0.076171875
0 0.060546875 0.3203125 0.0634765625 0.0693359375
0 0.0 0.408203125 0.0439453125 0.05078125
0 0.123046875 0.50390625 0.0947265625 0.0546875
0 0.1376953125 0.4130859375 0.0546875 0.05078125
0 0.0810546875 0.3974609375 0.076171875 0.0400390625
0 0.22265625 0.400390625 0.1357421875 0.091796875
0 0.2724609375 0.341796875 0.0595703125 0.0634765625
0 0.396484375 0.3779296875 0.078125 0.08984375
0 0.4404296875 0.32421875 0.0654296875 0.0556640625
0 0.5166015625 0.3173828125 0.083984375 0.0830078125
0 0.5908203125 0.3095703125 0.0576171875 0.05859375
0 0.6337890625 0.255859375 0.1064453125 0.0986328125
0 0.7109375 0.1572265625 0.15234375 0.0947265625
0 0.8828125 0.2294921875 0.1162109375 0.068359375
0 0.9296875 0.2919921875 0.0703125 0.046875
0 0.787109375 0.2724609375 0.076171875 0.0673828125
0 0.7509765625 0.33203125 0.1220703125 0.0546875
0 0.7998046875 0.412109375 0.064453125 0.0615234375
0 0.8828125 0.4111328125 0.1171875 0.04296875
0 0.4736328125 0.5068359375 0.0810546875 0.06640625
0 0.5419921875 0.62109375 0.0595703125 0.0498046875
0 0.64453125 0.6298828125 0.103515625 0.056640625
0 0.6611328125 0.6953125 0.078125 0.03125
0 0.673828125 0.7001953125 0.095703125 0.0654296875
0 0.7998046875 0.7705078125 0.11328125 0.0400390625
0 0.7802734375 0.791015625 0.06640625 0.0517578125
0 0.8671875 0.8095703125 0.037109375 0.0458984375
0 0.8876953125 0.8232421875 0.0927734375 0.0478515625
0 0.9443359375 0.7802734375 0.0556640625 0.0419921875
0 0.890625 0.86328125 0.08984375 0.0546875
0 0.8291015625 0.87109375 0.08984375 0.0615234375
0 0.6611328125 0.81640625 0.060546875 0.0849609375
0 0.7001953125 0.8212890625 0.0546875 0.0830078125
0 0.818359375 0.9326171875 0.046875 0.044921875
0 0.83203125 0.9111328125 0.0908203125 0.0419921875
0 0.7705078125 0.9306640625 0.0576171875 0.0693359375
0 0.693359375 0.921875 0.0517578125 0.0732421875
0 0.7509765625 0.921875 0.0478515625 0.0556640625
0 0.572265625 0.9296875 0.072265625 0.0703125
0 0.390625 0.87109375 0.08203125 0.05078125
0 0.4052734375 0.91796875 0.0546875 0.0478515625
0 0.4521484375 0.9091796875 0.0537109375 0.0654296875
0 0.076171875 0.966796875 0.109375 0.033203125
0 0.11328125 0.8564453125 0.056640625 0.052734375
0 0.0 0.8056640625 0.0732421875 0.05078125
0 0.076171875 0.7880859375 0.0654296875 0.0615234375
0 0.03125 0.7255859375 0.0517578125 0.05859375
0 0.1064453125 0.681640625 0.0439453125 0.04296875
0 0.173828125 0.728515625 0.07421875 0.0625
0 0.2666015625 0.740234375 0.1201171875 0.05859375
0 0.3486328125 0.779296875 0.056640625 0.0341796875
0 0.2509765625 0.8603515625 0.0673828125 0.06640625
0 0.5283203125 0.73046875 0.1103515625 0.0458984375
0 0.5400390625 0.7705078125 0.068359375 0.0751953125
0 0.5517578125 0.7958984375 0.0927734375 0.0986328125
0 0.5986328125 0.373046875 0.0478515625 0.0380859375
0 0.712890625 0.7490234375 0.0439453125 0.04296875
0 0.76171875 0.7626953125 0.0634765625 0.0419921875
0 0.3330078125 0.880859375 0.0341796875 0.0517578125
0 0.4873046875 0.78125 0.064453125 0.0322265625
