0 0.7646484375 0.4892578125 0.0927734375 0.1357421875
0 0.875 0.32421875 0.125 0.0673828125
0 0.5068359375 0.4423828125 0.1123046875 0.1171875
0 0.1494140625 0.2568359375 0.1376953125 0.0703125
0 0.126953125 0.876953125 0.107421875 0.123046875
0 0.2724609375 0.3095703125 0.08203125 0.125
0 0.83984375 0.64453125 0.16015625 0.1025390625
0 0.58203125 0.7021484375 0.16015625 0.1025390625
0 0.0869140625 0.8017578125 0.16796875 0.0849609375
0 0.154296875 0.5322265625 0.072265625 0.0751953125
0 0.0966796875 0.45703125 0.078125 0.087890625
0 0.01953125 0.2265625 0.0771484375 0.1376953125
0 0.2822265625 0.732421875 0.0625 0.0947265625
0 0.6044921875 0.8193359375 0.162109375 0.1806640625
0 0.279296875 0.8349609375 0.0556640625 0.0771484375
0 0.1416015625 0.001953125 0.1357421875 0.1796875
0 0.2919921875 0.4541015625 0.205078125 0.1005859375
0 0.787109375 0.21484375 0.1201171875 0.0869140625
0 0.71484375 0.6142578125 0.080078125 0.169921875
0 0.9248046875 0.119140625 0.0751953125 0.115234375
0 0.4169921875 0.341796875 0.1396484375 0.10546875
0 0.64453125 0.3369140625 0.0849609375 0.125
0 0.4169921875 0.5322265625 0.08984375 0.14453125
0 0.38671875 0.232421875 0.3232421875 0.091796875
0 0.8642578125 0.001953125 0.1201171875 0.060546875
0 0.1748046875 0.607421875 0.126953125 0.0771484375
0 0.5693359375 0.2021484375 0.1376953125 0.287109375
0 0.2373046875 0.404296875 0.091796875 0.158203125
0 0.20703125 0.001953125 0.1728515625 0.0673828125
0 0.734375 0.8095703125 0.1630859375 0.1904296875
0 0.962890625 0.0380859375 0.037109375 0.0673828125
0 0.7119140625 0.1396484375 0.0673828125 0.2626953125
0 0.7265625 0.6396484375 0.1103515625 0.2978515625
0 0.5068359375 0.1943359375 0.078125 0.134765625
0 0.876953125 0.1669921875 0.0927734375 0.134765625
0 0.83203125 0.9267578125 0.0927734375 0.0732421875
0 0.76171875 0.216796875 0.052734375 0.0849609375
0 0.314453125 0.0224609375 0.052734375 0.14453125
0 0.0869140625 0.001953125 0.0478515625 0.0498046875
0 0.154296875 0.119140625 0.08984375 0.1630859375
0 0.3095703125 0.2998046875 0.0625 0.1396484375
0 0.4541015625 0.3095703125 0.0849609375 0.1845703125
0 0.001953125 0.46484375 0.0400390625 0.0625
0 0.744140625 0.8515625 0.1103515625 0.1328125
0 0.001953125 0.8720703125 0.0546875 0.0654296875
0 0.9453125 0.7822265625 0.0546875 0.0693359375
