0 0.0224609375 0.9765625 0.07421875 0.0234375
0 0.037109375 0.921875 0.0771484375 0.0625
0 0.03125 0.8232421875 0.078125 0.091796875
0 0.18359375 0.8857421875 0.0732421875 0.0693359375
0 0.2744140625 0.939453125 0.0576171875 0.060546875
0 0.201171875 0.9599609375 0.0673828125 0.0400390625
0 0.39453125 0.9345703125 0.0732421875 0.0654296875
0 0.4814453125 0.91796875 0.0654296875 0.064453125
0 0.5751953125 0.9423828125 0.0693359375 0.0576171875
0 0.685546875 0.9462890625 0.0634765625 0.0537109375
0 0.7451171875 0.90234375 0.1142578125 0.064453125
0 0.658203125 0.7939453125 0.1044921875 0.080078125
0 0.39453125 0.8271484375 0.1591796875 0.0791015625
0 0.3515625 0.705078125 0.091796875 0.078125
0 0.177734375 0.66015625 0.0703125 0.08984375
0 0.0390625 0.732421875 0.078125 0.0908203125
0 0.0 0.69140625 0.033203125 0.1015625
0 0.7255859375 0.8818359375 0.0712890625 0.0634765625
0 0.8505859375 0.8994140625 0.0712890625 0.0712890625
0 0.91015625 0.841796875 0.0859375 0.080078125
0 0.7919921875 0.80078125 0.0986328125 0.072265625
0 0.76171875 0.685546875 0.0947265625 0.0810546875
0 0.4921875 0.689453125 0.0693359375 0.0654296875
0 0.453125 0.53515625 0.078125 0.1533203125
0 0.8974609375 0.5224609375 0.1025390625 0.076171875
0 0.7529296875 0.462890625 0.0849609375 0.0732421875
0 0.8740234375 0.37890625 0.1005859375 0.076171875
0 0.7265625 0.3828125 0.0986328125 0.0693359375
0 0.6767578125 0.2666015625 0.08984375 0.111328125
0 0.4150390625 0.341796875 0.08984375 0.0927734375
0 0.1748046875 0.2861328125 0.0693359375 0.10546875
0 0.205078125 0.3935546875 0.0654296875 0.0673828125
0 0.287109375 0.310546875 0.0732421875 0.06640625
0 0.3095703125 0.4833984375 0.083984375 0.08203125
0 0.2724609375 0.6044921875 0.103515625 0.064453125
0 0.0 0.4140625 0.0498046875 0.0947265625
0 0.0 0.3349609375 0.10546875 0.072265625
0 0.0947265625 0.1416015625 0.0771484375 0.087890625
0 0.4033203125 0.205078125 0.138671875 0.0751953125
0 0.3359375 0.09765625 0.072265625 0.0732421875
0 0.2734375 0.0361328125 0.0771484375 0.0888671875
0 0.1640625 0.03125 0.0869140625 0.078125
0 0.025390625 0.0361328125 0.0576171875 0.0712890625
0 0.0 0.0 0.0322265625 0.0205078125
0 0.0595703125 0.0 0.0732421875 0.0390625
0 0.3359375 0.0 0.091796875 0.046875
0 0.3984375 0.029296875 0.0859375 0.0849609375
0 0.5029296875 0.0 0.0751953125 0.029296875
0 0.5732421875 0.0322265625 0.1015625 0.068359375
0 0.6640625 0.0234375 0.0751953125 0.072265625
0 0.8037109375 0.0 0.12109375 0.0234375
0 0.9736328125 0.0 0.0263671875 0.0478515625
0 0.88671875 0.04296875 0.06640625 0.07421875
0 0.92578125 0.1103515625 0.07421875 0.0810546875
0 0.974609375 0.0615234375 0.025390625 0.0556640625
0 0.0625 0.4873046875 0.078125 0.0556640625
0 0.5615234375 0.8779296875 0.0625 0.068359375
0 0.69140625 0.7392578125 0.0673828125 0.0673828125
0 0.685546875 0.681640625 0.07421875 0.0654296875
0 0.130859375 0.423828125 0.0595703125 0.0634765625
0 0.00390625 0.09375 0.0654296875 0.06640625
0 0.1474609375 0.0 0.064453125 0.0419921875
