0 0.4638671875 0.9541015625 0.0693359375 0.0458984375
0 0.5712890625 0.8505859375 0.0625 0.1044921875
0 0.6376953125 0.826171875 0.091796875 0.087890625
0 0.9599609375 0.7900390625 0.0400390625 0.0615234375
0 0.90234375 0.6943359375 0.0771484375 0.095703125
0 0.9599609375 0.6796875 0.0400390625 0.0791015625
0 0.79296875 0.5986328125 0.06640625 0.0634765625
0 0.419921875 0.8408203125 0.1005859375 0.0625
0 0.3232421875 0.9208984375 0.1015625 0.06640625
0 0.5029296875 0.75390625 0.0908203125 0.11328125
0 0.462890625 0.7353515625 0.0517578125 0.0673828125
0 0.5732421875 0.7783203125 0.064453125 0.0712890625
0 0.8740234375 0.482421875 0.0703125 0.076171875
0 0.939453125 0.453125 0.060546875 0.1591796875
0 0.8056640625 0.3779296875 0.115234375 0.072265625
0 0.9482421875 0.3740234375 0.05078125 0.052734375
0 0.927734375 0.0693359375 0.072265625 0.1103515625
0 0.845703125 0.1259765625 0.078125 0.08203125
0 0.7099609375 0.1103515625 0.142578125 0.083984375
0 0.728515625 0.0048828125 0.083984375 0.0712890625
0 0.6572265625 0.18359375 0.1259765625 0.0888671875
0 0.6240234375 0.220703125 0.05859375 0.126953125
0 0.537109375 0.41015625 0.095703125 0.07421875
0 0.5224609375 0.4912109375 0.060546875 0.1142578125
0 0.4921875 0.5234375 0.0576171875 0.0966796875
0 0.3583984375 0.568359375 0.0810546875 0.0537109375
0 0.28515625 0.4384765625 0.068359375 0.072265625
0 0.373046875 0.2998046875 0.0693359375 0.08984375
0 0.3232421875 0.611328125 0.09375 0.0830078125
0 0.267578125 0.6728515625 0.0654296875 0.048828125
0 0.26953125 0.7158203125 0.080078125 0.0478515625
0 0.2841796875 0.7431640625 0.060546875 0.0771484375
0 0.318359375 0.7958984375 0.078125 0.05859375
0 0.2138671875 0.8994140625 0.08984375 0.0673828125
0 0.1435546875 0.94921875 0.060546875 0.05078125
0 0.0068359375 0.9609375 0.111328125 0.0390625
0 0.037109375 0.7900390625 0.056640625 0.109375
0 0.083984375 0.8525390625 0.0458984375 0.0576171875
0 0.0 0.6728515625 0.0595703125 0.08984375
0 0.1728515625 0.626953125 0.0615234375 0.07421875
0 0.013671875 0.548828125 0.080078125 0.0986328125
0 0.083984375 0.546875 0.08203125 0.0869140625
0 0.0166015625 0.2109375 0.078125 0.06640625
0 0.0146484375 0.345703125 0.0693359375 0.0615234375
0 0.0888671875 0.3076171875 0.0546875 0.052734375
0 0.1552734375 0.27734375 0.1298828125 0.099609375
0 0.2265625 0.412109375 0.0595703125 0.078125
0 0.0 0.1162109375 0.0390625 0.048828125
0 0.1513671875 0.009765625 0.05078125 0.056640625
0 0.197265625 0.0 0.125 0.05859375
0 0.3564453125 0.001953125 0.076171875 0.1044921875
0 0.439453125 0.03125 0.0810546875 0.0634765625
0 0.3193359375 0.083984375 0.107421875 0.119140625
0 0.3349609375 0.162109375 0.080078125 0.0830078125
0 0.40234375 0.1181640625 0.068359375 0.05859375
0 0.4091796875 0.0 0.1044921875 0.037109375
0 0.9306640625 0.65234375 0.0478515625 0.0908203125
0 0.6435546875 0.0 0.0693359375 0.0712890625
0 0.08203125 0.056640625 0.06640625 0.0703125
0 0.0546875 0.7734375 0.0771484375 0.052734375
0 0.97265625 0.3115234375 0.02734375 0.0654296875
0 0.91015625 0.5380859375 0.0595703125 0.056640625
0 0.08203125 0.9697265625 0.0732421875 0.0302734375
0 0.0 0.7744140625 0.0244140625 0.0615234375
