0 0.20703125 0.1337890625 0.107421875 0.0947265625
0 0.3828125 0.0048828125 0.0830078125 0.0634765625
0 0.439453125 0.03515625 0.146484375 0.072265625
0 0.2841796875 0.2587890625 0.07421875 0.0654296875
0 0.3212890625 0.2236328125 0.060546875 0.0615234375
0 0.203125 0.236328125 0.05859375 0.0654296875
0 0.232421875 0.326171875 0.0869140625 0.0693359375
0 0.7099609375 0.2216796875 0.0859375 0.0869140625
0 0.7890625 0.171875 0.078125 0.10546875
0 0.6083984375 0.275390625 0.068359375 0.0712890625
0 0.8544921875 0.0009765625 0.0751953125 0.0615234375
0 0.80078125 0.015625 0.0673828125 0.0654296875
0 0.318359375 0.5869140625 0.1025390625 0.095703125
0 0.5048828125 0.5732421875 0.1044921875 0.072265625
0 0.169921875 0.6826171875 0.0751953125 0.1181640625
0 0.3984375 0.6513671875 0.0810546875 0.072265625
0 0.533203125 0.638671875 0.0732421875 0.0927734375
0 0.7802734375 0.5673828125 0.0771484375 0.0712890625
0 0.947265625 0.3203125 0.052734375 0.0810546875
0 0.892578125 0.671875 0.0791015625 0.0927734375
0 0.546875 0.7958984375 0.0556640625 0.0693359375
0 0.3876953125 0.8330078125 0.1025390625 0.083984375
0 0.298828125 0.8466796875 0.064453125 0.0693359375
0 0.234375 0.7275390625 0.064453125 0.0947265625
0 0.6552734375 0.91015625 0.1142578125 0.06640625
0 0.7763671875 0.9091796875 0.0751953125 0.06640625
0 0.8115234375 0.8203125 0.0625 0.0771484375
0 0.87109375 0.8427734375 0.0732421875 0.068359375
0 0.0 0.185546875 0.0517578125 0.0888671875
0 0.443359375 0.333984375 0.091796875 0.0859375
0 0.61328125 0.2236328125 0.08984375 0.0703125
0 0.0009765625 0.279296875 0.03125 0.0498046875
0 0.1591796875 0.26953125 0.0712890625 0.0615234375
0 0.375 0.2568359375 0.0498046875 0.052734375
0 0.765625 0.3447265625 0.03515625 0.0390625
0 0.3623046875 0.7177734375 0.0458984375 0.0390625
0 0.185546875 0.794921875 0.0869140625 0.0498046875
0 0.630859375 0.4296875 0.0390625 0.04296875
0 0.640625 0.7939453125 0.0400390625 0.0380859375
0 0.970703125 0.7744140625 0.029296875 0.0439453125
0 0.9521484375 0.8984375 0.0439453125 0.046875
0 0.9482421875 0.94921875 0.0478515625 0.0458984375
