0 0.890625 0.083984375 0.072265625 0.10546875
0 0.630859375 0.0478515625 0.09375 0.0869140625
0 0.55078125 0.0 0.1005859375 0.115234375
0 0.8408203125 0.4052734375 0.130859375 0.0869140625
0 0.75 0.408203125 0.0771484375 0.083984375
0 0.6005859375 0.189453125 0.1630859375 0.080078125
0 0.7119140625 0.232421875 0.1552734375 0.076171875
0 0.515625 0.123046875 0.1025390625 0.0693359375
0 0.3271484375 0.2353515625 0.0947265625 0.068359375
0 0.150390625 0.3486328125 0.158203125 0.1865234375
0 0.1982421875 0.63671875 0.109375 0.0810546875
0 0.0 0.2373046875 0.09375 0.1015625
0 0.12890625 0.0732421875 0.0908203125 0.162109375
0 0.19921875 0.0 0.06640625 0.12109375
0 0.7919921875 0.498046875 0.0927734375 0.1328125
0 0.826171875 0.6806640625 0.087890625 0.0927734375
0 0.966796875 0.865234375 0.033203125 0.0966796875
0 0.8447265625 0.8388671875 0.07421875 0.078125
0 0.9052734375 0.92578125 0.0693359375 0.048828125
0 0.5234375 0.865234375 0.07421875 0.0830078125
0 0.5888671875 0.8505859375 0.0498046875 0.05078125
0 0.279296875 0.927734375 0.109375 0.072265625
0 0.1494140625 0.919921875 0.076171875 0.06640625
