0 0.7666015625 0.8994140625 0.1630859375 0.0751953125
0 0.68359375 0.2666015625 0.1474609375 0.134765625
0 0.4287109375 0.8291015625 0.1474609375 0.0849609375
0 0.634765625 0.4873046875 0.0947265625 0.0947265625
0 0.419921875 0.39453125 0.1044921875 0.0673828125
0 0.0771484375 0.7900390625 0.1103515625 0.0849609375
0 0.1103515625 0.630859375 0.087890625 0.052734375
0 0.064453125 0.2041015625 0.1875 0.1376953125
0 0.7705078125 0.4755859375 0.1171875 0.0771484375
0 0.8642578125 0.0126953125 0.12109375 0.0888671875
0 0.25 0.7548828125 0.109375 0.0947265625
0 0.912109375 0.744140625 0.087890625 0.060546875
0 0.109375 0.6796875 0.16015625 0.08984375
0 0.2421875 0.9345703125 0.1572265625 0.0654296875
0 0.44921875 0.044921875 0.1474609375 0.0625
0 0.640625 0.0302734375 0.0615234375 0.078125
0 0.0205078125 0.349609375 0.0634765625 0.138671875
0 0.2568359375 0.2724609375 0.0654296875 0.109375
0 0.072265625 0.3291015625 0.2109375 0.1416015625
0 0.8466796875 0.6123046875 0.150390625 0.1123046875
0 0.1943359375 0.8798828125 0.0849609375 0.1181640625
0 0.0 0.708984375 0.125 0.1142578125
0 0.15234375 0.474609375 0.1748046875 0.1728515625
0 0.57421875 0.8134765625 0.1044921875 0.072265625
0 0.46484375 0.064453125 0.15234375 0.1201171875
0 0.5 0.599609375 0.1025390625 0.0947265625
0 0.349609375 0.46484375 0.1162109375 0.1728515625
0 0.529296875 0.2421875 0.1025390625 0.0625
0 0.3193359375 0.0791015625 0.1298828125 0.1357421875
0 0.447265625 0.4443359375 0.2802734375 0.0947265625
0 0.1640625 0.0244140625 0.1630859375 0.21484375
0 0.19921875 0.8349609375 0.22265625 0.0693359375
0 0.8642578125 0.53125 0.1357421875 0.0830078125
0 0.107421875 0.4423828125 0.0849609375 0.08203125
0 0.5068359375 0.662109375 0.1123046875 0.0849609375
0 0.0458984375 0.119140625 0.0712890625 0.1103515625
0 0.0 0.001953125 0.1259765625 0.0654296875
0 0.4091796875 0.2724609375 0.1474609375 0.125
0 0.0 0.6337890625 0.02734375 0.1591796875
0 0.3935546875 0.0009765625 0.119140625 0.0478515625
0 0.7001953125 0.0771484375 0.0732421875 0.1005859375
0 0.5673828125 0.232421875 0.07421875 0.171875
0 0.77734375 0.5517578125 0.08984375 0.0576171875
0 0.908203125 0.7998046875 0.091796875 0.08984375
0 0.642578125 0.767578125 0.1171875 0.060546875
0 0.27734375 0.099609375 0.091796875 0.1396484375
0 0.529296875 0.3173828125 0.0556640625 0.1025390625
0 0.35546875 0.5244140625 0.2119140625 0.072265625
0 0.2744140625 0.08984375 0.0830078125 0.0673828125
0 0.26953125 0.888671875 0.07421875 0.0908203125
0 0.5673828125 0.3369140625 0.107421875 0.060546875
