0 0.0 0.0 0.0283203125 0.072265625
0 0.21875 0.0517578125 0.0732421875 0.046875
0 0.2607421875 0.1337890625 0.083984375 0.0751953125
0 0.2958984375 0.3212890625 0.0810546875 0.095703125
0 0.3291015625 0.1845703125 0.0703125 0.080078125
0 0.427734375 0.08203125 0.0859375 0.1220703125
0 0.18359375 0.396484375 0.05859375 0.0556640625
0 0.0 0.5458984375 0.07421875 0.0732421875
0 0.1845703125 0.462890625 0.0498046875 0.0751953125
0 0.1923828125 0.5078125 0.0751953125 0.07421875
0 0.2919921875 0.6083984375 0.0673828125 0.1103515625
0 0.35546875 0.7099609375 0.0712890625 0.169921875
0 0.2578125 0.58984375 0.0458984375 0.056640625
0 0.279296875 0.435546875 0.0458984375 0.0791015625
0 0.240234375 0.849609375 0.0546875 0.083984375
0 0.083984375 0.78125 0.072265625 0.068359375
0 0.4599609375 0.87890625 0.1044921875 0.0927734375
0 0.60546875 0.9169921875 0.0791015625 0.0830078125
0 0.2958984375 0.0 0.06640625 0.037109375
0 0.7236328125 0.04296875 0.05078125 0.099609375
0 0.7578125 0.037109375 0.0556640625 0.064453125
0 0.8994140625 0.150390625 0.0830078125 0.0556640625
0 0.9365234375 0.025390625 0.0634765625 0.091796875
0 0.98046875 0.201171875 0.01953125 0.08203125
0 0.8212890625 0.2939453125 0.06640625 0.087890625
0 0.734375 0.265625 0.068359375 0.0849609375
0 0.646484375 0.26953125 0.0947265625 0.09765625
0 0.646484375 0.4130859375 0.095703125 0.064453125
0 0.8427734375 0.43359375 0.0751953125 0.0732421875
0 0.6796875 0.501953125 0.1103515625 0.0693359375
0 0.55078125 0.6982421875 0.0615234375 0.0625
0 0.6259765625 0.673828125 0.1015625 0.12109375
0 0.8251953125 0.611328125 0.07421875 0.162109375
0 0.958984375 0.810546875 0.041015625 0.0732421875
0 0.7568359375 0.88671875 0.080078125 0.1025390625
0 0.87890625 0.9384765625 0.0654296875 0.0615234375
0 0.8359375 0.5048828125 0.0517578125 0.046875
0 0.55859375 0.384765625 0.0849609375 0.080078125
