0 0.0 0.896484375 0.0498046875 0.0771484375
0 0.197265625 0.9140625 0.0771484375 0.08203125
0 0.03515625 0.7216796875 0.150390625 0.1064453125
0 0.94140625 0.9287109375 0.05859375 0.0712890625
0 0.587890625 0.8544921875 0.0771484375 0.060546875
0 0.6806640625 0.8984375 0.169921875 0.0771484375
0 0.5810546875 0.609375 0.0654296875 0.0859375
0 0.44921875 0.619140625 0.10546875 0.1005859375
0 0.3291015625 0.4755859375 0.1025390625 0.08203125
0 0.0 0.453125 0.029296875 0.119140625
0 0.4130859375 0.2197265625 0.119140625 0.08203125
0 0.4599609375 0.115234375 0.1240234375 0.068359375
0 0.1005859375 0.0166015625 0.244140625 0.0712890625
0 0.0 0.0908203125 0.173828125 0.0517578125
0 0.0 0.0 0.029296875 0.0546875
0 0.6904296875 0.2119140625 0.0830078125 0.06640625
0 0.828125 0.11328125 0.0986328125 0.0771484375
0 0.79296875 0.6005859375 0.0947265625 0.0947265625
0 0.7275390625 0.5498046875 0.080078125 0.0830078125
0 0.6923828125 0.7177734375 0.1162109375 0.07421875
0 0.7216796875 0.6845703125 0.07421875 0.04296875
0 0.9267578125 0.796875 0.0732421875 0.1181640625
0 0.919921875 0.0 0.072265625 0.0673828125
0 0.650390625 0.439453125 0.1064453125 0.083984375
0 0.9677734375 0.1015625 0.0322265625 0.109375
0 0.498046875 0.75390625 0.1005859375 0.078125
0 0.6416015625 0.4384765625 0.1396484375 0.115234375
0 0.234375 0.1318359375 0.1572265625 0.107421875
