0 0.0 0.125 0.0380859375 0.130859375
0 0.0068359375 0.0 0.0869140625 0.078125
0 0.1923828125 0.0146484375 0.1337890625 0.0771484375
0 0.095703125 0.107421875 0.1513671875 0.09765625
0 0.2998046875 0.09375 0.1435546875 0.0673828125
0 0.5478515625 0.0380859375 0.091796875 0.099609375
0 0.5380859375 0.1611328125 0.083984375 0.0810546875
0 0.435546875 0.232421875 0.0751953125 0.08984375
0 0.5283203125 0.2646484375 0.103515625 0.0634765625
0 0.19921875 0.3671875 0.1826171875 0.109375
0 0.0 0.353515625 0.0634765625 0.1552734375
0 0.0 0.5703125 0.1015625 0.1103515625
0 0.0 0.7958984375 0.05859375 0.0634765625
0 0.1318359375 0.9091796875 0.0869140625 0.0908203125
0 0.22265625 0.9130859375 0.2001953125 0.0869140625
0 0.2470703125 0.7216796875 0.1953125 0.10546875
0 0.60546875 0.6435546875 0.1845703125 0.099609375
0 0.6181640625 0.5263671875 0.103515625 0.123046875
0 0.572265625 0.46484375 0.0654296875 0.091796875
0 0.6650390625 0.2568359375 0.1318359375 0.162109375
0 0.74609375 0.39453125 0.1337890625 0.1826171875
0 0.5830078125 0.955078125 0.140625 0.044921875
0 0.7900390625 0.7802734375 0.2099609375 0.138671875
0 0.80859375 0.71875 0.0830078125 0.087890625
0 0.603515625 0.7431640625 0.09765625 0.0869140625
0 0.8916015625 0.595703125 0.0810546875 0.0830078125
0 0.859375 0.345703125 0.140625 0.115234375
0 0.9609375 0.205078125 0.0390625 0.0732421875
0 0.798828125 0.1259765625 0.0986328125 0.1337890625
0 0.6953125 0.130859375 0.0546875 0.076171875
0 0.8916015625 0.0 0.0869140625 0.0654296875
0 0.677734375 0.0 0.1328125 0.07421875
0 0.4150390625 0.447265625 0.0908203125 0.181640625
0 0.8779296875 0.01953125 0.1220703125 0.13671875
0 0.083984375 0.0107421875 0.1142578125 0.171875
