0 0.529296875 0.4267578125 0.150390625 0.078125
0 0.0068359375 0.5048828125 0.140625 0.1298828125
0 0.841796875 0.369140625 0.072265625 0.123046875
0 0.4296875 0.251953125 0.0927734375 0.087890625
0 0.7841796875 0.5947265625 0.1103515625 0.0947265625
0 0.931640625 0.27734375 0.068359375 0.0625
0 0.6171875 0.814453125 0.1220703125 0.0625
0 0.3603515625 0.3798828125 0.0546875 0.0966796875
0 0.3017578125 0.2021484375 0.1025390625 0.1025390625
0 0.6669921875 0.171875 0.125 0.0830078125
0 0.537109375 0.7021484375 0.0947265625 0.064453125
0 0.21484375 0.294921875 0.091796875 0.109375
0 0.744140625 0.671875 0.0849609375 0.0654296875
0 0.189453125 0.474609375 0.1552734375 0.1328125
0 0.484375 0.6201171875 0.0576171875 0.0595703125
0 0.5673828125 0.6142578125 0.0693359375 0.09765625
0 0.6318359375 0.65234375 0.09765625 0.171875
0 0.107421875 0.8125 0.0673828125 0.064453125
0 0.9619140625 0.75 0.0380859375 0.109375
0 0.001953125 0.7099609375 0.1328125 0.107421875
0 0.7724609375 0.8271484375 0.1767578125 0.0751953125
0 0.44921875 0.0849609375 0.0673828125 0.08984375
0 0.1494140625 0.0146484375 0.0703125 0.072265625
0 0.8916015625 0.1494140625 0.068359375 0.0947265625
0 0.224609375 0.01953125 0.115234375 0.0576171875
0 0.1015625 0.64453125 0.240234375 0.0703125
0 0.609375 0.58984375 0.1748046875 0.0673828125
0 0.0 0.236328125 0.0361328125 0.0458984375
0 0.9072265625 0.08984375 0.0927734375 0.0869140625
0 0.626953125 0.20703125 0.1171875 0.115234375
0 0.3291015625 0.849609375 0.1552734375 0.14453125
0 0.3173828125 0.001953125 0.1044921875 0.185546875
0 0.38671875 0.787109375 0.087890625 0.1650390625
0 0.9296875 0.4794921875 0.0703125 0.0771484375
0 0.529296875 0.1318359375 0.095703125 0.1279296875
0 0.2744140625 0.77734375 0.1005859375 0.14453125
0 0.3349609375 0.5068359375 0.091796875 0.0927734375
0 0.20703125 0.2021484375 0.072265625 0.072265625
0 0.001953125 0.001953125 0.107421875 0.1474609375
0 0.52734375 0.01953125 0.1142578125 0.1123046875
0 0.8447265625 0.90234375 0.1552734375 0.0771484375
0 0.125 0.1494140625 0.0791015625 0.2099609375
0 0.001953125 0.857421875 0.16796875 0.0849609375
0 0.14453125 0.734375 0.052734375 0.0703125
0 0.7294921875 0.001953125 0.0751953125 0.0771484375
0 0.3623046875 0.1396484375 0.0673828125 0.0625
0 0.001953125 0.875 0.0703125 0.109375
0 0.001953125 0.27734375 0.0625 0.0625
0 0.07421875 0.224609375 0.0625 0.0703125
0 0.57421875 0.162109375 0.078125 0.2275390625
0 0.0947265625 0.0625 0.0419921875 0.1298828125
0 0.447265625 0.0166015625 0.064453125 0.060546875
0 0.5693359375 0.001953125 0.08984375 0.03515625
0 0.7421875 0.0966796875 0.046875 0.0703125
0 0.671875 0.1318359375 0.052734375 0.0625
0 0.822265625 0.474609375 0.0751953125 0.0849609375
0 0.0244140625 0.7470703125 0.0546875 0.09765625
0 0.9423828125 0.796875 0.0517578125 0.044921875
0 0.87890625 0.00390625 0.0576171875 0.0380859375
0 0.3544921875 0.33203125 0.068359375 0.1015625
0 0.0 0.2001953125 0.05859375 0.0771484375
