0 0.61328125 0.0 0.083984375 0.158203125
0 0.1376953125 0.7783203125 0.1005859375 0.1240234375
0 0.84765625 0.7470703125 0.0517578125 0.126953125
0 0.7109375 0.484375 0.0869140625 0.11328125
0 0.037109375 0.521484375 0.13671875 0.064453125
0 0.4453125 0.921875 0.11328125 0.0625
0 0.9130859375 0.08984375 0.0556640625 0.083984375
0 0.5791015625 0.4462890625 0.119140625 0.068359375
0 0.75390625 0.361328125 0.072265625 0.1337890625
0 0.587890625 0.9404296875 0.1103515625 0.056640625
0 0.7744140625 0.181640625 0.1044921875 0.0693359375
0 0.35546875 0.1865234375 0.064453125 0.0419921875
0 0.2353515625 0.62890625 0.060546875 0.05859375
0 0.8408203125 0.0 0.0576171875 0.1259765625
0 0.0048828125 0.6767578125 0.05859375 0.076171875
0 0.369140625 0.84765625 0.1005859375 0.0791015625
0 0.0 0.9033203125 0.0849609375 0.0517578125
0 0.943359375 0.544921875 0.056640625 0.044921875
0 0.4345703125 0.6259765625 0.0703125 0.0419921875
0 0.21484375 0.9296875 0.083984375 0.056640625
0 0.19921875 0.5146484375 0.072265625 0.0712890625
0 0.427734375 0.4462890625 0.134765625 0.142578125
0 0.5712890625 0.8125 0.0927734375 0.044921875
0 0.64453125 0.3486328125 0.080078125 0.0615234375
0 0.4365234375 0.4677734375 0.080078125 0.05859375
0 0.7822265625 0.6318359375 0.064453125 0.0498046875
0 0.6533203125 0.6865234375 0.029296875 0.0751953125
0 0.599609375 0.6591796875 0.0634765625 0.1279296875
0 0.140625 0.580078125 0.06640625 0.076171875
0 0.0029296875 0.0830078125 0.0546875 0.048828125
0 0.0 0.8876953125 0.0517578125 0.0361328125
0 0.7265625 0.9072265625 0.083984375 0.0458984375
0 0.47265625 0.845703125 0.140625 0.0634765625
0 0.265625 0.5556640625 0.1611328125 0.0556640625
0 0.361328125 0.443359375 0.08203125 0.1201171875
0 0.2802734375 0.4267578125 0.095703125 0.0517578125
0 0.1376953125 0.8779296875 0.046875 0.03125
0 0.5927734375 0.376953125 0.060546875 0.0810546875
0 0.2978515625 0.89453125 0.0869140625 0.052734375
0 0.6865234375 0.787109375 0.0673828125 0.0693359375
0 0.103515625 0.9052734375 0.0390625 0.056640625
0 0.0 0.951171875 0.0341796875 0.046875
0 0.5634765625 0.548828125 0.0556640625 0.0419921875
0 0.0615234375 0.84375 0.060546875 0.0732421875
0 0.4287109375 0.158203125 0.06640625 0.06640625
0 0.5419921875 0.5986328125 0.1025390625 0.0625
0 0.212890625 0.58984375 0.1416015625 0.05859375
0 0.7353515625 0.3837890625 0.11328125 0.0498046875
0 0.6484375 0.427734375 0.064453125 0.05859375
0 0.642578125 0.5185546875 0.10546875 0.064453125
0 0.5166015625 0.8046875 0.0546875 0.0576171875
0 0.9267578125 0.572265625 0.048828125 0.0419921875
