0 0.0 0.1533203125 0.0927734375 0.068359375
0 0.0869140625 0.0732421875 0.060546875 0.0654296875
0 0.1279296875 0.1630859375 0.0537109375 0.0498046875
0 0.0849609375 0.146484375 0.0546875 0.076171875
0 0.0693359375 0.212890625 0.0498046875 0.0595703125
0 0.009765625 0.220703125 0.068359375 0.05859375
0 0.0 0.333984375 0.0908203125 0.076171875
0 0.083984375 0.2822265625 0.14453125 0.078125
0 0.08984375 0.373046875 0.0576171875 0.0625
0 0.0 0.5908203125 0.078125 0.0849609375
0 0.2890625 0.3330078125 0.1298828125 0.1181640625
0 0.294921875 0.4287109375 0.123046875 0.0830078125
0 0.4658203125 0.384765625 0.05859375 0.064453125
0 0.369140625 0.2333984375 0.1044921875 0.0654296875
0 0.5009765625 0.259765625 0.0830078125 0.0625
0 0.404296875 0.1181640625 0.1357421875 0.0693359375
0 0.5908203125 0.0126953125 0.091796875 0.07421875
0 0.5888671875 0.16015625 0.1708984375 0.0771484375
0 0.734375 0.220703125 0.060546875 0.07421875
0 0.7978515625 0.2109375 0.044921875 0.048828125
0 0.806640625 0.2568359375 0.0654296875 0.064453125
0 0.8642578125 0.2431640625 0.0693359375 0.138671875
0 0.93359375 0.0517578125 0.06640625 0.1474609375
0 0.8935546875 0.00390625 0.0576171875 0.1591796875
0 0.80078125 0.095703125 0.0751953125 0.080078125
0 0.8076171875 0.923828125 0.0654296875 0.076171875
0 0.6845703125 0.9189453125 0.1494140625 0.0810546875
0 0.3505859375 0.87109375 0.0546875 0.107421875
0 0.419921875 0.8671875 0.076171875 0.0859375
0 0.556640625 0.8798828125 0.140625 0.0927734375
0 0.4619140625 0.822265625 0.0986328125 0.1240234375
0 0.5458984375 0.7939453125 0.0625 0.1181640625
0 0.4736328125 0.77734375 0.0517578125 0.076171875
0 0.5400390625 0.748046875 0.0673828125 0.0595703125
0 0.673828125 0.75390625 0.0654296875 0.0595703125
0 0.0 0.8154296875 0.0517578125 0.083984375
0 0.0458984375 0.79296875 0.052734375 0.072265625
0 0.10546875 0.71484375 0.09375 0.0615234375
0 0.1513671875 0.638671875 0.0771484375 0.087890625
0 0.2353515625 0.6748046875 0.0869140625 0.0712890625
0 0.3447265625 0.671875 0.0712890625 0.1259765625
0 0.8642578125 0.7509765625 0.1357421875 0.0810546875
0 0.517578125 0.525390625 0.0888671875 0.076171875
0 0.876953125 0.3720703125 0.080078125 0.0556640625
0 0.3681640625 0.125 0.0576171875 0.0615234375
0 0.0 0.771484375 0.0458984375 0.0712890625
0 0.9755859375 0.83203125 0.0244140625 0.0556640625
0 0.9658203125 0.68359375 0.0341796875 0.0625
