0 0.3349609375 0.0 0.072265625 0.01953125
0 0.41796875 0.0 0.068359375 0.0419921875
0 0.4521484375 0.037109375 0.0673828125 0.103515625
0 0.5068359375 0.11328125 0.1142578125 0.1142578125
0 0.486328125 0.140625 0.05078125 0.0546875
0 0.69921875 0.189453125 0.0888671875 0.0625
0 0.3974609375 0.1611328125 0.080078125 0.076171875
0 0.1142578125 0.0 0.119140625 0.08203125
0 0.009765625 0.0 0.0927734375 0.150390625
0 0.02734375 0.1494140625 0.1259765625 0.0810546875
0 0.02734375 0.2275390625 0.0673828125 0.080078125
0 0.0185546875 0.3037109375 0.0771484375 0.068359375
0 0.1171875 0.2685546875 0.0546875 0.0673828125
0 0.1572265625 0.3125 0.125 0.07421875
0 0.298828125 0.2001953125 0.09765625 0.091796875
0 0.392578125 0.279296875 0.0751953125 0.0771484375
0 0.3046875 0.2783203125 0.0595703125 0.0869140625
0 0.2216796875 0.185546875 0.056640625 0.048828125
0 0.0 0.8974609375 0.0625 0.0830078125
0 0.0107421875 0.4140625 0.166015625 0.044921875
0 0.2109375 0.388671875 0.09765625 0.107421875
0 0.0 0.4775390625 0.0986328125 0.0693359375
0 0.0185546875 0.5107421875 0.09375 0.115234375
0 0.2001953125 0.548828125 0.19140625 0.1044921875
0 0.2255859375 0.546875 0.06640625 0.1416015625
0 0.078125 0.6572265625 0.123046875 0.19140625
0 0.052734375 0.923828125 0.072265625 0.0732421875
0 0.1015625 0.8310546875 0.078125 0.1015625
0 0.3046875 0.86328125 0.068359375 0.056640625
0 0.2548828125 0.9599609375 0.0859375 0.0400390625
0 0.392578125 0.955078125 0.0595703125 0.044921875
0 0.6064453125 0.9375 0.056640625 0.0625
0 0.685546875 0.7041015625 0.078125 0.1826171875
0 0.873046875 0.9296875 0.1220703125 0.0693359375
0 0.8515625 0.6435546875 0.1484375 0.2421875
0 0.9140625 0.70703125 0.0859375 0.0703125
0 0.4765625 0.453125 0.09765625 0.1494140625
0 0.5595703125 0.4951171875 0.0654296875 0.11328125
0 0.623046875 0.470703125 0.0693359375 0.1572265625
0 0.6533203125 0.6279296875 0.0703125 0.0771484375
0 0.7236328125 0.44140625 0.0625 0.1005859375
0 0.6572265625 0.412109375 0.0732421875 0.1552734375
0 0.4677734375 0.37890625 0.060546875 0.083984375
0 0.9140625 0.251953125 0.080078125 0.08203125
0 0.7724609375 0.32421875 0.166015625 0.1005859375
0 0.86328125 0.3564453125 0.0537109375 0.0458984375
0 0.9248046875 0.3515625 0.0751953125 0.0732421875
0 0.900390625 0.4189453125 0.08984375 0.16796875
0 0.7958984375 0.404296875 0.111328125 0.0859375
0 0.87109375 0.158203125 0.087890625 0.0634765625
0 0.861328125 0.0947265625 0.138671875 0.072265625
0 0.734375 0.0 0.0869140625 0.0576171875
0 0.8515625 0.60546875 0.0830078125 0.1796875
0 0.759765625 0.08984375 0.197265625 0.1171875
0 0.125 0.822265625 0.1123046875 0.076171875
0 0.68359375 0.962890625 0.0703125 0.037109375
