0 0.802734375 0.40234375 0.10546875 0.1171875
0 0.6513671875 0.0703125 0.09765625 0.09765625
0 0.6396484375 0.384765625 0.1396484375 0.0771484375
0 0.0 0.224609375 0.11328125 0.08203125
0 0.6171875 0.251953125 0.2001953125 0.087890625
0 0.6015625 0.4599609375 0.080078125 0.099609375
0 0.6298828125 0.572265625 0.154296875 0.072265625
0 0.7197265625 0.7216796875 0.0927734375 0.142578125
0 0.310546875 0.564453125 0.072265625 0.1376953125
0 0.8173828125 0.75390625 0.0673828125 0.134765625
0 0.5107421875 0.8154296875 0.0654296875 0.0732421875
0 0.607421875 0.7568359375 0.0966796875 0.09765625
0 0.9169921875 0.7119140625 0.0830078125 0.123046875
0 0.89453125 0.5498046875 0.10546875 0.0947265625
0 0.9072265625 0.251953125 0.0927734375 0.107421875
