0 0.841796875 0.2431640625 0.048828125 0.056640625
0 0.9296875 0.2119140625 0.0478515625 0.05859375
0 0.8818359375 0.2177734375 0.037109375 0.0400390625
0 0.755859375 0.185546875 0.0478515625 0.0625
0 0.7802734375 0.0 0.06640625 0.083984375
0 0.6318359375 0.0166015625 0.05859375 0.0634765625
0 0.5869140625 0.0 0.0556640625 0.0869140625
0 0.6416015625 0.0751953125 0.06640625 0.0625
0 0.6455078125 0.1162109375 0.06640625 0.0654296875
0 0.697265625 0.17578125 0.0400390625 0.064453125
0 0.697265625 0.2841796875 0.052734375 0.0498046875
0 0.5908203125 0.2119140625 0.0556640625 0.0361328125
0 0.54296875 0.2578125 0.087890625 0.044921875
0 0.3525390625 0.1806640625 0.0673828125 0.0712890625
0 0.2470703125 0.0263671875 0.08203125 0.0830078125
0 0.423828125 0.0830078125 0.08203125 0.0849609375
0 0.4599609375 0.0322265625 0.0859375 0.0771484375
0 0.083984375 0.0 0.0830078125 0.068359375
0 0.14453125 0.0 0.037109375 0.064453125
0 0.0029296875 0.0 0.080078125 0.04296875
0 0.0166015625 0.0478515625 0.091796875 0.0791015625
0 0.1484375 0.08984375 0.056640625 0.0634765625
0 0.53125 0.4990234375 0.08984375 0.08203125
0 0.66796875 0.529296875 0.0576171875 0.0712890625
0 0.779296875 0.9296875 0.107421875 0.0703125
0 0.62109375 0.798828125 0.0830078125 0.1416015625
0 0.76171875 0.837890625 0.046875 0.0498046875
0 0.7041015625 0.7958984375 0.0556640625 0.0556640625
0 0.7119140625 0.72265625 0.060546875 0.0537109375
0 0.76953125 0.6455078125 0.0703125 0.068359375
0 0.955078125 0.630859375 0.044921875 0.0654296875
0 0.921875 0.681640625 0.0595703125 0.052734375
0 0.916015625 0.724609375 0.05859375 0.0556640625
0 0.845703125 0.7001953125 0.0576171875 0.0576171875
0 0.8828125 0.619140625 0.0517578125 0.056640625
0 0.572265625 0.5869140625 0.05859375 0.0654296875
0 0.4619140625 0.6298828125 0.091796875 0.080078125
0 0.44140625 0.51171875 0.0693359375 0.0947265625
0 0.30859375 0.59765625 0.109375 0.0625
0 0.2919921875 0.701171875 0.06640625 0.09765625
0 0.2705078125 0.5498046875 0.046875 0.076171875
0 0.23046875 0.5322265625 0.0537109375 0.0615234375
0 0.1240234375 0.4970703125 0.109375 0.083984375
0 0.1494140625 0.55078125 0.06640625 0.06640625
0 0.005859375 0.56640625 0.10546875 0.0634765625
0 0.0830078125 0.51171875 0.0654296875 0.0791015625
0 0.0 0.5126953125 0.064453125 0.0458984375
0 0.0 0.40625 0.0908203125 0.09765625
0 0.06640625 0.86328125 0.0634765625 0.06640625
0 0.1376953125 0.9150390625 0.0986328125 0.052734375
0 0.060546875 0.9326171875 0.0419921875 0.044921875
0 0.0009765625 0.9375 0.060546875 0.0625
0 0.126953125 0.279296875 0.0625 0.041015625
0 0.37890625 0.7734375 0.041015625 0.03515625
0 0.61328125 0.9638671875 0.0712890625 0.0361328125
0 0.9228515625 0.7763671875 0.04296875 0.0263671875
0 0.126953125 0.9150390625 0.0556640625 0.0400390625
0 0.5009765625 0.1787109375 0.0615234375 0.0498046875
0 0.5615234375 0.1572265625 0.048828125 0.056640625
0 0.615234375 0.1650390625 0.0498046875 0.0517578125
0 0.6669921875 0.240234375 0.056640625 0.056640625
0 0.8056640625 0.712890625 0.0517578125 0.046875
0 0.474609375 0.61328125 0.0419921875 0.0419921875
