0 0.1142578125 0.0 0.0673828125 0.0986328125
0 0.0361328125 0.13671875 0.0546875 0.0546875
0 0.3203125 0.0400390625 0.1298828125 0.0791015625
0 0.4541015625 0.0458984375 0.0908203125 0.0859375
0 0.5869140625 0.009765625 0.1484375 0.091796875
0 0.763671875 0.0673828125 0.068359375 0.05859375
0 0.8642578125 0.0146484375 0.0693359375 0.0517578125
0 0.0 0.4521484375 0.05078125 0.09765625
0 0.052734375 0.5263671875 0.068359375 0.05859375
0 0.1259765625 0.53515625 0.091796875 0.115234375
0 0.2587890625 0.462890625 0.0830078125 0.0654296875
0 0.2900390625 0.51171875 0.0771484375 0.125
0 0.05078125 0.6708984375 0.1005859375 0.0673828125
0 0.1484375 0.6416015625 0.1201171875 0.158203125
0 0.2021484375 0.62109375 0.080078125 0.07421875
0 0.2880859375 0.65625 0.0517578125 0.0576171875
0 0.259765625 0.712890625 0.109375 0.0576171875
0 0.1611328125 0.8349609375 0.052734375 0.0576171875
0 0.001953125 0.876953125 0.109375 0.05078125
0 0.45703125 0.84375 0.1220703125 0.0771484375
0 0.5224609375 0.728515625 0.0595703125 0.0556640625
0 0.73828125 0.7109375 0.07421875 0.13671875
0 0.86328125 0.703125 0.0615234375 0.064453125
0 0.9365234375 0.5322265625 0.0634765625 0.080078125
0 0.85546875 0.53125 0.0791015625 0.0859375
0 0.7412109375 0.52734375 0.0537109375 0.05078125
0 0.541015625 0.5380859375 0.056640625 0.0654296875
0 0.5576171875 0.4951171875 0.0625 0.08203125
0 0.607421875 0.5078125 0.06640625 0.107421875
0 0.7158203125 0.4541015625 0.0673828125 0.0869140625
0 0.8818359375 0.287109375 0.1181640625 0.103515625
0 0.009765625 0.0107421875 0.0634765625 0.0693359375
0 0.6708984375 0.486328125 0.0615234375 0.064453125
0 0.365234375 0.0 0.11328125 0.0478515625
0 0.7841796875 0.0 0.0556640625 0.0322265625
0 0.3291015625 0.0 0.0595703125 0.0517578125
0 0.162109375 0.0 0.03125 0.037109375
0 0.248046875 0.5771484375 0.0849609375 0.05859375
0 0.13671875 0.625 0.0341796875 0.0283203125
0 0.7294921875 0.953125 0.037109375 0.041015625
0 0.0 0.5654296875 0.01953125 0.0234375
0 0.82421875 0.2841796875 0.078125 0.12890625
0 0.7080078125 0.3798828125 0.1474609375 0.119140625
0 0.583984375 0.4248046875 0.12109375 0.1044921875
