0 0.8330078125 0.4169921875 0.064453125 0.08984375
0 0.0986328125 0.3974609375 0.0654296875 0.1044921875
0 0.5791015625 0.06640625 0.0859375 0.1181640625
0 0.896484375 0.0 0.068359375 0.08203125
0 0.5146484375 0.515625 0.126953125 0.095703125
0 0.69921875 0.697265625 0.09765625 0.08203125
0 0.29296875 0.18359375 0.072265625 0.0654296875
0 0.4619140625 0.1318359375 0.0712890625 0.0732421875
0 0.142578125 0.7578125 0.1123046875 0.0625
0 0.04296875 0.0673828125 0.0986328125 0.095703125
0 0.1171875 0.0 0.0869140625 0.1162109375
0 0.435546875 0.3046875 0.087890625 0.0439453125
0 0.3017578125 0.0986328125 0.0537109375 0.0703125
0 0.2490234375 0.859375 0.1220703125 0.0712890625
0 0.337890625 0.560546875 0.0751953125 0.0595703125
0 0.3193359375 0.52734375 0.0927734375 0.0498046875
0 0.34765625 0.384765625 0.13671875 0.1328125
0 0.1513671875 0.4658203125 0.1162109375 0.0615234375
0 0.435546875 0.177734375 0.0986328125 0.064453125
0 0.3330078125 0.03515625 0.0546875 0.09765625
0 0.1474609375 0.216796875 0.0771484375 0.0615234375
0 0.55859375 0.40234375 0.0751953125 0.0888671875
0 0.154296875 0.59375 0.1591796875 0.052734375
0 0.537109375 0.4345703125 0.0595703125 0.0703125
0 0.2421875 0.009765625 0.095703125 0.072265625
0 0.8740234375 0.048828125 0.0771484375 0.10546875
0 0.53125 0.8603515625 0.1123046875 0.060546875
0 0.1611328125 0.5234375 0.056640625 0.0771484375
0 0.0 0.4287109375 0.0732421875 0.0478515625
0 0.3046875 0.9658203125 0.06640625 0.0322265625
0 0.501953125 0.0986328125 0.0419921875 0.0712890625
0 0.70703125 0.1650390625 0.076171875 0.0615234375
0 0.64453125 0.80859375 0.060546875 0.05078125
0 0.3994140625 0.8583984375 0.0498046875 0.0322265625
0 0.3818359375 0.220703125 0.0859375 0.0439453125
0 0.81640625 0.4970703125 0.0576171875 0.0732421875
0 0.669921875 0.87109375 0.0712890625 0.0595703125
0 0.0478515625 0.509765625 0.099609375 0.046875
0 0.953125 0.4619140625 0.046875 0.0771484375
0 0.048828125 0.3818359375 0.0517578125 0.052734375
0 0.4541015625 0.55859375 0.064453125 0.029296875
0 0.0205078125 0.84375 0.052734375 0.0419921875
0 0.6953125 0.421875 0.0498046875 0.05859375
0 0.3330078125 0.431640625 0.0771484375 0.0361328125
0 0.611328125 0.830078125 0.060546875 0.044921875
0 0.271484375 0.5146484375 0.0546875 0.044921875
0 0.8115234375 0.0009765625 0.0546875 0.052734375
0 0.3017578125 0.7685546875 0.0546875 0.03515625
0 0.0 0.544921875 0.0537109375 0.0380859375
0 0.0009765625 0.8779296875 0.04296875 0.0244140625
0 0.7578125 0.9013671875 0.064453125 0.0390625
0 0.53125 0.3818359375 0.083984375 0.0537109375
0 0.8515625 0.5576171875 0.04296875 0.0673828125
0 0.5927734375 0.9765625 0.0361328125 0.021484375
0 0.5205078125 0.0 0.0419921875 0.048828125
0 0.84765625 0.9208984375 0.0576171875 0.052734375
0 0.0810546875 0.685546875 0.037109375 0.0322265625
