0 0.0 0.0 0.0068359375 0.0283203125
0 0.0234375 0.1064453125 0.0673828125 0.099609375
0 0.0 0.0 0.06640625 0.0810546875
0 0.0107421875 0.2333984375 0.0478515625 0.1103515625
0 0.0 0.455078125 0.0498046875 0.0712890625
0 0.0 0.5107421875 0.07421875 0.109375
0 0.0654296875 0.5693359375 0.0556640625 0.10546875
0 0.166015625 0.6552734375 0.140625 0.0751953125
0 0.0498046875 0.830078125 0.109375 0.068359375
0 0.1689453125 0.8408203125 0.1474609375 0.07421875
0 0.1298828125 0.935546875 0.107421875 0.064453125
0 0.390625 0.9091796875 0.142578125 0.0908203125
0 0.556640625 0.80859375 0.0927734375 0.18359375
0 0.4130859375 0.62890625 0.1181640625 0.1162109375
0 0.5927734375 0.5830078125 0.1025390625 0.1591796875
0 0.7060546875 0.720703125 0.1064453125 0.171875
0 0.8037109375 0.6689453125 0.09765625 0.1845703125
0 0.7587890625 0.9443359375 0.1298828125 0.0556640625
0 0.9580078125 0.8828125 0.0419921875 0.1171875
0 0.9248046875 0.541015625 0.0751953125 0.146484375
0 0.7900390625 0.52734375 0.0888671875 0.091796875
0 0.78515625 0.5966796875 0.0673828125 0.068359375
0 0.91796875 0.3662109375 0.08203125 0.0712890625
0 0.5927734375 0.2119140625 0.14453125 0.12109375
0 0.521484375 0.3125 0.0888671875 0.083984375
0 0.40625 0.3525390625 0.109375 0.1005859375
0 0.392578125 0.240234375 0.0927734375 0.0791015625
0 0.3173828125 0.1708984375 0.1181640625 0.0751953125
0 0.1357421875 0.2333984375 0.091796875 0.056640625
0 0.25390625 0.0185546875 0.0830078125 0.0673828125
0 0.373046875 0.0546875 0.0888671875 0.048828125
0 0.56640625 0.04296875 0.0869140625 0.0634765625
0 0.7060546875 0.1025390625 0.083984375 0.0849609375
0 0.8037109375 0.1650390625 0.0947265625 0.0654296875
0 0.869140625 0.0478515625 0.076171875 0.0849609375
0 0.7216796875 0.0 0.072265625 0.0537109375
0 0.67578125 0.4443359375 0.048828125 0.0439453125
