0 0.1416015625 0.0615234375 0.158203125 0.0927734375
0 0.0 0.1083984375 0.05859375 0.0830078125
0 0.0791015625 0.1318359375 0.076171875 0.08203125
0 0.00390625 0.2626953125 0.0712890625 0.154296875
0 0.083984375 0.30078125 0.046875 0.06640625
0 0.0 0.658203125 0.0576171875 0.1181640625
0 0.0 0.49609375 0.05859375 0.0888671875
0 0.1162109375 0.4345703125 0.14453125 0.0966796875
0 0.220703125 0.552734375 0.1904296875 0.1064453125
0 0.2646484375 0.6962890625 0.11328125 0.1181640625
0 0.109375 0.892578125 0.09375 0.103515625
0 0.3046875 0.9443359375 0.087890625 0.0556640625
0 0.7216796875 0.0 0.0732421875 0.017578125
0 0.8154296875 0.0009765625 0.125 0.1123046875
0 0.9423828125 0.0 0.0576171875 0.025390625
0 0.53515625 0.0419921875 0.099609375 0.1103515625
0 0.310546875 0.1396484375 0.1552734375 0.0830078125
0 0.5283203125 0.19140625 0.076171875 0.0478515625
0 0.5224609375 0.2314453125 0.0693359375 0.0478515625
0 0.4287109375 0.23828125 0.134765625 0.095703125
0 0.4150390625 0.2998046875 0.0791015625 0.083984375
0 0.4140625 0.482421875 0.154296875 0.1171875
0 0.6318359375 0.59375 0.1142578125 0.083984375
0 0.521484375 0.8779296875 0.0712890625 0.1220703125
0 0.4345703125 0.765625 0.0849609375 0.1943359375
0 0.5263671875 0.724609375 0.095703125 0.16015625
0 0.7421875 0.93359375 0.056640625 0.046875
0 0.796875 0.638671875 0.103515625 0.123046875
0 0.873046875 0.75 0.0888671875 0.158203125
0 0.833984375 0.77734375 0.0537109375 0.0771484375
0 0.7861328125 0.78515625 0.0888671875 0.177734375
0 0.8603515625 0.85546875 0.0849609375 0.14453125
0 0.9638671875 0.798828125 0.0361328125 0.1708984375
0 0.9150390625 0.5126953125 0.07421875 0.08203125
0 0.87109375 0.287109375 0.0771484375 0.072265625
0 0.953125 0.384765625 0.046875 0.119140625
0 0.7421875 0.17578125 0.078125 0.0810546875
0 0.638671875 0.060546875 0.158203125 0.0791015625
