0 0.0 0.298828125 0.0771484375 0.119140625
0 0.033203125 0.82421875 0.09375 0.0625
0 0.0712890625 0.7763671875 0.078125 0.0703125
0 0.19921875 0.6318359375 0.0703125 0.1015625
0 0.16796875 0.5322265625 0.05859375 0.0537109375
0 0.1337890625 0.5166015625 0.0439453125 0.052734375
0 0.3486328125 0.33984375 0.09375 0.0751953125
0 0.3974609375 0.28515625 0.0595703125 0.05859375
0 0.58984375 0.2890625 0.0546875 0.0830078125
0 0.6083984375 0.3486328125 0.06640625 0.0810546875
0 0.7041015625 0.30859375 0.0810546875 0.0634765625
0 0.8095703125 0.318359375 0.080078125 0.064453125
0 0.408203125 0.4638671875 0.048828125 0.0732421875
0 0.2919921875 0.4697265625 0.0439453125 0.0556640625
0 0.49609375 0.373046875 0.0458984375 0.060546875
0 0.529296875 0.4599609375 0.04296875 0.05078125
0 0.5654296875 0.4736328125 0.0498046875 0.0576171875
0 0.4599609375 0.4560546875 0.05078125 0.0654296875
0 0.5 0.509765625 0.0693359375 0.0439453125
0 0.6025390625 0.5576171875 0.0654296875 0.04296875
0 0.7080078125 0.51171875 0.095703125 0.0615234375
0 0.72265625 0.45703125 0.056640625 0.05078125
0 0.6630859375 0.4423828125 0.0595703125 0.08203125
0 0.7412109375 0.404296875 0.09765625 0.048828125
0 0.8857421875 0.421875 0.0556640625 0.0478515625
0 0.8779296875 0.4775390625 0.0634765625 0.048828125
0 0.916015625 0.4912109375 0.0625 0.06640625
0 0.9375 0.4443359375 0.0625 0.0498046875
0 0.8583984375 0.5625 0.052734375 0.0546875
0 0.921875 0.5859375 0.0732421875 0.052734375
0 0.27734375 0.8212890625 0.037109375 0.0390625
0 0.2587890625 0.9150390625 0.044921875 0.0517578125
0 0.38671875 0.9287109375 0.044921875 0.0419921875
0 0.3701171875 0.9599609375 0.0517578125 0.037109375
0 0.4638671875 0.95703125 0.0625 0.0390625
0 0.484375 0.890625 0.0634765625 0.05859375
0 0.5576171875 0.9072265625 0.05859375 0.041015625
0 0.6015625 0.9677734375 0.0546875 0.0322265625
0 0.66015625 0.966796875 0.0576171875 0.033203125
0 0.5625 0.7431640625 0.0732421875 0.0517578125
0 0.65234375 0.728515625 0.0703125 0.0517578125
0 0.65234375 0.7626953125 0.0595703125 0.0537109375
0 0.734375 0.75 0.0546875 0.0556640625
0 0.7099609375 0.8251953125 0.048828125 0.05859375
0 0.7578125 0.8203125 0.0556640625 0.0556640625
0 0.9296875 0.693359375 0.0703125 0.0615234375
0 0.779296875 0.8837890625 0.0673828125 0.0419921875
0 0.814453125 0.9453125 0.0634765625 0.0546875
0 0.8525390625 0.9248046875 0.0517578125 0.0673828125
0 0.77734375 0.9599609375 0.04296875 0.0400390625
0 0.16796875 0.0 0.0517578125 0.0224609375
0 0.51171875 0.0 0.060546875 0.0478515625
0 0.5791015625 0.0 0.0693359375 0.033203125
0 0.3232421875 0.0 0.056640625 0.0478515625
0 0.3671875 0.0 0.0673828125 0.05859375
0 0.4296875 0.0 0.0400390625 0.064453125
0 0.6171875 0.00390625 0.072265625 0.0615234375
0 0.7734375 0.05078125 0.064453125 0.0546875
0 0.77734375 0.0 0.0751953125 0.04296875
0 0.2587890625 0.0244140625 0.0478515625 0.046875
0 0.4638671875 0.1259765625 0.0380859375 0.033203125
0 0.7841796875 0.1201171875 0.0595703125 0.04296875
0 0.705078125 0.017578125 0.044921875 0.0390625
0 0.408203125 0.8740234375 0.07421875 0.044921875
0 0.396484375 0.83984375 0.060546875 0.0546875
0 0.0146484375 0.8583984375 0.0537109375 0.05859375
0 0.0625 0.966796875 0.0546875 0.033203125
0 0.3369140625 0.9248046875 0.05859375 0.04296875
