0 0.0 0.3466796875 0.013671875 0.052734375
0 0.0732421875 0.30859375 0.076171875 0.0615234375
0 0.09765625 0.2587890625 0.0625 0.0537109375
0 0.01171875 0.046875 0.083984375 0.07421875
0 0.15234375 0.076171875 0.0791015625 0.0869140625
0 0.16015625 0.1875 0.0546875 0.0537109375
0 0.24609375 0.1591796875 0.0732421875 0.109375
0 0.17578125 0.2646484375 0.0556640625 0.0634765625
0 0.275390625 0.3466796875 0.103515625 0.115234375
0 0.0400390625 0.9755859375 0.099609375 0.0244140625
0 0.9248046875 0.9228515625 0.0751953125 0.0771484375
0 0.66796875 0.8037109375 0.0673828125 0.0546875
0 0.7744140625 0.77734375 0.076171875 0.06640625
0 0.87109375 0.7607421875 0.0576171875 0.0634765625
0 0.84375 0.6328125 0.052734375 0.0693359375
0 0.7763671875 0.6552734375 0.056640625 0.06640625
0 0.63671875 0.6357421875 0.0615234375 0.052734375
0 0.595703125 0.67578125 0.083984375 0.0615234375
0 0.54296875 0.720703125 0.04296875 0.046875
0 0.5107421875 0.6298828125 0.06640625 0.0693359375
0 0.38671875 0.6728515625 0.07421875 0.08203125
0 0.310546875 0.744140625 0.134765625 0.068359375
0 0.181640625 0.5703125 0.0712890625 0.0810546875
0 0.7119140625 0.44140625 0.0751953125 0.06640625
0 0.859375 0.4296875 0.0830078125 0.06640625
0 0.521484375 0.2705078125 0.1064453125 0.09375
0 0.3828125 0.119140625 0.1171875 0.080078125
0 0.68359375 0.1513671875 0.078125 0.06640625
0 0.7763671875 0.1953125 0.107421875 0.0712890625
0 0.73046875 0.2685546875 0.0703125 0.0654296875
0 0.9404296875 0.5869140625 0.0595703125 0.072265625
0 0.927734375 0.51171875 0.072265625 0.0810546875
0 0.970703125 0.109375 0.029296875 0.0693359375
0 0.9296875 0.00390625 0.0703125 0.0849609375
0 0.73046875 0.033203125 0.11328125 0.0673828125
0 0.5244140625 0.0693359375 0.0712890625 0.0771484375
0 0.2431640625 0.0 0.0693359375 0.05859375
0 0.4150390625 0.9638671875 0.078125 0.0361328125
0 0.0 0.2119140625 0.052734375 0.05859375
0 0.279296875 0.1904296875 0.095703125 0.076171875
