0 0.0380859375 0.0 0.0771484375 0.1591796875
0 0.0 0.2177734375 0.0263671875 0.1025390625
0 0.115234375 0.1953125 0.1220703125 0.0751953125
0 0.2509765625 0.1259765625 0.125 0.072265625
0 0.1533203125 0.0 0.0810546875 0.05078125
0 0.2255859375 0.0 0.0615234375 0.017578125
0 0.1982421875 0.27734375 0.162109375 0.1015625
0 0.1484375 0.4189453125 0.138671875 0.12890625
0 0.056640625 0.2783203125 0.0966796875 0.0908203125
0 0.0 0.5458984375 0.017578125 0.08984375
0 0.1259765625 0.6005859375 0.068359375 0.064453125
0 0.125 0.728515625 0.0830078125 0.1083984375
0 0.00390625 0.9326171875 0.0546875 0.0673828125
0 0.0673828125 0.9228515625 0.09765625 0.0654296875
0 0.359375 0.9013671875 0.1123046875 0.083984375
0 0.3837890625 0.7578125 0.107421875 0.158203125
0 0.4130859375 0.6552734375 0.0625 0.0703125
0 0.3818359375 0.42578125 0.0888671875 0.072265625
0 0.48828125 0.458984375 0.072265625 0.0986328125
0 0.4814453125 0.5537109375 0.083984375 0.1552734375
0 0.5771484375 0.638671875 0.0712890625 0.0751953125
0 0.38671875 0.271484375 0.111328125 0.1220703125
0 0.3779296875 0.201171875 0.0546875 0.0693359375
0 0.5263671875 0.125 0.0732421875 0.0712890625
0 0.6435546875 0.1337890625 0.068359375 0.068359375
0 0.4921875 0.03125 0.0546875 0.0576171875
0 0.7958984375 0.2607421875 0.1123046875 0.0927734375
0 0.7685546875 0.44140625 0.087890625 0.2109375
0 0.8076171875 0.490234375 0.095703125 0.0927734375
0 0.8466796875 0.7080078125 0.12890625 0.0791015625
0 0.9228515625 0.791015625 0.0771484375 0.134765625
0 0.7802734375 0.8125 0.08203125 0.05859375
0 0.7021484375 0.8525390625 0.0791015625 0.1123046875
0 0.640625 0.896484375 0.083984375 0.103515625
0 0.787109375 0.875 0.076171875 0.083984375
0 0.7841796875 0.0869140625 0.072265625 0.072265625
0 0.9091796875 0.076171875 0.0908203125 0.126953125
0 0.767578125 0.0 0.087890625 0.017578125
0 0.7080078125 0.0 0.0498046875 0.0400390625
0 0.3154296875 0.0 0.09375 0.0146484375
