0 0.40625 0.0302734375 0.0546875 0.080078125
0 0.89453125 0.095703125 0.0400390625 0.07421875
0 0.556640625 0.9384765625 0.06640625 0.0615234375
0 0.533203125 0.5703125 0.095703125 0.05859375
0 0.0224609375 0.1826171875 0.0693359375 0.0712890625
0 0.9345703125 0.0625 0.0478515625 0.083984375
0 0.861328125 0.7900390625 0.0458984375 0.08984375
0 0.3232421875 0.1689453125 0.05859375 0.072265625
0 0.228515625 0.4326171875 0.0712890625 0.0576171875
0 0.7890625 0.78515625 0.0771484375 0.05078125
0 0.724609375 0.40234375 0.060546875 0.083984375
0 0.9033203125 0.1943359375 0.033203125 0.0908203125
0 0.0927734375 0.423828125 0.0390625 0.0771484375
0 0.6611328125 0.9345703125 0.048828125 0.0634765625
0 0.052734375 0.7666015625 0.0830078125 0.048828125
0 0.5341796875 0.447265625 0.04296875 0.0830078125
0 0.7353515625 0.46484375 0.05078125 0.07421875
0 0.5302734375 0.123046875 0.0439453125 0.072265625
0 0.427734375 0.3857421875 0.052734375 0.0595703125
0 0.51953125 0.4453125 0.044921875 0.0673828125
0 0.9716796875 0.8037109375 0.0283203125 0.08203125
0 0.212890625 0.712890625 0.044921875 0.0625
0 0.7470703125 0.39453125 0.0634765625 0.0693359375
0 0.4755859375 0.552734375 0.037109375 0.072265625
0 0.177734375 0.599609375 0.0380859375 0.1328125
0 0.650390625 0.9345703125 0.0419921875 0.0654296875
0 0.205078125 0.533203125 0.12109375 0.0966796875
0 0.1513671875 0.8955078125 0.0751953125 0.037109375
0 0.5185546875 0.0009765625 0.041015625 0.04296875
0 0.6806640625 0.3017578125 0.05859375 0.0595703125
0 0.78125 0.25390625 0.0517578125 0.0576171875
0 0.154296875 0.19140625 0.0400390625 0.0546875
0 0.4619140625 0.53515625 0.0673828125 0.0361328125
0 0.2978515625 0.4140625 0.056640625 0.021484375
0 0.0 0.8876953125 0.056640625 0.0498046875
0 0.119140625 0.8310546875 0.0888671875 0.046875
0 0.24609375 0.1298828125 0.0517578125 0.0498046875
0 0.263671875 0.84765625 0.0615234375 0.04296875
0 0.7978515625 0.95703125 0.0234375 0.04296875
0 0.30078125 0.560546875 0.0576171875 0.0439453125
0 0.0 0.3330078125 0.0849609375 0.1025390625
0 0.9580078125 0.533203125 0.0400390625 0.0712890625
0 0.0048828125 0.0986328125 0.0478515625 0.0546875
0 0.5888671875 0.818359375 0.0478515625 0.05078125
0 0.3125 0.5302734375 0.0498046875 0.04296875
0 0.9140625 0.6572265625 0.03515625 0.0478515625
0 0.2646484375 0.5146484375 0.0439453125 0.05859375
0 0.0 0.146484375 0.0537109375 0.02734375
0 0.46875 0.8359375 0.0986328125 0.0595703125
0 0.771484375 0.865234375 0.0673828125 0.0498046875
0 0.212890625 0.7470703125 0.0322265625 0.05078125
0 0.8623046875 0.0009765625 0.052734375 0.0341796875
0 0.9658203125 0.7724609375 0.0341796875 0.0458984375
0 0.3671875 0.7919921875 0.06640625 0.05078125
0 0.3388671875 0.861328125 0.0634765625 0.0439453125
0 0.8388671875 0.9755859375 0.048828125 0.0244140625
