0 0.091796875 0.0048828125 0.12109375 0.083984375
0 0.1669921875 0.12109375 0.0869140625 0.09375
0 0.482421875 0.0166015625 0.064453125 0.060546875
0 0.4326171875 0.0205078125 0.0595703125 0.0537109375
0 0.32421875 0.3251953125 0.0654296875 0.080078125
0 0.2392578125 0.3271484375 0.080078125 0.078125
0 0.1181640625 0.34375 0.1201171875 0.162109375
0 0.0 0.4541015625 0.06640625 0.0654296875
0 0.00390625 0.3583984375 0.0908203125 0.0654296875
0 0.044921875 0.5986328125 0.0849609375 0.107421875
0 0.0263671875 0.533203125 0.0615234375 0.0634765625
0 0.138671875 0.658203125 0.09765625 0.083984375
0 0.0478515625 0.6962890625 0.0625 0.05078125
0 0.2880859375 0.662109375 0.064453125 0.078125
0 0.3046875 0.744140625 0.0947265625 0.1015625
0 0.3603515625 0.6162109375 0.1015625 0.0712890625
0 0.458984375 0.630859375 0.08984375 0.0771484375
0 0.5283203125 0.6328125 0.080078125 0.07421875
0 0.650390625 0.677734375 0.0615234375 0.068359375
0 0.4765625 0.7685546875 0.0810546875 0.080078125
0 0.2509765625 0.85546875 0.0595703125 0.068359375
0 0.255859375 0.7841796875 0.0830078125 0.072265625
0 0.09375 0.9267578125 0.1650390625 0.0732421875
0 0.033203125 0.97265625 0.0615234375 0.02734375
0 0.607421875 0.8056640625 0.080078125 0.07421875
0 0.6513671875 0.9091796875 0.068359375 0.07421875
0 0.58203125 0.9033203125 0.05859375 0.0712890625
0 0.8232421875 0.9169921875 0.080078125 0.0830078125
0 0.955078125 0.9130859375 0.044921875 0.07421875
0 0.9287109375 0.8115234375 0.0712890625 0.0625
0 0.9052734375 0.74609375 0.09375 0.0654296875
0 0.8935546875 0.5986328125 0.076171875 0.09765625
0 0.7509765625 0.5869140625 0.078125 0.083984375
0 0.681640625 0.6015625 0.07421875 0.0791015625
0 0.6259765625 0.5654296875 0.0625 0.0859375
0 0.6640625 0.4990234375 0.119140625 0.0810546875
0 0.3828125 0.888671875 0.08984375 0.0703125
0 0.84765625 0.849609375 0.048828125 0.0478515625
0 0.609375 0.8642578125 0.1015625 0.060546875
0 0.0 0.6044921875 0.0439453125 0.0849609375
0 0.1923828125 0.798828125 0.0625 0.06640625
0 0.404296875 0.0 0.099609375 0.02734375
0 0.3603515625 0.0 0.046875 0.017578125
0 0.5625 0.4482421875 0.0703125 0.0810546875
0 0.97265625 0.548828125 0.02734375 0.09375
0 0.845703125 0.80859375 0.048828125 0.0458984375
0 0.7490234375 0.7177734375 0.1279296875 0.0634765625
0 0.0 0.560546875 0.041015625 0.0546875
0 0.3876953125 0.7900390625 0.1044921875 0.0556640625
0 0.30859375 0.8154296875 0.06640625 0.0654296875
