0 0.4267578125 0.2626953125 0.1005859375 0.09375
0 0.087890625 0.8447265625 0.11328125 0.1220703125
0 0.7509765625 0.0 0.06640625 0.130859375
0 0.654296875 0.935546875 0.06640625 0.064453125
0 0.8154296875 0.818359375 0.1298828125 0.181640625
0 0.666015625 0.796875 0.287109375 0.1640625
0 0.5888671875 0.0 0.1025390625 0.052734375
0 0.5595703125 0.8837890625 0.1083984375 0.083984375
0 0.142578125 0.2822265625 0.099609375 0.1162109375
0 0.2236328125 0.2705078125 0.08984375 0.1484375
0 0.4140625 0.3681640625 0.0908203125 0.0908203125
0 0.0 0.3486328125 0.1455078125 0.216796875
0 0.693359375 0.1611328125 0.0751953125 0.134765625
0 0.4375 0.6015625 0.1162109375 0.1201171875
0 0.8037109375 0.056640625 0.09375 0.125
0 0.6806640625 0.0 0.0576171875 0.0556640625
0 0.478515625 0.4208984375 0.103515625 0.1064453125
0 0.0 0.2001953125 0.119140625 0.1259765625
0 0.0 0.625 0.205078125 0.0966796875
0 0.279296875 0.1083984375 0.146484375 0.1005859375
0 0.94140625 0.5947265625 0.05859375 0.111328125
0 0.822265625 0.6669921875 0.140625 0.11328125
0 0.943359375 0.732421875 0.056640625 0.0546875
0 0.8369140625 0.7392578125 0.10546875 0.0810546875
0 0.5830078125 0.501953125 0.13671875 0.2607421875
0 0.5556640625 0.32421875 0.0888671875 0.087890625
