0 0.3505859375 0.1650390625 0.0693359375 0.1025390625
0 0.7998046875 0.3408203125 0.0712890625 0.07421875
0 0.5146484375 0.8984375 0.1123046875 0.0556640625
0 0.326171875 0.8818359375 0.0888671875 0.091796875
0 0.4306640625 0.4404296875 0.0673828125 0.078125
0 0.2421875 0.0 0.125 0.08984375
0 0.078125 0.84375 0.1005859375 0.0654296875
0 0.552734375 0.16015625 0.068359375 0.072265625
0 0.337890625 0.451171875 0.107421875 0.04296875
0 0.490234375 0.224609375 0.1142578125 0.173828125
0 0.099609375 0.0693359375 0.119140625 0.076171875
0 0.099609375 0.46875 0.095703125 0.0927734375
0 0.0 0.2763671875 0.0771484375 0.060546875
0 0.2236328125 0.580078125 0.1279296875 0.0478515625
0 0.2421875 0.8291015625 0.1474609375 0.0732421875
0 0.673828125 0.6875 0.08203125 0.048828125
0 0.89453125 0.380859375 0.05078125 0.0615234375
0 0.4130859375 0.6826171875 0.15234375 0.060546875
0 0.83984375 0.18359375 0.0625 0.0703125
0 0.8076171875 0.263671875 0.072265625 0.0556640625
0 0.0732421875 0.314453125 0.0810546875 0.05078125
0 0.9296875 0.951171875 0.0703125 0.048828125
0 0.8505859375 0.2373046875 0.10546875 0.0712890625
0 0.318359375 0.3251953125 0.1171875 0.04296875
0 0.7333984375 0.9599609375 0.1357421875 0.0400390625
0 0.0 0.9619140625 0.1005859375 0.0380859375
0 0.310546875 0.294921875 0.1015625 0.037109375
0 0.7421875 0.2685546875 0.1025390625 0.060546875
0 0.3427734375 0.650390625 0.0830078125 0.0546875
0 0.3779296875 0.712890625 0.1396484375 0.072265625
0 0.587890625 0.951171875 0.08203125 0.048828125
0 0.0009765625 0.1845703125 0.0390625 0.091796875
0 0.099609375 0.2705078125 0.09765625 0.041015625
0 0.927734375 0.4501953125 0.0419921875 0.0595703125
0 0.0 0.7275390625 0.1025390625 0.044921875
0 0.1611328125 0.8515625 0.1669921875 0.0732421875
0 0.8876953125 0.458984375 0.1123046875 0.125
0 0.263671875 0.6513671875 0.1083984375 0.11328125
0 0.60546875 0.1708984375 0.0732421875 0.072265625
0 0.7490234375 0.2294921875 0.0810546875 0.0380859375
0 0.52734375 0.2275390625 0.091796875 0.044921875
0 0.09375 0.107421875 0.046875 0.1591796875
0 0.228515625 0.4248046875 0.05078125 0.0625
0 0.17578125 0.7509765625 0.1201171875 0.0546875
0 0.0 0.2958984375 0.05078125 0.2041015625
0 0.9609375 0.9306640625 0.0390625 0.0390625
0 0.1171875 0.3583984375 0.11328125 0.0654296875
0 0.5322265625 0.6865234375 0.1474609375 0.0478515625
0 0.86328125 0.97265625 0.0859375 0.02734375
0 0.3515625 0.9814453125 0.083984375 0.0185546875
0 0.8564453125 0.2578125 0.0830078125 0.064453125
0 0.4384765625 0.2255859375 0.072265625 0.076171875
0 0.74609375 0.4072265625 0.0556640625 0.0693359375
0 0.2099609375 0.2763671875 0.11328125 0.080078125
0 0.748046875 0.416015625 0.0986328125 0.048828125
0 0.2275390625 0.677734375 0.06640625 0.0478515625
0 0.1376953125 0.2958984375 0.0986328125 0.0830078125
0 0.486328125 0.447265625 0.1494140625 0.1005859375
0 0.283203125 0.7109375 0.0732421875 0.0478515625
0 0.4453125 0.388671875 0.09375 0.0517578125
0 0.345703125 0.4228515625 0.0947265625 0.0439453125
0 0.578125 0.30859375 0.0673828125 0.14453125
0 0.6982421875 0.2666015625 0.064453125 0.04296875
0 0.5654296875 0.396484375 0.09375 0.0380859375
0 0.3212890625 0.6181640625 0.2158203125 0.05078125
0 0.7314453125 0.083984375 0.04296875 0.041015625
0 0.3896484375 0.7138671875 0.1171875 0.0439453125
0 0.005859375 0.5322265625 0.078125 0.044921875
0 0.7685546875 0.7880859375 0.0625 0.0380859375
0 0.95703125 0.7607421875 0.04296875 0.0595703125
0 0.5537109375 0.8076171875 0.05859375 0.046875
0 0.794921875 0.6865234375 0.0947265625 0.0546875
0 0.8515625 0.65625 0.060546875 0.0419921875
0 0.638671875 0.6279296875 0.1416015625 0.0634765625
0 0.544921875 0.62109375 0.1025390625 0.0595703125
0 0.892578125 0.34765625 0.060546875 0.0576171875
0 0.9775390625 0.3251953125 0.0224609375 0.0458984375
0 0.02734375 0.375 0.111328125 0.130859375
0 0.0 0.140625 0.0302734375 0.044921875
0 0.103515625 0.00390625 0.0966796875 0.0693359375
0 0.0283203125 0.0 0.0537109375 0.0478515625
0 0.1806640625 0.0 0.0673828125 0.0673828125
