0 0.7294921875 0.59765625 0.1005859375 0.1064453125
0 0.611328125 0.7373046875 0.083984375 0.0869140625
0 0.84765625 0.7158203125 0.0654296875 0.0546875
0 0.708984375 0.7470703125 0.0908203125 0.1259765625
0 0.5107421875 0.8359375 0.1123046875 0.1396484375
0 0.61328125 0.90625 0.091796875 0.0654296875
0 0.6494140625 0.267578125 0.0849609375 0.1064453125
0 0.49609375 0.34375 0.076171875 0.1591796875
0 0.7373046875 0.923828125 0.13671875 0.064453125
0 0.5244140625 0.9462890625 0.1298828125 0.0537109375
0 0.4755859375 0.8603515625 0.0673828125 0.080078125
0 0.796875 0.673828125 0.052734375 0.1103515625
0 0.658203125 0.6572265625 0.0751953125 0.0908203125
0 0.5126953125 0.55078125 0.1103515625 0.080078125
0 0.30859375 0.7900390625 0.103515625 0.0927734375
0 0.5654296875 0.0 0.0869140625 0.0439453125
0 0.3544921875 0.4716796875 0.0859375 0.1220703125
0 0.3662109375 0.76171875 0.091796875 0.0986328125
0 0.1650390625 0.03515625 0.1669921875 0.087890625
0 0.0 0.447265625 0.0869140625 0.1826171875
0 0.1181640625 0.7177734375 0.123046875 0.0830078125
0 0.9189453125 0.1708984375 0.0810546875 0.0908203125
0 0.5537109375 0.4169921875 0.1064453125 0.0810546875
0 0.1181640625 0.1875 0.2216796875 0.1064453125
0 0.4609375 0.4970703125 0.107421875 0.091796875
0 0.2978515625 0.388671875 0.083984375 0.07421875
0 0.0712890625 0.619140625 0.1240234375 0.0849609375
0 0.6337890625 0.21875 0.05859375 0.0654296875
0 0.5703125 0.2255859375 0.0654296875 0.099609375
0 0.5185546875 0.2080078125 0.046875 0.080078125
0 0.4482421875 0.158203125 0.080078125 0.1025390625
0 0.65234375 0.0185546875 0.083984375 0.0732421875
0 0.0048828125 0.0048828125 0.0859375 0.0703125
0 0.169921875 0.00390625 0.095703125 0.0771484375
0 0.25390625 0.3798828125 0.064453125 0.060546875
