0 0.072265625 0.0419921875 0.0927734375 0.0751953125
0 0.1953125 0.0556640625 0.0947265625 0.06640625
0 0.4951171875 0.05859375 0.0888671875 0.0703125
0 0.6650390625 0.083984375 0.0908203125 0.0498046875
0 0.59765625 0.115234375 0.12890625 0.0908203125
0 0.7421875 0.1376953125 0.08203125 0.1025390625
0 0.80859375 0.0 0.1005859375 0.083984375
0 0.94921875 0.0 0.05078125 0.08203125
0 0.970703125 0.1787109375 0.029296875 0.078125
0 0.318359375 0.22265625 0.0810546875 0.0693359375
0 0.224609375 0.2470703125 0.0712890625 0.06640625
0 0.0146484375 0.2265625 0.0732421875 0.08203125
0 0.0146484375 0.318359375 0.0673828125 0.0830078125
0 0.1533203125 0.318359375 0.107421875 0.0908203125
0 0.1201171875 0.4287109375 0.0751953125 0.0732421875
0 0.2763671875 0.4091796875 0.0810546875 0.0751953125
0 0.2646484375 0.4931640625 0.0791015625 0.0771484375
0 0.4013671875 0.5166015625 0.091796875 0.0888671875
0 0.4208984375 0.4033203125 0.0791015625 0.0791015625
0 0.5166015625 0.4970703125 0.0888671875 0.0595703125
0 0.609375 0.453125 0.083984375 0.0966796875
0 0.7109375 0.4111328125 0.0712890625 0.103515625
0 0.7841796875 0.60546875 0.1005859375 0.080078125
0 0.6416015625 0.6806640625 0.1044921875 0.0986328125
0 0.5703125 0.7685546875 0.0693359375 0.0771484375
0 0.2841796875 0.83203125 0.109375 0.0751953125
0 0.2744140625 0.708984375 0.0791015625 0.0732421875
0 0.091796875 0.60546875 0.1015625 0.076171875
0 0.130859375 0.7666015625 0.076171875 0.0791015625
0 0.1689453125 0.8701171875 0.099609375 0.0849609375
0 0.3876953125 0.8935546875 0.0693359375 0.0615234375
0 0.5673828125 0.865234375 0.068359375 0.06640625
0 0.6611328125 0.8017578125 0.083984375 0.0732421875
0 0.8359375 0.755859375 0.0869140625 0.091796875
0 0.806640625 0.880859375 0.0966796875 0.095703125
0 0.984375 0.9951171875 0.015625 0.0048828125
0 0.7734375 0.7685546875 0.0849609375 0.0654296875
0 0.7880859375 0.068359375 0.056640625 0.0625
