0 0.3271484375 0.806640625 0.14453125 0.1005859375
0 0.322265625 0.4375 0.189453125 0.1748046875
0 0.716796875 0.3466796875 0.2802734375 0.1474609375
0 0.0693359375 0.0 0.1005859375 0.0341796875
0 0.634765625 0.732421875 0.0771484375 0.162109375
0 0.634765625 0.0 0.2021484375 0.0693359375
0 0.0498046875 0.2646484375 0.1396484375 0.0625
0 0.1572265625 0.0 0.1171875 0.0546875
0 0.640625 0.0732421875 0.1376953125 0.1123046875
0 0.46484375 0.013671875 0.087890625 0.1796875
0 0.849609375 0.724609375 0.142578125 0.1572265625
0 0.3125 0.697265625 0.0947265625 0.080078125
0 0.1015625 0.484375 0.0703125 0.080078125
0 0.8037109375 0.0 0.166015625 0.095703125
0 0.7431640625 0.251953125 0.060546875 0.08984375
0 0.5947265625 0.6142578125 0.2119140625 0.1455078125
0 0.181640625 0.1923828125 0.078125 0.0546875
0 0.0 0.107421875 0.0947265625 0.1123046875
0 0.8193359375 0.19921875 0.150390625 0.10546875
0 0.26953125 0.2099609375 0.169921875 0.134765625
0 0.4892578125 0.3994140625 0.1025390625 0.0927734375
0 0.0 0.2646484375 0.0791015625 0.0830078125
0 0.482421875 0.19921875 0.126953125 0.232421875
0 0.1767578125 0.5791015625 0.0654296875 0.11328125
0 0.0224609375 0.77734375 0.0791015625 0.08984375
0 0.2119140625 0.251953125 0.1572265625 0.1474609375
0 0.029296875 0.1015625 0.2373046875 0.080078125
0 0.142578125 0.80859375 0.1845703125 0.19140625
0 0.0625 0.5771484375 0.1591796875 0.14453125
0 0.0 0.0498046875 0.109375 0.09765625
0 0.6875 0.5224609375 0.2724609375 0.1220703125
0 0.0 0.5146484375 0.0673828125 0.1650390625
0 0.1923828125 0.8017578125 0.14453125 0.107421875
0 0.1845703125 0.376953125 0.1376953125 0.1474609375
0 0.474609375 0.4521484375 0.0595703125 0.0673828125
0 0.1220703125 0.6875 0.1669921875 0.0595703125
0 0.5849609375 0.51953125 0.197265625 0.1201171875
0 0.3740234375 0.91015625 0.1318359375 0.08984375
0 0.404296875 0.2744140625 0.095703125 0.0751953125
0 0.82421875 0.2548828125 0.1328125 0.0517578125
0 0.546875 0.931640625 0.072265625 0.068359375
0 0.4892578125 0.9091796875 0.0673828125 0.0673828125
0 0.912109375 0.734375 0.0849609375 0.150390625
0 0.9296875 0.57421875 0.0703125 0.1552734375
0 0.6845703125 0.591796875 0.1220703125 0.0927734375
0 0.5068359375 0.3818359375 0.107421875 0.078125
0 0.3271484375 0.2724609375 0.1396484375 0.1123046875
0 0.1943359375 0.07421875 0.1201171875 0.1201171875
0 0.0205078125 0.9658203125 0.0771484375 0.033203125
0 0.125 0.6748046875 0.1572265625 0.134765625
0 0.26171875 0.716796875 0.0830078125 0.1552734375
0 0.9140625 0.494140625 0.0859375 0.095703125
0 0.912109375 0.3896484375 0.087890625 0.1025390625
0 0.8173828125 0.369140625 0.1123046875 0.0625
0 0.5869140625 0.6943359375 0.04296875 0.072265625
