0 0.52734375 0.484375 0.1875 0.2255859375
0 0.0 0.0068359375 0.13671875 0.1923828125
0 0.2548828125 0.64453125 0.1318359375 0.08203125
0 0.1005859375 0.859375 0.10546875 0.107421875
0 0.0029296875 0.7177734375 0.2060546875 0.12109375
0 0.234375 0.2216796875 0.1376953125 0.16796875
0 0.4287109375 0.484375 0.1025390625 0.107421875
0 0.6396484375 0.001953125 0.3583984375 0.171875
0 0.3115234375 0.4404296875 0.107421875 0.1044921875
0 0.7021484375 0.1552734375 0.068359375 0.0791015625
0 0.3671875 0.732421875 0.1298828125 0.0849609375
0 0.1494140625 0.2421875 0.080078125 0.0625
0 0.296875 0.7568359375 0.0751953125 0.0751953125
0 0.515625 0.8203125 0.1025390625 0.11328125
0 0.2421875 0.5810546875 0.09765625 0.1015625
