0 0.7412109375 0.8203125 0.11328125 0.0556640625
0 0.0009765625 0.6005859375 0.1015625 0.0634765625
0 0.0400390625 0.8671875 0.08984375 0.0927734375
0 0.62109375 0.2158203125 0.0771484375 0.0888671875
0 0.3876953125 0.2587890625 0.0625 0.0869140625
0 0.7412109375 0.783203125 0.1240234375 0.0537109375
0 0.9072265625 0.41015625 0.0908203125 0.150390625
0 0.4951171875 0.123046875 0.1005859375 0.0703125
0 0.8876953125 0.9287109375 0.08203125 0.0712890625
0 0.0 0.294921875 0.189453125 0.181640625
0 0.369140625 0.0859375 0.109375 0.1171875
0 0.201171875 0.572265625 0.0693359375 0.10546875
0 0.0234375 0.53125 0.1884765625 0.107421875
0 0.0 0.56640625 0.0888671875 0.0693359375
0 0.41796875 0.5947265625 0.1259765625 0.1162109375
0 0.046875 0.251953125 0.07421875 0.0966796875
0 0.23046875 0.39453125 0.1806640625 0.1240234375
0 0.4169921875 0.0263671875 0.130859375 0.1171875
0 0.427734375 0.0 0.099609375 0.0341796875
0 0.806640625 0.4638671875 0.09375 0.1298828125
0 0.123046875 0.806640625 0.0673828125 0.1123046875
0 0.1513671875 0.833984375 0.06640625 0.0869140625
0 0.6162109375 0.779296875 0.1796875 0.0791015625
0 0.896484375 0.376953125 0.1025390625 0.216796875
0 0.78125 0.216796875 0.123046875 0.205078125
0 0.056640625 0.48828125 0.1552734375 0.1376953125
0 0.0 0.6962890625 0.0244140625 0.0556640625
0 0.2783203125 0.0830078125 0.0888671875 0.1064453125
0 0.599609375 0.1689453125 0.07421875 0.0751953125
