0 0.748046875 0.6357421875 0.09765625 0.08984375
0 0.7666015625 0.25390625 0.123046875 0.1083984375
0 0.923828125 0.16015625 0.076171875 0.064453125
0 0.6376953125 0.9033203125 0.08203125 0.0966796875
0 0.9296875 0.9130859375 0.0703125 0.068359375
0 0.8095703125 0.6220703125 0.115234375 0.12890625
0 0.7138671875 0.9013671875 0.078125 0.06640625
