0 0.49609375 0.6572265625 0.07421875 0.076171875
0 0.388671875 0.1630859375 0.0751953125 0.0634765625
0 0.8876953125 0.86328125 0.064453125 0.0947265625
0 0.927734375 0.2861328125 0.0498046875 0.037109375
0 0.171875 0.87890625 0.095703125 0.064453125
0 0.7021484375 0.9423828125 0.1123046875 0.0517578125
0 0.3525390625 0.2001953125 0.080078125 0.0634765625
0 0.9140625 0.1455078125 0.0810546875 0.078125
0 0.6875 0.447265625 0.033203125 0.0625
0 0.0537109375 0.0087890625 0.134765625 0.0400390625
0 0.2333984375 0.408203125 0.09375 0.0537109375
0 0.078125 0.099609375 0.1103515625 0.1240234375
0 0.5888671875 0.4150390625 0.0791015625 0.0673828125
0 0.65625 0.75 0.1259765625 0.1005859375
0 0.666015625 0.185546875 0.0751953125 0.0625
0 0.0009765625 0.26171875 0.0615234375 0.0595703125
0 0.595703125 0.4765625 0.0810546875 0.0859375
0 0.5439453125 0.5625 0.1435546875 0.0478515625
0 0.0 0.5048828125 0.0517578125 0.048828125
0 0.0546875 0.3740234375 0.0947265625 0.1025390625
0 0.2158203125 0.4140625 0.095703125 0.05859375
0 0.8017578125 0.0 0.078125 0.07421875
0 0.951171875 0.7607421875 0.048828125 0.0498046875
0 0.0009765625 0.3720703125 0.0478515625 0.0673828125
0 0.650390625 0.8740234375 0.08984375 0.0576171875
0 0.8056640625 0.48828125 0.0654296875 0.0556640625
0 0.4130859375 0.548828125 0.078125 0.05078125
0 0.0068359375 0.0361328125 0.0966796875 0.0693359375
0 0.029296875 0.5546875 0.072265625 0.052734375
0 0.734375 0.5595703125 0.0751953125 0.0771484375
0 0.0078125 0.8515625 0.0947265625 0.04296875
0 0.0 0.23046875 0.125 0.0771484375
0 0.0888671875 0.2421875 0.0927734375 0.04296875
0 0.47265625 0.8955078125 0.109375 0.04296875
0 0.970703125 0.1884765625 0.029296875 0.0419921875
0 0.2890625 0.5673828125 0.1298828125 0.06640625
0 0.1962890625 0.23828125 0.0771484375 0.05859375
0 0.4208984375 0.3359375 0.1005859375 0.048828125
0 0.091796875 0.529296875 0.0595703125 0.0625
0 0.6669921875 0.509765625 0.0654296875 0.0390625
0 0.798828125 0.587890625 0.08203125 0.037109375
0 0.595703125 0.587890625 0.1064453125 0.0849609375
0 0.8544921875 0.2568359375 0.048828125 0.0693359375
0 0.62109375 0.650390625 0.1025390625 0.0546875
0 0.4208984375 0.2763671875 0.0888671875 0.0537109375
0 0.7392578125 0.5146484375 0.107421875 0.04296875
0 0.7724609375 0.02734375 0.0693359375 0.0498046875
0 0.5986328125 0.470703125 0.1005859375 0.0400390625
0 0.162109375 0.6650390625 0.080078125 0.033203125
0 0.8447265625 0.0009765625 0.0703125 0.0380859375
0 0.5732421875 0.0009765625 0.0595703125 0.0361328125
0 0.2607421875 0.001953125 0.0439453125 0.0361328125
0 0.833984375 0.5751953125 0.0615234375 0.029296875
0 0.48828125 0.291015625 0.09765625 0.0595703125
0 0.0 0.884765625 0.1025390625 0.0537109375
0 0.0 0.30078125 0.0400390625 0.037109375
0 0.0 0.779296875 0.130859375 0.09375
0 0.0009765625 0.7548828125 0.072265625 0.05078125
0 0.3125 0.2568359375 0.12890625 0.0654296875
0 0.8369140625 0.599609375 0.1201171875 0.0986328125
0 0.4990234375 0.9345703125 0.060546875 0.0634765625
0 0.3525390625 0.69921875 0.1142578125 0.0458984375
0 0.6513671875 0.107421875 0.0771484375 0.095703125
0 0.57421875 0.6689453125 0.091796875 0.03125
0 0.6171875 0.0 0.048828125 0.03125
0 0.28125 0.482421875 0.06640625 0.0908203125
0 0.337890625 0.03125 0.1142578125 0.09375
0 0.0 0.9248046875 0.0927734375 0.0400390625
0 0.1748046875 0.533203125 0.0927734375 0.05078125
0 0.48828125 0.236328125 0.0966796875 0.046875
0 0.1103515625 0.48046875 0.1201171875 0.041015625
0 0.0 0.8037109375 0.029296875 0.0361328125
0 0.2041015625 0.5341796875 0.07421875 0.0400390625
0 0.880859375 0.53125 0.119140625 0.060546875
0 0.962890625 0.4912109375 0.037109375 0.0556640625
0 0.373046875 0.216796875 0.1650390625 0.0693359375
0 0.3447265625 0.0029296875 0.046875 0.025390625
0 0.4775390625 0.4580078125 0.0703125 0.08984375
0 0.48828125 0.455078125 0.1181640625 0.0830078125
0 0.5498046875 0.9580078125 0.056640625 0.0400390625
