0 0.0595703125 0.0537109375 0.07421875 0.076171875
0 0.8212890625 0.060546875 0.0888671875 0.087890625
0 0.8515625 0.6513671875 0.076171875 0.072265625
0 0.9365234375 0.23828125 0.0634765625 0.0546875
0 0.087890625 0.658203125 0.1103515625 0.0537109375
0 0.783203125 0.0810546875 0.0576171875 0.08203125
0 0.4580078125 0.775390625 0.09765625 0.0693359375
0 0.3740234375 0.41015625 0.087890625 0.08984375
0 0.3486328125 0.478515625 0.06640625 0.0888671875
0 0.001953125 0.623046875 0.0732421875 0.0927734375
0 0.7001953125 0.72265625 0.0859375 0.1328125
0 0.0458984375 0.4599609375 0.0751953125 0.0791015625
0 0.1513671875 0.72265625 0.09375 0.0517578125
0 0.1767578125 0.927734375 0.119140625 0.072265625
0 0.5009765625 0.4287109375 0.041015625 0.0771484375
0 0.25390625 0.4130859375 0.123046875 0.0615234375
0 0.703125 0.8984375 0.076171875 0.0673828125
0 0.009765625 0.5263671875 0.0908203125 0.044921875
0 0.677734375 0.3818359375 0.0634765625 0.05859375
0 0.0966796875 0.361328125 0.091796875 0.060546875
0 0.8017578125 0.541015625 0.05078125 0.05859375
0 0.810546875 0.1806640625 0.1201171875 0.037109375
0 0.0078125 0.3759765625 0.0927734375 0.0634765625
0 0.2490234375 0.125 0.12109375 0.0810546875
0 0.1865234375 0.177734375 0.0859375 0.052734375
0 0.1064453125 0.0 0.0693359375 0.064453125
0 0.896484375 0.41796875 0.0869140625 0.05078125
0 0.4248046875 0.9453125 0.072265625 0.0517578125
0 0.3076171875 0.705078125 0.0546875 0.0849609375
0 0.5859375 0.0986328125 0.0771484375 0.0556640625
0 0.2998046875 0.6796875 0.125 0.0830078125
0 0.267578125 0.841796875 0.0615234375 0.0419921875
0 0.767578125 0.6953125 0.0615234375 0.0478515625
0 0.40234375 0.1376953125 0.0673828125 0.0380859375
0 0.837890625 0.9453125 0.0654296875 0.052734375
0 0.0927734375 0.7275390625 0.046875 0.0322265625
0 0.3876953125 0.2763671875 0.06640625 0.0390625
0 0.0 0.4658203125 0.0732421875 0.056640625
0 0.0 0.8369140625 0.0517578125 0.0322265625
0 0.197265625 0.6474609375 0.076171875 0.0390625
0 0.166015625 0.6103515625 0.1015625 0.0302734375
0 0.7314453125 0.7021484375 0.0849609375 0.072265625
0 0.310546875 0.5185546875 0.05859375 0.029296875
0 0.736328125 0.46875 0.07421875 0.060546875
0 0.7470703125 0.888671875 0.0546875 0.056640625
0 0.9501953125 0.75 0.0498046875 0.0498046875
0 0.34765625 0.1484375 0.072265625 0.0576171875
0 0.35546875 0.5087890625 0.0556640625 0.0703125
0 0.154296875 0.3623046875 0.06640625 0.05078125
0 0.4638671875 0.4951171875 0.0751953125 0.0458984375
0 0.953125 0.490234375 0.046875 0.0576171875
0 0.7900390625 0.341796875 0.091796875 0.0751953125
0 0.6259765625 0.80078125 0.0576171875 0.0478515625
0 0.22265625 0.4619140625 0.091796875 0.048828125
0 0.61328125 0.1259765625 0.0771484375 0.09765625
0 0.150390625 0.7861328125 0.1416015625 0.04296875
0 0.8193359375 0.3515625 0.06640625 0.0693359375
0 0.607421875 0.98046875 0.0615234375 0.01953125
0 0.2431640625 0.365234375 0.0634765625 0.0400390625
0 0.0 0.31640625 0.0634765625 0.052734375
0 0.1279296875 0.060546875 0.1259765625 0.0595703125
0 0.1572265625 0.4423828125 0.0673828125 0.05859375
0 0.9404296875 0.01171875 0.0546875 0.0361328125
0 0.818359375 0.8388671875 0.0703125 0.0419921875
0 0.6865234375 0.212890625 0.056640625 0.041015625
0 0.162109375 0.4345703125 0.060546875 0.044921875
0 0.0244140625 0.3076171875 0.0634765625 0.0537109375
0 0.927734375 0.5859375 0.041015625 0.03125
0 0.6044921875 0.89453125 0.0986328125 0.0595703125
0 0.1865234375 0.4150390625 0.0771484375 0.044921875
0 0.0 0.12109375 0.033203125 0.0361328125
0 0.7890625 0.3359375 0.0810546875 0.060546875
0 0.9345703125 0.306640625 0.0400390625 0.0458984375
0 0.810546875 0.8623046875 0.046875 0.0498046875
0 0.6923828125 0.810546875 0.1044921875 0.09375
0 0.228515625 0.0634765625 0.158203125 0.0771484375
