0 0.638671875 0.1533203125 0.0908203125 0.09375
0 0.681640625 0.1123046875 0.0927734375 0.078125
0 0.7392578125 0.1904296875 0.1552734375 0.083984375
0 0.7080078125 0.2578125 0.080078125 0.0654296875
0 0.8984375 0.3291015625 0.09375 0.0791015625
0 0.55078125 0.2890625 0.091796875 0.060546875
0 0.609375 0.3056640625 0.1005859375 0.07421875
0 0.3017578125 0.17578125 0.150390625 0.0654296875
0 0.43359375 0.224609375 0.09765625 0.0810546875
0 0.2373046875 0.25 0.0966796875 0.056640625
0 0.1884765625 0.1904296875 0.087890625 0.0634765625
0 0.353515625 0.248046875 0.0791015625 0.0703125
0 0.0986328125 0.21875 0.064453125 0.0693359375
0 0.150390625 0.279296875 0.07421875 0.064453125
0 0.03125 0.2724609375 0.099609375 0.0908203125
0 0.0 0.365234375 0.0576171875 0.0693359375
0 0.4130859375 0.0458984375 0.0869140625 0.0947265625
0 0.75 0.0 0.087890625 0.0771484375
0 0.076171875 0.8642578125 0.07421875 0.0947265625
0 0.2392578125 0.9267578125 0.0927734375 0.0732421875
0 0.27734375 0.890625 0.083984375 0.0908203125
0 0.3134765625 0.8037109375 0.1025390625 0.0966796875
0 0.2451171875 0.8095703125 0.076171875 0.0830078125
0 0.2509765625 0.70703125 0.07421875 0.087890625
0 0.294921875 0.6591796875 0.0732421875 0.0947265625
0 0.4638671875 0.5771484375 0.0478515625 0.1279296875
0 0.560546875 0.6494140625 0.0693359375 0.130859375
0 0.50390625 0.7626953125 0.0947265625 0.0693359375
0 0.4921875 0.837890625 0.0869140625 0.0810546875
0 0.689453125 0.9296875 0.087890625 0.0703125
0 0.6337890625 0.779296875 0.1103515625 0.0810546875
0 0.6640625 0.6962890625 0.150390625 0.078125
0 0.9404296875 0.779296875 0.0595703125 0.115234375
0 0.1318359375 0.404296875 0.107421875 0.0654296875
0 0.173828125 0.5458984375 0.0771484375 0.0654296875
0 0.177734375 0.4853515625 0.1015625 0.0712890625
0 0.068359375 0.67578125 0.06640625 0.0712890625
0 0.10546875 0.7880859375 0.08984375 0.0654296875
0 0.396484375 0.701171875 0.0771484375 0.078125
0 0.3505859375 0.3203125 0.0771484375 0.078125
0 0.81640625 0.67578125 0.07421875 0.07421875
0 0.71875 0.8505859375 0.0849609375 0.060546875
0 0.595703125 0.8388671875 0.0654296875 0.0595703125
0 0.8974609375 0.00390625 0.09765625 0.0546875
