0 0.76953125 0.4423828125 0.0927734375 0.0771484375
0 0.8427734375 0.7646484375 0.1572265625 0.080078125
0 0.8447265625 0.1923828125 0.1298828125 0.109375
0 0.69921875 0.6943359375 0.0849609375 0.080078125
0 0.626953125 0.5146484375 0.0927734375 0.080078125
0 0.671875 0.19921875 0.1171875 0.10546875
0 0.71484375 0.099609375 0.13671875 0.0947265625
0 0.8447265625 0.5166015625 0.0947265625 0.0849609375
0 0.6474609375 0.6416015625 0.1298828125 0.0703125
0 0.91015625 0.8466796875 0.08984375 0.095703125
0 0.900390625 0.3193359375 0.099609375 0.0732421875
0 0.8466796875 0.0966796875 0.1201171875 0.087890625
0 0.9248046875 0.4091796875 0.0751953125 0.1103515625
0 0.9169921875 0.5322265625 0.080078125 0.0673828125
0 0.591796875 0.0 0.1279296875 0.1083984375
