0 0.8232421875 0.1220703125 0.0830078125 0.0947265625
0 0.8740234375 0.548828125 0.0673828125 0.0927734375
0 0.47265625 0.3046875 0.0869140625 0.05859375
0 0.3564453125 0.029296875 0.0908203125 0.0810546875
0 0.166015625 0.5048828125 0.109375 0.0576171875
0 0.0126953125 0.5732421875 0.1025390625 0.064453125
0 0.318359375 0.8779296875 0.1083984375 0.0771484375
0 0.822265625 0.509765625 0.0625 0.0771484375
0 0.560546875 0.509765625 0.0908203125 0.05859375
0 0.548828125 0.02734375 0.0654296875 0.169921875
0 0.640625 0.2421875 0.115234375 0.0615234375
0 0.17578125 0.6259765625 0.134765625 0.05859375
0 0.5341796875 0.2158203125 0.10546875 0.0703125
0 0.1181640625 0.2275390625 0.080078125 0.044921875
0 0.810546875 0.5537109375 0.0634765625 0.060546875
0 0.0 0.91015625 0.08984375 0.048828125
0 0.1591796875 0.8974609375 0.134765625 0.0517578125
0 0.18359375 0.421875 0.146484375 0.1162109375
0 0.2353515625 0.16796875 0.1455078125 0.064453125
0 0.54296875 0.7724609375 0.0927734375 0.0263671875
0 0.8291015625 0.1796875 0.0673828125 0.072265625
0 0.9794921875 0.5869140625 0.0205078125 0.05078125
0 0.41796875 0.591796875 0.109375 0.06640625
0 0.326171875 0.4677734375 0.1083984375 0.0751953125
0 0.962890625 0.421875 0.0126953125 0.080078125
0 0.69140625 0.5908203125 0.091796875 0.0302734375
0 0.55078125 0.52734375 0.0927734375 0.072265625
0 0.5439453125 0.8876953125 0.0654296875 0.060546875
0 0.6220703125 0.9658203125 0.0908203125 0.0341796875
0 0.1171875 0.87890625 0.0888671875 0.0322265625
0 0.78125 0.0048828125 0.1240234375 0.0361328125
0 0.6787109375 0.6513671875 0.107421875 0.0625
0 0.7529296875 0.1611328125 0.06640625 0.041015625
0 0.724609375 0.3232421875 0.05859375 0.0537109375
0 0.224609375 0.5908203125 0.1318359375 0.0478515625
0 0.404296875 0.7724609375 0.0791015625 0.046875
0 0.0 0.8525390625 0.05078125 0.0693359375
0 0.6982421875 0.947265625 0.06640625 0.04296875
0 0.1328125 0.6552734375 0.1123046875 0.0966796875
0 0.419921875 0.8837890625 0.0888671875 0.037109375
0 0.09375 0.6337890625 0.080078125 0.060546875
0 0.84765625 0.607421875 0.0576171875 0.0458984375
0 0.3349609375 0.5419921875 0.09375 0.060546875
0 0.80859375 0.2080078125 0.0732421875 0.0537109375
0 0.33984375 0.5 0.099609375 0.0859375
0 0.2021484375 0.5654296875 0.0732421875 0.033203125
0 0.513671875 0.505859375 0.05859375 0.056640625
0 0.1357421875 0.5751953125 0.0732421875 0.05078125
0 0.6396484375 0.619140625 0.12890625 0.056640625
0 0.4052734375 0.671875 0.0654296875 0.0380859375
0 0.830078125 0.4853515625 0.083984375 0.0478515625
0 0.3232421875 0.6640625 0.0810546875 0.0458984375
0 0.5244140625 0.6640625 0.099609375 0.06640625
