0 0.1923828125 0.146484375 0.11328125 0.162109375
0 0.328125 0.2509765625 0.06640625 0.0810546875
0 0.4130859375 0.26953125 0.0498046875 0.0517578125
0 0.400390625 0.1298828125 0.072265625 0.111328125
0 0.5244140625 0.1025390625 0.06640625 0.1298828125
0 0.509765625 0.2216796875 0.099609375 0.095703125
0 0.6005859375 0.115234375 0.0546875 0.083984375
0 0.7265625 0.17578125 0.0830078125 0.0859375
0 0.8388671875 0.2177734375 0.068359375 0.1005859375
0 0.8837890625 0.2431640625 0.0751953125 0.0908203125
0 0.83984375 0.3720703125 0.0654296875 0.0537109375
0 0.869140625 0.521484375 0.087890625 0.150390625
0 0.72265625 0.6669921875 0.0830078125 0.076171875
0 0.73046875 0.7373046875 0.05078125 0.06640625
0 0.7998046875 0.7470703125 0.0732421875 0.1162109375
0 0.8134765625 0.7080078125 0.064453125 0.056640625
0 0.673828125 0.4912109375 0.078125 0.1259765625
0 0.630859375 0.615234375 0.0556640625 0.05859375
0 0.546875 0.51171875 0.0908203125 0.09375
0 0.36328125 0.5517578125 0.1728515625 0.1123046875
0 0.2705078125 0.591796875 0.0791015625 0.0908203125
0 0.3427734375 0.69921875 0.1455078125 0.06640625
0 0.6083984375 0.7978515625 0.0615234375 0.0634765625
0 0.5546875 0.8349609375 0.0546875 0.0693359375
0 0.76953125 0.951171875 0.07421875 0.048828125
0 0.7705078125 0.8681640625 0.064453125 0.0849609375
0 0.8486328125 0.8828125 0.0595703125 0.072265625
0 0.529296875 0.9404296875 0.0576171875 0.0595703125
0 0.404296875 0.9423828125 0.048828125 0.0576171875
0 0.2666015625 0.865234375 0.064453125 0.056640625
0 0.1953125 0.7392578125 0.0791015625 0.078125
0 0.083984375 0.71875 0.091796875 0.109375
0 0.15625 0.484375 0.0576171875 0.1328125
0 0.1025390625 0.50390625 0.0458984375 0.0869140625
0 0.1064453125 0.4091796875 0.078125 0.060546875
0 0.1337890625 0.33984375 0.08203125 0.0576171875
0 0.224609375 0.3544921875 0.0498046875 0.076171875
0 0.265625 0.4306640625 0.0546875 0.080078125
0 0.3828125 0.4404296875 0.08984375 0.0703125
0 0.4765625 0.412109375 0.0478515625 0.05859375
0 0.3564453125 0.3486328125 0.044921875 0.0703125
0 0.39453125 0.3583984375 0.05859375 0.068359375
0 0.0654296875 0.123046875 0.0947265625 0.0712890625
0 0.0 0.1806640625 0.0693359375 0.0703125
0 0.08984375 0.0263671875 0.0556640625 0.0615234375
0 0.201171875 0.060546875 0.115234375 0.052734375
0 0.318359375 0.091796875 0.0546875 0.0576171875
0 0.2080078125 0.0 0.0546875 0.0478515625
0 0.9326171875 0.0 0.064453125 0.0751953125
0 0.0283203125 0.8203125 0.046875 0.095703125
0 0.4541015625 0.6630859375 0.0810546875 0.046875
0 0.541015625 0.7177734375 0.056640625 0.0419921875
0 0.80078125 0.49609375 0.1201171875 0.091796875
0 0.7578125 0.4755859375 0.0869140625 0.0595703125
