0 0.005859375 0.3544921875 0.078125 0.072265625
0 0.0390625 0.4326171875 0.076171875 0.1025390625
0 0.0 0.8173828125 0.037109375 0.1748046875
0 0.150390625 0.8271484375 0.068359375 0.0732421875
0 0.1806640625 0.697265625 0.0771484375 0.0986328125
0 0.2724609375 0.7451171875 0.0771484375 0.064453125
0 0.2939453125 0.83984375 0.078125 0.0654296875
0 0.375 0.875 0.0673828125 0.0615234375
0 0.373046875 0.9521484375 0.068359375 0.0478515625
0 0.685546875 0.8779296875 0.0869140625 0.1220703125
0 0.798828125 0.6748046875 0.064453125 0.0517578125
0 0.8759765625 0.53125 0.1240234375 0.109375
0 0.9375 0.65234375 0.05859375 0.0615234375
0 0.6025390625 0.5390625 0.0615234375 0.0966796875
0 0.6640625 0.6123046875 0.08984375 0.0693359375
0 0.1923828125 0.306640625 0.109375 0.05859375
0 0.1552734375 0.064453125 0.078125 0.0693359375
0 0.4150390625 0.0 0.115234375 0.037109375
0 0.6953125 0.0615234375 0.06640625 0.0849609375
0 0.76171875 0.1298828125 0.078125 0.1318359375
0 0.6162109375 0.2177734375 0.087890625 0.076171875
0 0.5283203125 0.3212890625 0.0771484375 0.0859375
0 0.419921875 0.15234375 0.068359375 0.0693359375
0 0.2578125 0.3642578125 0.12109375 0.0830078125
0 0.2666015625 0.421875 0.091796875 0.1005859375
0 0.3505859375 0.5283203125 0.087890625 0.1142578125
0 0.474609375 0.4892578125 0.0712890625 0.091796875
0 0.669921875 0.5 0.091796875 0.0615234375
0 0.7431640625 0.451171875 0.0751953125 0.0849609375
0 0.623046875 0.3818359375 0.0634765625 0.0732421875
0 0.748046875 0.302734375 0.0625 0.1044921875
0 0.7998046875 0.3837890625 0.046875 0.0498046875
0 0.87890625 0.3837890625 0.041015625 0.111328125
0 0.6640625 0.783203125 0.0791015625 0.0625
0 0.7802734375 0.94140625 0.0654296875 0.0556640625
0 0.9267578125 0.0361328125 0.0732421875 0.0673828125
0 0.6123046875 0.0 0.0625 0.03125
0 0.1982421875 0.4794921875 0.06640625 0.0654296875
0 0.7197265625 0.37890625 0.056640625 0.0537109375
0 0.60546875 0.294921875 0.078125 0.0625
0 0.361328125 0.6630859375 0.0703125 0.0576171875
0 0.3623046875 0.7333984375 0.0390625 0.05859375
