0 0.0 0.0 0.0244140625 0.080078125
0 0.05078125 0.1435546875 0.0888671875 0.076171875
0 0.04296875 0.2412109375 0.0791015625 0.0908203125
0 0.044921875 0.3828125 0.08984375 0.130859375
0 0.18359375 0.306640625 0.0908203125 0.125
0 0.2880859375 0.3408203125 0.0712890625 0.083984375
0 0.2275390625 0.1484375 0.0947265625 0.1611328125
0 0.4326171875 0.189453125 0.0673828125 0.1357421875
0 0.5107421875 0.21484375 0.080078125 0.0859375
0 0.35546875 0.06640625 0.099609375 0.1337890625
0 0.4384765625 0.025390625 0.0908203125 0.06640625
0 0.55078125 0.1005859375 0.06640625 0.0576171875
0 0.626953125 0.18359375 0.0498046875 0.05078125
0 0.6748046875 0.1552734375 0.0615234375 0.1044921875
0 0.6826171875 0.26171875 0.0634765625 0.0693359375
0 0.48828125 0.345703125 0.1318359375 0.080078125
0 0.6484375 0.349609375 0.1201171875 0.078125
0 0.66796875 0.4326171875 0.08203125 0.0625
0 0.552734375 0.4736328125 0.1064453125 0.130859375
0 0.38671875 0.435546875 0.0888671875 0.0869140625
0 0.412109375 0.5126953125 0.0625 0.05078125
0 0.197265625 0.5185546875 0.1982421875 0.1220703125
0 0.62109375 0.6220703125 0.09375 0.09375
0 0.435546875 0.67578125 0.0859375 0.060546875
0 0.6435546875 0.720703125 0.119140625 0.0927734375
0 0.044921875 0.5859375 0.1015625 0.09375
0 0.0517578125 0.6884765625 0.1162109375 0.05859375
0 0.1025390625 0.771484375 0.123046875 0.0654296875
0 0.3203125 0.7734375 0.103515625 0.09765625
0 0.2783203125 0.8837890625 0.0830078125 0.1162109375
0 0.18359375 0.9833984375 0.1103515625 0.0166015625
0 0.1025390625 0.9775390625 0.0810546875 0.0224609375
0 0.060546875 0.83203125 0.103515625 0.060546875
0 0.0 0.8427734375 0.0380859375 0.072265625
0 0.5439453125 0.798828125 0.0615234375 0.0517578125
0 0.501953125 0.8662109375 0.0751953125 0.1337890625
0 0.607421875 0.8896484375 0.068359375 0.107421875
0 0.681640625 0.8515625 0.1416015625 0.1005859375
0 0.9462890625 0.90625 0.0537109375 0.0810546875
0 0.8232421875 0.814453125 0.080078125 0.15625
0 0.8720703125 0.7109375 0.1123046875 0.123046875
0 0.890625 0.572265625 0.109375 0.166015625
0 0.87890625 0.4736328125 0.12109375 0.0703125
0 0.869140625 0.349609375 0.130859375 0.0947265625
0 0.609375 0.0234375 0.0732421875 0.0556640625
0 0.5419921875 0.1611328125 0.0791015625 0.0546875
0 0.2412109375 0.69140625 0.0693359375 0.095703125
0 0.0556640625 0.6923828125 0.19921875 0.119140625
0 0.3671875 0.150390625 0.125 0.083984375
0 0.787109375 0.1044921875 0.1103515625 0.126953125
0 0.7431640625 0.2158203125 0.11328125 0.08203125
0 0.51171875 0.4404296875 0.087890625 0.064453125
0 0.8193359375 0.0 0.0849609375 0.060546875
