0 0.7216796875 0.0 0.0634765625 0.037109375
0 0.5712890625 0.1787109375 0.138671875 0.1064453125
0 0.4814453125 0.1611328125 0.1611328125 0.1337890625
0 0.845703125 0.279296875 0.0703125 0.119140625
0 0.728515625 0.2919921875 0.0634765625 0.0751953125
0 0.728515625 0.3583984375 0.1103515625 0.08203125
0 0.7919921875 0.298828125 0.0458984375 0.05859375
0 0.62109375 0.3017578125 0.08984375 0.1103515625
0 0.4091796875 0.2939453125 0.1328125 0.0693359375
0 0.421875 0.21875 0.07421875 0.068359375
0 0.3017578125 0.1484375 0.078125 0.0888671875
0 0.083984375 0.1767578125 0.0634765625 0.12109375
0 0.0 0.3046875 0.091796875 0.0537109375
0 0.0986328125 0.3525390625 0.1201171875 0.06640625
0 0.2109375 0.4091796875 0.0546875 0.076171875
0 0.2978515625 0.3056640625 0.080078125 0.076171875
0 0.32421875 0.306640625 0.1064453125 0.05859375
0 0.37890625 0.3486328125 0.1162109375 0.0712890625
0 0.216796875 0.2841796875 0.0595703125 0.056640625
0 0.4228515625 0.4873046875 0.080078125 0.0791015625
0 0.3720703125 0.5205078125 0.076171875 0.1181640625
0 0.556640625 0.5810546875 0.0595703125 0.0859375
0 0.572265625 0.5185546875 0.1396484375 0.1025390625
0 0.5947265625 0.4892578125 0.1572265625 0.1005859375
0 0.8017578125 0.5458984375 0.06640625 0.0654296875
0 0.9072265625 0.458984375 0.0927734375 0.1474609375
0 0.9599609375 0.58984375 0.0400390625 0.1162109375
0 0.2373046875 0.634765625 0.1162109375 0.0654296875
0 0.0 0.626953125 0.1337890625 0.0615234375
0 0.0244140625 0.7001953125 0.1748046875 0.0625
0 0.279296875 0.71484375 0.0849609375 0.0576171875
0 0.259765625 0.7587890625 0.08984375 0.0615234375
0 0.5732421875 0.9326171875 0.107421875 0.0673828125
0 0.0 0.3544921875 0.0712890625 0.04296875
0 0.072265625 0.25390625 0.083984375 0.04296875
0 0.2734375 0.349609375 0.046875 0.0380859375
0 0.310546875 0.3759765625 0.060546875 0.0439453125
0 0.697265625 0.69921875 0.0546875 0.0537109375
0 0.2978515625 0.8017578125 0.044921875 0.0537109375
0 0.8837890625 0.568359375 0.05859375 0.083984375
