0 0.01171875 0.2568359375 0.0712890625 0.06640625
0 0.00390625 0.3203125 0.06640625 0.0693359375
0 0.0732421875 0.37109375 0.06640625 0.078125
0 0.0 0.455078125 0.0693359375 0.095703125
0 0.16015625 0.515625 0.0712890625 0.0908203125
0 0.2392578125 0.5986328125 0.0927734375 0.1259765625
0 0.001953125 0.9375 0.0810546875 0.0625
0 0.1982421875 0.9052734375 0.095703125 0.0947265625
0 0.1259765625 0.806640625 0.095703125 0.068359375
0 0.146484375 0.763671875 0.107421875 0.083984375
0 0.2607421875 0.74609375 0.0791015625 0.060546875
0 0.283203125 0.82421875 0.0732421875 0.0751953125
0 0.8818359375 0.978515625 0.0908203125 0.021484375
0 0.6923828125 0.9453125 0.0810546875 0.0546875
0 0.744140625 0.88671875 0.0771484375 0.068359375
0 0.61328125 0.7978515625 0.095703125 0.080078125
0 0.7314453125 0.77734375 0.0751953125 0.06640625
0 0.75390625 0.7080078125 0.0654296875 0.0634765625
0 0.623046875 0.6494140625 0.064453125 0.044921875
0 0.6484375 0.6962890625 0.0673828125 0.0537109375
0 0.3935546875 0.740234375 0.0703125 0.0625
0 0.36328125 0.7900390625 0.0576171875 0.060546875
0 0.708984375 0.6357421875 0.091796875 0.06640625
0 0.7255859375 0.619140625 0.05859375 0.0390625
0 0.4228515625 0.4755859375 0.1240234375 0.103515625
0 0.244140625 0.470703125 0.0712890625 0.0703125
0 0.2158203125 0.3330078125 0.0927734375 0.134765625
0 0.357421875 0.3779296875 0.0693359375 0.0634765625
0 0.234375 0.2353515625 0.08984375 0.060546875
0 0.341796875 0.1689453125 0.09375 0.1328125
0 0.078125 0.140625 0.130859375 0.083984375
0 0.0546875 0.0693359375 0.0625 0.125
0 0.5224609375 0.162109375 0.1064453125 0.1025390625
0 0.546875 0.3359375 0.095703125 0.0625
0 0.728515625 0.24609375 0.083984375 0.05859375
0 0.7529296875 0.1787109375 0.078125 0.048828125
0 0.87109375 0.0546875 0.0908203125 0.0732421875
0 0.8388671875 0.1494140625 0.080078125 0.0986328125
0 0.91015625 0.201171875 0.07421875 0.0556640625
0 0.9052734375 0.2744140625 0.0869140625 0.0654296875
0 0.8427734375 0.3408203125 0.095703125 0.0751953125
0 0.826171875 0.4150390625 0.0703125 0.08984375
0 0.8955078125 0.50390625 0.056640625 0.06640625
0 0.8994140625 0.7138671875 0.0791015625 0.06640625
0 0.85546875 0.7841796875 0.0576171875 0.1015625
0 0.9130859375 0.80859375 0.048828125 0.0625
0 0.83984375 0.55078125 0.08984375 0.1240234375
0 0.6708984375 0.4404296875 0.0732421875 0.0751953125
0 0.5458984375 0.408203125 0.087890625 0.0947265625
0 0.5185546875 0.453125 0.0771484375 0.09375
0 0.833984375 0.263671875 0.041015625 0.056640625
