0 0.0 0.6474609375 0.05859375 0.0869140625
0 0.1767578125 0.9296875 0.095703125 0.0703125
0 0.8642578125 0.474609375 0.0849609375 0.177734375
0 0.1123046875 0.501953125 0.0966796875 0.1025390625
0 0.24609375 0.5595703125 0.1025390625 0.0986328125
0 0.341796875 0.119140625 0.1181640625 0.115234375
0 0.8173828125 0.3642578125 0.1123046875 0.1337890625
0 0.1669921875 0.7919921875 0.0751953125 0.10546875
0 0.0869140625 0.08203125 0.1083984375 0.17578125
0 0.40625 0.3583984375 0.1259765625 0.115234375
0 0.3544921875 0.5712890625 0.1220703125 0.072265625
0 0.45703125 0.044921875 0.1953125 0.126953125
0 0.328125 0.2373046875 0.087890625 0.078125
0 0.40234375 0.25 0.0771484375 0.1396484375
0 0.7021484375 0.9521484375 0.08203125 0.0478515625
0 0.3447265625 0.7890625 0.2001953125 0.09765625
0 0.4541015625 0.931640625 0.0830078125 0.068359375
0 0.3330078125 0.0009765625 0.138671875 0.1396484375
0 0.0 0.3193359375 0.1220703125 0.09765625
0 0.759765625 0.5341796875 0.1181640625 0.0693359375
0 0.02734375 0.2890625 0.0947265625 0.0654296875
0 0.7001953125 0.439453125 0.14453125 0.1669921875
0 0.046875 0.001953125 0.1171875 0.09765625
0 0.4423828125 0.716796875 0.080078125 0.1875
0 0.2421875 0.4794921875 0.0498046875 0.0751953125
0 0.5048828125 0.884765625 0.0869140625 0.115234375
0 0.5234375 0.009765625 0.0830078125 0.0771484375
0 0.453125 0.587890625 0.080078125 0.0751953125
