0 0.5595703125 0.314453125 0.087890625 0.0927734375
0 0.6767578125 0.0419921875 0.0625 0.0751953125
0 0.9521484375 0.0322265625 0.0478515625 0.0546875
0 0.822265625 0.322265625 0.080078125 0.080078125
0 0.796875 0.171875 0.078125 0.080078125
0 0.6376953125 0.0107421875 0.0478515625 0.0615234375
0 0.671875 0.2666015625 0.0546875 0.0625
0 0.8642578125 0.0771484375 0.0673828125 0.115234375
0 0.939453125 0.3671875 0.060546875 0.1044921875
