0 0.0 0.3818359375 0.0283203125 0.142578125
0 0.1494140625 0.2958984375 0.083984375 0.05859375
0 0.228515625 0.3271484375 0.109375 0.0791015625
0 0.3046875 0.302734375 0.0537109375 0.0771484375
0 0.380859375 0.3720703125 0.181640625 0.111328125
0 0.271484375 0.5595703125 0.17578125 0.080078125
0 0.2607421875 0.6875 0.0771484375 0.0849609375
0 0.35546875 0.6982421875 0.1083984375 0.126953125
0 0.3876953125 0.8427734375 0.0859375 0.0791015625
0 0.2578125 0.8564453125 0.0810546875 0.0732421875
0 0.1845703125 0.8505859375 0.0830078125 0.0751953125
0 0.1865234375 0.9208984375 0.1015625 0.048828125
0 0.537109375 0.8525390625 0.111328125 0.0576171875
0 0.5517578125 0.7119140625 0.1240234375 0.0751953125
0 0.80859375 0.9091796875 0.099609375 0.068359375
0 0.8837890625 0.81640625 0.1162109375 0.142578125
0 0.61328125 0.615234375 0.0703125 0.0595703125
0 0.630859375 0.5009765625 0.107421875 0.0712890625
0 0.828125 0.517578125 0.0654296875 0.0654296875
0 0.89453125 0.564453125 0.068359375 0.0732421875
0 0.8349609375 0.6181640625 0.0625 0.060546875
0 0.822265625 0.31640625 0.07421875 0.1005859375
0 0.86328125 0.2958984375 0.1240234375 0.0654296875
0 0.822265625 0.38671875 0.1337890625 0.0673828125
0 0.87890625 0.15625 0.1083984375 0.111328125
0 0.6748046875 0.052734375 0.0771484375 0.0966796875
0 0.560546875 0.181640625 0.11328125 0.1044921875
0 0.4287109375 0.015625 0.119140625 0.083984375
0 0.1787109375 0.1552734375 0.1005859375 0.056640625
0 0.138671875 0.1806640625 0.0693359375 0.0595703125
0 0.2392578125 0.107421875 0.076171875 0.0478515625
0 0.4052734375 0.1572265625 0.0712890625 0.056640625
0 0.3447265625 0.201171875 0.0732421875 0.068359375
0 0.5419921875 0.1904296875 0.0791015625 0.0810546875
0 0.0595703125 0.8740234375 0.078125 0.1123046875
0 0.08203125 0.8515625 0.06640625 0.0634765625
