0 0.82421875 0.6123046875 0.0927734375 0.08203125
0 0.724609375 0.3193359375 0.0498046875 0.0556640625
0 0.83984375 0.1591796875 0.0869140625 0.125
0 0.0771484375 0.5869140625 0.0771484375 0.15234375
0 0.8447265625 0.7373046875 0.0673828125 0.1142578125
0 0.0791015625 0.900390625 0.07421875 0.099609375
0 0.814453125 0.0 0.080078125 0.0849609375
0 0.822265625 0.5419921875 0.0693359375 0.0654296875
0 0.7646484375 0.0146484375 0.0703125 0.080078125
0 0.9599609375 0.533203125 0.0400390625 0.10546875
0 0.796875 0.8046875 0.078125 0.080078125
0 0.0625 0.7373046875 0.099609375 0.0771484375
0 0.904296875 0.537109375 0.08984375 0.0927734375
0 0.7919921875 0.189453125 0.072265625 0.087890625
0 0.8095703125 0.125 0.0546875 0.0546875
0 0.6875 0.3623046875 0.1015625 0.125
0 0.814453125 0.3896484375 0.0546875 0.064453125
0 0.0244140625 0.751953125 0.0703125 0.123046875
0 0.009765625 0.83203125 0.0595703125 0.1220703125
0 0.8994140625 0.759765625 0.08984375 0.072265625
0 0.8798828125 0.7724609375 0.0966796875 0.119140625
0 0.8974609375 0.900390625 0.0849609375 0.099609375
0 0.8759765625 0.9423828125 0.0478515625 0.056640625
0 0.837890625 0.9306640625 0.044921875 0.0693359375
0 0.7841796875 0.8818359375 0.048828125 0.111328125
