0 0.1298828125 0.734375 0.1005859375 0.0810546875
0 0.197265625 0.3779296875 0.11328125 0.0908203125
0 0.0 0.4736328125 0.08984375 0.0966796875
0 0.30859375 0.5322265625 0.0908203125 0.1005859375
0 0.6630859375 0.158203125 0.06640625 0.0849609375
0 0.5126953125 0.8681640625 0.0908203125 0.0810546875
0 0.0654296875 0.4765625 0.1171875 0.103515625
0 0.796875 0.3955078125 0.091796875 0.0703125
0 0.0361328125 0.7392578125 0.126953125 0.0947265625
0 0.1435546875 0.2294921875 0.1298828125 0.0849609375
0 0.5654296875 0.1123046875 0.095703125 0.1396484375
0 0.150390625 0.453125 0.09765625 0.1337890625
0 0.62109375 0.9306640625 0.1337890625 0.0693359375
0 0.76953125 0.2197265625 0.0771484375 0.16015625
0 0.48828125 0.0400390625 0.1171875 0.0732421875
0 0.7919921875 0.6904296875 0.1064453125 0.095703125
0 0.0 0.359375 0.08984375 0.0751953125
0 0.875 0.7353515625 0.0966796875 0.1005859375
0 0.9716796875 0.3173828125 0.0283203125 0.0810546875
0 0.203125 0.630859375 0.123046875 0.091796875
0 0.2958984375 0.7890625 0.1064453125 0.107421875
0 0.39453125 0.5654296875 0.103515625 0.1494140625
0 0.5986328125 0.4658203125 0.107421875 0.0732421875
0 0.5166015625 0.2236328125 0.103515625 0.07421875
0 0.5869140625 0.3017578125 0.126953125 0.072265625
0 0.62890625 0.376953125 0.1240234375 0.0849609375
0 0.7158203125 0.345703125 0.05859375 0.0927734375
0 0.2705078125 0.619140625 0.0859375 0.0673828125
0 0.1181640625 0.3359375 0.076171875 0.064453125
0 0.0185546875 0.2861328125 0.107421875 0.115234375
0 0.8642578125 0.6435546875 0.05859375 0.06640625
0 0.5009765625 0.0 0.0576171875 0.0341796875
