0 0.0 0.0146484375 0.03125 0.11328125
0 0.0 0.1533203125 0.0771484375 0.0771484375
0 0.154296875 0.0 0.0966796875 0.1943359375
0 0.267578125 0.1884765625 0.1025390625 0.0693359375
0 0.1513671875 0.18359375 0.1064453125 0.11328125
0 0.076171875 0.3046875 0.1396484375 0.203125
0 0.0 0.8369140625 0.076171875 0.1416015625
0 0.23828125 0.9150390625 0.072265625 0.0810546875
0 0.5498046875 0.849609375 0.09375 0.119140625
0 0.658203125 0.8662109375 0.06640625 0.0849609375
0 0.71484375 0.875 0.0927734375 0.1103515625
0 0.3505859375 0.640625 0.09375 0.083984375
0 0.36328125 0.36328125 0.095703125 0.1328125
0 0.455078125 0.4150390625 0.0556640625 0.0634765625
0 0.5087890625 0.3994140625 0.1376953125 0.1123046875
0 0.5478515625 0.259765625 0.15234375 0.0966796875
0 0.548828125 0.1005859375 0.078125 0.08984375
0 0.3564453125 0.052734375 0.1435546875 0.099609375
0 0.4443359375 0.1162109375 0.11328125 0.1064453125
0 0.6513671875 0.0 0.0869140625 0.1396484375
0 0.8359375 0.0 0.0537109375 0.0673828125
0 0.90625 0.2744140625 0.064453125 0.130859375
0 0.90625 0.390625 0.0595703125 0.1328125
0 0.7255859375 0.6328125 0.0517578125 0.1044921875
0 0.78515625 0.6689453125 0.0966796875 0.087890625
0 0.7958984375 0.7421875 0.060546875 0.068359375
0 0.8955078125 0.888671875 0.06640625 0.1015625
0 0.9853515625 0.7744140625 0.0146484375 0.0517578125
0 0.9482421875 0.826171875 0.0517578125 0.0859375
0 0.5068359375 0.5859375 0.080078125 0.0830078125
0 0.5576171875 0.72265625 0.0810546875 0.080078125
0 0.609375 0.67578125 0.0830078125 0.0791015625
0 0.9287109375 0.4482421875 0.0712890625 0.185546875
0 0.216796875 0.0 0.0830078125 0.11328125
