0 0.8642578125 0.0 0.1171875 0.0712890625
0 0.69921875 0.04296875 0.1494140625 0.099609375
0 0.7578125 0.173828125 0.052734375 0.044921875
0 0.6669921875 0.1650390625 0.1162109375 0.080078125
0 0.6962890625 0.2802734375 0.109375 0.0703125
0 0.474609375 0.17578125 0.1572265625 0.0830078125
0 0.537109375 0.0 0.0712890625 0.1279296875
0 0.5869140625 0.0 0.0537109375 0.0615234375
0 0.4130859375 0.0 0.0888671875 0.0810546875
0 0.2890625 0.0 0.10546875 0.037109375
0 0.3056640625 0.1640625 0.0703125 0.1494140625
0 0.419921875 0.283203125 0.064453125 0.091796875
0 0.4736328125 0.2646484375 0.091796875 0.07421875
0 0.3671875 0.169921875 0.078125 0.07421875
0 0.341796875 0.42578125 0.0849609375 0.0625
0 0.4111328125 0.4072265625 0.1025390625 0.052734375
0 0.5146484375 0.4150390625 0.0947265625 0.06640625
0 0.4326171875 0.501953125 0.1064453125 0.0771484375
0 0.5751953125 0.55078125 0.0634765625 0.06640625
0 0.224609375 0.3837890625 0.056640625 0.109375
0 0.138671875 0.39453125 0.0869140625 0.0693359375
0 0.0 0.2353515625 0.0693359375 0.087890625
0 0.05078125 0.0 0.0517578125 0.083984375
0 0.0986328125 0.0 0.080078125 0.09765625
0 0.0 0.041015625 0.060546875 0.09765625
0 0.740234375 0.451171875 0.1025390625 0.0693359375
0 0.8544921875 0.404296875 0.0908203125 0.0830078125
0 0.8134765625 0.3427734375 0.0849609375 0.064453125
0 0.896484375 0.5263671875 0.103515625 0.072265625
0 0.8486328125 0.49609375 0.048828125 0.0615234375
0 0.9521484375 0.8818359375 0.0478515625 0.06640625
0 0.9189453125 0.744140625 0.0810546875 0.0703125
0 0.728515625 0.677734375 0.103515625 0.08203125
0 0.841796875 0.72265625 0.044921875 0.0576171875
0 0.9384765625 0.6962890625 0.0546875 0.05078125
0 0.9365234375 0.615234375 0.044921875 0.0439453125
0 0.75390625 0.572265625 0.064453125 0.0703125
0 0.400390625 0.69921875 0.080078125 0.06640625
0 0.3984375 0.615234375 0.1162109375 0.0654296875
0 0.2158203125 0.59375 0.138671875 0.0654296875
0 0.169921875 0.55078125 0.0634765625 0.0556640625
0 0.0830078125 0.6005859375 0.1064453125 0.0673828125
0 0.0 0.642578125 0.0546875 0.0361328125
0 0.0 0.5947265625 0.060546875 0.037109375
0 0.146484375 0.7373046875 0.0615234375 0.0556640625
0 0.0625 0.8349609375 0.078125 0.0439453125
0 0.20703125 0.8427734375 0.06640625 0.0810546875
0 0.3466796875 0.8671875 0.0869140625 0.0546875
0 0.4638671875 0.84375 0.0830078125 0.0712890625
0 0.423828125 0.9482421875 0.1181640625 0.0517578125
0 0.28515625 0.95703125 0.1220703125 0.04296875
0 0.0 0.9375 0.15234375 0.0625
0 0.1669921875 0.9453125 0.07421875 0.0546875
0 0.2060546875 0.927734375 0.0703125 0.0458984375
0 0.75 0.8212890625 0.099609375 0.0986328125
0 0.1201171875 0.0 0.0634765625 0.0576171875
0 0.279296875 0.5859375 0.0859375 0.076171875
0 0.8291015625 0.205078125 0.046875 0.0458984375
0 0.8779296875 0.1435546875 0.0673828125 0.0546875
0 0.0283203125 0.7109375 0.0517578125 0.0810546875
0 0.166015625 0.8544921875 0.1064453125 0.0771484375
0 0.6943359375 0.22265625 0.0673828125 0.0322265625
0 0.4072265625 0.560546875 0.056640625 0.0439453125
