0 0.130859375 0.0 0.0625 0.0517578125
0 0.0 0.1044921875 0.103515625 0.1083984375
0 0.80859375 0.001953125 0.1337890625 0.126953125
0 0.6435546875 0.08984375 0.0888671875 0.095703125
0 0.7451171875 0.193359375 0.1298828125 0.0927734375
0 0.6455078125 0.2919921875 0.12890625 0.09765625
0 0.626953125 0.43359375 0.1689453125 0.0888671875
0 0.568359375 0.5341796875 0.134765625 0.0810546875
0 0.4150390625 0.3857421875 0.13671875 0.0986328125
0 0.2783203125 0.3017578125 0.1572265625 0.1015625
0 0.224609375 0.22265625 0.140625 0.0810546875
0 0.4306640625 0.1787109375 0.1298828125 0.09765625
0 0.8896484375 0.3818359375 0.1103515625 0.0927734375
0 0.8837890625 0.2783203125 0.0869140625 0.0771484375
0 0.962890625 0.462890625 0.037109375 0.0771484375
0 0.7939453125 0.59375 0.12890625 0.14453125
0 0.7646484375 0.708984375 0.0908203125 0.0615234375
0 0.9404296875 0.7744140625 0.0595703125 0.119140625
0 0.6572265625 0.7939453125 0.1328125 0.076171875
0 0.4033203125 0.7861328125 0.134765625 0.0810546875
0 0.2919921875 0.8955078125 0.150390625 0.0751953125
0 0.583984375 0.8876953125 0.111328125 0.0732421875
0 0.5302734375 0.95703125 0.0888671875 0.04296875
0 0.328125 0.6591796875 0.0966796875 0.0791015625
0 0.3720703125 0.607421875 0.0869140625 0.0654296875
0 0.107421875 0.48828125 0.10546875 0.1435546875
0 0.0361328125 0.6201171875 0.138671875 0.0966796875
0 0.185546875 0.7783203125 0.1083984375 0.09375
0 0.181640625 0.68359375 0.126953125 0.072265625
0 0.0 0.3896484375 0.1171875 0.107421875
0 0.7744140625 0.294921875 0.123046875 0.0849609375
0 0.716796875 0.8212890625 0.1826171875 0.142578125
0 0.9013671875 0.931640625 0.0859375 0.068359375
