0 0.0 0.8232421875 0.025390625 0.1630859375
0 0.0 0.3564453125 0.01953125 0.056640625
0 0.15234375 0.2578125 0.087890625 0.0615234375
0 0.0673828125 0.4560546875 0.0703125 0.1357421875
0 0.1748046875 0.5185546875 0.078125 0.0986328125
0 0.2783203125 0.4716796875 0.11328125 0.068359375
0 0.2861328125 0.5517578125 0.1376953125 0.0927734375
0 0.0 0.7021484375 0.1689453125 0.099609375
0 0.0361328125 0.74609375 0.1328125 0.1796875
0 0.322265625 0.787109375 0.123046875 0.1005859375
0 0.2890625 0.7060546875 0.2158203125 0.125
0 0.2275390625 0.931640625 0.0751953125 0.068359375
0 0.375 0.875 0.0869140625 0.125
0 0.5185546875 0.8486328125 0.0517578125 0.1513671875
0 0.4853515625 0.4501953125 0.1044921875 0.1142578125
0 0.39453125 0.2255859375 0.0869140625 0.10546875
0 0.330078125 0.302734375 0.07421875 0.0595703125
0 0.2880859375 0.1640625 0.095703125 0.109375
0 0.2333984375 0.212890625 0.0498046875 0.076171875
0 0.162109375 0.1279296875 0.078125 0.0703125
0 0.134765625 0.078125 0.052734375 0.0380859375
0 0.162109375 0.0 0.1337890625 0.02734375
0 0.26953125 0.044921875 0.1337890625 0.1201171875
0 0.302734375 0.0400390625 0.0849609375 0.05078125
0 0.341796875 0.0 0.12109375 0.0244140625
0 0.4462890625 0.0625 0.0634765625 0.0927734375
0 0.4873046875 0.001953125 0.05859375 0.09765625
0 0.0 0.1259765625 0.0302734375 0.09765625
0 0.0126953125 0.18359375 0.05078125 0.087890625
0 0.0 0.0712890625 0.0712890625 0.064453125
0 0.0 0.486328125 0.0673828125 0.05078125
0 0.0 0.49609375 0.048828125 0.1826171875
0 0.54296875 0.0234375 0.05859375 0.0771484375
0 0.5732421875 0.0 0.087890625 0.037109375
0 0.6708984375 0.0244140625 0.0673828125 0.0595703125
0 0.5361328125 0.0 0.0625 0.0439453125
0 0.8505859375 0.0498046875 0.0751953125 0.0576171875
0 0.81640625 0.1123046875 0.1220703125 0.099609375
0 0.6142578125 0.2373046875 0.1064453125 0.0615234375
0 0.69921875 0.3193359375 0.0537109375 0.0478515625
0 0.6376953125 0.349609375 0.0576171875 0.087890625
0 0.6748046875 0.369140625 0.05078125 0.076171875
0 0.5546875 0.3828125 0.0869140625 0.078125
0 0.76171875 0.3984375 0.1142578125 0.0869140625
0 0.80078125 0.544921875 0.14453125 0.0751953125
0 0.73046875 0.56640625 0.138671875 0.1630859375
0 0.8984375 0.4755859375 0.076171875 0.0869140625
0 0.7734375 0.2802734375 0.1416015625 0.0966796875
0 0.849609375 0.2939453125 0.1298828125 0.09765625
0 0.583984375 0.8427734375 0.0771484375 0.1533203125
0 0.9091796875 0.7939453125 0.0908203125 0.146484375
0 0.923828125 0.2412109375 0.076171875 0.0546875
