0 0.44921875 0.16796875 0.08203125 0.109375
0 0.4580078125 0.607421875 0.1044921875 0.0830078125
0 0.5517578125 0.0078125 0.0771484375 0.103515625
0 0.5419921875 0.9052734375 0.1005859375 0.0712890625
0 0.8017578125 0.3154296875 0.083984375 0.091796875
0 0.5244140625 0.201171875 0.09375 0.0673828125
0 0.8125 0.4619140625 0.08203125 0.05078125
0 0.703125 0.0 0.0751953125 0.0810546875
0 0.19140625 0.296875 0.126953125 0.0810546875
0 0.2861328125 0.443359375 0.126953125 0.0537109375
0 0.6484375 0.0 0.03515625 0.056640625
0 0.423828125 0.505859375 0.041015625 0.0830078125
0 0.0205078125 0.7998046875 0.0986328125 0.0810546875
0 0.474609375 0.4931640625 0.1474609375 0.0625
0 0.62890625 0.4638671875 0.11328125 0.05859375
0 0.1103515625 0.6650390625 0.0888671875 0.0458984375
0 0.4609375 0.423828125 0.09765625 0.0771484375
0 0.20703125 0.9287109375 0.0595703125 0.0712890625
0 0.376953125 0.8896484375 0.1181640625 0.0771484375
0 0.7490234375 0.12890625 0.08203125 0.0888671875
0 0.712890625 0.3818359375 0.09765625 0.056640625
0 0.85546875 0.23046875 0.1220703125 0.1376953125
0 0.5283203125 0.59765625 0.1123046875 0.044921875
0 0.7890625 0.5537109375 0.091796875 0.07421875
0 0.666015625 0.146484375 0.1318359375 0.109375
0 0.3369140625 0.767578125 0.1513671875 0.16796875
0 0.2314453125 0.943359375 0.091796875 0.037109375
0 0.7392578125 0.1103515625 0.142578125 0.0517578125
0 0.9345703125 0.6142578125 0.0654296875 0.0693359375
0 0.3251953125 0.615234375 0.115234375 0.0419921875
0 0.0791015625 0.1044921875 0.1044921875 0.0947265625
0 0.45703125 0.548828125 0.146484375 0.056640625
0 0.9775390625 0.53125 0.0224609375 0.0283203125
0 0.232421875 0.111328125 0.169921875 0.0703125
0 0.3271484375 0.716796875 0.083984375 0.033203125
0 0.1962890625 0.8681640625 0.0517578125 0.0673828125
0 0.0869140625 0.9072265625 0.076171875 0.0419921875
0 0.1396484375 0.9033203125 0.09375 0.0546875
0 0.6806640625 0.54296875 0.072265625 0.0634765625
0 0.80859375 0.599609375 0.0859375 0.05078125
0 0.318359375 0.82421875 0.173828125 0.060546875
0 0.0 0.6171875 0.109375 0.0439453125
0 0.9052734375 0.802734375 0.0947265625 0.0517578125
0 0.34765625 0.2509765625 0.130859375 0.0419921875
0 0.548828125 0.7783203125 0.0849609375 0.037109375
0 0.3671875 0.7021484375 0.0673828125 0.025390625
0 0.0009765625 0.919921875 0.044921875 0.0458984375
0 0.888671875 0.677734375 0.111328125 0.0615234375
0 0.97265625 0.2763671875 0.02734375 0.060546875
0 0.0 0.5361328125 0.0830078125 0.048828125
0 0.09375 0.1220703125 0.18359375 0.0703125
0 0.1982421875 0.658203125 0.103515625 0.048828125
0 0.7041015625 0.36328125 0.2958984375 0.09375
0 0.5771484375 0.6376953125 0.0546875 0.044921875
