0 0.7919921875 0.50390625 0.0751953125 0.1005859375
0 0.703125 0.1376953125 0.0947265625 0.083984375
0 0.6513671875 0.1259765625 0.0712890625 0.0712890625
0 0.7197265625 0.48046875 0.0693359375 0.0869140625
0 0.8095703125 0.0 0.083984375 0.056640625
0 0.9443359375 0.69921875 0.0556640625 0.044921875
0 0.8896484375 0.611328125 0.1103515625 0.07421875
0 0.5478515625 0.455078125 0.0732421875 0.0791015625
0 0.068359375 0.0 0.0986328125 0.0751953125
0 0.7353515625 0.056640625 0.080078125 0.0791015625
0 0.7490234375 0.271484375 0.05078125 0.0654296875
0 0.853515625 0.21484375 0.1005859375 0.080078125
0 0.0537109375 0.1357421875 0.11328125 0.0546875
0 0.6259765625 0.86328125 0.0556640625 0.0712890625
0 0.70703125 0.5498046875 0.078125 0.056640625
0 0.056640625 0.8095703125 0.099609375 0.0947265625
0 0.408203125 0.1318359375 0.111328125 0.087890625
0 0.6103515625 0.3212890625 0.0966796875 0.05859375
0 0.1943359375 0.044921875 0.0751953125 0.0693359375
0 0.7470703125 0.8134765625 0.1279296875 0.04296875
0 0.58984375 0.380859375 0.0927734375 0.0498046875
0 0.3916015625 0.068359375 0.1064453125 0.111328125
0 0.23828125 0.927734375 0.099609375 0.0478515625
0 0.544921875 0.0185546875 0.0654296875 0.0498046875
0 0.0166015625 0.3818359375 0.1083984375 0.0947265625
0 0.373046875 0.609375 0.064453125 0.0517578125
0 0.2587890625 0.34765625 0.1015625 0.0537109375
0 0.326171875 0.771484375 0.076171875 0.0634765625
0 0.302734375 0.8896484375 0.0888671875 0.0537109375
0 0.1259765625 0.498046875 0.1171875 0.0546875
0 0.8544921875 0.0810546875 0.06640625 0.060546875
0 0.2529296875 0.4287109375 0.11328125 0.1064453125
0 0.2421875 0.505859375 0.10546875 0.060546875
0 0.150390625 0.9619140625 0.099609375 0.03125
0 0.728515625 0.9306640625 0.0810546875 0.0341796875
0 0.595703125 0.224609375 0.078125 0.1025390625
0 0.138671875 0.013671875 0.1494140625 0.041015625
0 0.421875 0.4052734375 0.1015625 0.0546875
0 0.40234375 0.4287109375 0.0625 0.08984375
0 0.373046875 0.662109375 0.107421875 0.0791015625
0 0.8544921875 0.908203125 0.0810546875 0.033203125
0 0.7958984375 0.876953125 0.052734375 0.037109375
0 0.9033203125 0.140625 0.080078125 0.0478515625
0 0.95703125 0.1884765625 0.04296875 0.0390625
0 0.41015625 0.0556640625 0.103515625 0.0908203125
0 0.001953125 0.6181640625 0.1005859375 0.03515625
0 0.9541015625 0.525390625 0.0458984375 0.0712890625
0 0.0380859375 0.2529296875 0.0869140625 0.0361328125
0 0.64453125 0.7294921875 0.064453125 0.0703125
0 0.8212890625 0.591796875 0.06640625 0.0400390625
0 0.658203125 0.57421875 0.0703125 0.0322265625
0 0.9833984375 0.796875 0.0166015625 0.0244140625
0 0.06640625 0.7763671875 0.0966796875 0.05078125
0 0.150390625 0.5419921875 0.0625 0.05859375
0 0.107421875 0.2099609375 0.123046875 0.0576171875
0 0.4111328125 0.4384765625 0.0634765625 0.0439453125
0 0.44140625 0.9326171875 0.07421875 0.044921875
0 0.2998046875 0.294921875 0.083984375 0.0439453125
0 0.0498046875 0.9736328125 0.080078125 0.0263671875
0 0.2109375 0.7490234375 0.0703125 0.044921875
0 0.5517578125 0.8212890625 0.1328125 0.0791015625
0 0.6875 0.4970703125 0.0517578125 0.0380859375
0 0.07421875 0.2236328125 0.06640625 0.052734375
0 0.08984375 0.751953125 0.08203125 0.041015625
0 0.0 0.0 0.0341796875 0.033203125
0 0.734375 0.7080078125 0.0712890625 0.0341796875
0 0.2373046875 0.2373046875 0.076171875 0.0439453125
0 0.5908203125 0.80078125 0.1015625 0.037109375
0 0.072265625 0.685546875 0.0673828125 0.033203125
0 0.0 0.7158203125 0.04296875 0.044921875
0 0.3310546875 0.3525390625 0.09375 0.0693359375
0 0.0146484375 0.6953125 0.1044921875 0.0615234375
0 0.2705078125 0.3623046875 0.0751953125 0.044921875
