0 0.9833984375 0.341796875 0.0166015625 0.1044921875
0 0.6728515625 0.369140625 0.0869140625 0.0888671875
0 0.7060546875 0.1171875 0.15625 0.1103515625
0 0.8876953125 0.2060546875 0.1123046875 0.0966796875
0 0.2646484375 0.1298828125 0.1171875 0.0908203125
0 0.3857421875 0.2353515625 0.099609375 0.083984375
0 0.4970703125 0.33203125 0.1044921875 0.09765625
0 0.16015625 0.212890625 0.126953125 0.1142578125
0 0.0 0.2685546875 0.0126953125 0.0859375
0 0.0810546875 0.60546875 0.060546875 0.0634765625
0 0.1298828125 0.685546875 0.138671875 0.1103515625
0 0.3017578125 0.779296875 0.119140625 0.1083984375
0 0.5869140625 0.859375 0.1005859375 0.111328125
0 0.72265625 0.6923828125 0.11328125 0.072265625
0 0.0 0.9541015625 0.0751953125 0.0458984375
0 0.109375 0.3271484375 0.09765625 0.107421875
0 0.29296875 0.3076171875 0.06640625 0.1064453125
0 0.216796875 0.4609375 0.0625 0.0693359375
0 0.263671875 0.484375 0.0595703125 0.0771484375
0 0.173828125 0.587890625 0.0576171875 0.0693359375
0 0.0 0.0 0.0400390625 0.05859375
0 0.0 0.9248046875 0.08984375 0.0498046875
0 0.4033203125 0.4189453125 0.09375 0.068359375
0 0.37890625 0.568359375 0.0986328125 0.10546875
0 0.4267578125 0.736328125 0.07421875 0.068359375
0 0.2314453125 0.6689453125 0.072265625 0.078125
0 0.0498046875 0.568359375 0.08984375 0.04296875
0 0.822265625 0.5615234375 0.080078125 0.119140625
0 0.7978515625 0.54296875 0.0537109375 0.126953125
0 0.7353515625 0.302734375 0.123046875 0.0810546875
0 0.8017578125 0.0 0.0810546875 0.044921875
0 0.7998046875 0.0712890625 0.05859375 0.0361328125
0 0.58984375 0.6962890625 0.111328125 0.0556640625
0 0.720703125 0.751953125 0.138671875 0.0732421875
0 0.0 0.53125 0.041015625 0.046875
