0 0.2373046875 0.63671875 0.1123046875 0.0849609375
0 0.7197265625 0.0 0.0869140625 0.0390625
0 0.2822265625 0.7216796875 0.107421875 0.078125
0 0.8046875 0.0048828125 0.1123046875 0.0595703125
0 0.0 0.4697265625 0.0693359375 0.099609375
0 0.2900390625 0.091796875 0.10546875 0.0595703125
0 0.6845703125 0.509765625 0.087890625 0.0751953125
0 0.6474609375 0.4345703125 0.1396484375 0.0673828125
0 0.3671875 0.0390625 0.15234375 0.0703125
0 0.0693359375 0.2734375 0.0751953125 0.0595703125
0 0.2744140625 0.5947265625 0.177734375 0.0595703125
0 0.091796875 0.134765625 0.072265625 0.0625
0 0.8017578125 0.3896484375 0.1025390625 0.08203125
0 0.1318359375 0.7919921875 0.0625 0.1298828125
0 0.744140625 0.2216796875 0.1875 0.087890625
0 0.25 0.296875 0.0966796875 0.0673828125
0 0.0 0.7333984375 0.06640625 0.0654296875
0 0.484375 0.7919921875 0.0673828125 0.0546875
0 0.234375 0.794921875 0.1630859375 0.1220703125
0 0.5693359375 0.0625 0.0830078125 0.064453125
0 0.1337890625 0.4658203125 0.078125 0.1533203125
0 0.0146484375 0.609375 0.0595703125 0.060546875
0 0.7666015625 0.1748046875 0.1328125 0.0751953125
0 0.4921875 0.4296875 0.0576171875 0.08984375
0 0.5625 0.537109375 0.064453125 0.0927734375
0 0.19921875 0.3974609375 0.09765625 0.1123046875
0 0.3974609375 0.0947265625 0.107421875 0.052734375
0 0.4521484375 0.3095703125 0.072265625 0.0595703125
0 0.7890625 0.6298828125 0.0654296875 0.08984375
0 0.5966796875 0.4443359375 0.0673828125 0.0849609375
0 0.8994140625 0.2099609375 0.0849609375 0.056640625
0 0.58203125 0.7294921875 0.10546875 0.080078125
0 0.6298828125 0.7021484375 0.08984375 0.0595703125
0 0.7724609375 0.7890625 0.197265625 0.11328125
0 0.0390625 0.7919921875 0.087890625 0.0830078125
0 0.64453125 0.0390625 0.052734375 0.0654296875
0 0.537109375 0.625 0.1728515625 0.07421875
0 0.212890625 0.8525390625 0.0751953125 0.14453125
0 0.3896484375 0.2041015625 0.0869140625 0.1025390625
0 0.501953125 0.1748046875 0.087890625 0.064453125
0 0.5498046875 0.21484375 0.1669921875 0.0498046875
0 0.7568359375 0.912109375 0.0751953125 0.087890625
0 0.5595703125 0.7822265625 0.0595703125 0.0595703125
0 0.884765625 0.6748046875 0.115234375 0.064453125
0 0.0 0.197265625 0.0478515625 0.0458984375
0 0.3046875 0.2041015625 0.1298828125 0.068359375
0 0.26953125 0.2548828125 0.0546875 0.0517578125
0 0.001953125 0.13671875 0.0654296875 0.05078125
0 0.8623046875 0.0 0.09765625 0.0419921875
0 0.6044921875 0.572265625 0.0595703125 0.1376953125
0 0.0 0.8515625 0.0244140625 0.080078125
0 0.7392578125 0.6123046875 0.0849609375 0.0595703125
0 0.01171875 0.841796875 0.078125 0.1181640625
0 0.8896484375 0.3173828125 0.1044921875 0.0341796875
0 0.0 0.2734375 0.068359375 0.0595703125
0 0.119140625 0.5322265625 0.04296875 0.1318359375
0 0.14453125 0.5341796875 0.0400390625 0.107421875
0 0.8017578125 0.9169921875 0.09765625 0.080078125
0 0.875 0.876953125 0.125 0.09765625
0 0.2724609375 0.4599609375 0.07421875 0.0791015625
0 0.65234375 0.1943359375 0.0576171875 0.1025390625
0 0.9091796875 0.0419921875 0.03515625 0.099609375
0 0.7568359375 0.279296875 0.1572265625 0.0478515625
0 0.0 0.2353515625 0.072265625 0.0390625
