0 0.0 0.9345703125 0.0673828125 0.0654296875
0 0.080078125 0.888671875 0.0654296875 0.0625
0 0.0166015625 0.6669921875 0.0732421875 0.064453125
0 0.2255859375 0.607421875 0.0693359375 0.109375
0 0.3193359375 0.7470703125 0.080078125 0.0673828125
0 0.3720703125 0.90625 0.07421875 0.087890625
0 0.44921875 0.853515625 0.0751953125 0.0771484375
0 0.4560546875 0.7841796875 0.0859375 0.076171875
0 0.5087890625 0.8798828125 0.0654296875 0.0615234375
0 0.052734375 0.7822265625 0.0673828125 0.0634765625
0 0.57421875 0.6875 0.0693359375 0.076171875
0 0.62890625 0.7138671875 0.1201171875 0.080078125
0 0.798828125 0.8173828125 0.080078125 0.0712890625
0 0.7275390625 0.859375 0.15234375 0.0869140625
0 0.802734375 0.9375 0.0576171875 0.0625
0 0.69921875 0.95703125 0.0712890625 0.04296875
0 0.8828125 0.791015625 0.095703125 0.0810546875
0 0.8212890625 0.375 0.0810546875 0.0869140625
0 0.755859375 0.2822265625 0.08203125 0.0791015625
0 0.701171875 0.228515625 0.0771484375 0.08984375
0 0.6142578125 0.2529296875 0.0712890625 0.0654296875
0 0.5615234375 0.326171875 0.0830078125 0.072265625
0 0.404296875 0.2744140625 0.0859375 0.0830078125
0 0.3232421875 0.3369140625 0.068359375 0.0751953125
0 0.216796875 0.3193359375 0.1025390625 0.06640625
0 0.142578125 0.359375 0.1103515625 0.10546875
0 0.0 0.2255859375 0.044921875 0.0908203125
0 0.009765625 0.0419921875 0.1103515625 0.12890625
0 0.267578125 0.1298828125 0.0927734375 0.1025390625
0 0.392578125 0.1181640625 0.091796875 0.1318359375
0 0.255859375 0.009765625 0.08984375 0.0869140625
0 0.435546875 0.2705078125 0.1015625 0.1171875
0 0.27734375 0.8857421875 0.05078125 0.0546875
