0 0.02734375 0.841796875 0.0693359375 0.14453125
0 0.119140625 0.7841796875 0.1123046875 0.068359375
0 0.2216796875 0.8037109375 0.06640625 0.1220703125
0 0.3544921875 0.8876953125 0.07421875 0.0771484375
0 0.376953125 0.7734375 0.064453125 0.1083984375
0 0.5224609375 0.9560546875 0.1025390625 0.0439453125
0 0.416015625 0.6767578125 0.0712890625 0.08203125
0 0.5751953125 0.85546875 0.0654296875 0.0556640625
0 0.65625 0.880859375 0.072265625 0.0576171875
0 0.673828125 0.568359375 0.05859375 0.0595703125
0 0.318359375 0.6064453125 0.0546875 0.0517578125
0 0.419921875 0.509765625 0.052734375 0.0517578125
0 0.435546875 0.5615234375 0.08203125 0.048828125
0 0.318359375 0.4921875 0.0947265625 0.072265625
0 0.1708984375 0.564453125 0.0751953125 0.0634765625
0 0.115234375 0.5693359375 0.056640625 0.0771484375
0 0.04296875 0.552734375 0.0498046875 0.0498046875
0 0.0478515625 0.486328125 0.0751953125 0.0625
0 0.091796875 0.40234375 0.0693359375 0.072265625
0 0.0 0.2333984375 0.0576171875 0.05859375
0 0.1943359375 0.265625 0.0537109375 0.0625
0 0.2529296875 0.3203125 0.0634765625 0.1064453125
0 0.3349609375 0.35546875 0.0751953125 0.0859375
0 0.375 0.4306640625 0.056640625 0.068359375
0 0.4375 0.2197265625 0.0537109375 0.0771484375
0 0.41796875 0.234375 0.0625 0.099609375
0 0.33984375 0.107421875 0.072265625 0.0537109375
0 0.53515625 0.1630859375 0.080078125 0.091796875
0 0.56640625 0.310546875 0.0595703125 0.0947265625
0 0.5869140625 0.4638671875 0.0732421875 0.0712890625
0 0.66015625 0.41015625 0.0634765625 0.068359375
0 0.7626953125 0.220703125 0.09375 0.140625
0 0.67578125 0.12890625 0.0673828125 0.05859375
0 0.8134765625 0.75390625 0.0947265625 0.1181640625
0 0.857421875 0.9462890625 0.0673828125 0.0537109375
0 0.9482421875 0.1416015625 0.0517578125 0.0673828125
0 0.87109375 0.1484375 0.05078125 0.0556640625
0 0.8759765625 0.0166015625 0.08984375 0.0625
0 0.509765625 0.013671875 0.0673828125 0.0771484375
0 0.455078125 0.611328125 0.0380859375 0.03515625
