0 0.90625 0.2685546875 0.09375 0.0859375
0 0.9033203125 0.44921875 0.091796875 0.1005859375
0 0.8173828125 0.5185546875 0.0947265625 0.09375
0 0.7001953125 0.5712890625 0.15625 0.099609375
0 0.47265625 0.4462890625 0.150390625 0.1455078125
0 0.7548828125 0.3271484375 0.0908203125 0.0771484375
0 0.2685546875 0.16015625 0.11328125 0.080078125
0 0.1376953125 0.646484375 0.1494140625 0.1103515625
0 0.271484375 0.8251953125 0.1201171875 0.115234375
0 0.470703125 0.75 0.083984375 0.08984375
0 0.0673828125 0.845703125 0.12890625 0.087890625
0 0.1767578125 0.13671875 0.0966796875 0.1455078125
0 0.0791015625 0.2998046875 0.0849609375 0.087890625
0 0.140625 0.3779296875 0.07421875 0.0849609375
0 0.0302734375 0.4228515625 0.0791015625 0.0654296875
0 0.0 0.4775390625 0.0673828125 0.0791015625
0 0.283203125 0.4462890625 0.064453125 0.0771484375
0 0.390625 0.423828125 0.0556640625 0.0791015625
0 0.30859375 0.392578125 0.0615234375 0.0595703125
0 0.328125 0.341796875 0.1484375 0.0966796875
0 0.6259765625 0.48046875 0.0615234375 0.06640625
0 0.810546875 0.4501953125 0.0419921875 0.0458984375
0 0.4521484375 0.240234375 0.1005859375 0.09375
0 0.5478515625 0.1064453125 0.068359375 0.046875
0 0.5048828125 0.0 0.1171875 0.0595703125
0 0.8662109375 0.318359375 0.0556640625 0.0673828125
0 0.8798828125 0.21484375 0.0693359375 0.0634765625
0 0.796875 0.0673828125 0.0947265625 0.0576171875
0 0.9501953125 0.0 0.0498046875 0.05859375
0 0.7529296875 0.0 0.1376953125 0.0380859375
0 0.826171875 0.017578125 0.0732421875 0.0537109375
0 0.37109375 0.5966796875 0.1806640625 0.095703125
0 0.5234375 0.697265625 0.0615234375 0.064453125
0 0.7451171875 0.7451171875 0.08984375 0.0625
0 0.755859375 0.8642578125 0.068359375 0.0693359375
0 0.896484375 0.84765625 0.0771484375 0.0458984375
0 0.5595703125 0.8525390625 0.080078125 0.115234375
0 0.458984375 0.8779296875 0.0625 0.0419921875
0 0.4091796875 0.9130859375 0.0927734375 0.0751953125
0 0.0 0.2109375 0.1201171875 0.109375
0 0.0 0.05078125 0.072265625 0.1025390625
0 0.0 0.2255859375 0.125 0.087890625
