0 0.8095703125 0.3017578125 0.115234375 0.087890625
0 0.3544921875 0.2744140625 0.072265625 0.087890625
0 0.0693359375 0.224609375 0.0849609375 0.1025390625
0 0.8125 0.0 0.14453125 0.001953125
0 0.224609375 0.3623046875 0.099609375 0.072265625
0 0.6748046875 0.609375 0.0673828125 0.1455078125
0 0.0517578125 0.744140625 0.0849609375 0.1533203125
0 0.1474609375 0.0390625 0.154296875 0.0703125
0 0.4267578125 0.3623046875 0.087890625 0.0771484375
0 0.0419921875 0.5419921875 0.087890625 0.1728515625
0 0.0439453125 0.0 0.171875 0.0859375
0 0.0498046875 0.119140625 0.0595703125 0.0830078125
0 0.4296875 0.0 0.1572265625 0.0498046875
0 0.7744140625 0.384765625 0.125 0.16015625
0 0.8994140625 0.0869140625 0.1005859375 0.0751953125
0 0.3291015625 0.0869140625 0.09765625 0.0703125
0 0.5244140625 0.40234375 0.16015625 0.1220703125
0 0.607421875 0.662109375 0.0771484375 0.099609375
0 0.8720703125 0.654296875 0.107421875 0.0830078125
0 0.58203125 0.0 0.0771484375 0.044921875
0 0.7666015625 0.08984375 0.1279296875 0.134765625
0 0.4765625 0.2392578125 0.1005859375 0.0830078125
0 0.3505859375 0.8662109375 0.1279296875 0.1337890625
0 0.314453125 0.1943359375 0.087890625 0.0673828125
0 0.306640625 0.0322265625 0.0703125 0.0576171875
0 0.5791015625 0.2744140625 0.2275390625 0.0947265625
0 0.6298828125 0.76953125 0.091796875 0.1103515625
0 0.171875 0.125 0.0654296875 0.0693359375
0 0.1015625 0.08984375 0.068359375 0.0595703125
0 0.2998046875 0.564453125 0.3017578125 0.2021484375
0 0.224609375 0.5048828125 0.142578125 0.1474609375
0 0.67578125 0.8720703125 0.1279296875 0.1279296875
0 0.13671875 0.619140625 0.16796875 0.193359375
0 0.7470703125 0.169921875 0.0771484375 0.080078125
0 0.625 0.0 0.1494140625 0.037109375
0 0.806640625 0.8671875 0.1005859375 0.1298828125
0 0.1328125 0.80859375 0.0751953125 0.19140625
0 0.537109375 0.2294921875 0.1103515625 0.0654296875
0 0.8798828125 0.8447265625 0.0947265625 0.1376953125
0 0.1396484375 0.607421875 0.115234375 0.126953125
0 0.859375 0.76171875 0.140625 0.1005859375
0 0.501953125 0.8779296875 0.1669921875 0.1220703125
0 0.4794921875 0.169921875 0.2724609375 0.1171875
0 0.4423828125 0.669921875 0.1650390625 0.13671875
0 0.9267578125 0.0 0.0732421875 0.0517578125
0 0.2373046875 0.7724609375 0.0576171875 0.0771484375
0 0.9443359375 0.412109375 0.0556640625 0.080078125
0 0.939453125 0.484375 0.060546875 0.0654296875
0 0.90234375 0.5390625 0.0673828125 0.0380859375
