0 0.30078125 0.80078125 0.048828125 0.060546875
0 0.7353515625 0.6865234375 0.0625 0.0400390625
0 0.3203125 0.8515625 0.12109375 0.07421875
0 0.6005859375 0.78515625 0.087890625 0.091796875
0 0.6884765625 0.0 0.1220703125 0.0595703125
0 0.0 0.7734375 0.072265625 0.048828125
0 0.3291015625 0.1787109375 0.109375 0.0810546875
0 0.515625 0.0888671875 0.0888671875 0.09765625
0 0.0615234375 0.8427734375 0.0986328125 0.0341796875
0 0.779296875 0.087890625 0.060546875 0.0419921875
0 0.009765625 0.109375 0.09765625 0.0546875
0 0.0 0.7451171875 0.12109375 0.0703125
0 0.599609375 0.13671875 0.095703125 0.0966796875
0 0.490234375 0.1044921875 0.068359375 0.0712890625
0 0.7919921875 0.6015625 0.083984375 0.05078125
0 0.4384765625 0.380859375 0.05078125 0.0703125
0 0.3291015625 0.498046875 0.1123046875 0.083984375
0 0.0361328125 0.87109375 0.119140625 0.1279296875
0 0.353515625 0.935546875 0.1484375 0.056640625
0 0.0009765625 0.9541015625 0.0791015625 0.044921875
0 0.9296875 0.6787109375 0.0703125 0.0390625
0 0.3681640625 0.380859375 0.0615234375 0.0498046875
0 0.9111328125 0.2021484375 0.048828125 0.060546875
0 0.884765625 0.8984375 0.056640625 0.0400390625
0 0.5625 0.24609375 0.0810546875 0.060546875
0 0.04296875 0.373046875 0.05859375 0.083984375
0 0.49609375 0.91796875 0.126953125 0.0654296875
0 0.173828125 0.2421875 0.087890625 0.044921875
0 0.546875 0.5888671875 0.1162109375 0.0986328125
0 0.3017578125 0.0234375 0.130859375 0.0439453125
0 0.107421875 0.8681640625 0.068359375 0.0283203125
0 0.7060546875 0.7001953125 0.0810546875 0.07421875
0 0.2509765625 0.8017578125 0.0888671875 0.0556640625
0 0.0 0.2568359375 0.0986328125 0.0576171875
0 0.40625 0.650390625 0.1083984375 0.048828125
0 0.673828125 0.162109375 0.0400390625 0.064453125
0 0.736328125 0.189453125 0.1328125 0.1015625
0 0.42578125 0.3271484375 0.0625 0.0478515625
0 0.2578125 0.1796875 0.0712890625 0.09765625
0 0.0224609375 0.2900390625 0.0966796875 0.068359375
0 0.279296875 0.9541015625 0.07421875 0.0458984375
0 0.4736328125 0.8046875 0.087890625 0.0771484375
0 0.7587890625 0.482421875 0.1162109375 0.0947265625
0 0.5927734375 0.8701171875 0.107421875 0.0869140625
0 0.904296875 0.2373046875 0.0458984375 0.0380859375
0 0.80078125 0.115234375 0.09375 0.1103515625
0 0.5703125 0.453125 0.09375 0.0673828125
0 0.2919921875 0.3291015625 0.048828125 0.046875
0 0.744140625 0.5283203125 0.0947265625 0.05078125
0 0.8056640625 0.7607421875 0.1005859375 0.087890625
0 0.7861328125 0.2138671875 0.103515625 0.0751953125
0 0.1640625 0.28515625 0.1064453125 0.18359375
0 0.0908203125 0.529296875 0.0703125 0.0498046875
0 0.51171875 0.75 0.1337890625 0.103515625
0 0.365234375 0.0009765625 0.0478515625 0.0263671875
0 0.31640625 0.224609375 0.05859375 0.064453125
0 0.4306640625 0.603515625 0.0869140625 0.05859375
0 0.00390625 0.658203125 0.1357421875 0.0478515625
0 0.26171875 0.08203125 0.091796875 0.0654296875
0 0.1162109375 0.2529296875 0.0419921875 0.0390625
