0 0.46484375 0.1630859375 0.072265625 0.095703125
0 0.8662109375 0.8486328125 0.099609375 0.0634765625
0 0.0166015625 0.068359375 0.0986328125 0.09765625
0 0.4658203125 0.224609375 0.0693359375 0.087890625
0 0.75 0.064453125 0.0869140625 0.0751953125
0 0.103515625 0.50390625 0.0986328125 0.0576171875
0 0.6796875 0.1357421875 0.0771484375 0.0703125
0 0.6943359375 0.5009765625 0.078125 0.0771484375
0 0.3857421875 0.0087890625 0.0712890625 0.0498046875
0 0.0 0.8359375 0.095703125 0.0419921875
0 0.2060546875 0.6171875 0.0556640625 0.04296875
0 0.2373046875 0.1142578125 0.1259765625 0.0732421875
0 0.642578125 0.203125 0.0732421875 0.0673828125
0 0.6025390625 0.4306640625 0.0625 0.07421875
0 0.18359375 0.1103515625 0.09375 0.076171875
0 0.015625 0.2119140625 0.0810546875 0.056640625
0 0.326171875 0.5166015625 0.0791015625 0.0498046875
0 0.880859375 0.0146484375 0.05078125 0.0693359375
0 0.486328125 0.3154296875 0.0859375 0.05078125
0 0.564453125 0.4248046875 0.0791015625 0.072265625
0 0.7412109375 0.1435546875 0.0712890625 0.1162109375
0 0.6474609375 0.44921875 0.0751953125 0.0517578125
0 0.712890625 0.2490234375 0.1005859375 0.044921875
0 0.9521484375 0.466796875 0.0478515625 0.056640625
0 0.0166015625 0.91796875 0.080078125 0.0322265625
0 0.96484375 0.2607421875 0.03515625 0.046875
0 0.5849609375 0.53125 0.0400390625 0.080078125
0 0.048828125 0.5029296875 0.080078125 0.052734375
0 0.677734375 0.6943359375 0.0546875 0.0966796875
0 0.9736328125 0.7939453125 0.0263671875 0.0439453125
0 0.96484375 0.20703125 0.03515625 0.064453125
0 0.859375 0.619140625 0.0732421875 0.03515625
0 0.033203125 0.3134765625 0.0712890625 0.0458984375
0 0.1826171875 0.2744140625 0.0634765625 0.046875
0 0.701171875 0.4345703125 0.0712890625 0.0478515625
0 0.0517578125 0.7451171875 0.0732421875 0.0654296875
0 0.521484375 0.0 0.0771484375 0.0302734375
0 0.755859375 0.0 0.0595703125 0.0458984375
0 0.8310546875 0.287109375 0.0712890625 0.05078125
0 0.6142578125 0.2802734375 0.0634765625 0.0458984375
0 0.423828125 0.2236328125 0.052734375 0.046875
0 0.0 0.169921875 0.056640625 0.0537109375
0 0.740234375 0.828125 0.08203125 0.041015625
0 0.279296875 0.6201171875 0.1025390625 0.044921875
0 0.1484375 0.5927734375 0.064453125 0.029296875
0 0.00390625 0.87890625 0.1044921875 0.0361328125
0 0.033203125 0.25 0.048828125 0.0625
0 0.19140625 0.880859375 0.0986328125 0.029296875
0 0.3623046875 0.8134765625 0.060546875 0.0380859375
0 0.2314453125 0.92578125 0.083984375 0.029296875
0 0.4716796875 0.5517578125 0.09375 0.048828125
0 0.5556640625 0.0283203125 0.076171875 0.0283203125
0 0.388671875 0.9345703125 0.0576171875 0.0458984375
0 0.369140625 0.556640625 0.05078125 0.0517578125
0 0.13671875 0.787109375 0.0859375 0.037109375
0 0.123046875 0.294921875 0.083984375 0.0390625
0 0.478515625 0.5966796875 0.076171875 0.0419921875
0 0.4775390625 0.873046875 0.107421875 0.0400390625
0 0.40625 0.2607421875 0.0693359375 0.0341796875
0 0.400390625 0.9423828125 0.0751953125 0.033203125
0 0.3251953125 0.0380859375 0.0458984375 0.0302734375
0 0.2763671875 0.4501953125 0.064453125 0.0478515625
0 0.12890625 0.208984375 0.0712890625 0.048828125
0 0.63671875 0.603515625 0.0615234375 0.0380859375
0 0.818359375 0.8154296875 0.0341796875 0.05859375
0 0.2529296875 0.2744140625 0.041015625 0.0341796875
0 0.1845703125 0.888671875 0.046875 0.0263671875
0 0.4580078125 0.615234375 0.0771484375 0.041015625
0 0.5673828125 0.0 0.0712890625 0.0234375
0 0.2421875 0.91796875 0.06640625 0.0244140625
0 0.41796875 0.88671875 0.056640625 0.0380859375
0 0.3564453125 0.85546875 0.115234375 0.04296875
0 0.5087890625 0.0 0.060546875 0.060546875
0 0.8798828125 0.5615234375 0.08203125 0.0537109375
0 0.7939453125 0.52734375 0.125 0.0849609375
