0 0.0 0.7548828125 0.041015625 0.06640625
0 0.07421875 0.7939453125 0.07421875 0.0732421875
0 0.0947265625 0.7265625 0.068359375 0.083984375
0 0.0 0.609375 0.060546875 0.1123046875
0 0.0927734375 0.609375 0.0654296875 0.0478515625
0 0.203125 0.7021484375 0.0654296875 0.0546875
0 0.0 0.4658203125 0.0322265625 0.0986328125
0 0.15234375 0.4287109375 0.0751953125 0.0537109375
0 0.08984375 0.3369140625 0.0654296875 0.0771484375
0 0.0888671875 0.25390625 0.07421875 0.0791015625
0 0.12890625 0.2314453125 0.0537109375 0.060546875
0 0.19921875 0.3798828125 0.0947265625 0.0849609375
0 0.2919921875 0.388671875 0.0869140625 0.0712890625
0 0.37109375 0.365234375 0.1083984375 0.07421875
0 0.40234375 0.59375 0.05859375 0.0712890625
0 0.306640625 0.7060546875 0.0810546875 0.0751953125
0 0.3583984375 0.77734375 0.125 0.103515625
0 0.2216796875 0.92578125 0.072265625 0.0693359375
0 0.3515625 0.931640625 0.0537109375 0.0458984375
0 0.38671875 0.8818359375 0.0693359375 0.06640625
0 0.30078125 0.2294921875 0.0859375 0.05859375
0 0.302734375 0.015625 0.078125 0.109375
0 0.462890625 0.005859375 0.080078125 0.05859375
0 0.0009765625 0.0537109375 0.0673828125 0.099609375
0 0.0849609375 0.1474609375 0.0517578125 0.05859375
0 0.76171875 0.0 0.060546875 0.0517578125
0 0.7880859375 0.068359375 0.08984375 0.072265625
0 0.9736328125 0.0068359375 0.0263671875 0.1103515625
0 0.826171875 0.24609375 0.072265625 0.0751953125
0 0.779296875 0.2646484375 0.060546875 0.060546875
0 0.6689453125 0.2392578125 0.064453125 0.07421875
0 0.525390625 0.265625 0.0751953125 0.068359375
0 0.599609375 0.2880859375 0.083984375 0.08984375
0 0.6630859375 0.3408203125 0.060546875 0.0751953125
0 0.7275390625 0.3876953125 0.06640625 0.0712890625
0 0.919921875 0.3505859375 0.0625 0.0654296875
0 0.896484375 0.3984375 0.056640625 0.0595703125
0 0.8125 0.46875 0.0732421875 0.056640625
0 0.6572265625 0.4951171875 0.06640625 0.078125
0 0.7880859375 0.509765625 0.07421875 0.07421875
0 0.8173828125 0.5625 0.0625 0.068359375
0 0.7099609375 0.6328125 0.1064453125 0.10546875
0 0.5654296875 0.8095703125 0.0869140625 0.08203125
0 0.6591796875 0.7763671875 0.0595703125 0.064453125
0 0.7109375 0.7890625 0.064453125 0.068359375
0 0.5869140625 0.8828125 0.0869140625 0.095703125
0 0.6533203125 0.869140625 0.0712890625 0.0517578125
0 0.7734375 0.916015625 0.0888671875 0.083984375
0 0.83203125 0.955078125 0.0712890625 0.044921875
0 0.212890625 0.90625 0.1044921875 0.068359375
0 0.236328125 0.8408203125 0.0751953125 0.0400390625
