0 0.0 0.484375 0.0869140625 0.13671875
0 0.23046875 0.908203125 0.1376953125 0.0673828125
0 0.3740234375 0.455078125 0.1435546875 0.1337890625
0 0.0009765625 0.3369140625 0.107421875 0.12890625
0 0.28515625 0.33984375 0.173828125 0.09765625
0 0.08203125 0.7158203125 0.134765625 0.0927734375
0 0.3466796875 0.134765625 0.150390625 0.125
0 0.6572265625 0.634765625 0.169921875 0.1015625
0 0.2041015625 0.39453125 0.09765625 0.2099609375
0 0.7646484375 0.26171875 0.1376953125 0.125
0 0.05078125 0.62890625 0.1591796875 0.0849609375
0 0.470703125 0.583984375 0.197265625 0.07421875
0 0.654296875 0.8564453125 0.2275390625 0.1220703125
0 0.056640625 0.8173828125 0.16015625 0.08203125
0 0.5732421875 0.791015625 0.1181640625 0.0625
0 0.26953125 0.9619140625 0.080078125 0.0380859375
0 0.2724609375 0.716796875 0.0927734375 0.078125
0 0.0 0.001953125 0.10546875 0.1708984375
0 0.765625 0.0546875 0.142578125 0.1552734375
0 0.7724609375 0.697265625 0.22265625 0.1318359375
0 0.0283203125 0.8857421875 0.150390625 0.07421875
0 0.6279296875 0.142578125 0.1572265625 0.099609375
0 0.3603515625 0.849609375 0.109375 0.0869140625
0 0.1767578125 0.001953125 0.1123046875 0.0830078125
0 0.4111328125 0.87890625 0.08984375 0.080078125
0 0.9169921875 0.2744140625 0.0810546875 0.1533203125
0 0.6474609375 0.001953125 0.1025390625 0.037109375
