0 0.1748046875 0.45703125 0.109375 0.0771484375
0 0.0 0.3916015625 0.0869140625 0.0908203125
0 0.2255859375 0.291015625 0.125 0.1005859375
0 0.08984375 0.3642578125 0.126953125 0.0830078125
0 0.84375 0.2216796875 0.1455078125 0.109375
0 0.9267578125 0.8115234375 0.0732421875 0.0869140625
0 0.8935546875 0.4658203125 0.1064453125 0.0830078125
0 0.07421875 0.232421875 0.09765625 0.0849609375
0 0.625 0.1396484375 0.099609375 0.1044921875
0 0.89453125 0.625 0.10546875 0.0595703125
0 0.2021484375 0.2666015625 0.0966796875 0.1044921875
0 0.2119140625 0.001953125 0.080078125 0.08984375
0 0.0771484375 0.001953125 0.072265625 0.0625
0 0.912109375 0.5478515625 0.087890625 0.0673828125
