0 0.1376953125 0.1552734375 0.078125 0.130859375
0 0.0537109375 0.0009765625 0.0703125 0.0869140625
0 0.2841796875 0.01953125 0.1650390625 0.06640625
0 0.4765625 0.197265625 0.0849609375 0.0673828125
0 0.44140625 0.2080078125 0.0947265625 0.1474609375
0 0.1015625 0.3271484375 0.0986328125 0.0625
0 0.3916015625 0.189453125 0.0537109375 0.06640625
0 0.580078125 0.0185546875 0.076171875 0.0615234375
0 0.1923828125 0.4404296875 0.0615234375 0.0732421875
0 0.0693359375 0.5390625 0.0830078125 0.068359375
0 0.0048828125 0.6474609375 0.048828125 0.0947265625
0 0.1796875 0.662109375 0.064453125 0.115234375
0 0.2626953125 0.734375 0.0625 0.107421875
0 0.4794921875 0.7578125 0.0830078125 0.0634765625
0 0.369140625 0.865234375 0.103515625 0.08984375
0 0.2294921875 0.9111328125 0.080078125 0.0888671875
0 0.80859375 0.966796875 0.0615234375 0.033203125
0 0.623046875 0.87890625 0.0947265625 0.083984375
0 0.591796875 0.8046875 0.1376953125 0.103515625
0 0.5244140625 0.8349609375 0.10546875 0.0546875
0 0.533203125 0.8955078125 0.06640625 0.06640625
0 0.83203125 0.7236328125 0.0947265625 0.0712890625
0 0.7705078125 0.7578125 0.0693359375 0.0810546875
0 0.9580078125 0.8515625 0.0419921875 0.080078125
0 0.4765625 0.4765625 0.07421875 0.138671875
0 0.5498046875 0.4248046875 0.0634765625 0.154296875
0 0.63671875 0.4765625 0.083984375 0.0576171875
0 0.7197265625 0.4970703125 0.0732421875 0.076171875
0 0.6689453125 0.603515625 0.06640625 0.06640625
0 0.6708984375 0.3564453125 0.0771484375 0.0888671875
0 0.7861328125 0.318359375 0.115234375 0.095703125
0 0.76171875 0.2490234375 0.0810546875 0.1181640625
0 0.7265625 0.208984375 0.0654296875 0.072265625
0 0.919921875 0.39453125 0.080078125 0.0712890625
0 0.921875 0.4833984375 0.078125 0.064453125
0 0.8115234375 0.0712890625 0.0478515625 0.0986328125
0 0.8505859375 0.0546875 0.103515625 0.1181640625
0 0.9189453125 0.1044921875 0.0595703125 0.0712890625
0 0.8720703125 0.173828125 0.078125 0.0537109375
0 0.1455078125 0.0 0.1552734375 0.0322265625
0 0.623046875 0.0 0.0615234375 0.04296875
0 0.541015625 0.0 0.0947265625 0.044921875
0 0.544921875 0.2568359375 0.05078125 0.0546875
0 0.857421875 0.853515625 0.0576171875 0.0537109375
0 0.9853515625 0.5390625 0.0146484375 0.0546875
0 0.6455078125 0.9853515625 0.0302734375 0.013671875
0 0.91015625 0.9775390625 0.0869140625 0.0224609375
0 0.9814453125 0.79296875 0.017578125 0.0283203125
