0 0.0 0.0439453125 0.0185546875 0.0927734375
0 0.0732421875 0.1728515625 0.0751953125 0.0693359375
0 0.0 0.19921875 0.052734375 0.07421875
0 0.1787109375 0.0263671875 0.07421875 0.060546875
0 0.015625 0.3623046875 0.08203125 0.0712890625
0 0.0498046875 0.4697265625 0.052734375 0.080078125
0 0.0419921875 0.4375 0.0498046875 0.068359375
0 0.1865234375 0.4111328125 0.10546875 0.0888671875
0 0.0 0.8056640625 0.05078125 0.0625
0 0.0 0.88671875 0.0625 0.11328125
0 0.0673828125 0.8701171875 0.0966796875 0.0634765625
0 0.056640625 0.759765625 0.0615234375 0.0517578125
0 0.0 0.65234375 0.05078125 0.0751953125
0 0.1044921875 0.625 0.0908203125 0.056640625
0 0.1494140625 0.7529296875 0.0556640625 0.0615234375
0 0.1982421875 0.701171875 0.0966796875 0.0908203125
0 0.255859375 0.78515625 0.068359375 0.0791015625
0 0.6171875 0.974609375 0.0869140625 0.025390625
0 0.421875 0.8994140625 0.076171875 0.064453125
0 0.419921875 0.8603515625 0.1083984375 0.0712890625
0 0.5361328125 0.8408203125 0.0927734375 0.1474609375
0 0.5615234375 0.740234375 0.130859375 0.0869140625
0 0.40625 0.7001953125 0.076171875 0.09765625
0 0.3212890625 0.7822265625 0.0732421875 0.0830078125
0 0.7119140625 0.833984375 0.0859375 0.0771484375
0 0.701171875 0.9306640625 0.0751953125 0.0673828125
0 0.7890625 0.8935546875 0.0888671875 0.0546875
0 0.775390625 0.94921875 0.0859375 0.05078125
0 0.85546875 0.9775390625 0.111328125 0.0224609375
0 0.8125 0.7421875 0.1455078125 0.08984375
0 0.716796875 0.583984375 0.1005859375 0.0654296875
0 0.5986328125 0.5849609375 0.0986328125 0.0634765625
0 0.55078125 0.5263671875 0.11328125 0.060546875
0 0.404296875 0.478515625 0.0791015625 0.076171875
0 0.3173828125 0.5087890625 0.0927734375 0.1064453125
0 0.201171875 0.5478515625 0.0859375 0.0771484375
0 0.115234375 0.4794921875 0.0576171875 0.0673828125
0 0.3671875 0.333984375 0.0810546875 0.0771484375
0 0.3427734375 0.2744140625 0.0751953125 0.0830078125
0 0.3232421875 0.1806640625 0.0849609375 0.078125
0 0.287109375 0.1572265625 0.080078125 0.056640625
0 0.2373046875 0.0703125 0.0751953125 0.078125
0 0.267578125 0.0 0.06640625 0.0732421875
0 0.396484375 0.0966796875 0.0654296875 0.078125
0 0.431640625 0.0361328125 0.0576171875 0.064453125
0 0.509765625 0.076171875 0.087890625 0.0625
0 0.5009765625 0.0 0.173828125 0.0537109375
0 0.7021484375 0.021484375 0.080078125 0.0546875
0 0.82421875 0.0 0.107421875 0.07421875
0 0.55859375 0.2060546875 0.22265625 0.146484375
0 0.779296875 0.26953125 0.0966796875 0.087890625
0 0.8388671875 0.16015625 0.0859375 0.111328125
0 0.8857421875 0.2744140625 0.109375 0.0810546875
0 0.8994140625 0.5673828125 0.1005859375 0.0849609375
0 0.248046875 0.9619140625 0.076171875 0.0380859375
0 0.451171875 0.7900390625 0.087890625 0.056640625
0 0.541015625 0.099609375 0.13671875 0.083984375
