0 0.0 0.6318359375 0.0234375 0.0869140625
0 0.029296875 0.451171875 0.0810546875 0.076171875
0 0.0 0.271484375 0.0302734375 0.1103515625
0 0.76171875 0.8984375 0.0673828125 0.1015625
0 0.8623046875 0.7939453125 0.1357421875 0.0927734375
0 0.43359375 0.8583984375 0.0966796875 0.076171875
0 0.2685546875 0.9287109375 0.0703125 0.060546875
0 0.0322265625 0.9658203125 0.1328125 0.0341796875
0 0.2294921875 0.45703125 0.09765625 0.11328125
0 0.2685546875 0.302734375 0.119140625 0.0625
0 0.2119140625 0.2158203125 0.0966796875 0.08984375
0 0.5322265625 0.2998046875 0.0908203125 0.09375
0 0.705078125 0.2587890625 0.109375 0.0673828125
0 0.7763671875 0.326171875 0.068359375 0.0625
0 0.84765625 0.3525390625 0.111328125 0.08203125
0 0.927734375 0.57421875 0.072265625 0.0810546875
0 0.763671875 0.421875 0.0732421875 0.091796875
0 0.48046875 0.1259765625 0.1484375 0.0810546875
0 0.462890625 0.056640625 0.0810546875 0.0556640625
0 0.1875 0.046875 0.115234375 0.0810546875
0 0.0 0.1025390625 0.015625 0.1064453125
0 0.6416015625 0.0126953125 0.091796875 0.0634765625
0 0.80078125 0.0244140625 0.111328125 0.0810546875
0 0.615234375 0.1123046875 0.068359375 0.072265625
0 0.6875 0.189453125 0.09765625 0.0537109375
0 0.5439453125 0.2138671875 0.0888671875 0.07421875
