0 0.8447265625 0.1015625 0.1552734375 0.10546875
0 0.287109375 0.0146484375 0.1201171875 0.0947265625
0 0.7470703125 0.125 0.0927734375 0.0869140625
0 0.607421875 0.1748046875 0.07421875 0.142578125
0 0.33984375 0.3271484375 0.0849609375 0.08984375
0 0.45703125 0.0625 0.0947265625 0.07421875
0 0.4169921875 0.2724609375 0.087890625 0.091796875
0 0.76953125 0.646484375 0.1328125 0.1318359375
0 0.5625 0.4345703125 0.0771484375 0.115234375
0 0.6640625 0.0 0.0654296875 0.07421875
0 0.814453125 0.8193359375 0.099609375 0.10546875
