0 0.341796875 0.5244140625 0.125 0.1123046875
0 0.8642578125 0.0068359375 0.1357421875 0.123046875
0 0.8798828125 0.421875 0.08984375 0.0625
0 0.5849609375 0.9716796875 0.0791015625 0.0283203125
0 0.1591796875 0.1669921875 0.11328125 0.1171875
0 0.4716796875 0.01953125 0.2001953125 0.1298828125
0 0.3271484375 0.232421875 0.064453125 0.091796875
0 0.939453125 0.529296875 0.060546875 0.1005859375
0 0.1494140625 0.001953125 0.0849609375 0.150390625
0 0.3466796875 0.6572265625 0.169921875 0.1552734375
0 0.6640625 0.58203125 0.23046875 0.0927734375
0 0.607421875 0.244140625 0.1796875 0.1533203125
0 0.4091796875 0.1416015625 0.2001953125 0.23046875
0 0.091796875 0.08203125 0.080078125 0.1025390625
0 0.3193359375 0.4921875 0.060546875 0.0673828125
0 0.1669921875 0.3720703125 0.23046875 0.1044921875
0 0.6669921875 0.1142578125 0.1376953125 0.1201171875
0 0.1875 0.70703125 0.2470703125 0.1572265625
0 0.7666015625 0.1171875 0.080078125 0.09765625
0 0.7900390625 0.890625 0.1474609375 0.109375
0 0.0546875 0.5244140625 0.1044921875 0.2421875
0 0.65234375 0.001953125 0.1318359375 0.134765625
0 0.591796875 0.2099609375 0.1025390625 0.0546875
0 0.001953125 0.0947265625 0.09765625 0.0673828125
0 0.3623046875 0.08203125 0.0693359375 0.1201171875
0 0.39453125 0.7822265625 0.146484375 0.2177734375
0 0.2158203125 0.63671875 0.07421875 0.0654296875
0 0.6298828125 0.537109375 0.0673828125 0.04296875
0 0.0068359375 0.1474609375 0.09765625 0.21484375
0 0.8798828125 0.5419921875 0.091796875 0.080078125
0 0.5595703125 0.70703125 0.177734375 0.1904296875
0 0.2470703125 0.2841796875 0.134765625 0.1103515625
0 0.0791015625 0.427734375 0.0654296875 0.0625
0 0.0595703125 0.189453125 0.1123046875 0.1025390625
0 0.037109375 0.796875 0.1044921875 0.1376953125
0 0.70703125 0.787109375 0.10546875 0.212890625
0 0.296875 0.421875 0.1103515625 0.0751953125
0 0.369140625 0.001953125 0.095703125 0.0400390625
0 0.1767578125 0.6220703125 0.0751953125 0.0751953125
0 0.7265625 0.244140625 0.1005859375 0.068359375
0 0.44921875 0.001953125 0.09765625 0.080078125
0 0.001953125 0.779296875 0.080078125 0.0927734375
0 0.001953125 0.5849609375 0.08984375 0.125
0 0.068359375 0.361328125 0.0419921875 0.083984375
0 0.556640625 0.001953125 0.060546875 0.0576171875
0 0.4267578125 0.3173828125 0.21484375 0.0595703125
0 0.4541015625 0.501953125 0.0556640625 0.060546875
0 0.69921875 0.6640625 0.1357421875 0.1181640625
0 0.6591796875 0.8671875 0.1025390625 0.09765625
0 0.1240234375 0.962890625 0.1328125 0.037109375
0 0.263671875 0.87109375 0.087890625 0.1044921875
0 0.1640625 0.9365234375 0.0732421875 0.0634765625
