0 0.1767578125 0.1396484375 0.078125 0.0673828125
0 0.013671875 0.17578125 0.0751953125 0.0732421875
0 0.2529296875 0.2470703125 0.099609375 0.0830078125
0 0.3046875 0.015625 0.08203125 0.0615234375
0 0.3662109375 0.0341796875 0.0556640625 0.0732421875
0 0.3291015625 0.076171875 0.0654296875 0.0712890625
0 0.39453125 0.109375 0.0771484375 0.0703125
0 0.4453125 0.0771484375 0.0615234375 0.0869140625
0 0.4580078125 0.193359375 0.0498046875 0.048828125
0 0.5341796875 0.1142578125 0.0791015625 0.07421875
0 0.60546875 0.123046875 0.056640625 0.06640625
0 0.427734375 0.33203125 0.0654296875 0.0634765625
0 0.6640625 0.21484375 0.0830078125 0.060546875
0 0.0458984375 0.49609375 0.078125 0.09375
0 0.021484375 0.6015625 0.107421875 0.099609375
0 0.216796875 0.548828125 0.091796875 0.1103515625
0 0.169921875 0.7041015625 0.068359375 0.056640625
0 0.0185546875 0.767578125 0.10546875 0.0673828125
0 0.3310546875 0.65625 0.103515625 0.068359375
0 0.37890625 0.701171875 0.0791015625 0.07421875
0 0.4287109375 0.693359375 0.0869140625 0.07421875
0 0.486328125 0.7177734375 0.076171875 0.0732421875
0 0.474609375 0.5927734375 0.06640625 0.07421875
0 0.52734375 0.619140625 0.0693359375 0.0625
0 0.5751953125 0.634765625 0.05859375 0.07421875
0 0.6259765625 0.7021484375 0.0673828125 0.0673828125
0 0.6953125 0.669921875 0.083984375 0.09375
0 0.7568359375 0.7548828125 0.06640625 0.0712890625
0 0.7275390625 0.53515625 0.0927734375 0.0625
0 0.8173828125 0.517578125 0.0712890625 0.080078125
0 0.884765625 0.513671875 0.060546875 0.076171875
0 0.814453125 0.1650390625 0.1201171875 0.0654296875
0 0.8408203125 0.1142578125 0.080078125 0.056640625
0 0.765625 0.005859375 0.064453125 0.0615234375
0 0.88671875 0.0380859375 0.078125 0.107421875
0 0.958984375 0.080078125 0.041015625 0.0546875
0 0.9677734375 0.1845703125 0.0322265625 0.0888671875
0 0.1240234375 0.14453125 0.0693359375 0.0517578125
0 0.0 0.1220703125 0.0361328125 0.0654296875
0 0.0 0.064453125 0.02734375 0.0595703125
0 0.37109375 0.140625 0.099609375 0.0576171875
0 0.3857421875 0.17578125 0.0654296875 0.0693359375
0 0.6640625 0.26171875 0.0380859375 0.037109375
0 0.9912109375 0.0 0.0087890625 0.0400390625
0 0.9638671875 0.015625 0.03125 0.0625
0 0.970703125 0.126953125 0.029296875 0.029296875
