0 0.173828125 0.935546875 0.10546875 0.05078125
0 0.5859375 0.16796875 0.0986328125 0.1103515625
0 0.30078125 0.0986328125 0.099609375 0.0693359375
0 0.599609375 0.5419921875 0.0771484375 0.08984375
0 0.75 0.0556640625 0.0830078125 0.0625
0 0.7783203125 0.6826171875 0.125 0.0625
0 0.4755859375 0.2958984375 0.1162109375 0.111328125
0 0.0126953125 0.3271484375 0.119140625 0.0771484375
0 0.1181640625 0.6689453125 0.1015625 0.123046875
0 0.5048828125 0.927734375 0.068359375 0.0625
0 0.4091796875 0.0009765625 0.1044921875 0.0703125
0 0.4169921875 0.361328125 0.09765625 0.0703125
0 0.376953125 0.6298828125 0.0478515625 0.1201171875
0 0.8193359375 0.064453125 0.083984375 0.138671875
0 0.041015625 0.142578125 0.1103515625 0.0556640625
0 0.5537109375 0.47265625 0.064453125 0.0546875
0 0.259765625 0.2783203125 0.0888671875 0.095703125
0 0.6279296875 0.099609375 0.103515625 0.0478515625
0 0.978515625 0.9072265625 0.021484375 0.0439453125
0 0.0830078125 0.8662109375 0.1142578125 0.0458984375
0 0.0634765625 0.40234375 0.1328125 0.099609375
0 0.869140625 0.7578125 0.1298828125 0.05078125
0 0.6748046875 0.6884765625 0.126953125 0.0517578125
0 0.923828125 0.9599609375 0.0419921875 0.0400390625
0 0.34765625 0.279296875 0.0703125 0.0830078125
0 0.2275390625 0.8017578125 0.103515625 0.0849609375
0 0.521484375 0.7802734375 0.1181640625 0.060546875
0 0.419921875 0.9619140625 0.06640625 0.0380859375
0 0.8193359375 0.0478515625 0.0810546875 0.07421875
0 0.0009765625 0.6611328125 0.125 0.044921875
0 0.3251953125 0.0 0.0849609375 0.06640625
0 0.3671875 0.8193359375 0.107421875 0.0537109375
0 0.451171875 0.599609375 0.0849609375 0.0283203125
0 0.8212890625 0.3271484375 0.0634765625 0.0390625
0 0.6181640625 0.296875 0.171875 0.15625
0 0.111328125 0.2197265625 0.0947265625 0.0439453125
0 0.1552734375 0.0 0.05078125 0.0390625
0 0.859375 0.361328125 0.1396484375 0.04296875
0 0.095703125 0.326171875 0.0322265625 0.0830078125
0 0.271484375 0.8818359375 0.1123046875 0.1171875
0 0.642578125 0.0380859375 0.0634765625 0.0625
0 0.587890625 0.943359375 0.0712890625 0.056640625
0 0.779296875 0.587890625 0.185546875 0.0625
0 0.0 0.025390625 0.1240234375 0.064453125
0 0.001953125 0.8388671875 0.0986328125 0.0419921875
0 0.0595703125 0.0009765625 0.134765625 0.0673828125
0 0.4677734375 0.1181640625 0.1396484375 0.263671875
0 0.947265625 0.80078125 0.052734375 0.04296875
0 0.3037109375 0.296875 0.111328125 0.123046875
0 0.2939453125 0.103515625 0.0625 0.0830078125
0 0.3193359375 0.7978515625 0.046875 0.07421875
0 0.5419921875 0.11328125 0.0732421875 0.037109375
0 0.583984375 0.0927734375 0.12890625 0.0947265625
0 0.556640625 0.2666015625 0.0615234375 0.08203125
0 0.703125 0.634765625 0.115234375 0.0556640625
0 0.591796875 0.921875 0.140625 0.078125
0 0.0 0.740234375 0.0517578125 0.0283203125
0 0.4755859375 0.654296875 0.123046875 0.0869140625
0 0.763671875 0.439453125 0.076171875 0.05078125
0 0.1376953125 0.060546875 0.212890625 0.048828125
0 0.05078125 0.744140625 0.1044921875 0.025390625
0 0.408203125 0.71875 0.162109375 0.0673828125
0 0.82421875 0.3837890625 0.068359375 0.0361328125
0 0.46875 0.7880859375 0.08984375 0.0537109375
0 0.19140625 0.177734375 0.1220703125 0.0537109375
0 0.517578125 0.4453125 0.0537109375 0.0615234375
0 0.0 0.1376953125 0.0634765625 0.0625
