0 0.2431640625 0.1416015625 0.0869140625 0.0888671875
0 0.337890625 0.0205078125 0.09375 0.0888671875
0 0.001953125 0.1201171875 0.11328125 0.1005859375
0 0.10546875 0.212890625 0.1015625 0.0791015625
0 0.060546875 0.328125 0.1318359375 0.0771484375
0 0.43359375 0.322265625 0.0869140625 0.0908203125
0 0.568359375 0.3515625 0.0654296875 0.0693359375
0 0.72265625 0.1572265625 0.11328125 0.158203125
0 0.828125 0.2666015625 0.0966796875 0.16015625
0 0.95703125 0.0 0.04296875 0.0380859375
0 0.986328125 0.32421875 0.013671875 0.0927734375
0 0.8837890625 0.4287109375 0.0791015625 0.080078125
0 0.7802734375 0.50390625 0.0869140625 0.0859375
0 0.6474609375 0.48046875 0.111328125 0.08984375
0 0.455078125 0.4453125 0.0869140625 0.0888671875
0 0.1494140625 0.5 0.0693359375 0.1015625
0 0.001953125 0.6904296875 0.0859375 0.091796875
0 0.111328125 0.751953125 0.083984375 0.09765625
0 0.2763671875 0.615234375 0.0869140625 0.083984375
0 0.4951171875 0.7802734375 0.0986328125 0.0732421875
0 0.4306640625 0.9384765625 0.0537109375 0.0517578125
0 0.6279296875 0.87890625 0.1123046875 0.0966796875
0 0.7587890625 0.837890625 0.0869140625 0.0634765625
0 0.7744140625 0.7431640625 0.0830078125 0.0869140625
0 0.865234375 0.7431640625 0.078125 0.0810546875
0 0.974609375 0.8876953125 0.025390625 0.0791015625
0 0.9208984375 0.9033203125 0.0615234375 0.0732421875
0 0.828125 0.9091796875 0.0712890625 0.0673828125
0 0.5498046875 0.6103515625 0.1044921875 0.13671875
0 0.0 0.265625 0.0419921875 0.072265625
0 0.16015625 0.0 0.0673828125 0.0322265625
0 0.208984375 0.5126953125 0.15625 0.09765625
0 0.1904296875 0.65625 0.08984375 0.0693359375
0 0.56640625 0.86328125 0.08203125 0.1044921875
