0 0.1845703125 0.4423828125 0.076171875 0.0888671875
0 0.421875 0.57421875 0.0654296875 0.103515625
0 0.1220703125 0.0556640625 0.0751953125 0.0849609375
0 0.41015625 0.6708984375 0.0498046875 0.0908203125
0 0.0380859375 0.6484375 0.05859375 0.076171875
0 0.0 0.439453125 0.0234375 0.0693359375
0 0.814453125 0.40625 0.0380859375 0.0888671875
0 0.640625 0.8369140625 0.06640625 0.0693359375
0 0.796875 0.0234375 0.048828125 0.109375
0 0.0966796875 0.0859375 0.03125 0.1162109375
0 0.52734375 0.103515625 0.0537109375 0.0732421875
0 0.8779296875 0.6591796875 0.03515625 0.0693359375
0 0.3369140625 0.5517578125 0.04296875 0.0673828125
0 0.4697265625 0.8408203125 0.0673828125 0.0771484375
0 0.19921875 0.669921875 0.0712890625 0.0625
0 0.064453125 0.28125 0.0400390625 0.11328125
0 0.8193359375 0.09375 0.0419921875 0.0712890625
0 0.423828125 0.17578125 0.0908203125 0.056640625
0 0.7412109375 0.53515625 0.03125 0.0615234375
0 0.9697265625 0.9345703125 0.02734375 0.0634765625
0 0.5390625 0.75 0.0361328125 0.0625
0 0.0 0.154296875 0.0341796875 0.0732421875
0 0.376953125 0.208984375 0.025390625 0.07421875
0 0.9296875 0.4833984375 0.03125 0.0693359375
0 0.015625 0.5146484375 0.0322265625 0.0703125
0 0.0126953125 0.0 0.041015625 0.0517578125
0 0.6435546875 0.2705078125 0.0263671875 0.0751953125
0 0.01171875 0.4169921875 0.0263671875 0.07421875
0 0.9638671875 0.001953125 0.029296875 0.0625
0 0.330078125 0.203125 0.033203125 0.0615234375
0 0.7177734375 0.2900390625 0.05859375 0.0517578125
0 0.884765625 0.73828125 0.037109375 0.068359375
0 0.716796875 0.369140625 0.0263671875 0.0673828125
0 0.3740234375 0.5078125 0.0302734375 0.0771484375
0 0.4091796875 0.169921875 0.0439453125 0.0654296875
0 0.712890625 0.8759765625 0.033203125 0.0703125
0 0.1494140625 0.251953125 0.0634765625 0.0576171875
0 0.267578125 0.4365234375 0.0576171875 0.0576171875
0 0.767578125 0.0126953125 0.029296875 0.068359375
0 0.365234375 0.150390625 0.0478515625 0.07421875
0 0.75390625 0.216796875 0.0400390625 0.068359375
0 0.5830078125 0.341796875 0.0341796875 0.06640625
0 0.697265625 0.810546875 0.0439453125 0.05859375
0 0.9755859375 0.419921875 0.0244140625 0.08984375
0 0.330078125 0.732421875 0.0263671875 0.0546875
0 0.9423828125 0.7490234375 0.037109375 0.0634765625
0 0.5478515625 0.6064453125 0.0439453125 0.0732421875
0 0.857421875 0.880859375 0.1015625 0.044921875
0 0.337890625 0.892578125 0.05078125 0.068359375
0 0.2744140625 0.9169921875 0.033203125 0.0556640625
0 0.0478515625 0.7919921875 0.02734375 0.0556640625
0 0.1044921875 0.763671875 0.048828125 0.05078125
0 0.9140625 0.1474609375 0.04296875 0.041015625
0 0.7958984375 0.0 0.0341796875 0.0498046875
0 0.5478515625 0.5205078125 0.0478515625 0.0419921875
0 0.5166015625 0.0390625 0.0361328125 0.08984375
0 0.7470703125 0.8154296875 0.0380859375 0.0546875
0 0.548828125 0.888671875 0.044921875 0.029296875
0 0.6025390625 0.39453125 0.0458984375 0.06640625
0 0.1904296875 0.6396484375 0.048828125 0.0400390625
0 0.4755859375 0.0 0.0361328125 0.0341796875
0 0.4111328125 0.044921875 0.0380859375 0.048828125
0 0.958984375 0.6689453125 0.041015625 0.0341796875
0 0.845703125 0.01171875 0.03515625 0.0615234375
0 0.1845703125 0.92578125 0.0361328125 0.0390625
0 0.4208984375 0.96484375 0.0361328125 0.03515625
0 0.10546875 0.2197265625 0.0732421875 0.0595703125
0 0.7958984375 0.8408203125 0.0673828125 0.046875
0 0.35546875 0.6357421875 0.0283203125 0.046875
0 0.4833984375 0.42578125 0.03515625 0.02734375
0 0.1923828125 0.57421875 0.0361328125 0.044921875
0 0.9814453125 0.0615234375 0.0185546875 0.0791015625
0 0.125 0.0 0.037109375 0.0166015625
0 0.615234375 0.9853515625 0.0517578125 0.0146484375
