0 0.0029296875 0.08203125 0.1142578125 0.0966796875
0 0.09375 0.0009765625 0.0849609375 0.078125
0 0.0 0.1728515625 0.0498046875 0.0830078125
0 0.107421875 0.2138671875 0.1376953125 0.078125
0 0.1025390625 0.2998046875 0.0625 0.0751953125
0 0.1201171875 0.5263671875 0.0576171875 0.091796875
0 0.091796875 0.4775390625 0.0498046875 0.1201171875
0 0.208984375 0.4228515625 0.099609375 0.09375
0 0.138671875 0.7294921875 0.078125 0.0654296875
0 0.224609375 0.794921875 0.0751953125 0.1298828125
0 0.8232421875 0.927734375 0.0703125 0.072265625
0 0.513671875 0.880859375 0.146484375 0.119140625
0 0.4833984375 0.9794921875 0.076171875 0.0205078125
0 0.546875 0.951171875 0.134765625 0.048828125
0 0.748046875 0.7529296875 0.08203125 0.1220703125
0 0.8349609375 0.623046875 0.1572265625 0.08984375
0 0.908203125 0.4404296875 0.091796875 0.064453125
0 0.708984375 0.4052734375 0.115234375 0.0908203125
0 0.8935546875 0.486328125 0.083984375 0.05859375
0 0.3525390625 0.140625 0.0908203125 0.10546875
0 0.408203125 0.2021484375 0.1240234375 0.0927734375
0 0.7373046875 0.01953125 0.0966796875 0.080078125
0 0.505859375 0.0 0.1611328125 0.083984375
0 0.6669921875 0.0 0.060546875 0.0439453125
0 0.9375 0.080078125 0.0625 0.068359375
0 0.861328125 0.0 0.0908203125 0.080078125
