0 0.2890625 0.3974609375 0.123046875 0.1318359375
0 0.83203125 0.6474609375 0.16796875 0.0947265625
0 0.654296875 0.8369140625 0.1376953125 0.0771484375
0 0.5498046875 0.1943359375 0.1572265625 0.09765625
0 0.431640625 0.5546875 0.0751953125 0.0751953125
0 0.7041015625 0.27734375 0.1005859375 0.072265625
0 0.9091796875 0.8671875 0.0908203125 0.107421875
0 0.8994140625 0.7646484375 0.1005859375 0.1298828125
0 0.697265625 0.6923828125 0.115234375 0.0947265625
0 0.1015625 0.869140625 0.095703125 0.078125
0 0.0068359375 0.591796875 0.185546875 0.0849609375
0 0.001953125 0.0419921875 0.142578125 0.150390625
0 0.3974609375 0.1044921875 0.08984375 0.1650390625
0 0.591796875 0.439453125 0.1728515625 0.080078125
0 0.6318359375 0.07421875 0.078125 0.095703125
0 0.8134765625 0.0009765625 0.1650390625 0.125
0 0.044921875 0.7099609375 0.0869140625 0.0869140625
0 0.2890625 0.1875 0.087890625 0.08203125
0 0.5166015625 0.7197265625 0.080078125 0.0673828125
0 0.232421875 0.8193359375 0.08203125 0.1181640625
0 0.3271484375 0.841796875 0.0703125 0.0703125
0 0.251953125 0.90234375 0.1103515625 0.08203125
0 0.89453125 0.4541015625 0.10546875 0.095703125
0 0.58984375 0.484375 0.1767578125 0.08984375
0 0.162109375 0.3125 0.08984375 0.0673828125
0 0.625 0.572265625 0.0849609375 0.072265625
0 0.439453125 0.8916015625 0.0751953125 0.0732421875
0 0.39453125 0.8515625 0.0576171875 0.1083984375
0 0.3095703125 0.6123046875 0.1396484375 0.1171875
0 0.8291015625 0.3642578125 0.0625 0.0654296875
0 0.3291015625 0.3369140625 0.068359375 0.0654296875
0 0.369140625 0.0517578125 0.068359375 0.0673828125
0 0.279296875 0.6142578125 0.0927734375 0.10546875
0 0.421875 0.82421875 0.0703125 0.0673828125
0 0.8642578125 0.001953125 0.1357421875 0.0625
0 0.2646484375 0.001953125 0.0419921875 0.037109375
0 0.87109375 0.0576171875 0.1123046875 0.1005859375
0 0.251953125 0.669921875 0.0625 0.0771484375
