0 0.9033203125 0.0400390625 0.0732421875 0.119140625
0 0.9306640625 0.1943359375 0.0693359375 0.1279296875
0 0.6689453125 0.287109375 0.0869140625 0.1396484375
0 0.875 0.529296875 0.0693359375 0.09765625
0 0.759765625 0.564453125 0.1044921875 0.16015625
0 0.78515625 0.1875 0.099609375 0.1298828125
0 0.8798828125 0.3369140625 0.080078125 0.1005859375
0 0.787109375 0.42578125 0.1318359375 0.140625
0 0.7724609375 0.806640625 0.0859375 0.0810546875
0 0.8916015625 0.77734375 0.078125 0.0771484375
0 0.884765625 0.4375 0.0947265625 0.0869140625
0 0.7548828125 0.279296875 0.044921875 0.1123046875
0 0.8671875 0.6318359375 0.0751953125 0.072265625
0 0.697265625 0.8271484375 0.1025390625 0.107421875
