0 0.7490234375 0.4130859375 0.0693359375 0.0849609375
0 0.0 0.650390625 0.0458984375 0.06640625
0 0.2978515625 0.337890625 0.0986328125 0.0576171875
0 0.8486328125 0.1572265625 0.0771484375 0.0625
0 0.501953125 0.306640625 0.0693359375 0.1005859375
0 0.646484375 0.46484375 0.080078125 0.0595703125
0 0.3017578125 0.443359375 0.1435546875 0.056640625
0 0.1396484375 0.3818359375 0.0693359375 0.060546875
0 0.03125 0.443359375 0.0947265625 0.0517578125
0 0.6767578125 0.36328125 0.06640625 0.072265625
0 0.29296875 0.80859375 0.0986328125 0.0458984375
0 0.6923828125 0.3017578125 0.056640625 0.080078125
0 0.4658203125 0.08984375 0.076171875 0.056640625
0 0.67578125 0.1279296875 0.0517578125 0.06640625
0 0.1982421875 0.0263671875 0.0654296875 0.044921875
0 0.31640625 0.896484375 0.07421875 0.05078125
0 0.640625 0.9384765625 0.0791015625 0.0419921875
0 0.556640625 0.7490234375 0.0869140625 0.037109375
0 0.775390625 0.947265625 0.0615234375 0.05078125
0 0.7197265625 0.927734375 0.0595703125 0.0595703125
0 0.078125 0.1875 0.0771484375 0.044921875
0 0.4169921875 0.9697265625 0.0888671875 0.0302734375
0 0.9052734375 0.486328125 0.07421875 0.0400390625
0 0.0859375 0.0 0.0478515625 0.0302734375
0 0.001953125 0.4755859375 0.05859375 0.0390625
0 0.4765625 0.423828125 0.0693359375 0.044921875
0 0.06640625 0.421875 0.07421875 0.033203125
0 0.0703125 0.037109375 0.0869140625 0.0361328125
0 0.390625 0.7431640625 0.0517578125 0.0361328125
0 0.7939453125 0.3310546875 0.056640625 0.04296875
0 0.7373046875 0.72265625 0.05859375 0.044921875
0 0.6103515625 0.5703125 0.05859375 0.0341796875
0 0.08203125 0.123046875 0.0732421875 0.0380859375
0 0.0595703125 0.751953125 0.0849609375 0.0400390625
0 0.4580078125 0.4365234375 0.06640625 0.0458984375
0 0.951171875 0.0341796875 0.046875 0.0693359375
0 0.4150390625 0.5341796875 0.064453125 0.0263671875
0 0.2314453125 0.830078125 0.0869140625 0.0361328125
0 0.94921875 0.0009765625 0.044921875 0.0546875
0 0.3525390625 0.7783203125 0.0859375 0.0263671875
0 0.611328125 0.7939453125 0.0693359375 0.0283203125
0 0.3759765625 0.396484375 0.0595703125 0.064453125
0 0.9423828125 0.2783203125 0.0576171875 0.0302734375
0 0.8544921875 0.9658203125 0.0400390625 0.0341796875
0 0.0 0.7919921875 0.0390625 0.01953125
0 0.1376953125 0.845703125 0.0859375 0.01953125
0 0.044921875 0.13671875 0.091796875 0.0625
0 0.845703125 0.7265625 0.046875 0.041015625
0 0.7724609375 0.51953125 0.0498046875 0.0400390625
0 0.86328125 0.4111328125 0.05859375 0.046875
0 0.79296875 0.755859375 0.0302734375 0.0478515625
0 0.2978515625 0.4716796875 0.0869140625 0.0390625
0 0.814453125 0.806640625 0.0234375 0.0712890625
0 0.8740234375 0.4384765625 0.05078125 0.0615234375
0 0.7451171875 0.0 0.033203125 0.0302734375
0 0.24609375 0.208984375 0.05859375 0.0478515625
0 0.125 0.517578125 0.087890625 0.0478515625
0 0.2763671875 0.208984375 0.0537109375 0.0380859375
0 0.91015625 0.80078125 0.06640625 0.07421875
0 0.951171875 0.740234375 0.048828125 0.05078125
