0 0.2841796875 0.70703125 0.1005859375 0.099609375
0 0.21484375 0.58203125 0.1220703125 0.0654296875
0 0.6767578125 0.234375 0.1171875 0.0595703125
0 0.2919921875 0.02734375 0.1376953125 0.109375
0 0.6044921875 0.314453125 0.107421875 0.0703125
0 0.1767578125 0.3974609375 0.1025390625 0.0673828125
0 0.404296875 0.0849609375 0.1279296875 0.072265625
0 0.0 0.154296875 0.1015625 0.109375
0 0.6748046875 0.5693359375 0.1171875 0.0830078125
0 0.57421875 0.46484375 0.1025390625 0.09765625
0 0.5771484375 0.0771484375 0.205078125 0.1328125
0 0.189453125 0.1416015625 0.162109375 0.1083984375
0 0.0341796875 0.5595703125 0.0908203125 0.0703125
0 0.7021484375 0.33984375 0.134765625 0.064453125
0 0.8271484375 0.1884765625 0.150390625 0.1748046875
0 0.1044921875 0.349609375 0.10546875 0.087890625
0 0.1416015625 0.072265625 0.0908203125 0.0771484375
0 0.35546875 0.3818359375 0.140625 0.07421875
0 0.26953125 0.537109375 0.125 0.052734375
0 0.1123046875 0.822265625 0.107421875 0.080078125
0 0.5771484375 0.7763671875 0.068359375 0.0400390625
0 0.7470703125 0.6015625 0.1220703125 0.177734375
0 0.306640625 0.4892578125 0.1376953125 0.060546875
0 0.7890625 0.744140625 0.080078125 0.0849609375
0 0.1123046875 0.15234375 0.1298828125 0.0849609375
0 0.322265625 0.4423828125 0.0869140625 0.0576171875
0 0.1845703125 0.33984375 0.0927734375 0.0595703125
0 0.6796875 0.2822265625 0.1396484375 0.0322265625
0 0.1025390625 0.1416015625 0.0625 0.0751953125
0 0.494140625 0.0693359375 0.123046875 0.0849609375
0 0.45703125 0.001953125 0.0927734375 0.0771484375
0 0.7607421875 0.0009765625 0.1572265625 0.0595703125
0 0.619140625 0.0771484375 0.0634765625 0.05078125
0 0.6162109375 0.728515625 0.076171875 0.044921875
