0 0.65625 0.0 0.1484375 0.025390625
0 0.3173828125 0.15625 0.0888671875 0.2685546875
0 0.8017578125 0.28515625 0.0947265625 0.060546875
0 0.4140625 0.5185546875 0.146484375 0.1318359375
0 0.5380859375 0.744140625 0.1005859375 0.1064453125
0 0.650390625 0.59765625 0.154296875 0.189453125
0 0.7958984375 0.7587890625 0.158203125 0.1103515625
0 0.0 0.3251953125 0.0478515625 0.115234375
0 0.0 0.1669921875 0.0234375 0.09765625
0 0.1923828125 0.7919921875 0.1123046875 0.2060546875
0 0.2880859375 0.5576171875 0.0927734375 0.1591796875
0 0.7685546875 0.1103515625 0.1650390625 0.1396484375
0 0.9482421875 0.0771484375 0.0517578125 0.07421875
0 0.0 0.4951171875 0.041015625 0.0751953125
0 0.0107421875 0.9443359375 0.06640625 0.0556640625
0 0.38671875 0.7626953125 0.099609375 0.203125
0 0.1328125 0.5029296875 0.0869140625 0.11328125
0 0.13671875 0.38671875 0.1181640625 0.0625
0 0.0517578125 0.400390625 0.091796875 0.0537109375
0 0.1044921875 0.2978515625 0.083984375 0.052734375
0 0.130859375 0.2099609375 0.0751953125 0.0830078125
0 0.01953125 0.1083984375 0.0771484375 0.1318359375
0 0.1220703125 0.0654296875 0.146484375 0.0703125
0 0.2802734375 0.0087890625 0.10546875 0.142578125
0 0.4150390625 0.0 0.0546875 0.0927734375
0 0.5361328125 0.08203125 0.0576171875 0.076171875
0 0.1923828125 0.0 0.0859375 0.015625
0 0.0390625 0.0 0.0927734375 0.0458984375
0 0.38671875 0.150390625 0.1318359375 0.236328125
0 0.5712890625 0.0986328125 0.109375 0.2451171875
0 0.4140625 0.4501953125 0.0419921875 0.0595703125
0 0.4453125 0.439453125 0.0556640625 0.0498046875
0 0.23046875 0.630859375 0.0537109375 0.091796875
0 0.29296875 0.720703125 0.06640625 0.0927734375
0 0.3623046875 0.5908203125 0.0546875 0.1318359375
0 0.6005859375 0.9072265625 0.072265625 0.041015625
0 0.6171875 0.96875 0.064453125 0.03125
0 0.802734375 0.8662109375 0.083984375 0.1337890625
0 0.9619140625 0.91015625 0.0380859375 0.087890625
0 0.904296875 0.703125 0.0595703125 0.0498046875
0 0.791015625 0.5146484375 0.0986328125 0.0625
0 0.640625 0.4814453125 0.1259765625 0.0830078125
0 0.7001953125 0.4130859375 0.06640625 0.0810546875
0 0.9794921875 0.419921875 0.0205078125 0.048828125
0 0.9013671875 0.369140625 0.04296875 0.060546875
0 0.91796875 0.21875 0.0654296875 0.0654296875
0 0.513671875 0.0 0.052734375 0.0361328125
0 0.671875 0.0673828125 0.1123046875 0.1884765625
0 0.689453125 0.2451171875 0.1044921875 0.087890625
0 0.453125 0.9404296875 0.0869140625 0.0595703125
