0 0.17578125 0.08203125 0.0947265625 0.095703125
0 0.2978515625 0.16796875 0.068359375 0.07421875
0 0.0 0.0986328125 0.078125 0.09765625
0 0.0712890625 0.107421875 0.0625 0.064453125
0 0.0458984375 0.0 0.083984375 0.0771484375
0 0.1376953125 0.005859375 0.0908203125 0.0712890625
0 0.361328125 0.076171875 0.083984375 0.0810546875
0 0.4765625 0.09765625 0.0625 0.0625
0 0.0078125 0.28125 0.052734375 0.080078125
0 0.134765625 0.39453125 0.05859375 0.052734375
0 0.1279296875 0.474609375 0.080078125 0.080078125
0 0.0126953125 0.6279296875 0.0693359375 0.1240234375
0 0.072265625 0.6826171875 0.0830078125 0.0712890625
0 0.005859375 0.75390625 0.0908203125 0.0791015625
0 0.2314453125 0.6005859375 0.0625 0.0791015625
0 0.2978515625 0.736328125 0.09765625 0.0732421875
0 0.3837890625 0.6142578125 0.07421875 0.0791015625
0 0.517578125 0.6884765625 0.083984375 0.08203125
0 0.4775390625 0.8134765625 0.078125 0.076171875
0 0.384765625 0.919921875 0.1064453125 0.080078125
0 0.6044921875 0.85546875 0.0751953125 0.0859375
0 0.6494140625 0.7626953125 0.0712890625 0.068359375
0 0.73046875 0.75 0.140625 0.076171875
0 0.79296875 0.9072265625 0.080078125 0.0908203125
0 0.685546875 0.611328125 0.08203125 0.0703125
0 0.6220703125 0.658203125 0.0673828125 0.076171875
0 0.5927734375 0.5400390625 0.0712890625 0.0537109375
0 0.591796875 0.44140625 0.0830078125 0.08203125
0 0.7548828125 0.3857421875 0.0732421875 0.0927734375
0 0.822265625 0.5751953125 0.07421875 0.08203125
0 0.9091796875 0.318359375 0.0693359375 0.078125
0 0.498046875 0.25390625 0.08984375 0.0732421875
0 0.5087890625 0.1513671875 0.142578125 0.07421875
0 0.802734375 0.0634765625 0.0791015625 0.0830078125
0 0.884765625 0.103515625 0.0712890625 0.07421875
0 0.935546875 0.181640625 0.064453125 0.064453125
0 0.7626953125 0.173828125 0.0703125 0.0673828125
0 0.662109375 0.091796875 0.05859375 0.0693359375
0 0.6611328125 0.03125 0.0751953125 0.0693359375
0 0.7724609375 0.0009765625 0.0712890625 0.05859375
0 0.494140625 0.46875 0.0712890625 0.0703125
0 0.173828125 0.7939453125 0.0791015625 0.0703125
0 0.189453125 0.265625 0.048828125 0.0498046875
0 0.4990234375 0.1982421875 0.068359375 0.0625
0 0.8486328125 0.0009765625 0.125 0.080078125
0 0.427734375 0.546875 0.0625 0.05859375
0 0.1396484375 0.6142578125 0.072265625 0.0712890625
0 0.8369140625 0.5380859375 0.0712890625 0.05859375
0 0.6484375 0.587890625 0.048828125 0.0830078125
0 0.708984375 0.8935546875 0.0478515625 0.0693359375
0 0.486328125 0.0 0.052734375 0.033203125
0 0.5478515625 0.0 0.0498046875 0.0322265625
0 0.6943359375 0.1435546875 0.0419921875 0.0537109375
0 0.1240234375 0.0 0.099609375 0.017578125
