0 0.6123046875 0.0 0.072265625 0.10546875
0 0.7705078125 0.1416015625 0.1015625 0.080078125
0 0.8837890625 0.1650390625 0.076171875 0.0947265625
0 0.4111328125 0.0283203125 0.0712890625 0.0947265625
0 0.4873046875 0.0087890625 0.072265625 0.1220703125
0 0.529296875 0.080078125 0.0712890625 0.0771484375
0 0.5107421875 0.2177734375 0.0556640625 0.0732421875
0 0.5986328125 0.1884765625 0.072265625 0.11328125
0 0.19921875 0.0 0.0751953125 0.064453125
0 0.173828125 0.0947265625 0.0908203125 0.091796875
0 0.0869140625 0.03515625 0.09765625 0.052734375
0 0.146484375 0.0546875 0.1044921875 0.033203125
0 0.0576171875 0.1865234375 0.0771484375 0.1025390625
0 0.03515625 0.28125 0.087890625 0.0615234375
0 0.3818359375 0.2880859375 0.0849609375 0.0615234375
0 0.2880859375 0.310546875 0.0625 0.0654296875
0 0.21875 0.45703125 0.125 0.1376953125
0 0.333984375 0.6025390625 0.0595703125 0.076171875
0 0.4228515625 0.669921875 0.0693359375 0.0966796875
0 0.5439453125 0.71875 0.0673828125 0.0869140625
0 0.5615234375 0.677734375 0.0869140625 0.048828125
0 0.5986328125 0.4443359375 0.056640625 0.07421875
0 0.4970703125 0.3544921875 0.0849609375 0.0576171875
0 0.71484375 0.396484375 0.0625 0.10546875
0 0.7158203125 0.4423828125 0.0693359375 0.1416015625
0 0.7470703125 0.509765625 0.06640625 0.16015625
0 0.6640625 0.5185546875 0.05859375 0.134765625
0 0.0107421875 0.013671875 0.0869140625 0.099609375
0 0.0771484375 0.7587890625 0.1376953125 0.06640625
0 0.123046875 0.810546875 0.0732421875 0.0927734375
0 0.328125 0.8828125 0.0869140625 0.076171875
0 0.4189453125 0.9404296875 0.095703125 0.05859375
0 0.1455078125 0.8984375 0.1240234375 0.08984375
0 0.203125 0.8486328125 0.103515625 0.0625
0 0.5283203125 0.8369140625 0.060546875 0.107421875
0 0.94921875 0.6220703125 0.05078125 0.048828125
0 0.7041015625 0.71484375 0.0869140625 0.1416015625
0 0.59375 0.8125 0.0615234375 0.0927734375
0 0.701171875 0.927734375 0.072265625 0.072265625
0 0.841796875 0.84375 0.056640625 0.15625
0 0.8388671875 0.5029296875 0.0849609375 0.1025390625
0 0.9150390625 0.458984375 0.0546875 0.095703125
0 0.94921875 0.2373046875 0.046875 0.0546875
0 0.7958984375 0.0 0.0625 0.046875
0 0.8984375 0.0 0.08203125 0.05859375
0 0.2939453125 0.0 0.0546875 0.0498046875
0 0.5703125 0.7705078125 0.0625 0.05859375
0 0.6708984375 0.7158203125 0.044921875 0.037109375
0 0.48046875 0.166015625 0.064453125 0.046875
