0 0.3642578125 0.7919921875 0.0732421875 0.080078125
0 0.091796875 0.13671875 0.080078125 0.0830078125
0 0.2216796875 0.4443359375 0.1005859375 0.072265625
0 0.3173828125 0.060546875 0.1796875 0.5341796875
0 0.3203125 0.2978515625 0.0830078125 0.0625
0 0.3642578125 0.169921875 0.125 0.0732421875
0 0.0 0.3095703125 0.0595703125 0.0849609375
0 0.7265625 0.7294921875 0.1328125 0.0673828125
0 0.1669921875 0.1494140625 0.0771484375 0.0546875
0 0.1220703125 0.4169921875 0.08203125 0.09765625
0 0.1875 0.5849609375 0.1044921875 0.0869140625
0 0.19921875 0.064453125 0.1025390625 0.0703125
0 0.396484375 0.951171875 0.091796875 0.048828125
0 0.7119140625 0.1630859375 0.1572265625 0.068359375
0 0.01953125 0.1669921875 0.0595703125 0.0576171875
0 0.9423828125 0.5771484375 0.0576171875 0.0703125
0 0.0166015625 0.20703125 0.095703125 0.0927734375
0 0.2294921875 0.1796875 0.0947265625 0.0595703125
0 0.6669921875 0.384765625 0.1025390625 0.0693359375
0 0.751953125 0.7822265625 0.0751953125 0.0546875
0 0.380859375 0.12109375 0.05078125 0.05078125
0 0.916015625 0.9462890625 0.08203125 0.052734375
0 0.3623046875 0.5224609375 0.1513671875 0.0732421875
