0 0.0 0.4970703125 0.0625 0.0927734375
0 0.357421875 0.029296875 0.13671875 0.0849609375
0 0.251953125 0.1298828125 0.0927734375 0.07421875
0 0.3046875 0.3095703125 0.107421875 0.08984375
0 0.5048828125 0.0244140625 0.13671875 0.1298828125
0 0.0 0.662109375 0.0947265625 0.0947265625
0 0.0 0.0009765625 0.03125 0.0869140625
0 0.421875 0.6494140625 0.1005859375 0.0771484375
0 0.654296875 0.546875 0.1328125 0.1025390625
0 0.3994140625 0.779296875 0.1650390625 0.1123046875
0 0.5625 0.1572265625 0.26953125 0.16015625
0 0.083984375 0.927734375 0.115234375 0.072265625
0 0.4267578125 0.171875 0.1357421875 0.09765625
0 0.9248046875 0.6923828125 0.072265625 0.0947265625
0 0.908203125 0.302734375 0.091796875 0.08984375
0 0.619140625 0.064453125 0.248046875 0.142578125
0 0.0 0.474609375 0.0048828125 0.0400390625
0 0.904296875 0.63671875 0.078125 0.0654296875
0 0.1689453125 0.9326171875 0.0625 0.046875
