0 0.0009765625 0.0 0.0732421875 0.041015625
0 0.1513671875 0.0 0.109375 0.041015625
0 0.2568359375 0.0703125 0.0859375 0.0830078125
0 0.0625 0.1162109375 0.06640625 0.0625
0 0.0 0.048828125 0.046875 0.1103515625
0 0.4462890625 0.0 0.107421875 0.12890625
0 0.599609375 0.0 0.078125 0.0673828125
0 0.6982421875 0.0 0.0654296875 0.0263671875
0 0.94921875 0.1728515625 0.05078125 0.1083984375
0 0.72265625 0.017578125 0.09765625 0.1728515625
0 0.2578125 0.2333984375 0.107421875 0.0869140625
0 0.453125 0.1455078125 0.080078125 0.0546875
0 0.13671875 0.3359375 0.0947265625 0.0703125
0 0.0107421875 0.3671875 0.08203125 0.08203125
0 0.00390625 0.2998046875 0.0703125 0.05078125
0 0.1240234375 0.451171875 0.0869140625 0.07421875
0 0.0380859375 0.478515625 0.072265625 0.072265625
0 0.375 0.4677734375 0.0888671875 0.0634765625
0 0.408203125 0.23828125 0.0732421875 0.1396484375
0 0.4462890625 0.3125 0.0869140625 0.1025390625
0 0.54296875 0.3466796875 0.0654296875 0.0859375
0 0.740234375 0.34765625 0.1005859375 0.10546875
0 0.841796875 0.3037109375 0.138671875 0.0830078125
0 0.57421875 0.484375 0.0654296875 0.06640625
0 0.4423828125 0.5380859375 0.1259765625 0.1337890625
0 0.2314453125 0.5908203125 0.072265625 0.09765625
0 0.0654296875 0.5869140625 0.083984375 0.0947265625
0 0.05078125 0.791015625 0.08984375 0.0869140625
0 0.095703125 0.640625 0.1357421875 0.12109375
0 0.33984375 0.76953125 0.1123046875 0.1396484375
0 0.6318359375 0.5888671875 0.142578125 0.0830078125
0 0.63671875 0.7607421875 0.12890625 0.0703125
0 0.2314453125 0.828125 0.099609375 0.0908203125
0 0.076171875 0.8837890625 0.0869140625 0.1123046875
0 0.177734375 0.9130859375 0.0703125 0.0654296875
0 0.7958984375 0.9404296875 0.125 0.0595703125
0 0.9775390625 0.6689453125 0.0224609375 0.0458984375
0 0.5625 0.9453125 0.0625 0.0546875
0 0.2529296875 0.9287109375 0.083984375 0.0654296875
0 0.2841796875 0.7314453125 0.1787109375 0.0673828125
