0 0.0556640625 0.044921875 0.0849609375 0.056640625
0 0.154296875 0.0068359375 0.0361328125 0.056640625
0 0.224609375 0.1396484375 0.0888671875 0.0771484375
0 0.32421875 0.1162109375 0.1044921875 0.05078125
0 0.3974609375 0.0732421875 0.025390625 0.052734375
0 0.271484375 0.0 0.0615234375 0.060546875
0 0.6337890625 0.0 0.056640625 0.0439453125
0 0.6533203125 0.0283203125 0.046875 0.087890625
0 0.708984375 0.048828125 0.05859375 0.0673828125
0 0.7841796875 0.060546875 0.0517578125 0.0732421875
0 0.6357421875 0.30859375 0.033203125 0.0810546875
0 0.6650390625 0.328125 0.041015625 0.083984375
0 0.634765625 0.4423828125 0.1181640625 0.04296875
0 0.697265625 0.46484375 0.0439453125 0.0390625
0 0.6904296875 0.55078125 0.0859375 0.03515625
0 0.5625 0.48828125 0.068359375 0.0791015625
0 0.49609375 0.4970703125 0.0986328125 0.0693359375
0 0.3681640625 0.4814453125 0.044921875 0.068359375
0 0.3271484375 0.5703125 0.05859375 0.056640625
0 0.1591796875 0.4794921875 0.0810546875 0.0849609375
0 0.0048828125 0.4755859375 0.0693359375 0.0556640625
0 0.1337890625 0.572265625 0.0576171875 0.0380859375
0 0.0205078125 0.5869140625 0.080078125 0.046875
0 0.015625 0.6435546875 0.0478515625 0.06640625
0 0.078125 0.689453125 0.060546875 0.033203125
0 0.2646484375 0.6669921875 0.0771484375 0.0517578125
0 0.533203125 0.671875 0.109375 0.0517578125
0 0.4736328125 0.5439453125 0.1162109375 0.0791015625
0 0.56640625 0.5546875 0.0625 0.05859375
0 0.5693359375 0.6279296875 0.056640625 0.0283203125
0 0.8427734375 0.5556640625 0.0361328125 0.033203125
0 0.734375 0.6005859375 0.068359375 0.0361328125
0 0.802734375 0.646484375 0.060546875 0.0625
0 0.94140625 0.5732421875 0.05859375 0.0732421875
0 0.90625 0.9072265625 0.0849609375 0.0732421875
0 0.85546875 0.7734375 0.0966796875 0.037109375
0 0.7548828125 0.798828125 0.064453125 0.078125
0 0.716796875 0.8271484375 0.044921875 0.0380859375
0 0.2109375 0.953125 0.076171875 0.046875
0 0.19921875 0.8583984375 0.0546875 0.0712890625
0 0.197265625 0.9375 0.041015625 0.060546875
