0 0.8896484375 0.787109375 0.068359375 0.125
0 0.259765625 0.6259765625 0.0966796875 0.0859375
0 0.0 0.3564453125 0.041015625 0.0654296875
0 0.828125 0.7431640625 0.0712890625 0.083984375
0 0.3330078125 0.6591796875 0.1201171875 0.080078125
0 0.3486328125 0.759765625 0.099609375 0.0966796875
0 0.4521484375 0.6201171875 0.0869140625 0.1142578125
0 0.89453125 0.5947265625 0.068359375 0.109375
0 0.4619140625 0.4736328125 0.1435546875 0.0888671875
0 0.2021484375 0.2392578125 0.0732421875 0.0869140625
0 0.1630859375 0.1015625 0.0947265625 0.0595703125
0 0.8017578125 0.673828125 0.0771484375 0.0625
0 0.953125 0.5 0.046875 0.1572265625
0 0.9013671875 0.357421875 0.0986328125 0.1015625
0 0.1767578125 0.6923828125 0.1328125 0.2353515625
0 0.7099609375 0.021484375 0.103515625 0.0556640625
0 0.3017578125 0.2958984375 0.1220703125 0.1591796875
0 0.111328125 0.01171875 0.1005859375 0.0791015625
0 0.3115234375 0.0 0.0869140625 0.064453125
0 0.1884765625 0.0 0.095703125 0.087890625
0 0.685546875 0.052734375 0.203125 0.0859375
0 0.0654296875 0.4208984375 0.095703125 0.1650390625
0 0.9462890625 0.7861328125 0.041015625 0.0966796875
0 0.900390625 0.7275390625 0.0751953125 0.0625
0 0.8095703125 0.5732421875 0.083984375 0.09765625
0 0.833984375 0.3759765625 0.083984375 0.072265625
0 0.4501953125 0.533203125 0.1220703125 0.080078125
0 0.0 0.2861328125 0.1015625 0.0615234375
0 0.12109375 0.2392578125 0.068359375 0.0771484375
0 0.1259765625 0.1533203125 0.0771484375 0.072265625
0 0.1875 0.1728515625 0.08984375 0.0791015625
