0 0.2587890625 0.0498046875 0.06640625 0.076171875
0 0.07421875 0.0 0.0634765625 0.0419921875
0 0.0615234375 0.10546875 0.0546875 0.0517578125
0 0.2685546875 0.1787109375 0.0966796875 0.091796875
0 0.2216796875 0.197265625 0.05078125 0.0537109375
0 0.3603515625 0.2412109375 0.103515625 0.060546875
0 0.4453125 0.25390625 0.1376953125 0.0810546875
0 0.53125 0.31640625 0.2060546875 0.0615234375
0 0.4619140625 0.328125 0.087890625 0.0732421875
0 0.1083984375 0.345703125 0.17578125 0.0634765625
0 0.0 0.1982421875 0.095703125 0.0595703125
0 0.0322265625 0.2666015625 0.0849609375 0.0732421875
0 0.1357421875 0.583984375 0.111328125 0.0712890625
0 0.279296875 0.56640625 0.119140625 0.1162109375
0 0.0 0.5703125 0.095703125 0.07421875
0 0.1171875 0.6357421875 0.0966796875 0.0693359375
0 0.046875 0.638671875 0.072265625 0.0869140625
0 0.1923828125 0.83984375 0.1064453125 0.09765625
0 0.2626953125 0.9384765625 0.091796875 0.0615234375
0 0.681640625 0.70703125 0.078125 0.05078125
0 0.75 0.6708984375 0.095703125 0.0595703125
0 0.642578125 0.5546875 0.1376953125 0.0703125
0 0.8291015625 0.482421875 0.064453125 0.0576171875
0 0.8505859375 0.5322265625 0.0712890625 0.0537109375
0 0.892578125 0.896484375 0.0966796875 0.103515625
0 0.83984375 0.7802734375 0.078125 0.05078125
0 0.7841796875 0.7509765625 0.0595703125 0.0673828125
0 0.732421875 0.7705078125 0.0634765625 0.076171875
0 0.6240234375 0.7451171875 0.06640625 0.0791015625
0 0.4453125 0.8232421875 0.2587890625 0.12109375
0 0.6708984375 0.8818359375 0.0986328125 0.0625
0 0.328125 0.8466796875 0.0751953125 0.0712890625
0 0.3984375 0.9375 0.0673828125 0.0625
0 0.0498046875 0.857421875 0.11328125 0.0693359375
0 0.037109375 0.8251953125 0.0625 0.08203125
0 0.0 0.783203125 0.0546875 0.08984375
0 0.9423828125 0.3037109375 0.0576171875 0.1455078125
0 0.873046875 0.375 0.068359375 0.080078125
0 0.9130859375 0.2294921875 0.056640625 0.09375
0 0.671875 0.1123046875 0.1025390625 0.1064453125
0 0.7431640625 0.1669921875 0.0927734375 0.0595703125
0 0.73828125 0.2314453125 0.09765625 0.0859375
0 0.8798828125 0.0224609375 0.0625 0.1328125
0 0.5966796875 0.076171875 0.0751953125 0.0732421875
0 0.5 0.0498046875 0.0908203125 0.140625
0 0.3828125 0.328125 0.072265625 0.0625
0 0.474609375 0.525390625 0.0712890625 0.072265625
0 0.0 0.3544921875 0.0654296875 0.05859375
0 0.7412109375 0.521484375 0.068359375 0.05078125
0 0.861328125 0.685546875 0.060546875 0.0595703125
0 0.2265625 0.037109375 0.0654296875 0.0625
0 0.5498046875 0.4404296875 0.119140625 0.0703125
0 0.6484375 0.30859375 0.0693359375 0.115234375
