0 0.328125 0.099609375 0.0556640625 0.0771484375
0 0.35546875 0.1904296875 0.0703125 0.068359375
0 0.4072265625 0.12109375 0.107421875 0.080078125
0 0.4833984375 0.212890625 0.068359375 0.09765625
0 0.4912109375 0.0 0.1171875 0.0615234375
0 0.376953125 0.0 0.111328125 0.04296875
0 0.375 0.0400390625 0.064453125 0.052734375
0 0.0 0.3583984375 0.068359375 0.146484375
0 0.177734375 0.3427734375 0.1533203125 0.126953125
0 0.2763671875 0.3603515625 0.068359375 0.07421875
0 0.2421875 0.4453125 0.0771484375 0.103515625
0 0.09765625 0.462890625 0.0947265625 0.09765625
0 0.287109375 0.525390625 0.1025390625 0.1298828125
0 0.2275390625 0.57421875 0.060546875 0.07421875
0 0.16015625 0.5888671875 0.0791015625 0.078125
0 0.1396484375 0.69140625 0.09765625 0.095703125
0 0.3525390625 0.642578125 0.080078125 0.068359375
0 0.4970703125 0.7041015625 0.068359375 0.0703125
0 0.4970703125 0.6162109375 0.0703125 0.0625
0 0.580078125 0.4921875 0.1005859375 0.078125
0 0.701171875 0.4033203125 0.0546875 0.0810546875
0 0.755859375 0.4619140625 0.0830078125 0.056640625
0 0.7294921875 0.3076171875 0.07421875 0.0859375
0 0.796875 0.330078125 0.0703125 0.076171875
0 0.9072265625 0.3125 0.0771484375 0.0888671875
0 0.9140625 0.4873046875 0.0859375 0.107421875
0 0.8466796875 0.615234375 0.068359375 0.0888671875
0 0.822265625 0.6953125 0.0576171875 0.052734375
0 0.7890625 0.6591796875 0.064453125 0.044921875
0 0.9013671875 0.7744140625 0.072265625 0.0947265625
0 0.263671875 0.8623046875 0.080078125 0.083984375
0 0.2001953125 0.966796875 0.0927734375 0.033203125
0 0.5302734375 0.9375 0.0859375 0.0625
0 0.6923828125 0.9638671875 0.109375 0.0361328125
0 0.76171875 0.0009765625 0.0732421875 0.0771484375
0 0.857421875 0.0185546875 0.0791015625 0.0654296875
0 0.056640625 0.26953125 0.0908203125 0.0888671875
0 0.54296875 0.068359375 0.04296875 0.0654296875
0 0.375 0.1552734375 0.0732421875 0.0595703125
0 0.0 0.0 0.0517578125 0.0390625
0 0.3359375 0.38671875 0.068359375 0.046875
0 0.1591796875 0.3828125 0.0634765625 0.0810546875
0 0.0 0.4833984375 0.11328125 0.0615234375
0 0.0 0.5341796875 0.025390625 0.0322265625
0 0.7646484375 0.7109375 0.060546875 0.05859375
