0 0.029296875 0.3076171875 0.06640625 0.068359375
0 0.919921875 0.28515625 0.0703125 0.0712890625
0 0.037109375 0.2744140625 0.0615234375 0.078125
0 0.78515625 0.0 0.0771484375 0.0556640625
0 0.81640625 0.9638671875 0.09375 0.0341796875
0 0.7177734375 0.90625 0.08203125 0.0703125
0 0.7412109375 0.001953125 0.060546875 0.0712890625
0 0.541015625 0.0244140625 0.0595703125 0.0576171875
0 0.8486328125 0.3408203125 0.0595703125 0.05078125
0 0.439453125 0.7255859375 0.08203125 0.076171875
0 0.4462890625 0.0712890625 0.0654296875 0.06640625
0 0.564453125 0.705078125 0.080078125 0.0439453125
0 0.8486328125 0.1298828125 0.0615234375 0.0830078125
0 0.2861328125 0.494140625 0.06640625 0.0537109375
0 0.0 0.4169921875 0.03515625 0.052734375
0 0.4892578125 0.4052734375 0.060546875 0.0341796875
0 0.9658203125 0.4833984375 0.0341796875 0.09375
0 0.310546875 0.2978515625 0.029296875 0.0908203125
0 0.9404296875 0.064453125 0.0419921875 0.060546875
0 0.068359375 0.55859375 0.080078125 0.0380859375
0 0.19921875 0.7978515625 0.05859375 0.056640625
0 0.2197265625 0.97265625 0.0478515625 0.02734375
0 0.7197265625 0.0634765625 0.0478515625 0.064453125
0 0.234375 0.0009765625 0.080078125 0.037109375
0 0.2607421875 0.64453125 0.046875 0.0615234375
0 0.4384765625 0.5263671875 0.0478515625 0.0615234375
0 0.66796875 0.287109375 0.03125 0.064453125
0 0.486328125 0.361328125 0.0595703125 0.056640625
0 0.3359375 0.7236328125 0.080078125 0.0771484375
0 0.2177734375 0.3662109375 0.103515625 0.037109375
0 0.494140625 0.3076171875 0.0595703125 0.0537109375
0 0.078125 0.4130859375 0.046875 0.056640625
0 0.6279296875 0.6357421875 0.056640625 0.041015625
0 0.623046875 0.1875 0.0283203125 0.0703125
0 0.712890625 0.3359375 0.046875 0.056640625
0 0.75 0.4404296875 0.060546875 0.03125
0 0.005859375 0.9541015625 0.0732421875 0.0283203125
0 0.52734375 0.36328125 0.0859375 0.0751953125
0 0.388671875 0.96484375 0.03515625 0.033203125
0 0.91015625 0.935546875 0.0546875 0.0361328125
0 0.1572265625 0.5712890625 0.060546875 0.0361328125
0 0.880859375 0.30078125 0.0615234375 0.0595703125
0 0.9404296875 0.4970703125 0.04296875 0.052734375
0 0.267578125 0.2099609375 0.0771484375 0.0419921875
0 0.068359375 0.87890625 0.1240234375 0.0458984375
0 0.779296875 0.3076171875 0.05859375 0.0595703125
0 0.4599609375 0.9345703125 0.041015625 0.044921875
0 0.4052734375 0.650390625 0.0634765625 0.02734375
0 0.3876953125 0.6904296875 0.0595703125 0.0341796875
0 0.322265625 0.2353515625 0.048828125 0.04296875
0 0.2236328125 0.330078125 0.0830078125 0.0498046875
0 0.4072265625 0.6064453125 0.068359375 0.048828125
0 0.5263671875 0.94921875 0.037109375 0.0458984375
0 0.78515625 0.2421875 0.05078125 0.0244140625
0 0.585546875 0.478515625 0.07011718749999996 0.050585937499999956
0 0.712890625 0.4384765625 0.05859375 0.0556640625
0 0.4609375 0.8818359375 0.029296875 0.0654296875
0 0.2822265625 0.728515625 0.0595703125 0.0400390625
0 0.6279296875 0.75 0.0791015625 0.04296875
0 0.6357421875 0.8076171875 0.0712890625 0.03515625
0 0.8994140625 0.6220703125 0.0419921875 0.044921875
0 0.8671875 0.265625 0.0712890625 0.0771484375
0 0.55859375 0.951171875 0.052734375 0.0478515625
0 0.0 0.775390625 0.0771484375 0.056640625
