0 0.0 0.021484375 0.1083984375 0.0703125
0 0.0 0.1416015625 0.06640625 0.1494140625
0 0.046875 0.2412109375 0.09765625 0.0771484375
0 0.009765625 0.482421875 0.06640625 0.0751953125
0 0.0166015625 0.6591796875 0.0751953125 0.107421875
0 0.2255859375 0.65625 0.0810546875 0.134765625
0 0.0 0.8486328125 0.0166015625 0.056640625
0 0.0478515625 0.8974609375 0.0615234375 0.087890625
0 0.2587890625 0.8935546875 0.068359375 0.072265625
0 0.193359375 0.9296875 0.05859375 0.05859375
0 0.1044921875 0.8466796875 0.0595703125 0.05859375
0 0.3349609375 0.5419921875 0.07421875 0.07421875
0 0.353515625 0.6044921875 0.109375 0.1201171875
0 0.4892578125 0.609375 0.115234375 0.1005859375
0 0.529296875 0.6826171875 0.1064453125 0.083984375
0 0.5419921875 0.8779296875 0.146484375 0.1064453125
0 0.92578125 0.9375 0.07421875 0.05078125
0 0.9482421875 0.8818359375 0.0517578125 0.05078125
0 0.927734375 0.810546875 0.072265625 0.0625
0 0.8896484375 0.6611328125 0.09765625 0.0673828125
0 0.865234375 0.740234375 0.060546875 0.0478515625
0 0.7099609375 0.6376953125 0.095703125 0.0947265625
0 0.6044921875 0.509765625 0.076171875 0.0849609375
0 0.6708984375 0.375 0.0693359375 0.0673828125
0 0.69921875 0.244140625 0.13671875 0.0791015625
0 0.8564453125 0.4111328125 0.076171875 0.0849609375
0 0.751953125 0.4072265625 0.130859375 0.13671875
0 0.93359375 0.3603515625 0.06640625 0.0810546875
0 0.3427734375 0.0 0.0849609375 0.0419921875
0 0.5244140625 0.0908203125 0.0888671875 0.0654296875
0 0.34375 0.232421875 0.1005859375 0.0595703125
0 0.2509765625 0.255859375 0.0703125 0.0625
0 0.31640625 0.119140625 0.044921875 0.0615234375
0 0.1787109375 0.0263671875 0.05859375 0.0634765625
0 0.109375 0.576171875 0.0625 0.0615234375
0 0.228515625 0.419921875 0.056640625 0.056640625
0 0.0 0.314453125 0.0419921875 0.076171875
0 0.7626953125 0.8408203125 0.068359375 0.056640625
0 0.2431640625 0.572265625 0.0986328125 0.08203125
0 0.2958984375 0.375 0.0634765625 0.0703125
0 0.4765625 0.48046875 0.06640625 0.05859375
0 0.732421875 0.3330078125 0.080078125 0.0830078125
