0 0.2451171875 0.23046875 0.0732421875 0.091796875
0 0.0400390625 0.201171875 0.10546875 0.1171875
0 0.0478515625 0.32421875 0.0771484375 0.0927734375
0 0.103515625 0.5107421875 0.138671875 0.130859375
0 0.0 0.48828125 0.07421875 0.103515625
0 0.3720703125 0.482421875 0.1279296875 0.125
0 0.6171875 0.3017578125 0.134765625 0.08984375
0 0.576171875 0.234375 0.126953125 0.0634765625
0 0.4404296875 0.228515625 0.099609375 0.09765625
0 0.48828125 0.0419921875 0.09765625 0.0869140625
0 0.712890625 0.087890625 0.095703125 0.0810546875
0 0.7451171875 0.0 0.0947265625 0.0703125
0 0.72265625 0.505859375 0.1015625 0.08203125
0 0.7861328125 0.95703125 0.0576171875 0.04296875
0 0.720703125 0.849609375 0.103515625 0.09765625
0 0.2568359375 0.935546875 0.0966796875 0.064453125
0 0.08203125 0.9208984375 0.0986328125 0.0791015625
0 0.322265625 0.8203125 0.1025390625 0.0849609375
0 0.466796875 0.7109375 0.091796875 0.0888671875
0 0.08984375 0.73046875 0.12890625 0.0615234375
0 0.0 0.689453125 0.0478515625 0.0625
0 0.5087890625 0.845703125 0.0673828125 0.1328125
0 0.927734375 0.0 0.072265625 0.078125
0 0.3046875 0.0 0.060546875 0.04296875
