0 0.0 0.2783203125 0.0146484375 0.0673828125
0 0.0263671875 0.2607421875 0.109375 0.0751953125
0 0.080078125 0.1455078125 0.0888671875 0.1328125
0 0.0 0.08203125 0.056640625 0.048828125
0 0.0 0.0126953125 0.11328125 0.1123046875
0 0.197265625 0.0302734375 0.0693359375 0.1005859375
0 0.1474609375 0.0 0.0595703125 0.107421875
0 0.1708984375 0.126953125 0.0576171875 0.078125
0 0.2470703125 0.2958984375 0.0927734375 0.076171875
0 0.212890625 0.224609375 0.21875 0.0673828125
0 0.4228515625 0.0537109375 0.0537109375 0.0859375
0 0.4453125 0.125 0.162109375 0.1474609375
0 0.595703125 0.2587890625 0.0859375 0.123046875
0 0.501953125 0.0 0.0546875 0.107421875
0 0.6689453125 0.1767578125 0.13671875 0.09375
0 0.7587890625 0.107421875 0.0654296875 0.10546875
0 0.0283203125 0.474609375 0.12109375 0.1923828125
0 0.0 0.6904296875 0.056640625 0.1396484375
0 0.0283203125 0.7666015625 0.0712890625 0.0830078125
0 0.0341796875 0.6494140625 0.0947265625 0.0751953125
0 0.1552734375 0.705078125 0.0458984375 0.0556640625
0 0.1201171875 0.7431640625 0.0751953125 0.0654296875
0 0.1787109375 0.6474609375 0.064453125 0.0576171875
0 0.2109375 0.71484375 0.0478515625 0.0537109375
0 0.5068359375 0.568359375 0.1083984375 0.1328125
0 0.462890625 0.7626953125 0.0751953125 0.0693359375
0 0.357421875 0.73828125 0.0693359375 0.068359375
0 0.2109375 0.75390625 0.109375 0.1630859375
0 0.236328125 0.7783203125 0.142578125 0.150390625
0 0.09375 0.849609375 0.103515625 0.150390625
0 0.0 0.947265625 0.0458984375 0.052734375
0 0.435546875 0.8935546875 0.134765625 0.1064453125
0 0.6884765625 0.73046875 0.0859375 0.0751953125
0 0.97265625 0.6474609375 0.02734375 0.12890625
0 0.9111328125 0.80859375 0.0888671875 0.0927734375
0 0.7666015625 0.7998046875 0.134765625 0.09765625
0 0.8681640625 0.6220703125 0.0673828125 0.15625
0 0.83203125 0.4072265625 0.099609375 0.1982421875
0 0.9169921875 0.5126953125 0.0830078125 0.1162109375
0 0.806640625 0.060546875 0.181640625 0.0830078125
0 0.857421875 0.126953125 0.0859375 0.072265625
0 0.1025390625 0.0 0.0390625 0.0390625
0 0.7666015625 0.248046875 0.0400390625 0.0390625
0 0.875 0.8154296875 0.095703125 0.1484375
