0 0.19140625 0.484375 0.1103515625 0.0576171875
0 0.83203125 0.0732421875 0.107421875 0.091796875
0 0.8515625 0.619140625 0.0927734375 0.0830078125
0 0.5419921875 0.2724609375 0.1044921875 0.1533203125
0 0.798828125 0.1435546875 0.1064453125 0.080078125
0 0.4794921875 0.8671875 0.0576171875 0.095703125
0 0.2333984375 0.419921875 0.138671875 0.0830078125
0 0.630859375 0.3681640625 0.130859375 0.1171875
0 0.8662109375 0.90234375 0.087890625 0.09765625
0 0.068359375 0.6083984375 0.1435546875 0.103515625
0 0.0 0.7861328125 0.001953125 0.1005859375
0 0.30859375 0.15625 0.12109375 0.078125
0 0.41796875 0.001953125 0.06640625 0.1298828125
0 0.505859375 0.1376953125 0.087890625 0.09765625
0 0.283203125 0.474609375 0.1201171875 0.1171875
0 0.822265625 0.4853515625 0.177734375 0.1669921875
0 0.1513671875 0.0009765625 0.142578125 0.0498046875
0 0.3251953125 0.6669921875 0.103515625 0.2158203125
0 0.736328125 0.341796875 0.2158203125 0.083984375
0 0.0 0.0 0.0673828125 0.021484375
0 0.6728515625 0.806640625 0.099609375 0.0625
0 0.83203125 0.8046875 0.0791015625 0.0908203125
0 0.8701171875 0.740234375 0.125 0.0712890625
0 0.4345703125 0.0810546875 0.0537109375 0.072265625
0 0.333984375 0.9287109375 0.048828125 0.0390625
0 0.248046875 0.130859375 0.0546875 0.0810546875
0 0.8857421875 0.0 0.06640625 0.0419921875
0 0.2685546875 0.0 0.0673828125 0.021484375
