0 0.447265625 0.556640625 0.1123046875 0.1201171875
0 0.466796875 0.4443359375 0.0927734375 0.1123046875
0 0.876953125 0.029296875 0.123046875 0.1474609375
0 0.20703125 0.6494140625 0.1123046875 0.1279296875
0 0.703125 0.447265625 0.1015625 0.1337890625
0 0.6943359375 0.6171875 0.1025390625 0.1328125
0 0.5927734375 0.9619140625 0.078125 0.0380859375
0 0.171875 0.126953125 0.1025390625 0.087890625
0 0.001953125 0.3369140625 0.134765625 0.123046875
0 0.8271484375 0.349609375 0.072265625 0.115234375
0 0.162109375 0.51953125 0.1201171875 0.1171875
0 0.7666015625 0.697265625 0.1181640625 0.1474609375
0 0.734375 0.0068359375 0.125 0.09765625
0 0.8046875 0.197265625 0.09765625 0.1318359375
0 0.5751953125 0.01953125 0.0380859375 0.0634765625
0 0.0849609375 0.0244140625 0.08984375 0.0947265625
0 0.001953125 0.8515625 0.10546875 0.0927734375
0 0.001953125 0.9296875 0.08984375 0.0703125
0 0.869140625 0.3974609375 0.080078125 0.0791015625
0 0.6923828125 0.1845703125 0.0595703125 0.08984375
