0 0.2900390625 0.8974609375 0.1083984375 0.1025390625
0 0.1015625 0.9208984375 0.099609375 0.0693359375
0 0.3671875 0.716796875 0.1376953125 0.1513671875
0 0.326171875 0.361328125 0.1044921875 0.212890625
0 0.216796875 0.2958984375 0.09375 0.2421875
0 0.125 0.2666015625 0.103515625 0.12890625
0 0.0 0.1552734375 0.076171875 0.142578125
0 0.5322265625 0.3857421875 0.140625 0.0888671875
0 0.625 0.482421875 0.080078125 0.10546875
0 0.5703125 0.505859375 0.0888671875 0.1396484375
0 0.48046875 0.50390625 0.10546875 0.1435546875
0 0.6533203125 0.6201171875 0.0849609375 0.0849609375
0 0.609375 0.7802734375 0.09375 0.1171875
0 0.5341796875 0.9208984375 0.087890625 0.076171875
0 0.8203125 0.9033203125 0.0693359375 0.0966796875
0 0.861328125 0.810546875 0.0693359375 0.1005859375
0 0.9453125 0.716796875 0.0546875 0.126953125
0 0.5419921875 0.25390625 0.0869140625 0.09375
0 0.4228515625 0.099609375 0.08984375 0.109375
0 0.357421875 0.2705078125 0.0712890625 0.0947265625
0 0.4072265625 0.0 0.119140625 0.0673828125
0 0.357421875 0.0 0.109375 0.0263671875
0 0.1396484375 0.0 0.1005859375 0.07421875
0 0.693359375 0.0 0.0771484375 0.0517578125
0 0.6201171875 0.0 0.0966796875 0.1201171875
0 0.607421875 0.1376953125 0.0712890625 0.0791015625
0 0.9091796875 0.0859375 0.0908203125 0.08203125
0 0.9384765625 0.357421875 0.0615234375 0.0888671875
0 0.0166015625 0.087890625 0.140625 0.11328125
