0 0.7119140625 0.9541015625 0.0576171875 0.0458984375
0 0.611328125 0.9501953125 0.0478515625 0.0498046875
0 0.8037109375 0.966796875 0.05078125 0.033203125
0 0.662109375 0.8408203125 0.052734375 0.09375
0 0.787109375 0.6796875 0.0546875 0.0625
