0 0.0 0.037109375 0.0419921875 0.064453125
0 0.0185546875 0.0 0.0859375 0.0419921875
0 0.259765625 0.048828125 0.080078125 0.0673828125
0 0.099609375 0.0791015625 0.072265625 0.1064453125
0 0.0458984375 0.1025390625 0.0859375 0.158203125
0 0.0 0.3486328125 0.044921875 0.08203125
0 0.0 0.4443359375 0.0322265625 0.0869140625
0 0.0576171875 0.4921875 0.0791015625 0.0771484375
0 0.1748046875 0.4794921875 0.080078125 0.0654296875
0 0.3515625 0.416015625 0.1064453125 0.0771484375
0 0.1748046875 0.689453125 0.125 0.076171875
0 0.181640625 0.7734375 0.0693359375 0.0576171875
0 0.001953125 0.8603515625 0.0576171875 0.103515625
0 0.0517578125 0.8720703125 0.0712890625 0.0810546875
0 0.423828125 0.83984375 0.068359375 0.13671875
0 0.5419921875 0.9189453125 0.1015625 0.0810546875
0 0.701171875 0.953125 0.078125 0.046875
0 0.87890625 0.927734375 0.1181640625 0.072265625
0 0.875 0.6533203125 0.0830078125 0.0888671875
0 0.7890625 0.576171875 0.103515625 0.0791015625
0 0.892578125 0.56640625 0.0654296875 0.0771484375
0 0.6474609375 0.6455078125 0.0751953125 0.0615234375
0 0.6572265625 0.505859375 0.0625 0.0732421875
0 0.5908203125 0.4326171875 0.09375 0.0595703125
0 0.4521484375 0.6455078125 0.076171875 0.091796875
0 0.53515625 0.5498046875 0.0859375 0.0791015625
0 0.48046875 0.5615234375 0.068359375 0.0712890625
0 0.3251953125 0.5830078125 0.0615234375 0.103515625
0 0.3720703125 0.5712890625 0.0859375 0.0791015625
0 0.240234375 0.552734375 0.0712890625 0.068359375
0 0.55859375 0.34765625 0.1181640625 0.0791015625
0 0.4765625 0.2158203125 0.1005859375 0.09765625
0 0.7333984375 0.1337890625 0.0625 0.076171875
0 0.580078125 0.048828125 0.076171875 0.0927734375
0 0.701171875 0.0 0.1005859375 0.0859375
0 0.4892578125 0.0 0.07421875 0.0654296875
0 0.435546875 0.0 0.056640625 0.0703125
0 0.337890625 0.0 0.0927734375 0.046875
0 0.701171875 0.8837890625 0.0869140625 0.076171875
0 0.28125 0.5810546875 0.0673828125 0.0615234375
0 0.75 0.2900390625 0.0712890625 0.0849609375
0 0.1376953125 0.0 0.1083984375 0.02734375
