0 0.0 0.08203125 0.1083984375 0.0849609375
0 0.0 0.2666015625 0.03515625 0.0986328125
0 0.162109375 0.30859375 0.0966796875 0.0703125
0 0.021484375 0.44921875 0.078125 0.1162109375
0 0.1552734375 0.5849609375 0.0751953125 0.099609375
0 0.0439453125 0.8984375 0.0712890625 0.1015625
0 0.1142578125 0.787109375 0.0791015625 0.12109375
0 0.1728515625 0.865234375 0.072265625 0.083984375
0 0.205078125 0.6611328125 0.0849609375 0.0791015625
0 0.486328125 0.146484375 0.0849609375 0.072265625
0 0.2294921875 0.0537109375 0.1083984375 0.1220703125
0 0.7509765625 0.0 0.076171875 0.09375
0 0.9482421875 0.05859375 0.0498046875 0.0703125
0 0.68359375 0.2041015625 0.076171875 0.0830078125
0 0.623046875 0.4638671875 0.064453125 0.083984375
0 0.740234375 0.49609375 0.0966796875 0.07421875
0 0.8583984375 0.458984375 0.1083984375 0.0908203125
0 0.8671875 0.3525390625 0.087890625 0.0732421875
0 0.35546875 0.6845703125 0.1396484375 0.05859375
0 0.4345703125 0.65234375 0.0810546875 0.0498046875
0 0.6416015625 0.6201171875 0.0947265625 0.0751953125
0 0.4052734375 0.7919921875 0.056640625 0.0732421875
0 0.4892578125 0.90234375 0.0673828125 0.0751953125
0 0.4716796875 0.9287109375 0.078125 0.0712890625
0 0.2919921875 0.3037109375 0.060546875 0.048828125
