0 0.671875 0.0087890625 0.0654296875 0.11328125
0 0.10546875 0.0224609375 0.0869140625 0.08203125
0 0.369140625 0.392578125 0.0693359375 0.0625
0 0.703125 0.6767578125 0.095703125 0.0634765625
0 0.5673828125 0.6318359375 0.087890625 0.0498046875
0 0.4052734375 0.208984375 0.0537109375 0.0927734375
0 0.2822265625 0.7197265625 0.0791015625 0.1025390625
0 0.7470703125 0.45703125 0.0478515625 0.087890625
0 0.98046875 0.015625 0.01953125 0.080078125
0 0.43359375 0.14453125 0.142578125 0.0625
0 0.7763671875 0.2431640625 0.0673828125 0.0869140625
0 0.267578125 0.4912109375 0.0908203125 0.060546875
0 0.2412109375 0.166015625 0.0927734375 0.07421875
0 0.5224609375 0.53125 0.0634765625 0.052734375
0 0.0009765625 0.8662109375 0.0302734375 0.0517578125
0 0.42578125 0.0 0.060546875 0.0625
0 0.123046875 0.53515625 0.078125 0.0634765625
0 0.037109375 0.7265625 0.0771484375 0.064453125
0 0.08984375 0.2431640625 0.0869140625 0.107421875
0 0.0263671875 0.80859375 0.091796875 0.0537109375
0 0.36328125 0.45703125 0.046875 0.072265625
0 0.7392578125 0.0009765625 0.0478515625 0.0546875
0 0.0439453125 0.3154296875 0.0908203125 0.048828125
0 0.0107421875 0.9453125 0.1337890625 0.052734375
0 0.056640625 0.4365234375 0.0888671875 0.1181640625
0 0.443359375 0.8798828125 0.0576171875 0.048828125
0 0.115234375 0.0009765625 0.0712890625 0.0478515625
0 0.359375 0.0 0.0439453125 0.048828125
0 0.2158203125 0.0 0.076171875 0.0419921875
0 0.884765625 0.75 0.06640625 0.0615234375
0 0.908203125 0.02734375 0.0654296875 0.1396484375
0 0.8486328125 0.6630859375 0.0576171875 0.0595703125
0 0.1875 0.8359375 0.05078125 0.0771484375
0 0.341796875 0.2060546875 0.0615234375 0.04296875
0 0.89453125 0.583984375 0.0751953125 0.037109375
0 0.17578125 0.63671875 0.076171875 0.0478515625
0 0.23828125 0.4013671875 0.0986328125 0.0537109375
0 0.1982421875 0.771484375 0.060546875 0.0322265625
0 0.5966796875 0.4599609375 0.05078125 0.0517578125
0 0.107421875 0.6767578125 0.0673828125 0.044921875
0 0.3984375 0.7451171875 0.0361328125 0.083984375
0 0.3154296875 0.484375 0.1298828125 0.0859375
0 0.8984375 0.953125 0.0859375 0.0419921875
0 0.646484375 0.373046875 0.0888671875 0.0478515625
0 0.8193359375 0.587890625 0.0537109375 0.052734375
0 0.14453125 0.6025390625 0.076171875 0.0341796875
0 0.9169921875 0.384765625 0.0732421875 0.0458984375
0 0.279296875 0.5185546875 0.0615234375 0.0595703125
0 0.009765625 0.0009765625 0.060546875 0.0263671875
0 0.5146484375 0.8779296875 0.0859375 0.041015625
0 0.1875 0.9599609375 0.1005859375 0.0400390625
0 0.423828125 0.970703125 0.087890625 0.02734375
0 0.5537109375 0.48046875 0.048828125 0.0712890625
0 0.0859375 0.1044921875 0.0986328125 0.0849609375
0 0.935546875 0.4677734375 0.064453125 0.087890625
0 0.4501953125 0.7734375 0.064453125 0.0517578125
0 0.2578125 0.5849609375 0.0791015625 0.041015625
0 0.55859375 0.5634765625 0.0712890625 0.0390625
0 0.03125 0.5224609375 0.0361328125 0.046875
0 0.3623046875 0.736328125 0.0888671875 0.0673828125
0 0.1025390625 0.7177734375 0.115234375 0.119140625
0 0.3837890625 0.578125 0.041015625 0.0400390625
0 0.2509765625 0.755859375 0.04296875 0.03515625
0 0.927734375 0.0 0.033203125 0.052734375
0 0.0146484375 0.3935546875 0.0478515625 0.080078125
0 0.7314453125 0.0078125 0.0439453125 0.052734375
0 0.103515625 0.71484375 0.0556640625 0.0634765625
0 0.0205078125 0.1708984375 0.1064453125 0.041015625
0 0.015625 0.0478515625 0.087890625 0.068359375
0 0.3955078125 0.623046875 0.08984375 0.0693359375
0 0.6708984375 0.5009765625 0.041015625 0.05078125
0 0.619140625 0.51953125 0.0732421875 0.0703125
0 0.84375 0.7431640625 0.046875 0.0419921875
0 0.369140625 0.8671875 0.10546875 0.0849609375
0 0.8154296875 0.865234375 0.076171875 0.0458984375
0 0.2490234375 0.95703125 0.0966796875 0.041015625
