0 0.19140625 0.333984375 0.0908203125 0.1044921875
0 0.6572265625 0.0673828125 0.07421875 0.1171875
0 0.06640625 0.4140625 0.083984375 0.119140625
0 0.9013671875 0.4296875 0.0556640625 0.076171875
0 0.0 0.1943359375 0.0947265625 0.0634765625
0 0.501953125 0.1884765625 0.0859375 0.0673828125
0 0.3798828125 0.4716796875 0.2216796875 0.064453125
0 0.638671875 0.4931640625 0.0537109375 0.033203125
0 0.099609375 0.423828125 0.130859375 0.1142578125
0 0.2265625 0.1083984375 0.0546875 0.076171875
0 0.84765625 0.462890625 0.0673828125 0.1083984375
0 0.330078125 0.0224609375 0.07421875 0.1240234375
0 0.564453125 0.9384765625 0.087890625 0.0615234375
0 0.16796875 0.119140625 0.1005859375 0.072265625
0 0.71484375 0.0 0.0390625 0.09765625
0 0.5419921875 0.0234375 0.080078125 0.0517578125
0 0.8447265625 0.2412109375 0.060546875 0.0546875
0 0.947265625 0.43359375 0.052734375 0.1162109375
0 0.03125 0.673828125 0.107421875 0.052734375
0 0.578125 0.28515625 0.1181640625 0.0439453125
0 0.923828125 0.5029296875 0.0400390625 0.0556640625
0 0.701171875 0.537109375 0.06640625 0.044921875
0 0.66796875 0.8955078125 0.1416015625 0.0673828125
0 0.7841796875 0.0869140625 0.0400390625 0.087890625
0 0.3359375 0.9501953125 0.10546875 0.046875
0 0.6767578125 0.4814453125 0.0439453125 0.05859375
0 0.904296875 0.2919921875 0.068359375 0.0439453125
0 0.9150390625 0.9140625 0.046875 0.0390625
0 0.1953125 0.580078125 0.123046875 0.041015625
0 0.583984375 0.4697265625 0.060546875 0.0419921875
0 0.841796875 0.65625 0.052734375 0.0576171875
0 0.0654296875 0.8828125 0.17578125 0.05859375
0 0.1005859375 0.9384765625 0.0615234375 0.037109375
0 0.80078125 0.1572265625 0.0654296875 0.05859375
0 0.4033203125 0.0400390625 0.06640625 0.044921875
0 0.4091796875 0.25 0.0556640625 0.056640625
0 0.5380859375 0.58203125 0.166015625 0.0625
0 0.6181640625 0.6337890625 0.0859375 0.076171875
0 0.8408203125 0.8837890625 0.080078125 0.0498046875
0 0.9580078125 0.4873046875 0.0419921875 0.0908203125
0 0.373046875 0.5009765625 0.0615234375 0.037109375
0 0.228515625 0.671875 0.0419921875 0.044921875
0 0.4013671875 0.3818359375 0.0927734375 0.0380859375
0 0.4423828125 0.943359375 0.05859375 0.0322265625
0 0.9248046875 0.3515625 0.041015625 0.1103515625
0 0.57421875 0.5390625 0.130859375 0.0576171875
0 0.93359375 0.25 0.060546875 0.0478515625
0 0.9072265625 0.0419921875 0.0556640625 0.0400390625
0 0.0 0.8837890625 0.052734375 0.046875
0 0.0 0.9306640625 0.0517578125 0.0341796875
0 0.9052734375 0.9814453125 0.0947265625 0.0185546875
0 0.205078125 0.5693359375 0.119140625 0.060546875
0 0.0009765625 0.232421875 0.04296875 0.0439453125
0 0.7685546875 0.548828125 0.064453125 0.05078125
0 0.4521484375 0.5859375 0.107421875 0.0693359375
0 0.625 0.515625 0.05859375 0.048828125
0 0.4287109375 0.751953125 0.068359375 0.04296875
0 0.1240234375 0.2099609375 0.0419921875 0.0625
