0 0.6591796875 0.9521484375 0.064453125 0.0478515625
0 0.4453125 0.9658203125 0.0830078125 0.0341796875
0 0.7060546875 0.8310546875 0.1162109375 0.0888671875
0 0.3505859375 0.9580078125 0.083984375 0.0419921875
0 0.2490234375 0.8779296875 0.1064453125 0.103515625
0 0.224609375 0.9736328125 0.0859375 0.0263671875
0 0.17578125 0.9326171875 0.056640625 0.0673828125
0 0.0751953125 0.826171875 0.064453125 0.115234375
0 0.134765625 0.849609375 0.07421875 0.0810546875
0 0.1630859375 0.7080078125 0.0595703125 0.0751953125
0 0.0048828125 0.4814453125 0.0732421875 0.06640625
0 0.2822265625 0.4140625 0.1220703125 0.0771484375
0 0.314453125 0.568359375 0.08984375 0.1005859375
0 0.2568359375 0.6171875 0.0693359375 0.0927734375
0 0.0 0.328125 0.0322265625 0.1513671875
0 0.1064453125 0.41796875 0.10546875 0.09375
0 0.1005859375 0.322265625 0.068359375 0.107421875
0 0.025390625 0.291015625 0.0888671875 0.1015625
0 0.6259765625 0.7373046875 0.078125 0.091796875
0 0.677734375 0.6884765625 0.07421875 0.0771484375
0 0.5478515625 0.66015625 0.0947265625 0.0654296875
0 0.4453125 0.576171875 0.0986328125 0.1025390625
0 0.765625 0.611328125 0.1591796875 0.0791015625
0 0.642578125 0.615234375 0.0908203125 0.0703125
0 0.5556640625 0.3828125 0.091796875 0.060546875
0 0.515625 0.4501953125 0.08203125 0.0703125
0 0.419921875 0.4833984375 0.0576171875 0.083984375
0 0.357421875 0.4736328125 0.078125 0.09765625
0 0.8447265625 0.453125 0.080078125 0.0732421875
0 0.66015625 0.4501953125 0.1376953125 0.078125
0 0.7138671875 0.2919921875 0.107421875 0.125
0 0.5927734375 0.2412109375 0.1181640625 0.1044921875
0 0.3740234375 0.3056640625 0.0556640625 0.09375
0 0.9052734375 0.521484375 0.0810546875 0.0791015625
0 0.892578125 0.7802734375 0.0986328125 0.072265625
0 0.861328125 0.8349609375 0.07421875 0.08984375
0 0.40625 0.7333984375 0.0859375 0.0625
0 0.4453125 0.828125 0.068359375 0.0595703125
0 0.58984375 0.705078125 0.064453125 0.1318359375
0 0.896484375 0.2666015625 0.07421875 0.08203125
0 0.6357421875 0.5302734375 0.0732421875 0.056640625
0 0.2890625 0.73828125 0.0771484375 0.0771484375
0 0.0 0.814453125 0.037109375 0.0712890625
0 0.05078125 0.9169921875 0.078125 0.080078125
0 0.904296875 0.6279296875 0.0888671875 0.068359375
0 0.84765625 0.576171875 0.0869140625 0.056640625
0 0.552734375 0.3515625 0.0810546875 0.0595703125
0 0.091796875 0.703125 0.0771484375 0.0771484375
0 0.0 0.7353515625 0.0361328125 0.0419921875
0 0.349609375 0.8818359375 0.060546875 0.03515625
0 0.6279296875 0.830078125 0.0517578125 0.0400390625
0 0.833984375 0.9716796875 0.0751953125 0.0283203125
0 0.93359375 0.712890625 0.06640625 0.0673828125
0 0.9755859375 0.6103515625 0.0244140625 0.046875
0 0.783203125 0.5888671875 0.0634765625 0.046875
0 0.919921875 0.58984375 0.0439453125 0.041015625
0 0.7509765625 0.349609375 0.0595703125 0.095703125
0 0.7216796875 0.27734375 0.0244140625 0.0478515625
0 0.703125 0.14453125 0.0673828125 0.091796875
0 0.55078125 0.7724609375 0.0615234375 0.048828125
