0 0.7548828125 0.125 0.14453125 0.07421875
0 0.626953125 0.0390625 0.107421875 0.0751953125
0 0.7265625 0.287109375 0.16015625 0.080078125
0 0.5 0.8515625 0.1044921875 0.0751953125
0 0.654296875 0.8798828125 0.10546875 0.0947265625
0 0.8271484375 0.71875 0.171875 0.0830078125
0 0.5322265625 0.0 0.1171875 0.056640625
0 0.8017578125 0.4619140625 0.1982421875 0.0830078125
0 0.681640625 0.578125 0.13671875 0.080078125
0 0.7724609375 0.01171875 0.14453125 0.0654296875
0 0.806640625 0.6669921875 0.1201171875 0.0615234375
0 0.564453125 0.3193359375 0.10546875 0.072265625
0 0.6943359375 0.466796875 0.123046875 0.0576171875
0 0.4619140625 0.58984375 0.1005859375 0.08203125
0 0.4248046875 0.0771484375 0.0849609375 0.0673828125
0 0.76171875 0.2294921875 0.1357421875 0.0478515625
0 0.7197265625 0.2646484375 0.134765625 0.0400390625
0 0.4716796875 0.19921875 0.09765625 0.0556640625
0 0.732421875 0.0498046875 0.109375 0.0595703125
0 0.607421875 0.01953125 0.099609375 0.0478515625
0 0.9365234375 0.533203125 0.0634765625 0.0751953125
0 0.8505859375 0.95703125 0.1142578125 0.04296875
