0 0.8291015625 0.1904296875 0.1015625 0.083984375
0 0.1171875 0.654296875 0.1171875 0.1123046875
0 0.6142578125 0.4794921875 0.1025390625 0.0830078125
0 0.83203125 0.0 0.1123046875 0.1015625
0 0.0869140625 0.322265625 0.1103515625 0.1044921875
0 0.625 0.0 0.0771484375 0.0673828125
0 0.5595703125 0.7412109375 0.103515625 0.0908203125
0 0.509765625 0.1220703125 0.091796875 0.080078125
0 0.5625 0.431640625 0.091796875 0.09765625
0 0.0546875 0.779296875 0.1044921875 0.1103515625
