0 0.13671875 0.947265625 0.0703125 0.052734375
0 0.66015625 0.90234375 0.05078125 0.064453125
0 0.224609375 0.814453125 0.0634765625 0.1044921875
0 0.8447265625 0.7265625 0.0625 0.06640625
0 0.126953125 0.8447265625 0.072265625 0.080078125
0 0.751953125 0.83984375 0.0830078125 0.072265625
0 0.88671875 0.857421875 0.0576171875 0.064453125
0 0.3642578125 0.9970703125 0.0830078125 0.0029296875
0 0.1025390625 0.783203125 0.087890625 0.0732421875
0 0.6044921875 0.9072265625 0.056640625 0.056640625
0 0.9052734375 0.7529296875 0.0498046875 0.0498046875
0 0.8349609375 0.9521484375 0.064453125 0.0478515625
