0 0.4169921875 0.0 0.0693359375 0.07421875
0 0.4345703125 0.51171875 0.0771484375 0.111328125
0 0.0244140625 0.36328125 0.083984375 0.0673828125
0 0.078125 0.91796875 0.0908203125 0.0654296875
0 0.1689453125 0.81640625 0.1123046875 0.09765625
0 0.9423828125 0.4833984375 0.0576171875 0.083984375
0 0.814453125 0.4677734375 0.0546875 0.1005859375
0 0.3466796875 0.4638671875 0.0693359375 0.080078125
0 0.62109375 0.8935546875 0.0537109375 0.09765625
0 0.603515625 0.8046875 0.0908203125 0.0615234375
0 0.7353515625 0.048828125 0.0625 0.091796875
0 0.5 0.30078125 0.0810546875 0.08984375
0 0.01171875 0.5634765625 0.087890625 0.0986328125
0 0.1728515625 0.29296875 0.0908203125 0.0693359375
0 0.81640625 0.5390625 0.052734375 0.0712890625
0 0.12109375 0.5595703125 0.05859375 0.05859375
0 0.9052734375 0.0732421875 0.0478515625 0.087890625
0 0.0859375 0.2958984375 0.083984375 0.08203125
0 0.345703125 0.0 0.0537109375 0.0634765625
0 0.197265625 0.482421875 0.0732421875 0.0615234375
0 0.412109375 0.71484375 0.044921875 0.1064453125
0 0.787109375 0.08984375 0.052734375 0.0712890625
0 0.4599609375 0.1806640625 0.0595703125 0.0615234375
0 0.39453125 0.275390625 0.1005859375 0.0625
0 0.74609375 0.767578125 0.0615234375 0.05078125
0 0.7041015625 0.529296875 0.0556640625 0.0966796875
0 0.4833984375 0.2578125 0.1025390625 0.0576171875
0 0.64453125 0.3916015625 0.056640625 0.068359375
0 0.0751953125 0.1337890625 0.171875 0.1728515625
0 0.2861328125 0.65234375 0.08203125 0.064453125
0 0.556640625 0.7119140625 0.0576171875 0.0478515625
0 0.7529296875 0.6171875 0.091796875 0.0654296875
0 0.5400390625 0.02734375 0.0546875 0.1455078125
0 0.6865234375 0.96484375 0.0712890625 0.03515625
0 0.3818359375 0.2919921875 0.0693359375 0.064453125
0 0.03125 0.9111328125 0.1181640625 0.0888671875
0 0.1318359375 0.2099609375 0.0654296875 0.095703125
0 0.232421875 0.2392578125 0.1337890625 0.0537109375
0 0.314453125 0.1845703125 0.0888671875 0.0732421875
0 0.3876953125 0.5390625 0.0732421875 0.08984375
0 0.2314453125 0.5439453125 0.048828125 0.0927734375
0 0.337890625 0.3125 0.033203125 0.076171875
0 0.716796875 0.7900390625 0.068359375 0.033203125
0 0.6044921875 0.2099609375 0.056640625 0.056640625
0 0.3212890625 0.478515625 0.0498046875 0.0625
0 0.7529296875 0.90625 0.0576171875 0.0546875
0 0.3017578125 0.1611328125 0.0869140625 0.0654296875
0 0.46484375 0.0009765625 0.0341796875 0.03125
0 0.3212890625 0.74609375 0.056640625 0.033203125
0 0.6396484375 0.669921875 0.05078125 0.04296875
0 0.201171875 0.216796875 0.0693359375 0.037109375
0 0.591796875 0.345703125 0.044921875 0.0458984375
0 0.2119140625 0.826171875 0.08203125 0.04296875
0 0.6376953125 0.583984375 0.080078125 0.08203125
0 0.111328125 0.37109375 0.0859375 0.03515625
0 0.4541015625 0.876953125 0.0634765625 0.044921875
0 0.36328125 0.34765625 0.087890625 0.05078125
0 0.3876953125 0.87890625 0.06640625 0.05078125
0 0.4482421875 0.9169921875 0.0908203125 0.041015625
0 0.3798828125 0.0986328125 0.0458984375 0.0380859375
0 0.6962890625 0.65234375 0.0546875 0.0849609375
0 0.001953125 0.96484375 0.0732421875 0.03515625
0 0.580078125 0.9267578125 0.05078125 0.0400390625
0 0.580078125 0.8759765625 0.0400390625 0.05078125
0 0.728515625 0.615234375 0.064453125 0.05859375
0 0.7001953125 0.3359375 0.08984375 0.0615234375
0 0.6796875 0.2568359375 0.0859375 0.0830078125
0 0.572265625 0.140625 0.0302734375 0.0498046875
