0 0.0 0.0 0.02734375 0.0625
0 0.521484375 0.0 0.0908203125 0.052734375
0 0.5947265625 0.1298828125 0.04296875 0.046875
0 0.6630859375 0.1435546875 0.10546875 0.0791015625
0 0.806640625 0.017578125 0.0654296875 0.1015625
0 0.9775390625 0.1376953125 0.0224609375 0.05859375
0 0.1708984375 0.5830078125 0.0625 0.07421875
0 0.0732421875 0.6552734375 0.0732421875 0.05859375
0 0.0888671875 0.7099609375 0.0751953125 0.04296875
0 0.017578125 0.734375 0.0947265625 0.091796875
0 0.0 0.8779296875 0.0439453125 0.091796875
0 0.2294921875 0.806640625 0.0966796875 0.076171875
0 0.3857421875 0.7646484375 0.072265625 0.08203125
0 0.4423828125 0.771484375 0.08984375 0.0927734375
0 0.38671875 0.658203125 0.09375 0.0751953125
0 0.2724609375 0.517578125 0.0927734375 0.1513671875
0 0.5283203125 0.5693359375 0.072265625 0.0712890625
0 0.53515625 0.7421875 0.0654296875 0.0732421875
0 0.51171875 0.8662109375 0.05859375 0.0751953125
0 0.39453125 0.8525390625 0.10546875 0.078125
0 0.3916015625 0.908203125 0.095703125 0.06640625
0 0.37109375 0.93359375 0.0751953125 0.06640625
0 0.302734375 0.8544921875 0.0615234375 0.0556640625
0 0.6689453125 0.6962890625 0.19140625 0.0908203125
0 0.6982421875 0.75390625 0.0673828125 0.078125
0 0.7763671875 0.861328125 0.1103515625 0.1142578125
0 0.9873046875 0.671875 0.0126953125 0.0869140625
0 0.7021484375 0.97265625 0.0859375 0.02734375
0 0.1103515625 0.951171875 0.091796875 0.048828125
