0 0.8896484375 0.072265625 0.1103515625 0.1044921875
0 0.689453125 0.099609375 0.099609375 0.1396484375
0 0.1669921875 0.119140625 0.08984375 0.1328125
0 0.3623046875 0.0244140625 0.09765625 0.1279296875
0 0.7548828125 0.732421875 0.0869140625 0.1142578125
0 0.9599609375 0.3369140625 0.0400390625 0.0751953125
0 0.9169921875 0.232421875 0.0830078125 0.099609375
0 0.52734375 0.08203125 0.099609375 0.16015625
0 0.0244140625 0.2421875 0.1005859375 0.09765625
0 0.0966796875 0.4267578125 0.125 0.1298828125
0 0.2265625 0.7548828125 0.080078125 0.091796875
0 0.6044921875 0.376953125 0.08984375 0.15234375
0 0.2392578125 0.5224609375 0.0703125 0.107421875
0 0.3671875 0.2294921875 0.0751953125 0.0771484375
0 0.8017578125 0.1923828125 0.080078125 0.1025390625
0 0.6494140625 0.5419921875 0.0771484375 0.1123046875
0 0.9033203125 0.826171875 0.0966796875 0.1650390625
0 0.83203125 0.001953125 0.115234375 0.080078125
0 0.1640625 0.8916015625 0.064453125 0.0625
0 0.1416015625 0.71484375 0.0732421875 0.0869140625
0 0.115234375 0.6064453125 0.0634765625 0.072265625
0 0.76171875 0.26171875 0.0830078125 0.08984375
0 0.001953125 0.0693359375 0.0927734375 0.125
0 0.0390625 0.001953125 0.087890625 0.0947265625
0 0.4697265625 0.2744140625 0.1123046875 0.1875
0 0.0546875 0.787109375 0.0615234375 0.0595703125
0 0.669921875 0.314453125 0.0595703125 0.125
0 0.5693359375 0.5517578125 0.0751953125 0.087890625
0 0.5849609375 0.001953125 0.0625 0.072265625
0 0.5166015625 0.001953125 0.060546875 0.0703125
0 0.6142578125 0.892578125 0.0732421875 0.0810546875
0 0.5966796875 0.3037109375 0.0517578125 0.083984375
