0 0.1689453125 0.115234375 0.068359375 0.0771484375
0 0.94921875 0.9111328125 0.044921875 0.0888671875
0 0.7568359375 0.3115234375 0.05078125 0.1123046875
0 0.3291015625 0.6767578125 0.052734375 0.095703125
0 0.056640625 0.373046875 0.0693359375 0.0927734375
0 0.40234375 0.6083984375 0.0546875 0.0908203125
0 0.0751953125 0.931640625 0.083984375 0.052734375
0 0.7421875 0.0244140625 0.0595703125 0.07421875
0 0.6533203125 0.572265625 0.07421875 0.078125
0 0.083984375 0.5888671875 0.056640625 0.12890625
0 0.509765625 0.4619140625 0.0673828125 0.140625
0 0.01953125 0.908203125 0.078125 0.0615234375
0 0.869140625 0.115234375 0.068359375 0.126953125
0 0.76171875 0.5595703125 0.0419921875 0.0654296875
0 0.3642578125 0.65625 0.099609375 0.09375
0 0.7197265625 0.7197265625 0.0419921875 0.080078125
0 0.2685546875 0.00390625 0.1044921875 0.119140625
0 0.572265625 0.1474609375 0.033203125 0.078125
0 0.58203125 0.439453125 0.076171875 0.177734375
0 0.2470703125 0.4716796875 0.0908203125 0.0810546875
0 0.0 0.7333984375 0.02734375 0.0625
0 0.0361328125 0.625 0.0830078125 0.08203125
0 0.6357421875 0.6953125 0.0361328125 0.0810546875
0 0.146484375 0.6474609375 0.03125 0.068359375
0 0.3779296875 0.068359375 0.02734375 0.0751953125
0 0.140625 0.119140625 0.02734375 0.080078125
0 0.0849609375 0.55859375 0.0751953125 0.0771484375
0 0.9677734375 0.0751953125 0.0322265625 0.0751953125
0 0.7861328125 0.0 0.0361328125 0.0673828125
0 0.2763671875 0.2978515625 0.0673828125 0.0576171875
0 0.796875 0.671875 0.044921875 0.0849609375
0 0.609375 0.638671875 0.03125 0.0595703125
0 0.62890625 0.12109375 0.0400390625 0.0625
0 0.2171875 0.62060546875 0.06875 0.0576171875
0 0.0 0.1064453125 0.0517578125 0.08203125
0 0.3623046875 0.6650390625 0.0615234375 0.1064453125
0 0.1689453125 0.041015625 0.0576171875 0.0556640625
0 0.0732421875 0.1025390625 0.06640625 0.169921875
0 0.0 0.607421875 0.0517578125 0.072265625
0 0.8935546875 0.6357421875 0.1064453125 0.1015625
0 0.896484375 0.6181640625 0.0419921875 0.0703125
0 0.7705078125 0.705078125 0.0341796875 0.0869140625
0 0.8818359375 0.1083984375 0.0390625 0.064453125
0 0.056640625 0.3212890625 0.0517578125 0.0791015625
0 0.55859375 0.9033203125 0.03515625 0.072265625
0 0.7373046875 0.3876953125 0.048828125 0.0595703125
0 0.703125 0.2919921875 0.0615234375 0.08984375
0 0.3125 0.0 0.05078125 0.0380859375
0 0.693359375 0.46552734375 0.02734375 0.060546875000000056
0 0.2763671875 0.33984375 0.044921875 0.0341796875
0 0.7265625 0.0 0.0341796875 0.044921875
0 0.1533203125 0.4287109375 0.0517578125 0.0625
0 0.08203125 0.099609375 0.0400390625 0.0654296875
0 0.76171875 0.705078125 0.03515625 0.07421875
0 0.0830078125 0.0205078125 0.0439453125 0.060546875
0 0.044921875 0.0087890625 0.03515625 0.0361328125
0 0.5009765625 0.7294921875 0.0908203125 0.0498046875
0 0.9326171875 0.791015625 0.0517578125 0.0517578125
0 0.888671875 0.7265625 0.04296875 0.052734375
