0 0.6005859375 0.3515625 0.0615234375 0.10546875
0 0.5693359375 0.5458984375 0.087890625 0.1044921875
0 0.951171875 0.369140625 0.048828125 0.0751953125
0 0.6875 0.57421875 0.0869140625 0.0703125
0 0.607421875 0.0419921875 0.0966796875 0.1123046875
0 0.572265625 0.1796875 0.064453125 0.107421875
0 0.89453125 0.1796875 0.0771484375 0.0751953125
0 0.8720703125 0.091796875 0.08984375 0.1005859375
0 0.8515625 0.306640625 0.1025390625 0.0751953125
0 0.4443359375 0.431640625 0.0927734375 0.080078125
0 0.6318359375 0.2392578125 0.080078125 0.0751953125
0 0.9169921875 0.794921875 0.0830078125 0.1025390625
0 0.501953125 0.158203125 0.064453125 0.119140625
0 0.6044921875 0.4541015625 0.0595703125 0.0625
0 0.71484375 0.1845703125 0.091796875 0.169921875
0 0.630859375 0.7265625 0.0595703125 0.0615234375
0 0.3779296875 0.0576171875 0.0869140625 0.0927734375
0 0.4365234375 0.8466796875 0.1181640625 0.0625
0 0.5908203125 0.75390625 0.0751953125 0.0654296875
0 0.44921875 0.0390625 0.0703125 0.1376953125
0 0.798828125 0.564453125 0.072265625 0.05859375
0 0.7294921875 0.6767578125 0.0771484375 0.0673828125
0 0.5107421875 0.8740234375 0.080078125 0.080078125
0 0.87109375 0.8623046875 0.0791015625 0.056640625
0 0.9619140625 0.0068359375 0.0380859375 0.0537109375
0 0.7294921875 0.0068359375 0.0703125 0.177734375
0 0.54296875 0.0009765625 0.064453125 0.0751953125
0 0.51171875 0.005859375 0.0498046875 0.0576171875
0 0.6220703125 0.001953125 0.0546875 0.0625
0 0.474609375 0.3896484375 0.087890625 0.12109375
0 0.8623046875 0.5419921875 0.0693359375 0.0595703125
0 0.6240234375 0.9482421875 0.08203125 0.05078125
