0 0.095703125 0.0 0.0947265625 0.02734375
0 0.0166015625 0.0 0.1044921875 0.0185546875
0 0.33203125 0.060546875 0.0712890625 0.0546875
0 0.390625 0.0458984375 0.1015625 0.0341796875
0 0.42578125 0.001953125 0.07421875 0.0634765625
0 0.1474609375 0.31640625 0.109375 0.0537109375
0 0.06640625 0.296875 0.0986328125 0.044921875
0 0.0234375 0.26953125 0.0439453125 0.0986328125
0 0.15625 0.38671875 0.0888671875 0.0732421875
0 0.328125 0.390625 0.041015625 0.056640625
0 0.3515625 0.4560546875 0.1240234375 0.0546875
0 0.4345703125 0.35546875 0.0703125 0.041015625
0 0.3291015625 0.1328125 0.0634765625 0.0322265625
0 0.091796875 0.5283203125 0.056640625 0.0458984375
0 0.2021484375 0.5859375 0.076171875 0.0625
0 0.34375 0.5419921875 0.0966796875 0.0400390625
0 0.634765625 0.5244140625 0.0478515625 0.0380859375
0 0.5947265625 0.46484375 0.0810546875 0.05078125
0 0.55859375 0.349609375 0.0947265625 0.0576171875
0 0.5517578125 0.376953125 0.0419921875 0.0703125
0 0.587890625 0.275390625 0.068359375 0.0673828125
0 0.6904296875 0.314453125 0.0810546875 0.0712890625
0 0.841796875 0.2958984375 0.05859375 0.0859375
0 0.9130859375 0.3125 0.0703125 0.064453125
0 0.830078125 0.40625 0.083984375 0.0419921875
0 0.7119140625 0.3994140625 0.1201171875 0.0478515625
0 0.751953125 0.5126953125 0.080078125 0.046875
0 0.7236328125 0.5126953125 0.0380859375 0.0302734375
0 0.7294921875 0.58203125 0.0791015625 0.0458984375
0 0.4462890625 0.67578125 0.0927734375 0.0458984375
0 0.408203125 0.712890625 0.1259765625 0.08984375
0 0.267578125 0.7314453125 0.1298828125 0.0830078125
0 0.240234375 0.74609375 0.03125 0.0341796875
0 0.029296875 0.7060546875 0.1025390625 0.07421875
0 0.091796875 0.802734375 0.072265625 0.037109375
0 0.033203125 0.841796875 0.1298828125 0.03515625
0 0.1279296875 0.89453125 0.0458984375 0.041015625
0 0.0 0.9140625 0.07421875 0.037109375
0 0.0380859375 0.9423828125 0.1240234375 0.0380859375
0 0.244140625 0.9423828125 0.115234375 0.041015625
0 0.2470703125 0.8818359375 0.1103515625 0.0439453125
0 0.5244140625 0.833984375 0.060546875 0.068359375
0 0.4326171875 0.9296875 0.10546875 0.052734375
0 0.3876953125 0.966796875 0.1455078125 0.033203125
0 0.6298828125 0.8466796875 0.09765625 0.037109375
0 0.67578125 0.8828125 0.072265625 0.0263671875
0 0.7333984375 0.8857421875 0.0537109375 0.0634765625
0 0.71875 0.830078125 0.078125 0.0576171875
0 0.8076171875 0.7841796875 0.0302734375 0.0380859375
0 0.83203125 0.7900390625 0.1103515625 0.0498046875
0 0.869140625 0.736328125 0.0380859375 0.07421875
0 0.9267578125 0.7880859375 0.0732421875 0.0458984375
0 0.86328125 0.9111328125 0.0712890625 0.04296875
0 0.8876953125 0.9443359375 0.0732421875 0.0556640625
0 0.732421875 0.0 0.1083984375 0.033203125
0 0.7119140625 0.0751953125 0.0771484375 0.044921875
0 0.744140625 0.1279296875 0.05078125 0.03125
0 0.396484375 0.826171875 0.1142578125 0.0595703125
