0 0.494140625 0.408203125 0.1025390625 0.1123046875
0 0.0546875 0.5791015625 0.107421875 0.1171875
0 0.841796875 0.0 0.123046875 0.0341796875
0 0.8466796875 0.771484375 0.1533203125 0.1201171875
0 0.06640625 0.2216796875 0.1171875 0.10546875
0 0.64453125 0.314453125 0.09765625 0.0947265625
0 0.876953125 0.45703125 0.123046875 0.09765625
0 0.865234375 0.2685546875 0.09765625 0.0830078125
0 0.794921875 0.033203125 0.095703125 0.0869140625
0 0.45703125 0.234375 0.0908203125 0.107421875
0 0.9248046875 0.0 0.0751953125 0.1044921875
0 0.1220703125 0.689453125 0.0771484375 0.0849609375
0 0.74609375 0.634765625 0.0947265625 0.0927734375
0 0.7119140625 0.876953125 0.125 0.1103515625
0 0.51953125 0.697265625 0.09765625 0.1123046875
0 0.822265625 0.529296875 0.177734375 0.150390625
0 0.48046875 0.916015625 0.0830078125 0.083984375
0 0.0107421875 0.41015625 0.078125 0.0771484375
0 0.001953125 0.037109375 0.10546875 0.115234375
0 0.611328125 0.9248046875 0.0986328125 0.072265625
