0 0.0 0.9287109375 0.0830078125 0.0712890625
0 0.0 0.0458984375 0.0380859375 0.078125
0 0.0380859375 0.0 0.0693359375 0.05078125
0 0.119140625 0.033203125 0.119140625 0.06640625
0 0.1259765625 0.14453125 0.06640625 0.1357421875
0 0.0517578125 0.21484375 0.072265625 0.1103515625
0 0.037109375 0.3623046875 0.072265625 0.107421875
0 0.1103515625 0.3388671875 0.056640625 0.109375
0 0.1416015625 0.2763671875 0.0693359375 0.134765625
0 0.099609375 0.7021484375 0.0986328125 0.0712890625
0 0.1728515625 0.7451171875 0.1416015625 0.1748046875
0 0.2353515625 0.6630859375 0.111328125 0.0986328125
0 0.27734375 0.857421875 0.1328125 0.095703125
0 0.31640625 0.9326171875 0.095703125 0.06640625
0 0.416015625 0.796875 0.0810546875 0.0693359375
0 0.6611328125 0.951171875 0.0615234375 0.048828125
0 0.7646484375 0.955078125 0.1025390625 0.044921875
0 0.619140625 0.8583984375 0.060546875 0.064453125
0 0.712890625 0.8525390625 0.087890625 0.0810546875
0 0.79296875 0.6298828125 0.0703125 0.140625
0 0.650390625 0.53125 0.0625 0.1259765625
0 0.345703125 0.5556640625 0.0615234375 0.0625
0 0.890625 0.51171875 0.0986328125 0.087890625
0 0.85546875 0.4619140625 0.07421875 0.0703125
0 0.296875 0.3515625 0.10546875 0.1455078125
0 0.3701171875 0.3955078125 0.06640625 0.0986328125
0 0.4794921875 0.310546875 0.0751953125 0.1298828125
0 0.5517578125 0.3037109375 0.119140625 0.1044921875
0 0.97265625 0.1787109375 0.02734375 0.1240234375
0 0.8173828125 0.1171875 0.0654296875 0.05859375
0 0.607421875 0.091796875 0.068359375 0.083984375
0 0.3720703125 0.0537109375 0.0947265625 0.0517578125
0 0.3349609375 0.015625 0.0830078125 0.0712890625
0 0.5400390625 0.01171875 0.072265625 0.087890625
0 0.6064453125 0.0341796875 0.0859375 0.0732421875
0 0.8125 0.0224609375 0.1015625 0.07421875
0 0.828125 0.8134765625 0.0625 0.111328125
0 0.3798828125 0.099609375 0.0400390625 0.0322265625
0 0.6572265625 0.0009765625 0.056640625 0.0302734375
0 0.97265625 0.0 0.02734375 0.0146484375
0 0.9345703125 0.2216796875 0.0654296875 0.115234375
0 0.3349609375 0.0 0.1064453125 0.046875
0 0.0 0.5283203125 0.0166015625 0.0576171875
0 0.2197265625 0.40625 0.05078125 0.04296875
0 0.232421875 0.7451171875 0.0595703125 0.0703125
0 0.6572265625 0.8486328125 0.0703125 0.0673828125
0 0.73046875 0.978515625 0.033203125 0.021484375
