0 0.203125 0.552734375 0.0712890625 0.09375
0 0.6875 0.5126953125 0.0576171875 0.087890625
0 0.5419921875 0.3837890625 0.080078125 0.0771484375
0 0.0478515625 0.25 0.125 0.0810546875
0 0.060546875 0.0771484375 0.0771484375 0.0849609375
0 0.8525390625 0.400390625 0.0830078125 0.052734375
0 0.5458984375 0.560546875 0.0810546875 0.0693359375
0 0.435546875 0.2197265625 0.0908203125 0.05078125
0 0.7392578125 0.5244140625 0.072265625 0.0546875
0 0.216796875 0.830078125 0.0751953125 0.076171875
0 0.8544921875 0.0966796875 0.11328125 0.0537109375
0 0.666015625 0.603515625 0.08984375 0.072265625
0 0.62890625 0.9326171875 0.0986328125 0.0478515625
0 0.7568359375 0.46484375 0.0732421875 0.05078125
0 0.6796875 0.2900390625 0.0986328125 0.083984375
0 0.7265625 0.6044921875 0.0693359375 0.0546875
0 0.1083984375 0.6396484375 0.1005859375 0.044921875
0 0.83984375 0.5625 0.0830078125 0.0771484375
0 0.7568359375 0.2421875 0.11328125 0.072265625
0 0.0 0.4970703125 0.0732421875 0.06640625
0 0.64453125 0.3876953125 0.0869140625 0.107421875
0 0.509765625 0.34375 0.080078125 0.037109375
0 0.3515625 0.8671875 0.134765625 0.0361328125
0 0.1435546875 0.423828125 0.0810546875 0.044921875
0 0.267578125 0.0126953125 0.0732421875 0.0537109375
0 0.26171875 0.41796875 0.09765625 0.0400390625
0 0.03125 0.6142578125 0.080078125 0.0302734375
0 0.7939453125 0.16796875 0.0625 0.0634765625
0 0.173828125 0.1943359375 0.0380859375 0.095703125
0 0.271484375 0.197265625 0.09765625 0.0517578125
0 0.5224609375 0.8828125 0.107421875 0.0439453125
0 0.9423828125 0.5625 0.048828125 0.0595703125
0 0.5673828125 0.7119140625 0.0732421875 0.0400390625
0 0.8759765625 0.0009765625 0.02734375 0.1025390625
0 0.4609375 0.64453125 0.0927734375 0.0380859375
0 0.3564453125 0.724609375 0.05078125 0.0771484375
0 0.146484375 0.712890625 0.1337890625 0.1279296875
0 0.9716796875 0.4033203125 0.0283203125 0.0400390625
0 0.212890625 0.8115234375 0.0908203125 0.044921875
0 0.2744140625 0.0 0.0625 0.0390625
0 0.287109375 0.123046875 0.1005859375 0.0751953125
0 0.541015625 0.1591796875 0.0673828125 0.046875
0 0.6337890625 0.662109375 0.0634765625 0.04296875
0 0.0 0.8134765625 0.0927734375 0.0380859375
0 0.1689453125 0.9462890625 0.1103515625 0.0380859375
0 0.0 0.232421875 0.05859375 0.0673828125
0 0.666015625 0.0205078125 0.15234375 0.11328125
0 0.7958984375 0.1904296875 0.0810546875 0.0888671875
0 0.0 0.6728515625 0.0634765625 0.0498046875
0 0.888671875 0.86328125 0.0693359375 0.064453125
0 0.6044921875 0.296875 0.0576171875 0.04296875
0 0.80859375 0.0009765625 0.0400390625 0.0283203125
0 0.6103515625 0.5185546875 0.048828125 0.0517578125
0 0.048828125 0.65625 0.08203125 0.0380859375
0 0.0 0.892578125 0.0693359375 0.0458984375
0 0.12109375 0.9541015625 0.0478515625 0.0322265625
0 0.23046875 0.1767578125 0.0810546875 0.0830078125
0 0.98046875 0.47265625 0.01953125 0.0419921875
0 0.0 0.7861328125 0.041015625 0.0244140625
0 0.001953125 0.5224609375 0.06640625 0.0478515625
0 0.3486328125 0.720703125 0.046875 0.06640625
0 0.787109375 0.814453125 0.1708984375 0.0693359375
0 0.8837890625 0.8037109375 0.0859375 0.0380859375
0 0.3095703125 0.822265625 0.1494140625 0.0458984375
0 0.6826171875 0.2880859375 0.10546875 0.0693359375
0 0.361328125 0.8046875 0.0888671875 0.0537109375
