0 0.6064453125 0.263671875 0.052734375 0.095703125
0 0.701171875 0.0 0.0439453125 0.0732421875
0 0.3984375 0.1396484375 0.083984375 0.0810546875
0 0.578125 0.3359375 0.0556640625 0.0732421875
0 0.326171875 0.033203125 0.0576171875 0.080078125
0 0.1318359375 0.8564453125 0.048828125 0.0947265625
0 0.0302734375 0.11328125 0.078125 0.05859375
0 0.1044921875 0.421875 0.0869140625 0.0546875
0 0.2177734375 0.3408203125 0.060546875 0.07421875
0 0.2158203125 0.2900390625 0.0673828125 0.0712890625
0 0.3232421875 0.1220703125 0.09375 0.06640625
0 0.7978515625 0.015625 0.0498046875 0.107421875
0 0.0302734375 0.03125 0.072265625 0.0576171875
0 0.4169921875 0.029296875 0.0849609375 0.0556640625
0 0.45703125 0.0 0.0478515625 0.0625
0 0.177734375 0.0595703125 0.0791015625 0.0703125
0 0.0048828125 0.283203125 0.0732421875 0.07421875
0 0.80859375 0.61328125 0.0615234375 0.0751953125
0 0.720703125 0.9541015625 0.130859375 0.044921875
0 0.7880859375 0.3408203125 0.0498046875 0.068359375
0 0.17578125 0.9130859375 0.0712890625 0.0419921875
0 0.2236328125 0.4453125 0.068359375 0.044921875
0 0.2060546875 0.37109375 0.0400390625 0.0576171875
0 0.1904296875 0.0 0.0419921875 0.041015625
0 0.6201171875 0.6455078125 0.083984375 0.05859375
0 0.0703125 0.765625 0.0576171875 0.056640625
0 0.1630859375 0.3759765625 0.05078125 0.0634765625
0 0.8447265625 0.5849609375 0.0732421875 0.0498046875
0 0.5791015625 0.0 0.03515625 0.0546875
0 0.0791015625 0.1005859375 0.05859375 0.0478515625
0 0.5634765625 0.4697265625 0.068359375 0.0400390625
0 0.3291015625 0.9296875 0.109375 0.0478515625
0 0.0 0.322265625 0.0205078125 0.0654296875
0 0.9423828125 0.7705078125 0.0556640625 0.06640625
0 0.8984375 0.826171875 0.0537109375 0.0576171875
0 0.169921875 0.2783203125 0.0498046875 0.0576171875
0 0.681640625 0.361328125 0.0390625 0.1103515625
0 0.671875 0.693359375 0.03515625 0.0595703125
0 0.6728515625 0.7314453125 0.0615234375 0.052734375
0 0.78515625 0.8623046875 0.0439453125 0.0576171875
0 0.3603515625 0.2099609375 0.0849609375 0.0458984375
0 0.224609375 0.6103515625 0.0361328125 0.048828125
0 0.0283203125 0.6259765625 0.076171875 0.0400390625
0 0.654296875 0.3818359375 0.0869140625 0.05859375
0 0.6708984375 0.1982421875 0.05078125 0.052734375
0 0.0439453125 0.6748046875 0.0908203125 0.060546875
0 0.548828125 0.4755859375 0.0517578125 0.0322265625
0 0.97265625 0.6728515625 0.02734375 0.0810546875
0 0.8447265625 0.7900390625 0.03515625 0.05078125
0 0.9482421875 0.9248046875 0.0517578125 0.0556640625
0 0.560546875 0.0009765625 0.03125 0.04296875
0 0.6142578125 0.95703125 0.0595703125 0.041015625
0 0.4091796875 0.3837890625 0.0439453125 0.0546875
0 0.78125 0.9287109375 0.0400390625 0.0361328125
0 0.63671875 0.0 0.0283203125 0.0302734375
0 0.4794921875 0.12890625 0.0478515625 0.060546875
0 0.2021484375 0.6865234375 0.056640625 0.05859375
0 0.1923828125 0.849609375 0.048828125 0.044921875
0 0.0 0.8642578125 0.0263671875 0.0517578125
