0 0.919921875 0.94921875 0.064453125 0.05078125
0 0.8544921875 0.845703125 0.05078125 0.046875
0 0.8857421875 0.7548828125 0.05078125 0.05078125
0 0.8564453125 0.6826171875 0.05859375 0.0693359375
0 0.919921875 0.6787109375 0.0654296875 0.0830078125
0 0.935546875 0.556640625 0.0439453125 0.0537109375
0 0.9482421875 0.2666015625 0.0517578125 0.0751953125
0 0.900390625 0.294921875 0.0673828125 0.0625
0 0.8671875 0.30859375 0.041015625 0.052734375
0 0.93359375 0.3984375 0.044921875 0.0634765625
0 0.736328125 0.265625 0.0703125 0.0615234375
0 0.8466796875 0.1259765625 0.060546875 0.1259765625
0 0.892578125 0.2099609375 0.0517578125 0.0771484375
0 0.7705078125 0.44921875 0.0751953125 0.0537109375
0 0.798828125 0.4931640625 0.0625 0.0673828125
0 0.7373046875 0.37109375 0.0478515625 0.0546875
0 0.744140625 0.583984375 0.0595703125 0.0712890625
0 0.72265625 0.681640625 0.0546875 0.072265625
0 0.701171875 0.7587890625 0.0732421875 0.0556640625
0 0.5869140625 0.759765625 0.076171875 0.05859375
0 0.4853515625 0.7451171875 0.0751953125 0.0888671875
0 0.5830078125 0.6865234375 0.0673828125 0.0751953125
0 0.4921875 0.5791015625 0.0654296875 0.0615234375
0 0.44921875 0.4931640625 0.05859375 0.05859375
0 0.4931640625 0.44921875 0.064453125 0.0615234375
0 0.4912109375 0.3837890625 0.0703125 0.0634765625
0 0.576171875 0.4228515625 0.0693359375 0.0888671875
0 0.619140625 0.4873046875 0.0625 0.05859375
0 0.65625 0.3896484375 0.05859375 0.05859375
0 0.4853515625 0.3349609375 0.068359375 0.06640625
0 0.3857421875 0.392578125 0.0712890625 0.0498046875
0 0.27734375 0.3125 0.08984375 0.0712890625
0 0.1513671875 0.345703125 0.0869140625 0.052734375
0 0.1884765625 0.4560546875 0.06640625 0.0517578125
0 0.2646484375 0.48046875 0.0693359375 0.05859375
0 0.228515625 0.5576171875 0.0966796875 0.048828125
0 0.205078125 0.615234375 0.07421875 0.041015625
0 0.3505859375 0.6845703125 0.08984375 0.0654296875
0 0.373046875 0.7666015625 0.08203125 0.0517578125
0 0.7470703125 0.9580078125 0.087890625 0.0419921875
0 0.6826171875 0.89453125 0.0576171875 0.056640625
0 0.6083984375 0.8505859375 0.0634765625 0.0537109375
0 0.7099609375 0.9609375 0.060546875 0.0390625
0 0.22265625 0.8173828125 0.060546875 0.0498046875
0 0.1533203125 0.7802734375 0.0712890625 0.0537109375
0 0.0390625 0.80859375 0.080078125 0.052734375
0 0.017578125 0.7431640625 0.0908203125 0.0654296875
0 0.0 0.875 0.0576171875 0.052734375
0 0.076171875 0.9072265625 0.0693359375 0.0439453125
0 0.009765625 0.5166015625 0.08203125 0.0693359375
0 0.064453125 0.4306640625 0.0673828125 0.06640625
0 0.0 0.38671875 0.0771484375 0.0615234375
0 0.375 0.1357421875 0.0810546875 0.15234375
0 0.7001953125 0.029296875 0.0595703125 0.0654296875
0 0.1669921875 0.0 0.0888671875 0.06640625
0 0.0283203125 0.0 0.0908203125 0.0517578125
0 0.634765625 0.3291015625 0.05859375 0.0634765625
0 0.3681640625 0.4619140625 0.068359375 0.0712890625
0 0.2734375 0.8759765625 0.0576171875 0.056640625
0 0.224609375 0.9189453125 0.078125 0.0546875
0 0.14453125 0.189453125 0.0419921875 0.029296875
0 0.2373046875 0.0 0.0615234375 0.0576171875
0 0.1806640625 0.4248046875 0.0693359375 0.06640625
