0 0.638671875 0.15234375 0.08984375 0.0673828125
0 0.1240234375 0.0 0.076171875 0.0341796875
0 0.30859375 0.0 0.0927734375 0.0625
0 0.0078125 0.169921875 0.0576171875 0.0654296875
0 0.1005859375 0.2646484375 0.04296875 0.0576171875
0 0.291015625 0.326171875 0.091796875 0.056640625
0 0.390625 0.43359375 0.048828125 0.0634765625
0 0.8251953125 0.3935546875 0.1083984375 0.0654296875
0 0.6064453125 0.4365234375 0.0966796875 0.05859375
0 0.6572265625 0.3828125 0.046875 0.0458984375
0 0.560546875 0.369140625 0.048828125 0.0546875
0 0.947265625 0.3271484375 0.037109375 0.0576171875
0 0.9521484375 0.5546875 0.0478515625 0.080078125
0 0.95703125 0.6572265625 0.04296875 0.0869140625
0 0.0 0.4296875 0.0517578125 0.0556640625
0 0.001953125 0.50390625 0.083984375 0.0517578125
0 0.1630859375 0.708984375 0.056640625 0.0712890625
0 0.392578125 0.77734375 0.076171875 0.0625
0 0.4970703125 0.701171875 0.0693359375 0.0654296875
0 0.5166015625 0.7783203125 0.091796875 0.0791015625
0 0.59375 0.7998046875 0.0546875 0.064453125
0 0.6904296875 0.8017578125 0.0654296875 0.078125
0 0.7724609375 0.8173828125 0.0927734375 0.0791015625
0 0.9248046875 0.8935546875 0.0732421875 0.087890625
0 0.783203125 0.8828125 0.0927734375 0.109375
0 0.4287109375 0.9248046875 0.0703125 0.0595703125
0 0.2939453125 0.9296875 0.08984375 0.05859375
0 0.1845703125 0.7734375 0.08984375 0.099609375
0 0.0693359375 0.78125 0.0791015625 0.0537109375
0 0.05078125 0.859375 0.0595703125 0.0576171875
0 0.873046875 0.8330078125 0.1083984375 0.0908203125
0 0.94921875 0.294921875 0.0380859375 0.0380859375
0 0.6552734375 0.005859375 0.0556640625 0.0498046875
0 0.4814453125 0.0078125 0.03515625 0.0380859375
0 0.1767578125 0.095703125 0.0400390625 0.0380859375
0 0.2197265625 0.056640625 0.044921875 0.0458984375
0 0.216796875 0.0849609375 0.0517578125 0.052734375
0 0.396484375 0.0634765625 0.0439453125 0.03515625
0 0.357421875 0.0908203125 0.0869140625 0.048828125
0 0.5009765625 0.0498046875 0.0263671875 0.0576171875
0 0.515625 0.0 0.03125 0.0595703125
0 0.951171875 0.0009765625 0.048828125 0.03515625
0 0.9619140625 0.04296875 0.0380859375 0.0400390625
0 0.322265625 0.1201171875 0.0947265625 0.1005859375
0 0.4521484375 0.14453125 0.080078125 0.099609375
0 0.419921875 0.2158203125 0.0625 0.080078125
0 0.1494140625 0.2607421875 0.0751953125 0.07421875
0 0.0654296875 0.333984375 0.0712890625 0.048828125
0 0.1474609375 0.3740234375 0.0595703125 0.0830078125
0 0.2119140625 0.390625 0.056640625 0.0478515625
0 0.3603515625 0.38671875 0.046875 0.0810546875
0 0.6064453125 0.3486328125 0.046875 0.0576171875
0 0.798828125 0.298828125 0.0830078125 0.0439453125
0 0.90234375 0.4755859375 0.0458984375 0.048828125
0 0.7890625 0.359375 0.0732421875 0.044921875
0 0.6806640625 0.4853515625 0.0791015625 0.046875
0 0.6806640625 0.548828125 0.13671875 0.0546875
0 0.77734375 0.59765625 0.0498046875 0.0341796875
0 0.5380859375 0.533203125 0.0595703125 0.064453125
0 0.5947265625 0.560546875 0.0400390625 0.0439453125
0 0.61328125 0.58984375 0.044921875 0.0556640625
0 0.00390625 0.5576171875 0.0546875 0.056640625
0 0.279296875 0.5439453125 0.068359375 0.0517578125
0 0.212890625 0.53515625 0.0654296875 0.0537109375
0 0.16796875 0.5048828125 0.0673828125 0.044921875
0 0.1943359375 0.6064453125 0.0556640625 0.04296875
0 0.0908203125 0.599609375 0.041015625 0.0380859375
0 0.4375 0.568359375 0.064453125 0.072265625
0 0.3603515625 0.6015625 0.06640625 0.0595703125
0 0.25 0.6572265625 0.1416015625 0.0537109375
0 0.3955078125 0.697265625 0.0439453125 0.060546875
0 0.0322265625 0.64453125 0.05859375 0.046875
0 0.052734375 0.7236328125 0.0625 0.0400390625
0 0.2119140625 0.4912109375 0.048828125 0.0380859375
0 0.5263671875 0.63671875 0.0537109375 0.05078125
0 0.5712890625 0.6396484375 0.0849609375 0.076171875
0 0.2763671875 0.806640625 0.046875 0.056640625
0 0.447265625 0.8212890625 0.060546875 0.05859375
0 0.5146484375 0.873046875 0.0869140625 0.07421875
0 0.5888671875 0.8994140625 0.0703125 0.083984375
