0 0.85546875 0.0 0.0859375 0.015625
0 0.98046875 0.5732421875 0.01953125 0.1015625
0 0.91796875 0.21484375 0.08203125 0.0888671875
0 0.7900390625 0.123046875 0.09375 0.119140625
0 0.671875 0.2607421875 0.0693359375 0.10546875
0 0.5869140625 0.1806640625 0.0859375 0.1591796875
0 0.7802734375 0.267578125 0.0400390625 0.0595703125
0 0.73828125 0.3701171875 0.0654296875 0.0556640625
0 0.8193359375 0.373046875 0.0556640625 0.052734375
0 0.4658203125 0.5556640625 0.103515625 0.111328125
0 0.328125 0.5380859375 0.068359375 0.0732421875
0 0.1279296875 0.4716796875 0.125 0.0888671875
0 0.0634765625 0.2021484375 0.1279296875 0.169921875
0 0.20703125 0.1572265625 0.078125 0.1611328125
0 0.34375 0.2568359375 0.0859375 0.2021484375
0 0.0 0.30078125 0.05078125 0.1044921875
0 0.001953125 0.0 0.146484375 0.068359375
0 0.0712890625 0.0263671875 0.1328125 0.06640625
0 0.34765625 0.0 0.064453125 0.1123046875
0 0.2880859375 0.0634765625 0.111328125 0.0654296875
0 0.708984375 0.71484375 0.0693359375 0.1279296875
0 0.53125 0.6923828125 0.0712890625 0.0712890625
0 0.2958984375 0.6494140625 0.091796875 0.0849609375
0 0.1748046875 0.724609375 0.0703125 0.04296875
0 0.099609375 0.73046875 0.0732421875 0.1162109375
0 0.0 0.7265625 0.056640625 0.080078125
0 0.3671875 0.7568359375 0.0615234375 0.05859375
0 0.3662109375 0.859375 0.07421875 0.0791015625
0 0.1328125 0.853515625 0.14453125 0.07421875
0 0.0 0.923828125 0.0380859375 0.060546875
0 0.0 0.8212890625 0.041015625 0.0712890625
0 0.5 0.7939453125 0.0859375 0.0556640625
0 0.56640625 0.8193359375 0.04296875 0.125
0 0.6982421875 0.84375 0.1201171875 0.1083984375
0 0.8232421875 0.90625 0.125 0.0595703125
0 0.65234375 0.951171875 0.130859375 0.048828125
0 0.859375 0.708984375 0.0986328125 0.134765625
0 0.8369140625 0.4248046875 0.0654296875 0.0625
0 0.96875 0.041015625 0.03125 0.0927734375
0 0.1826171875 0.6962890625 0.1572265625 0.166015625
