0 0.775390625 0.6875 0.06640625 0.087890625
0 0.591796875 0.7373046875 0.083984375 0.0693359375
0 0.4619140625 0.1025390625 0.064453125 0.08984375
0 0.28515625 0.0 0.095703125 0.0498046875
0 0.703125 0.03515625 0.0634765625 0.076171875
0 0.4248046875 0.5556640625 0.0869140625 0.0595703125
0 0.4296875 0.404296875 0.0888671875 0.0673828125
0 0.841796875 0.47265625 0.052734375 0.1083984375
0 0.1337890625 0.001953125 0.0791015625 0.0439453125
0 0.55859375 0.064453125 0.064453125 0.076171875
0 0.87109375 0.7998046875 0.08203125 0.0458984375
0 0.1826171875 0.9677734375 0.0517578125 0.0322265625
0 0.13671875 0.173828125 0.0908203125 0.0390625
0 0.6552734375 0.3505859375 0.0859375 0.0517578125
0 0.162109375 0.0595703125 0.0869140625 0.0595703125
0 0.001953125 0.28125 0.0830078125 0.05859375
0 0.89453125 0.7568359375 0.083984375 0.044921875
0 0.8310546875 0.5859375 0.0634765625 0.0546875
0 0.478515625 0.41796875 0.17578125 0.044921875
0 0.01171875 0.3203125 0.0810546875 0.060546875
0 0.287109375 0.5732421875 0.103515625 0.056640625
0 0.3876953125 0.00390625 0.041015625 0.1025390625
0 0.337890625 0.7822265625 0.115234375 0.0625
0 0.896484375 0.2890625 0.08984375 0.0634765625
0 0.0009765625 0.08984375 0.078125 0.0498046875
0 0.646484375 0.0 0.1064453125 0.0478515625
0 0.212890625 0.0703125 0.0986328125 0.0400390625
0 0.5244140625 0.248046875 0.087890625 0.060546875
0 0.57421875 0.662109375 0.048828125 0.048828125
0 0.205078125 0.7333984375 0.1015625 0.064453125
0 0.0009765625 0.443359375 0.0576171875 0.0498046875
0 0.0009765625 0.5634765625 0.0634765625 0.0478515625
0 0.1474609375 0.4716796875 0.0810546875 0.041015625
0 0.49609375 0.7265625 0.087890625 0.0439453125
0 0.326171875 0.6337890625 0.0849609375 0.05859375
0 0.9853515625 0.5625 0.0146484375 0.0322265625
0 0.1044921875 0.9619140625 0.0712890625 0.0361328125
0 0.138671875 0.69140625 0.107421875 0.05078125
0 0.1064453125 0.1953125 0.083984375 0.05078125
0 0.66015625 0.6318359375 0.0380859375 0.05078125
0 0.83203125 0.685546875 0.083984375 0.0419921875
0 0.5126953125 0.84765625 0.0478515625 0.0322265625
0 0.1484375 0.583984375 0.0498046875 0.0390625
0 0.59765625 0.8037109375 0.078125 0.02734375
0 0.0 0.3291015625 0.0732421875 0.0732421875
0 0.4208984375 0.1005859375 0.0546875 0.046875
0 0.6474609375 0.9111328125 0.0634765625 0.0341796875
0 0.2177734375 0.4580078125 0.087890625 0.05859375
0 0.0 0.943359375 0.068359375 0.0390625
0 0.1005859375 0.0 0.04296875 0.0380859375
0 0.591796875 0.98046875 0.078125 0.01953125
0 0.7509765625 0.2529296875 0.1025390625 0.0517578125
0 0.1689453125 0.35546875 0.083984375 0.0400390625
0 0.1767578125 0.208984375 0.12890625 0.0498046875
0 0.375 0.2294921875 0.052734375 0.0986328125
0 0.751953125 0.6611328125 0.0830078125 0.0283203125
0 0.154296875 0.64453125 0.0615234375 0.03125
0 0.9111328125 0.9169921875 0.0498046875 0.0478515625
0 0.39453125 0.701171875 0.0263671875 0.06640625
0 0.1337890625 0.439453125 0.08203125 0.0419921875
0 0.4873046875 0.515625 0.1279296875 0.037109375
0 0.537109375 0.5732421875 0.0634765625 0.044921875
0 0.568359375 0.2060546875 0.076171875 0.0634765625
0 0.880859375 0.1591796875 0.0703125 0.05078125
0 0.5244140625 0.46875 0.0546875 0.03125
0 0.3662109375 0.8359375 0.0595703125 0.01953125
0 0.0166015625 0.1484375 0.0693359375 0.0654296875
0 0.596875 0.04580078125 0.0791015625 0.049999999999999996
0 0.1611328125 0.5751953125 0.0634765625 0.0400390625
0 0.0625 0.689453125 0.08203125 0.041015625
0 0.2998046875 0.892578125 0.09375 0.0458984375
0 0.0 0.0458984375 0.03515625 0.0576171875
0 0.0009765625 0.6552734375 0.056640625 0.0458984375
0 0.1875 0.599609375 0.0625 0.0625
0 0.5966796875 0.5244140625 0.0849609375 0.044921875
0 0.646484375 0.083984375 0.0556640625 0.0390625
0 0.0 0.4970703125 0.0390625 0.046875
0 0.9794921875 0.94140625 0.0205078125 0.0439453125
0 0.4677734375 0.9580078125 0.08203125 0.0419921875
0 0.0595703125 0.1982421875 0.0771484375 0.0693359375
