0 0.7294921875 0.6640625 0.1298828125 0.078125
0 0.1494140625 0.3271484375 0.0927734375 0.0771484375
0 0.2080078125 0.048828125 0.1025390625 0.0947265625
0 0.8935546875 0.5673828125 0.1064453125 0.0771484375
0 0.45703125 0.8544921875 0.0947265625 0.0751953125
0 0.0048828125 0.134765625 0.0869140625 0.107421875
0 0.2646484375 0.7841796875 0.1123046875 0.1416015625
0 0.8125 0.4970703125 0.119140625 0.0947265625
0 0.3974609375 0.125 0.0771484375 0.08203125
0 0.32421875 0.6318359375 0.0927734375 0.0830078125
0 0.2744140625 0.3349609375 0.0927734375 0.072265625
0 0.779296875 0.7890625 0.1650390625 0.1484375
0 0.7998046875 0.046875 0.1123046875 0.0751953125
0 0.5244140625 0.0 0.123046875 0.0341796875
0 0.26953125 0.26171875 0.099609375 0.0751953125
0 0.7822265625 0.279296875 0.16015625 0.0849609375
0 0.3291015625 0.5048828125 0.0751953125 0.07421875
0 0.0 0.5625 0.0625 0.1015625
0 0.349609375 0.724609375 0.087890625 0.080078125
0 0.7197265625 0.1416015625 0.0927734375 0.0654296875
0 0.6494140625 0.3291015625 0.1279296875 0.0732421875
0 0.4365234375 0.73046875 0.087890625 0.0751953125
0 0.0 0.8515625 0.0869140625 0.0703125
0 0.662109375 0.5849609375 0.142578125 0.0693359375
0 0.6044921875 0.109375 0.10546875 0.0751953125
0 0.5791015625 0.21484375 0.203125 0.0849609375
0 0.609375 0.5205078125 0.1455078125 0.0654296875
0 0.55078125 0.806640625 0.08984375 0.1025390625
0 0.5595703125 0.689453125 0.1279296875 0.0751953125
0 0.8798828125 0.3896484375 0.1025390625 0.0546875
0 0.4794921875 0.19921875 0.1201171875 0.0732421875
0 0.3193359375 0.2177734375 0.091796875 0.0791015625
0 0.716796875 0.037109375 0.1103515625 0.064453125
0 0.63671875 0.849609375 0.140625 0.09765625
0 0.3818359375 0.8173828125 0.0849609375 0.0625
0 0.63671875 0.3818359375 0.125 0.0703125
0 0.470703125 0.8134765625 0.0732421875 0.0546875
0 0.7265625 0.9072265625 0.177734375 0.091796875
0 0.9091796875 0.654296875 0.0908203125 0.0751953125
0 0.431640625 0.3515625 0.0732421875 0.0703125
0 0.8876953125 0.9423828125 0.111328125 0.0576171875
0 0.5068359375 0.1513671875 0.09375 0.0546875
0 0.943359375 0.1953125 0.056640625 0.0498046875
0 0.9287109375 0.1474609375 0.0712890625 0.0478515625
0 0.91015625 0.09765625 0.0869140625 0.04296875
