0 0.0 0.1416015625 0.064453125 0.095703125
0 0.1025390625 0.2763671875 0.08203125 0.1103515625
0 0.0 0.265625 0.0615234375 0.0751953125
0 0.0 0.3759765625 0.0439453125 0.0869140625
0 0.0 0.498046875 0.099609375 0.0859375
0 0.283203125 0.4228515625 0.11328125 0.1064453125
0 0.4521484375 0.375 0.134765625 0.10546875
0 0.4951171875 0.24609375 0.064453125 0.0576171875
0 0.544921875 0.271484375 0.115234375 0.0830078125
0 0.634765625 0.3173828125 0.0908203125 0.0771484375
0 0.583984375 0.4013671875 0.1005859375 0.0888671875
0 0.5009765625 0.521484375 0.1533203125 0.0888671875
0 0.4619140625 0.564453125 0.056640625 0.072265625
0 0.5947265625 0.1552734375 0.1240234375 0.0751953125
0 0.7041015625 0.21875 0.078125 0.05859375
0 0.818359375 0.193359375 0.0576171875 0.1474609375
0 0.89453125 0.2734375 0.0751953125 0.056640625
0 0.8583984375 0.349609375 0.1220703125 0.0986328125
0 0.8671875 0.5029296875 0.123046875 0.0859375
0 0.7197265625 0.556640625 0.07421875 0.0849609375
0 0.8525390625 0.599609375 0.11328125 0.0849609375
0 0.779296875 0.6552734375 0.0625 0.072265625
0 0.8369140625 0.70703125 0.08203125 0.076171875
0 0.5908203125 0.6337890625 0.0478515625 0.1025390625
0 0.623046875 0.6083984375 0.11328125 0.087890625
0 0.443359375 0.6513671875 0.06640625 0.0712890625
0 0.486328125 0.705078125 0.072265625 0.11328125
0 0.25 0.84765625 0.08203125 0.0986328125
0 0.1572265625 0.9306640625 0.095703125 0.0693359375
0 0.48828125 0.0 0.1318359375 0.1123046875
0 0.9150390625 0.013671875 0.0703125 0.083984375
0 0.9375 0.1728515625 0.0625 0.0830078125
0 0.169921875 0.2734375 0.115234375 0.060546875
0 0.05078125 0.0 0.0693359375 0.0947265625
0 0.4052734375 0.1083984375 0.046875 0.06640625
0 0.091796875 0.6181640625 0.0888671875 0.060546875
