0 0.8916015625 0.529296875 0.1083984375 0.125
0 0.322265625 0.3720703125 0.1318359375 0.1220703125
0 0.7919921875 0.0546875 0.1455078125 0.126953125
0 0.8447265625 0.296875 0.109375 0.140625
0 0.3798828125 0.63671875 0.1201171875 0.115234375
0 0.8193359375 0.8857421875 0.150390625 0.1123046875
0 0.5517578125 0.8720703125 0.095703125 0.08984375
0 0.1923828125 0.40234375 0.1494140625 0.13671875
0 0.794921875 0.5703125 0.08203125 0.080078125
0 0.876953125 0.4140625 0.0830078125 0.095703125
0 0.0322265625 0.8095703125 0.1376953125 0.142578125
0 0.4248046875 0.8291015625 0.09765625 0.107421875
0 0.20703125 0.0673828125 0.1376953125 0.1669921875
0 0.2919921875 0.001953125 0.107421875 0.142578125
0 0.591796875 0.001953125 0.09765625 0.107421875
0 0.53515625 0.3525390625 0.0830078125 0.1025390625
0 0.4873046875 0.001953125 0.08203125 0.0947265625
0 0.2724609375 0.94921875 0.109375 0.05078125
0 0.9443359375 0.001953125 0.0556640625 0.0849609375
0 0.509765625 0.107421875 0.125 0.1123046875
0 0.0048828125 0.162109375 0.0869140625 0.1396484375
0 0.5400390625 0.7529296875 0.0849609375 0.0703125
0 0.0009765625 0.5458984375 0.07421875 0.0908203125
