0 0.3525390625 0.0341796875 0.078125 0.080078125
0 0.53125 0.1171875 0.072265625 0.0673828125
0 0.466796875 0.44921875 0.09765625 0.07421875
0 0.162109375 0.3603515625 0.130859375 0.0927734375
0 0.7685546875 0.0859375 0.076171875 0.08203125
0 0.583984375 0.8955078125 0.0986328125 0.0908203125
0 0.0 0.4990234375 0.10546875 0.0771484375
0 0.099609375 0.2353515625 0.0703125 0.0517578125
0 0.6875 0.1025390625 0.0322265625 0.083984375
0 0.775390625 0.7724609375 0.0830078125 0.048828125
0 0.4951171875 0.162109375 0.0712890625 0.0478515625
0 0.919921875 0.884765625 0.072265625 0.0634765625
0 0.3818359375 0.5634765625 0.0791015625 0.044921875
0 0.603515625 0.306640625 0.064453125 0.0625
0 0.5244140625 0.9111328125 0.0693359375 0.0751953125
0 0.3583984375 0.3984375 0.076171875 0.0546875
0 0.47265625 0.232421875 0.05859375 0.0361328125
0 0.091796875 0.62939453125 0.1158203125 0.03369140625
0 0.048828125 0.830078125 0.1044921875 0.056640625
0 0.091796875 0.955078125 0.05078125 0.044921875
0 0.837890625 0.8251953125 0.0615234375 0.080078125
0 0.2021484375 0.9599609375 0.095703125 0.0400390625
0 0.25 0.7431640625 0.142578125 0.0556640625
0 0.869140625 0.1318359375 0.0654296875 0.0302734375
0 0.830078125 0.2138671875 0.0556640625 0.056640625
0 0.8662109375 0.1513671875 0.0654296875 0.0693359375
0 0.7890625 0.673828125 0.0546875 0.0634765625
0 0.0 0.5849609375 0.0126953125 0.0263671875
0 0.19921875 0.53125 0.1123046875 0.0654296875
0 0.390625 0.4794921875 0.048828125 0.0322265625
0 0.5712890625 0.35546875 0.0244140625 0.0869140625
0 0.5361328125 0.53515625 0.0771484375 0.0576171875
0 0.5537109375 0.3544921875 0.0283203125 0.0859375
0 0.79296875 0.369140625 0.0888671875 0.04296875
0 0.0 0.9814453125 0.083984375 0.0185546875
0 0.3798828125 0.8173828125 0.0703125 0.0419921875
0 0.7119140625 0.2490234375 0.06640625 0.033203125
0 0.376953125 0.6064453125 0.0791015625 0.0419921875
0 0.0 0.3583984375 0.02734375 0.041015625
0 0.1357421875 0.390625 0.0634765625 0.044921875
0 0.69921875 0.060546875 0.0537109375 0.0322265625
0 0.7021484375 0.5185546875 0.05859375 0.048828125
0 0.8935546875 0.404296875 0.0732421875 0.0302734375
0 0.92578125 0.1943359375 0.0458984375 0.0439453125
0 0.49150390625 0.63955078125 0.09765624999999994 0.04140624999999998
0 0.158203125 0.205078125 0.07421875 0.0439453125
0 0.427734375 0.28125 0.048828125 0.0234375
0 0.59765625 0.654296875 0.08984375 0.07421875
0 0.943359375 0.4658203125 0.056640625 0.0576171875
0 0.0927734375 0.8017578125 0.0625 0.03125
0 0.8984375 0.0087890625 0.037109375 0.05078125
0 0.1982421875 0.287109375 0.0458984375 0.033203125
0 0.4814453125 0.0 0.060546875 0.03515625
0 0.642578125 0.0 0.048828125 0.03125
0 0.7578125 0.283203125 0.0283203125 0.052734375
0 0.6728515625 0.6240234375 0.0537109375 0.048828125
0 0.7060546875 0.8427734375 0.0537109375 0.0341796875
0 0.126953125 0.2275390625 0.0595703125 0.0537109375
0 0.078125 0.3662109375 0.0654296875 0.0341796875
0 0.2021484375 0.7021484375 0.0556640625 0.064453125
0 0.6015625 0.53125 0.060546875 0.04296875
0 0.4892578125 0.3671875 0.0498046875 0.03515625
0 0.3271484375 0.2431640625 0.0439453125 0.046875
0 0.7900390625 0.9794921875 0.033203125 0.0185546875
0 0.4609375 0.642578125 0.078125 0.0380859375
0 0.3818359375 0.375 0.0908203125 0.0439453125
