0 0.0 0.775390625 0.0869140625 0.103515625
0 0.0 0.7802734375 0.0361328125 0.1650390625
0 0.1201171875 0.7578125 0.1171875 0.05078125
0 0.0927734375 0.857421875 0.1171875 0.142578125
0 0.02734375 0.9169921875 0.091796875 0.0771484375
0 0.3208984375 0.78525390625 0.11416015624999998 0.06074218749999993
0 0.140625 0.951171875 0.0703125 0.048828125
0 0.3662109375 0.9013671875 0.10546875 0.0986328125
0 0.2705078125 0.61328125 0.0849609375 0.0771484375
0 0.0 0.248046875 0.0869140625 0.158203125
0 0.0 0.3671875 0.138671875 0.2353515625
0 0.2421875 0.46484375 0.0810546875 0.087890625
0 0.166015625 0.263671875 0.1044921875 0.130859375
0 0.0 0.1005859375 0.0634765625 0.1328125
0 0.0322265625 0.0 0.2021484375 0.107421875
0 0.2900390625 0.0 0.0634765625 0.1142578125
0 0.1982421875 0.06640625 0.0830078125 0.08984375
0 0.2099609375 0.1611328125 0.123046875 0.0810546875
0 0.2333984375 0.2138671875 0.1767578125 0.0634765625
0 0.490234375 0.123046875 0.0634765625 0.05859375
0 0.576171875 0.158203125 0.0810546875 0.0732421875
0 0.6103515625 0.24609375 0.091796875 0.1044921875
0 0.35546875 0.3193359375 0.1103515625 0.080078125
0 0.4521484375 0.345703125 0.072265625 0.0625
0 0.46484375 0.4150390625 0.09375 0.1181640625
0 0.6689453125 0.484375 0.080078125 0.1083984375
0 0.5234375 0.6435546875 0.076171875 0.087890625
0 0.685546875 0.6728515625 0.0517578125 0.05859375
0 0.7021484375 0.78125 0.0908203125 0.0751953125
0 0.8037109375 0.7509765625 0.1064453125 0.1220703125
0 0.5908203125 0.94921875 0.134765625 0.05078125
0 0.8330078125 0.3818359375 0.1669921875 0.1181640625
0 0.8271484375 0.251953125 0.08203125 0.1318359375
0 0.7666015625 0.1376953125 0.0546875 0.0478515625
0 0.8466796875 0.109375 0.06640625 0.0703125
0 0.9453125 0.1611328125 0.0546875 0.072265625
0 0.669921875 0.0 0.09375 0.029296875
0 0.7705078125 0.0 0.1201171875 0.048828125
0 0.9541015625 0.0 0.0458984375 0.0361328125
