0 0.3193359375 0.435546875 0.13671875 0.0751953125
0 0.9521484375 0.751953125 0.0478515625 0.099609375
0 0.8447265625 0.501953125 0.1494140625 0.0751953125
0 0.662109375 0.4541015625 0.150390625 0.087890625
0 0.6640625 0.7724609375 0.1953125 0.0771484375
0 0.1875 0.3369140625 0.107421875 0.0703125
0 0.0419921875 0.5771484375 0.09765625 0.0703125
0 0.77734375 0.7099609375 0.22265625 0.07421875
0 0.5673828125 0.1923828125 0.0947265625 0.1044921875
0 0.0244140625 0.7099609375 0.1552734375 0.0771484375
0 0.732421875 0.1748046875 0.064453125 0.080078125
0 0.1142578125 0.9169921875 0.0849609375 0.0751953125
0 0.6591796875 0.6748046875 0.142578125 0.107421875
0 0.126953125 0.3046875 0.080078125 0.072265625
0 0.1943359375 0.4091796875 0.078125 0.0654296875
0 0.119140625 0.1171875 0.2353515625 0.2119140625
0 0.86328125 0.001953125 0.13671875 0.0576171875
0 0.63671875 0.1044921875 0.087890625 0.107421875
0 0.8125 0.3623046875 0.1220703125 0.0625
0 0.751953125 0.2724609375 0.1796875 0.119140625
0 0.421875 0.7548828125 0.1279296875 0.0576171875
0 0.1796875 0.76171875 0.0869140625 0.0751953125
0 0.546875 0.544921875 0.1376953125 0.1025390625
0 0.7744140625 0.134765625 0.072265625 0.064453125
0 0.5849609375 0.341796875 0.2021484375 0.115234375
0 0.0244140625 0.33984375 0.0830078125 0.109375
0 0.001953125 0.9521484375 0.1396484375 0.0478515625
0 0.447265625 0.796875 0.0751953125 0.0654296875
0 0.888671875 0.8408203125 0.033203125 0.041015625
0 0.0498046875 0.2822265625 0.0693359375 0.09765625
0 0.625 0.404296875 0.1669921875 0.0751953125
0 0.0322265625 0.001953125 0.21484375 0.0654296875
0 0.9384765625 0.9013671875 0.0615234375 0.033203125
0 0.9658203125 0.564453125 0.033203125 0.080078125
0 0.0517578125 0.8671875 0.0625 0.0498046875
0 0.2197265625 0.482421875 0.0595703125 0.0546875
0 0.001953125 0.8896484375 0.099609375 0.0576171875
0 0.5390625 0.53515625 0.1826171875 0.1181640625
0 0.0068359375 0.921875 0.1181640625 0.0546875
0 0.001953125 0.162109375 0.0654296875 0.0927734375
0 0.5625 0.3349609375 0.064453125 0.0771484375
0 0.001953125 0.8193359375 0.044921875 0.0654296875
0 0.001953125 0.607421875 0.044921875 0.162109375
0 0.001953125 0.431640625 0.052734375 0.0751953125
0 0.001953125 0.3349609375 0.025390625 0.064453125
0 0.671875 0.5048828125 0.1552734375 0.0673828125
0 0.87109375 0.94140625 0.126953125 0.05859375
