0 0.125 0.734375 0.091796875 0.0927734375
0 0.5947265625 0.2421875 0.0869140625 0.0673828125
0 0.94921875 0.0 0.05078125 0.0595703125
0 0.8017578125 0.0146484375 0.09765625 0.064453125
0 0.744140625 0.2421875 0.0732421875 0.0849609375
0 0.724609375 0.51953125 0.0751953125 0.08203125
0 0.0 0.501953125 0.0595703125 0.076171875
0 0.591796875 0.0 0.0673828125 0.02734375
0 0.466796875 0.224609375 0.060546875 0.052734375
0 0.3095703125 0.419921875 0.072265625 0.07421875
0 0.029296875 0.384765625 0.080078125 0.064453125
0 0.01171875 0.0390625 0.0751953125 0.060546875
0 0.7646484375 0.341796875 0.0869140625 0.0673828125
0 0.447265625 0.0673828125 0.08984375 0.072265625
0 0.9375 0.64453125 0.0625 0.087890625
0 0.27734375 0.5224609375 0.07421875 0.07421875
0 0.171875 0.8447265625 0.0830078125 0.109375
0 0.306640625 0.3349609375 0.0849609375 0.07421875
0 0.369140625 0.8046875 0.078125 0.099609375
0 0.4169921875 0.9091796875 0.080078125 0.0849609375
0 0.171875 0.064453125 0.072265625 0.060546875
0 0.8447265625 0.697265625 0.1044921875 0.16015625
0 0.3515625 0.2294921875 0.060546875 0.0576171875
0 0.3193359375 0.57421875 0.0927734375 0.078125
0 0.2021484375 0.63671875 0.0673828125 0.0673828125
0 0.869140625 0.287109375 0.0908203125 0.0751953125
0 0.4169921875 0.7666015625 0.0830078125 0.0908203125
0 0.662109375 0.8896484375 0.0751953125 0.064453125
0 0.244140625 0.1142578125 0.068359375 0.0625
0 0.9619140625 0.1923828125 0.0380859375 0.064453125
0 0.7841796875 0.814453125 0.0625 0.1171875
0 0.857421875 0.1943359375 0.072265625 0.060546875
0 0.7998046875 0.4091796875 0.0771484375 0.0654296875
0 0.009765625 0.6669921875 0.1201171875 0.107421875
0 0.32421875 0.119140625 0.0732421875 0.0625
0 0.216796875 0.01953125 0.078125 0.0625
0 0.6123046875 0.07421875 0.08984375 0.0830078125
0 0.6416015625 0.3623046875 0.0732421875 0.0595703125
0 0.1669921875 0.4541015625 0.0771484375 0.0751953125
0 0.9619140625 0.2568359375 0.0380859375 0.0654296875
0 0.001953125 0.181640625 0.08984375 0.0732421875
0 0.0693359375 0.921875 0.0703125 0.078125
0 0.7646484375 0.857421875 0.0595703125 0.1171875
0 0.8974609375 0.8671875 0.064453125 0.0869140625
0 0.916015625 0.173828125 0.0498046875 0.060546875
