0 0.0 0.326171875 0.0625 0.1103515625
0 0.18359375 0.515625 0.0947265625 0.1044921875
0 0.1279296875 0.70703125 0.123046875 0.1015625
0 0.07421875 0.7978515625 0.109375 0.0869140625
0 0.240234375 0.75 0.1103515625 0.146484375
0 0.3681640625 0.611328125 0.1162109375 0.1474609375
0 0.4912109375 0.6298828125 0.1123046875 0.1015625
0 0.4931640625 0.521484375 0.07421875 0.1103515625
0 0.826171875 0.4755859375 0.1171875 0.0751953125
0 0.6259765625 0.6669921875 0.1552734375 0.111328125
0 0.6513671875 0.8916015625 0.083984375 0.080078125
0 0.8359375 0.818359375 0.142578125 0.103515625
0 0.3623046875 0.3837890625 0.0830078125 0.076171875
0 0.51171875 0.30859375 0.1142578125 0.0908203125
0 0.52734375 0.1650390625 0.107421875 0.126953125
0 0.7197265625 0.0263671875 0.091796875 0.2138671875
0 0.8603515625 0.005859375 0.1376953125 0.146484375
0 0.263671875 0.00390625 0.068359375 0.107421875
0 0.3916015625 0.07421875 0.0771484375 0.064453125
0 0.0322265625 0.0 0.1328125 0.0556640625
0 0.013671875 0.0673828125 0.103515625 0.1083984375
0 0.1025390625 0.19921875 0.09375 0.138671875
0 0.361328125 0.2275390625 0.0810546875 0.0703125
0 0.66015625 0.390625 0.125 0.095703125
0 0.8408203125 0.2568359375 0.0732421875 0.060546875
0 0.9375 0.3154296875 0.0556640625 0.1044921875
0 0.93359375 0.9453125 0.052734375 0.0546875
