0 0.4296875 0.39453125 0.0849609375 0.1376953125
0 0.1416015625 0.755859375 0.115234375 0.0771484375
0 0.0302734375 0.8681640625 0.1044921875 0.0869140625
0 0.7998046875 0.71484375 0.1220703125 0.1318359375
0 0.0498046875 0.3798828125 0.2197265625 0.1513671875
0 0.0009765625 0.62890625 0.189453125 0.1103515625
0 0.8251953125 0.8828125 0.1748046875 0.107421875
0 0.814453125 0.38671875 0.1650390625 0.1806640625
0 0.40625 0.7939453125 0.1298828125 0.1279296875
0 0.6845703125 0.4697265625 0.1396484375 0.1845703125
0 0.7490234375 0.564453125 0.1904296875 0.1220703125
0 0.3896484375 0.001953125 0.125 0.2080078125
0 0.353515625 0.4423828125 0.08984375 0.1259765625
0 0.0 0.0869140625 0.06640625 0.244140625
0 0.6123046875 0.2568359375 0.078125 0.0908203125
0 0.2490234375 0.2568359375 0.119140625 0.2412109375
0 0.751953125 0.001953125 0.197265625 0.142578125
0 0.8984375 0.150390625 0.1015625 0.11328125
0 0.3115234375 0.3046875 0.09375 0.109375
0 0.9716796875 0.654296875 0.0283203125 0.0771484375
0 0.171875 0.0 0.0966796875 0.0419921875
0 0.783203125 0.0029296875 0.0732421875 0.0556640625
