0 0.23828125 0.322265625 0.076171875 0.099609375
0 0.724609375 0.0458984375 0.0576171875 0.0830078125
0 0.1513671875 0.5234375 0.099609375 0.0888671875
0 0.369140625 0.0 0.0556640625 0.076171875
0 0.46484375 0.1044921875 0.0478515625 0.0947265625
0 0.044921875 0.4423828125 0.0546875 0.099609375
0 0.03125 0.79296875 0.06640625 0.1083984375
0 0.3857421875 0.453125 0.0419921875 0.078125
0 0.6142578125 0.87109375 0.03515625 0.09765625
0 0.2265625 0.203125 0.060546875 0.072265625
0 0.7578125 0.5537109375 0.0400390625 0.0859375
0 0.3662109375 0.8154296875 0.0703125 0.0556640625
0 0.359375 0.728515625 0.0576171875 0.0751953125
0 0.693359375 0.27734375 0.0419921875 0.0810546875
0 0.669921875 0.4453125 0.0673828125 0.0751953125
0 0.7890625 0.01953125 0.06640625 0.05859375
0 0.4580078125 0.3291015625 0.0439453125 0.087890625
0 0.59375 0.447265625 0.0498046875 0.0966796875
0 0.11328125 0.6552734375 0.0380859375 0.0732421875
0 0.759765625 0.2998046875 0.048828125 0.0830078125
0 0.3154296875 0.5673828125 0.037109375 0.0634765625
0 0.203125 0.009765625 0.0615234375 0.046875
0 0.3017578125 0.91796875 0.08203125 0.05078125
0 0.548828125 0.1259765625 0.0537109375 0.072265625
0 0.5986328125 0.556640625 0.0576171875 0.0654296875
0 0.8154296875 0.3740234375 0.0390625 0.0771484375
0 0.6845703125 0.224609375 0.0478515625 0.05859375
0 0.7060546875 0.1259765625 0.04296875 0.072265625
0 0.9697265625 0.1279296875 0.0302734375 0.0859375
0 0.7236328125 0.40234375 0.04296875 0.080078125
0 0.845703125 0.494140625 0.0458984375 0.0791015625
0 0.6708984375 0.8447265625 0.0341796875 0.0810546875
0 0.119140625 0.599609375 0.0634765625 0.0439453125
0 0.33984375 0.68359375 0.060546875 0.0615234375
0 0.53515625 0.6337890625 0.0576171875 0.0498046875
0 0.7490234375 0.6572265625 0.048828125 0.0654296875
0 0.625 0.5302734375 0.044921875 0.06640625
0 0.46484375 0.861328125 0.0869140625 0.03515625
0 0.822265625 0.2998046875 0.046875 0.0556640625
0 0.3779296875 0.5244140625 0.0419921875 0.0537109375
0 0.4169921875 0.669921875 0.06640625 0.037109375
0 0.3837890625 0.556640625 0.0380859375 0.083984375
0 0.591796875 0.23828125 0.0263671875 0.0615234375
0 0.41796875 0.599609375 0.03125 0.06640625
0 0.9140625 0.4453125 0.0283203125 0.0634765625
0 0.5703125 0.3759765625 0.029296875 0.052734375
0 0.5634765625 0.6982421875 0.0546875 0.046875
0 0.830078125 0.5439453125 0.041015625 0.06640625
0 0.435546875 0.32421875 0.0263671875 0.0849609375
0 0.6533203125 0.431640625 0.03515625 0.080078125
0 0.75390625 0.779296875 0.0322265625 0.0771484375
0 0.4345703125 0.5859375 0.0634765625 0.0458984375
0 0.4501953125 0.0087890625 0.029296875 0.0615234375
0 0.8447265625 0.8291015625 0.0478515625 0.0556640625
0 0.8623046875 0.5712890625 0.0263671875 0.068359375
0 0.2958984375 0.3369140625 0.0419921875 0.033203125
0 0.8349609375 0.658203125 0.0439453125 0.0546875
0 0.1767578125 0.091796875 0.0361328125 0.048828125
0 0.8837890625 0.3564453125 0.0341796875 0.046875
0 0.7201171875 0.287109375 0.046875 0.04648437500000002
0 0.0537109375 0.9453125 0.041015625 0.03515625
0 0.583984375 0.2275390625 0.0302734375 0.0625
0 0.82421875 0.7109375 0.060546875 0.044921875
0 0.5810546875 0.337890625 0.03515625 0.05859375
0 0.97265625 0.2001953125 0.02734375 0.0458984375
0 0.4296875 0.1962890625 0.033203125 0.03125
