0 0.396484375 0.109375 0.1025390625 0.0986328125
0 0.3857421875 0.2412109375 0.0947265625 0.064453125
0 0.568359375 0.2744140625 0.0966796875 0.076171875
0 0.677734375 0.0859375 0.0732421875 0.095703125
0 0.791015625 0.060546875 0.0576171875 0.0703125
0 0.798828125 0.1171875 0.07421875 0.0693359375
0 0.265625 0.0146484375 0.07421875 0.0625
0 0.248046875 0.2294921875 0.064453125 0.083984375
0 0.12109375 0.501953125 0.0576171875 0.0498046875
0 0.123046875 0.61328125 0.1181640625 0.068359375
0 0.28125 0.58984375 0.064453125 0.056640625
0 0.259765625 0.5263671875 0.0712890625 0.0654296875
0 0.369140625 0.693359375 0.076171875 0.0576171875
0 0.291015625 0.7978515625 0.125 0.099609375
0 0.591796875 0.791015625 0.08984375 0.0771484375
0 0.6708984375 0.7685546875 0.0888671875 0.1220703125
0 0.814453125 0.7099609375 0.0869140625 0.091796875
0 0.896484375 0.5224609375 0.076171875 0.0791015625
0 0.53125 0.701171875 0.0673828125 0.0625
0 0.0 0.6953125 0.0732421875 0.0595703125
0 0.0146484375 0.0 0.072265625 0.0615234375
0 0.248046875 0.955078125 0.087890625 0.044921875
0 0.1025390625 0.8193359375 0.0712890625 0.0732421875
0 0.0537109375 0.9306640625 0.083984375 0.0693359375
0 0.9111328125 0.2685546875 0.0634765625 0.05859375
0 0.5693359375 0.400390625 0.083984375 0.0615234375
0 0.6376953125 0.375 0.0517578125 0.048828125
0 0.7392578125 0.458984375 0.0927734375 0.07421875
0 0.4404296875 0.4033203125 0.0634765625 0.0625
0 0.1416015625 0.859375 0.0654296875 0.0703125
