0 0.0 0.3251953125 0.0390625 0.044921875
0 0.1044921875 0.2568359375 0.1025390625 0.134765625
0 0.134765625 0.1005859375 0.0615234375 0.076171875
0 0.0 0.9599609375 0.02734375 0.0400390625
0 0.1787109375 0.98046875 0.076171875 0.01953125
0 0.142578125 0.875 0.0625 0.08203125
0 0.2216796875 0.876953125 0.0556640625 0.09375
0 0.115234375 0.783203125 0.068359375 0.06640625
0 0.2890625 0.9736328125 0.087890625 0.0263671875
0 0.474609375 0.9677734375 0.1044921875 0.0322265625
0 0.7294921875 0.9833984375 0.0546875 0.0166015625
0 0.80078125 0.9521484375 0.06640625 0.0478515625
0 0.8486328125 0.830078125 0.0791015625 0.0830078125
0 0.9482421875 0.87109375 0.0517578125 0.05859375
0 0.8984375 0.9404296875 0.0830078125 0.0595703125
0 0.0 0.44921875 0.0517578125 0.0693359375
0 0.0380859375 0.521484375 0.0888671875 0.0634765625
0 0.1416015625 0.546875 0.0478515625 0.0654296875
0 0.0859375 0.6279296875 0.056640625 0.060546875
0 0.1630859375 0.62890625 0.0849609375 0.0703125
0 0.2001953125 0.7314453125 0.080078125 0.056640625
0 0.3291015625 0.8212890625 0.060546875 0.0615234375
0 0.4384765625 0.849609375 0.0830078125 0.0859375
0 0.5927734375 0.7900390625 0.072265625 0.095703125
0 0.54296875 0.7744140625 0.0595703125 0.171875
0 0.3974609375 0.76953125 0.0703125 0.103515625
0 0.4375 0.65234375 0.0751953125 0.07421875
0 0.5234375 0.6201171875 0.06640625 0.0888671875
0 0.5947265625 0.689453125 0.0927734375 0.0673828125
0 0.7236328125 0.619140625 0.06640625 0.0712890625
0 0.8857421875 0.5400390625 0.0888671875 0.0654296875
0 0.923828125 0.671875 0.0517578125 0.0576171875
0 0.849609375 0.7529296875 0.072265625 0.0537109375
0 0.935546875 0.74609375 0.064453125 0.091796875
0 0.5947265625 0.5986328125 0.0771484375 0.0595703125
0 0.52734375 0.4951171875 0.0673828125 0.08984375
0 0.68359375 0.529296875 0.0537109375 0.0625
0 0.76953125 0.3798828125 0.064453125 0.07421875
0 0.7861328125 0.4658203125 0.060546875 0.06640625
0 0.8623046875 0.4248046875 0.0712890625 0.078125
0 0.3271484375 0.4501953125 0.072265625 0.06640625
0 0.2509765625 0.529296875 0.125 0.0791015625
0 0.1318359375 0.466796875 0.08984375 0.080078125
0 0.3486328125 0.333984375 0.0625 0.1181640625
0 0.439453125 0.3662109375 0.087890625 0.11328125
0 0.5126953125 0.1552734375 0.078125 0.1455078125
0 0.7373046875 0.2216796875 0.0986328125 0.154296875
0 0.833984375 0.287109375 0.083984375 0.0791015625
0 0.4130859375 0.1318359375 0.0693359375 0.07421875
0 0.259765625 0.0 0.044921875 0.037109375
0 0.0966796875 0.0 0.072265625 0.044921875
0 0.2939453125 0.009765625 0.125 0.0908203125
0 0.8671875 0.0546875 0.05859375 0.09375
0 0.798828125 0.001953125 0.0712890625 0.08203125
0 0.96484375 0.015625 0.03515625 0.0771484375
0 0.9765625 0.9755859375 0.0234375 0.0244140625
