0 0.0 0.470703125 0.03125 0.1044921875
0 0.0 0.91015625 0.0908203125 0.08984375
0 0.138671875 0.693359375 0.080078125 0.26171875
0 0.2333984375 0.8603515625 0.083984375 0.1396484375
0 0.2822265625 0.845703125 0.1923828125 0.154296875
0 0.5068359375 0.8310546875 0.0634765625 0.1689453125
0 0.5634765625 0.8974609375 0.0810546875 0.0625
0 0.6630859375 0.91796875 0.0693359375 0.08203125
0 0.890625 0.9248046875 0.0869140625 0.0751953125
0 0.6201171875 0.5087890625 0.0595703125 0.0810546875
0 0.75390625 0.7333984375 0.056640625 0.216796875
0 0.8828125 0.681640625 0.0859375 0.0732421875
0 0.8427734375 0.64453125 0.0625 0.2177734375
0 0.7900390625 0.583984375 0.0751953125 0.2568359375
0 0.4677734375 0.607421875 0.0810546875 0.1416015625
0 0.427734375 0.666015625 0.0703125 0.1708984375
0 0.3779296875 0.6572265625 0.0703125 0.125
0 0.29296875 0.7705078125 0.0810546875 0.1220703125
0 0.2578125 0.501953125 0.091796875 0.15625
0 0.2744140625 0.5380859375 0.111328125 0.275390625
0 0.0703125 0.3974609375 0.064453125 0.0966796875
0 0.1162109375 0.4521484375 0.1748046875 0.1123046875
0 0.126953125 0.5224609375 0.111328125 0.1015625
0 0.4462890625 0.3046875 0.1484375 0.1171875
0 0.341796875 0.27734375 0.1025390625 0.248046875
0 0.58984375 0.48046875 0.1611328125 0.2861328125
0 0.568359375 0.396484375 0.150390625 0.1875
0 0.732421875 0.4970703125 0.06640625 0.09765625
0 0.9140625 0.2958984375 0.0859375 0.2568359375
0 0.6943359375 0.2705078125 0.08984375 0.1005859375
0 0.515625 0.4052734375 0.0869140625 0.1181640625
0 0.84765625 0.2724609375 0.064453125 0.0986328125
0 0.908203125 0.224609375 0.0908203125 0.1005859375
0 0.7822265625 0.228515625 0.078125 0.13671875
0 0.796875 0.0576171875 0.09765625 0.259765625
0 0.9296875 0.1484375 0.0703125 0.103515625
0 0.1748046875 0.189453125 0.1484375 0.1630859375
0 0.001953125 0.21875 0.16796875 0.1435546875
0 0.056640625 0.3232421875 0.10546875 0.119140625
0 0.3544921875 0.0 0.12890625 0.22265625
0 0.1826171875 0.0166015625 0.138671875 0.2060546875
0 0.119140625 0.0146484375 0.095703125 0.1123046875
0 0.1650390625 0.1259765625 0.0615234375 0.18359375
0 0.0087890625 0.0478515625 0.06640625 0.1904296875
0 0.0 0.0 0.0625 0.0947265625
0 0.365234375 0.630859375 0.0654296875 0.0849609375
0 0.5029296875 0.5244140625 0.0712890625 0.080078125
0 0.4951171875 0.8544921875 0.083984375 0.072265625
0 0.9697265625 0.4443359375 0.0302734375 0.0859375
0 0.880859375 0.0302734375 0.0791015625 0.2744140625
0 0.57421875 0.2353515625 0.2080078125 0.2255859375
0 0.2958984375 0.099609375 0.09765625 0.078125
0 0.79296875 0.802734375 0.0625 0.0986328125
0 0.6630859375 0.484375 0.0439453125 0.0947265625
0 0.740234375 0.484375 0.0849609375 0.142578125
0 0.0361328125 0.2939453125 0.119140625 0.1201171875
