0 0.0 0.0087890625 0.107421875 0.0458984375
0 0.3876953125 0.0 0.1455078125 0.0361328125
0 0.4599609375 0.01953125 0.103515625 0.0556640625
0 0.71875 0.015625 0.08984375 0.044921875
0 0.9296875 0.0 0.0703125 0.048828125
0 0.87890625 0.0244140625 0.0380859375 0.0361328125
0 0.3076171875 0.05078125 0.15234375 0.0302734375
0 0.625 0.0546875 0.11328125 0.037109375
0 0.3154296875 0.2509765625 0.0751953125 0.04296875
0 0.1796875 0.27734375 0.0654296875 0.0390625
0 0.0712890625 0.31640625 0.09765625 0.060546875
0 0.080078125 0.375 0.1162109375 0.0390625
0 0.19921875 0.3564453125 0.0791015625 0.0478515625
0 0.271484375 0.3369140625 0.099609375 0.0498046875
0 0.3916015625 0.3466796875 0.115234375 0.033203125
0 0.6669921875 0.294921875 0.0703125 0.0458984375
0 0.65625 0.34375 0.0595703125 0.0478515625
0 0.845703125 0.36328125 0.0576171875 0.056640625
0 0.798828125 0.484375 0.13671875 0.0263671875
0 0.857421875 0.4541015625 0.0322265625 0.0419921875
0 0.765625 0.4951171875 0.169921875 0.03515625
0 0.435546875 0.4443359375 0.0625 0.0390625
0 0.1904296875 0.4072265625 0.12890625 0.04296875
0 0.17578125 0.4677734375 0.1083984375 0.044921875
0 0.091796875 0.521484375 0.1083984375 0.0322265625
0 0.1337890625 0.537109375 0.146484375 0.041015625
0 0.3720703125 0.5302734375 0.076171875 0.10546875
0 0.203125 0.7421875 0.1220703125 0.0576171875
0 0.171875 0.783203125 0.1201171875 0.0478515625
0 0.0068359375 0.7958984375 0.107421875 0.0673828125
0 0.15625 0.8642578125 0.0751953125 0.029296875
0 0.15234375 0.8974609375 0.11328125 0.07421875
0 0.25390625 0.900390625 0.05078125 0.060546875
0 0.5400390625 0.7451171875 0.099609375 0.05078125
0 0.501953125 0.7939453125 0.064453125 0.052734375
0 0.44921875 0.798828125 0.107421875 0.06640625
0 0.587890625 0.9296875 0.0361328125 0.0703125
0 0.5673828125 0.970703125 0.1064453125 0.029296875
0 0.736328125 0.8408203125 0.0947265625 0.0537109375
0 0.7958984375 0.7822265625 0.0654296875 0.068359375
0 0.841796875 0.8232421875 0.095703125 0.0498046875
0 0.93359375 0.8486328125 0.06640625 0.048828125
0 0.9912109375 0.9296875 0.0087890625 0.0439453125
0 0.9033203125 0.955078125 0.080078125 0.044921875
0 0.9267578125 0.572265625 0.0732421875 0.0751953125
0 0.662109375 0.5029296875 0.0576171875 0.0341796875
0 0.7255859375 0.328125 0.0361328125 0.03125
0 0.07421875 0.3369140625 0.1025390625 0.0322265625
0 0.3798828125 0.3193359375 0.0517578125 0.048828125
