0 0.7734375 0.154296875 0.0751953125 0.08203125
0 0.251953125 0.23828125 0.0849609375 0.0986328125
0 0.3671875 0.3857421875 0.08203125 0.076171875
0 0.716796875 0.0009765625 0.068359375 0.0625
0 0.5732421875 0.3193359375 0.083984375 0.0869140625
0 0.427734375 0.2998046875 0.1025390625 0.0771484375
0 0.5 0.203125 0.1005859375 0.10546875
0 0.8759765625 0.0185546875 0.064453125 0.06640625
0 0.578125 0.1142578125 0.09375 0.076171875
0 0.4423828125 0.220703125 0.083984375 0.068359375
0 0.6455078125 0.91796875 0.07421875 0.060546875
0 0.0791015625 0.5146484375 0.0517578125 0.04296875
0 0.248046875 0.69140625 0.0908203125 0.0771484375
0 0.2138671875 0.1435546875 0.0732421875 0.1103515625
0 0.380859375 0.201171875 0.0654296875 0.0810546875
0 0.267578125 0.0849609375 0.080078125 0.0693359375
0 0.08203125 0.67578125 0.0771484375 0.048828125
0 0.3037109375 0.0390625 0.0654296875 0.09765625
0 0.9501953125 0.45703125 0.0498046875 0.0546875
0 0.203125 0.4462890625 0.12109375 0.0595703125
0 0.3359375 0.8017578125 0.08203125 0.0458984375
0 0.5830078125 0.56640625 0.0771484375 0.0615234375
0 0.01171875 0.9013671875 0.083984375 0.0615234375
0 0.6953125 0.5048828125 0.0712890625 0.0556640625
0 0.4443359375 0.833984375 0.0732421875 0.0478515625
0 0.9326171875 0.0986328125 0.056640625 0.08984375
0 0.6083984375 0.771484375 0.0908203125 0.0537109375
0 0.955078125 0.0009765625 0.044921875 0.052734375
0 0.7060546875 0.74609375 0.099609375 0.0634765625
0 0.494140625 0.4580078125 0.0927734375 0.0546875
0 0.15625 0.78125 0.08984375 0.0751953125
0 0.69140625 0.560546875 0.0751953125 0.05078125
0 0.4453125 0.3623046875 0.0595703125 0.0625
0 0.7021484375 0.2451171875 0.05859375 0.046875
0 0.9130859375 0.8759765625 0.068359375 0.05859375
0 0.0 0.7890625 0.0751953125 0.0380859375
0 0.2666015625 0.568359375 0.1064453125 0.056640625
0 0.8251953125 0.8046875 0.05859375 0.0546875
0 0.2783203125 0.830078125 0.08984375 0.0419921875
0 0.7763671875 0.9560546875 0.0654296875 0.0439453125
0 0.38671875 0.001953125 0.0634765625 0.044921875
0 0.2119140625 0.52734375 0.0927734375 0.0400390625
0 0.783203125 0.4423828125 0.0615234375 0.0546875
0 0.4765625 0.7900390625 0.0791015625 0.0361328125
0 0.7431640625 0.5048828125 0.068359375 0.0498046875
0 0.701171875 0.453125 0.048828125 0.05078125
0 0.25 0.154296875 0.068359375 0.0634765625
0 0.83984375 0.564453125 0.064453125 0.048828125
0 0.587890625 0.513671875 0.08984375 0.0517578125
0 0.0 0.5546875 0.060546875 0.04296875
0 0.6728515625 0.86328125 0.0634765625 0.03515625
0 0.595703125 0.458984375 0.07421875 0.0361328125
0 0.5693359375 0.8759765625 0.05859375 0.0341796875
0 0.919921875 0.76171875 0.0478515625 0.052734375
0 0.5234375 0.3544921875 0.0556640625 0.078125
0 0.8076171875 0.5556640625 0.0625 0.0546875
0 0.083984375 0.0 0.07421875 0.021484375
0 0.1123046875 0.7392578125 0.0634765625 0.044921875
0 0.724609375 0.4580078125 0.076171875 0.0458984375
0 0.0615234375 0.779296875 0.046875 0.03515625
0 0.6923828125 0.8935546875 0.0908203125 0.037109375
0 0.7197265625 0.638671875 0.0615234375 0.0322265625
0 0.0 0.4619140625 0.0439453125 0.0380859375
0 0.3115234375 0.205078125 0.0556640625 0.0458984375
0 0.185546875 0.919921875 0.0654296875 0.046875
0 0.822265625 0.455078125 0.0615234375 0.078125
0 0.4921875 0.4853515625 0.0341796875 0.0361328125
0 0.41015625 0.5341796875 0.0986328125 0.0439453125
0 0.3935546875 0.9248046875 0.0830078125 0.041015625
0 0.373046875 0.041015625 0.06640625 0.0576171875
0 0.2431640625 0.9287109375 0.0869140625 0.0419921875
0 0.7607421875 0.9482421875 0.0771484375 0.0390625
0 0.0439453125 0.4912109375 0.048828125 0.0537109375
0 0.404296875 0.0 0.05078125 0.029296875
