0 0.0146484375 0.3271484375 0.041015625 0.052734375
0 0.02734375 0.4052734375 0.041015625 0.0576171875
0 0.0986328125 0.3671875 0.06640625 0.0302734375
0 0.052734375 0.27734375 0.0703125 0.0419921875
0 0.0693359375 0.2236328125 0.0517578125 0.0390625
0 0.0126953125 0.203125 0.0380859375 0.0703125
0 0.2421875 0.1943359375 0.0595703125 0.1064453125
0 0.25390625 0.1669921875 0.0400390625 0.044921875
0 0.30078125 0.1279296875 0.0400390625 0.08984375
0 0.369140625 0.146484375 0.044921875 0.0947265625
0 0.2880859375 0.349609375 0.099609375 0.0908203125
0 0.22265625 0.3818359375 0.03515625 0.0400390625
0 0.3642578125 0.3486328125 0.0380859375 0.0390625
0 0.4345703125 0.3310546875 0.080078125 0.0712890625
0 0.4716796875 0.2236328125 0.0546875 0.0537109375
0 0.5849609375 0.419921875 0.0322265625 0.037109375
0 0.58984375 0.37109375 0.0673828125 0.029296875
0 0.6083984375 0.2626953125 0.119140625 0.0400390625
0 0.5302734375 0.1318359375 0.0439453125 0.052734375
0 0.583984375 0.1435546875 0.115234375 0.1025390625
0 0.638671875 0.169921875 0.048828125 0.0859375
0 0.7919921875 0.1953125 0.068359375 0.0673828125
0 0.837890625 0.2509765625 0.0546875 0.03515625
0 0.83203125 0.07421875 0.0732421875 0.0654296875
0 0.845703125 0.32421875 0.06640625 0.04296875
0 0.9169921875 0.2197265625 0.0830078125 0.1201171875
0 0.8623046875 0.88671875 0.0419921875 0.072265625
0 0.7177734375 0.6533203125 0.0322265625 0.044921875
0 0.6533203125 0.791015625 0.0439453125 0.0576171875
0 0.611328125 0.7470703125 0.0712890625 0.0576171875
0 0.6337890625 0.73046875 0.06640625 0.0361328125
0 0.494140625 0.5947265625 0.0537109375 0.064453125
0 0.5751953125 0.880859375 0.0556640625 0.068359375
0 0.466796875 0.9599609375 0.0654296875 0.0400390625
0 0.4521484375 0.8671875 0.05078125 0.03515625
0 0.404296875 0.7509765625 0.0546875 0.0341796875
0 0.3173828125 0.853515625 0.0458984375 0.0556640625
0 0.328125 0.755859375 0.0517578125 0.0654296875
0 0.35546875 0.6318359375 0.05859375 0.06640625
0 0.314453125 0.6220703125 0.0625 0.076171875
0 0.263671875 0.6650390625 0.0458984375 0.0830078125
0 0.1953125 0.7080078125 0.041015625 0.03515625
0 0.16796875 0.7158203125 0.037109375 0.044921875
0 0.171875 0.822265625 0.072265625 0.0283203125
0 0.134765625 0.8583984375 0.048828125 0.0390625
0 0.0966796875 0.833984375 0.052734375 0.052734375
0 0.255859375 0.9375 0.0537109375 0.048828125
0 0.2734375 0.90625 0.0361328125 0.037109375
0 0.046875 0.708984375 0.0244140625 0.0400390625
0 0.029296875 0.859375 0.0537109375 0.0380859375
