0 0.7568359375 0.5517578125 0.142578125 0.095703125
0 0.2822265625 0.0 0.1171875 0.107421875
0 0.01171875 0.046875 0.0654296875 0.0830078125
0 0.71484375 0.4765625 0.091796875 0.0654296875
0 0.32421875 0.27734375 0.0849609375 0.125
0 0.0390625 0.44921875 0.16015625 0.0556640625
0 0.6875 0.83984375 0.0546875 0.142578125
0 0.0 0.134765625 0.0791015625 0.126953125
0 0.056640625 0.931640625 0.1279296875 0.068359375
0 0.4072265625 0.0 0.1298828125 0.13671875
0 0.15234375 0.669921875 0.259765625 0.0966796875
0 0.07421875 0.0673828125 0.078125 0.0576171875
0 0.1669921875 0.4072265625 0.150390625 0.0693359375
0 0.8115234375 0.7255859375 0.1611328125 0.2236328125
0 0.1416015625 0.1474609375 0.1806640625 0.0966796875
0 0.7822265625 0.1474609375 0.0595703125 0.0625
0 0.32421875 0.1591796875 0.0625 0.1181640625
0 0.619140625 0.3349609375 0.134765625 0.0986328125
0 0.625 0.21484375 0.162109375 0.154296875
0 0.4521484375 0.0 0.0869140625 0.044921875
0 0.5595703125 0.07421875 0.0703125 0.080078125
0 0.744140625 0.8447265625 0.078125 0.0673828125
0 0.357421875 0.7744140625 0.08984375 0.2021484375
0 0.5869140625 0.544921875 0.1298828125 0.0771484375
0 0.6171875 0.8974609375 0.072265625 0.08203125
0 0.0625 0.2294921875 0.1123046875 0.115234375
0 0.6494140625 0.0 0.10546875 0.099609375
0 0.119140625 0.2041015625 0.095703125 0.185546875
0 0.494140625 0.1796875 0.0732421875 0.1796875
0 0.169921875 0.7666015625 0.099609375 0.0732421875
0 0.1220703125 0.01171875 0.0751953125 0.060546875
0 0.625 0.0 0.173828125 0.048828125
0 0.091796875 0.126953125 0.0625 0.0703125
0 0.279296875 0.8671875 0.0673828125 0.0771484375
0 0.4619140625 0.7568359375 0.0849609375 0.2431640625
0 0.0966796875 0.15234375 0.0927734375 0.0947265625
0 0.54296875 0.787109375 0.1142578125 0.2080078125
0 0.5244140625 0.0 0.0771484375 0.07421875
0 0.9267578125 0.0849609375 0.0732421875 0.126953125
0 0.0322265625 0.3193359375 0.2373046875 0.1201171875
0 0.572265625 0.1416015625 0.0595703125 0.115234375
0 0.599609375 0.0517578125 0.1171875 0.052734375
0 0.76953125 0.939453125 0.1025390625 0.060546875
0 0.359375 0.591796875 0.0751953125 0.123046875
0 0.0 0.94921875 0.044921875 0.05078125
0 0.529296875 0.1943359375 0.0703125 0.107421875
0 0.5947265625 0.4892578125 0.072265625 0.0751953125
0 0.4423828125 0.0 0.08984375 0.1943359375
0 0.2998046875 0.9296875 0.064453125 0.0703125
0 0.951171875 0.7529296875 0.046875 0.1455078125
0 0.9248046875 0.4091796875 0.0625 0.09765625
0 0.7119140625 0.2421875 0.0830078125 0.14453125
0 0.046875 0.1142578125 0.072265625 0.0498046875
0 0.0849609375 0.90234375 0.2119140625 0.0869140625
0 0.125 0.8896484375 0.072265625 0.0498046875
0 0.6845703125 0.931640625 0.0498046875 0.068359375
0 0.63671875 0.9697265625 0.05078125 0.0302734375
0 0.4873046875 0.6611328125 0.0498046875 0.0478515625
0 0.4345703125 0.8818359375 0.052734375 0.1181640625
0 0.25 0.806640625 0.0625 0.0927734375
0 0.8720703125 0.7197265625 0.1005859375 0.1484375
0 0.7666015625 0.7724609375 0.0576171875 0.072265625
0 0.759765625 0.8095703125 0.1669921875 0.134765625
0 0.1396484375 0.572265625 0.0595703125 0.1171875
0 0.2041015625 0.51171875 0.0625 0.1826171875
0 0.2470703125 0.5791015625 0.0947265625 0.0654296875
0 0.2421875 0.634765625 0.052734375 0.0625
0 0.3125 0.6142578125 0.0947265625 0.150390625
0 0.5771484375 0.5546875 0.162109375 0.125
0 0.931640625 0.52734375 0.068359375 0.1220703125
0 0.3544921875 0.6171875 0.0498046875 0.0576171875
0 0.3447265625 0.40234375 0.1171875 0.1826171875
0 0.4765625 0.431640625 0.1376953125 0.115234375
0 0.412109375 0.412109375 0.142578125 0.1044921875
0 0.4697265625 0.431640625 0.0693359375 0.052734375
0 0.9140625 0.20703125 0.0859375 0.072265625
