0 0.880859375 0.033203125 0.0986328125 0.0654296875
0 0.66796875 0.1796875 0.0595703125 0.078125
0 0.6552734375 0.4111328125 0.083984375 0.0361328125
0 0.951171875 0.3212890625 0.048828125 0.0498046875
0 0.83984375 0.482421875 0.05078125 0.0458984375
0 0.8515625 0.421875 0.0322265625 0.0380859375
0 0.76171875 0.25 0.0380859375 0.03515625
0 0.5556640625 0.232421875 0.0849609375 0.0478515625
0 0.5048828125 0.2177734375 0.0693359375 0.0517578125
0 0.365234375 0.2060546875 0.1298828125 0.060546875
0 0.3671875 0.16796875 0.0419921875 0.0283203125
0 0.283203125 0.13671875 0.0859375 0.029296875
0 0.1865234375 0.11328125 0.0439453125 0.0458984375
0 0.53515625 0.3515625 0.0498046875 0.0498046875
0 0.486328125 0.390625 0.0947265625 0.0556640625
0 0.44921875 0.4013671875 0.0556640625 0.0322265625
0 0.3837890625 0.4345703125 0.0751953125 0.0478515625
0 0.3798828125 0.4013671875 0.056640625 0.044921875
0 0.3447265625 0.365234375 0.0703125 0.0458984375
0 0.2685546875 0.359375 0.0576171875 0.03125
0 0.0810546875 0.3271484375 0.0634765625 0.041015625
0 0.109375 0.419921875 0.0986328125 0.0478515625
0 0.0 0.2294921875 0.0546875 0.037109375
0 0.0 0.3125 0.0751953125 0.056640625
0 0.0 0.267578125 0.0869140625 0.0361328125
0 0.0029296875 0.6826171875 0.1435546875 0.0546875
0 0.1435546875 0.74609375 0.072265625 0.041015625
0 0.2412109375 0.759765625 0.0498046875 0.0380859375
0 0.3486328125 0.6875 0.041015625 0.0400390625
0 0.3486328125 0.76171875 0.048828125 0.0341796875
0 0.4033203125 0.7626953125 0.056640625 0.0341796875
0 0.4697265625 0.6953125 0.0556640625 0.0458984375
0 0.685546875 0.7568359375 0.0595703125 0.037109375
0 0.708984375 0.751953125 0.048828125 0.0478515625
0 0.208984375 0.9287109375 0.0791015625 0.0625
0 0.041015625 0.94140625 0.10546875 0.04296875
0 0.224609375 0.8203125 0.068359375 0.03125
0 0.111328125 0.8125 0.0615234375 0.0361328125
0 0.4453125 0.87109375 0.041015625 0.0361328125
0 0.787109375 0.7939453125 0.1005859375 0.0615234375
0 0.7841796875 0.828125 0.0390625 0.05859375
0 0.953125 0.8408203125 0.046875 0.03125
0 0.9521484375 0.7890625 0.0478515625 0.0400390625
0 0.0146484375 0.009765625 0.0859375 0.0458984375
0 0.732421875 0.0234375 0.060546875 0.0390625
