0 0.0810546875 0.6572265625 0.0927734375 0.07421875
0 0.6953125 0.919921875 0.0849609375 0.0732421875
0 0.537109375 0.25 0.1044921875 0.0634765625
0 0.0859375 0.76171875 0.1455078125 0.0546875
0 0.6025390625 0.0 0.0693359375 0.052734375
0 0.4345703125 0.1328125 0.0927734375 0.0595703125
0 0.0 0.3408203125 0.0859375 0.0771484375
0 0.4169921875 0.365234375 0.0830078125 0.068359375
0 0.68359375 0.3955078125 0.0849609375 0.0625
0 0.8935546875 0.875 0.0927734375 0.064453125
0 0.0048828125 0.0244140625 0.0703125 0.060546875
0 0.8408203125 0.4921875 0.0927734375 0.0693359375
0 0.9638671875 0.6201171875 0.0361328125 0.052734375
0 0.54296875 0.1220703125 0.1064453125 0.0419921875
0 0.5712890625 0.3447265625 0.10546875 0.0615234375
0 0.5234375 0.005859375 0.0478515625 0.068359375
0 0.1357421875 0.568359375 0.1220703125 0.0888671875
0 0.5673828125 0.4052734375 0.10546875 0.0693359375
0 0.1728515625 0.2177734375 0.07421875 0.0478515625
0 0.7451171875 0.0986328125 0.0595703125 0.052734375
0 0.015625 0.0 0.0625 0.052734375
0 0.9287109375 0.1015625 0.0712890625 0.0458984375
0 0.3623046875 0.7197265625 0.0966796875 0.0419921875
0 0.115234375 0.111328125 0.0859375 0.0517578125
0 0.2783203125 0.71484375 0.0859375 0.0322265625
0 0.8583984375 0.7529296875 0.1064453125 0.0576171875
0 0.7373046875 0.3212890625 0.07421875 0.0439453125
0 0.2744140625 0.1416015625 0.072265625 0.04296875
0 0.34375 0.0693359375 0.091796875 0.0458984375
0 0.1875 0.4755859375 0.0791015625 0.044921875
0 0.5693359375 0.701171875 0.08203125 0.04296875
0 0.93359375 0.1611328125 0.06640625 0.0830078125
0 0.0751953125 0.1650390625 0.099609375 0.07421875
0 0.7197265625 0.5712890625 0.0810546875 0.0439453125
0 0.705078125 0.048828125 0.083984375 0.0546875
0 0.6533203125 0.783203125 0.064453125 0.0458984375
0 0.130859375 0.837890625 0.0849609375 0.0458984375
0 0.25390625 0.779296875 0.1455078125 0.0615234375
0 0.05859375 0.5341796875 0.0751953125 0.037109375
0 0.6640625 0.1787109375 0.064453125 0.0390625
0 0.19921875 0.4287109375 0.072265625 0.048828125
0 0.12890625 0.3837890625 0.08203125 0.0546875
0 0.5439453125 0.5634765625 0.0498046875 0.0439453125
0 0.90234375 0.3515625 0.0751953125 0.06640625
0 0.47265625 0.9228515625 0.0634765625 0.05078125
0 0.5625 0.3818359375 0.0751953125 0.04296875
0 0.3974609375 0.3076171875 0.0703125 0.0517578125
0 0.1064453125 0.396484375 0.06640625 0.0380859375
0 0.787109375 0.4697265625 0.0693359375 0.0517578125
0 0.150390625 0.6474609375 0.11328125 0.0556640625
0 0.3232421875 0.068359375 0.048828125 0.0439453125
0 0.705078125 0.2353515625 0.052734375 0.0458984375
0 0.2060546875 0.267578125 0.087890625 0.0341796875
0 0.75390625 0.8837890625 0.1328125 0.0439453125
0 0.498046875 0.97265625 0.033203125 0.02734375
0 0.0009765625 0.392578125 0.0615234375 0.041015625
0 0.0 0.1962890625 0.146484375 0.0478515625
0 0.21484375 0.740234375 0.099609375 0.0498046875
0 0.0537109375 0.1328125 0.1640625 0.0595703125
0 0.1591796875 0.615234375 0.103515625 0.0595703125
0 0.6845703125 0.0029296875 0.04296875 0.0458984375
0 0.044921875 0.576171875 0.1123046875 0.0947265625
0 0.75 0.857421875 0.0537109375 0.0263671875
0 0.8583984375 0.369140625 0.0869140625 0.0654296875
0 0.6396484375 0.1396484375 0.05859375 0.0400390625
0 0.4970703125 0.1259765625 0.064453125 0.0458984375
0 0.5087890625 0.4609375 0.0576171875 0.0361328125
0 0.1982421875 0.1982421875 0.0654296875 0.029296875
0 0.0 0.7451171875 0.0830078125 0.0458984375
0 0.9658203125 0.7890625 0.0341796875 0.041015625
0 0.2568359375 0.40625 0.0517578125 0.041015625
0 0.763671875 0.3603515625 0.123046875 0.0576171875
0 0.3037109375 0.4365234375 0.091796875 0.0537109375
0 0.0 0.14453125 0.078125 0.04296875
0 0.2734375 0.7978515625 0.119140625 0.0537109375
0 0.14453125 0.435546875 0.0859375 0.0341796875
0 0.365234375 0.44921875 0.0986328125 0.048828125
0 0.0478515625 0.84375 0.0732421875 0.029296875
0 0.171875 0.8125 0.052734375 0.0322265625
0 0.0 0.873046875 0.0791015625 0.03125
0 0.5693359375 0.9765625 0.080078125 0.0234375
0 0.6845703125 0.7705078125 0.0654296875 0.0380859375
0 0.0224609375 0.890625 0.0712890625 0.025390625
0 0.0 0.5537109375 0.060546875 0.052734375
0 0.3466796875 0.162109375 0.0634765625 0.0498046875
0 0.1865234375 0.8671875 0.1044921875 0.037109375
0 0.095703125 0.9287109375 0.115234375 0.0712890625
0 0.7568359375 0.7626953125 0.0498046875 0.0400390625
0 0.7841796875 0.9765625 0.1015625 0.0234375
0 0.26171875 0.87890625 0.0908203125 0.037109375
0 0.1025390625 0.802734375 0.0830078125 0.0458984375
0 0.1171875 0.98046875 0.064453125 0.01953125
0 0.9228515625 0.1474609375 0.0771484375 0.0537109375
0 0.48828125 0.4990234375 0.0693359375 0.0361328125
0 0.3310546875 0.73828125 0.044921875 0.0244140625
0 0.23828125 0.1630859375 0.0478515625 0.06640625
0 0.2939453125 0.203125 0.033203125 0.0283203125
0 0.2978515625 0.185546875 0.0224609375 0.0283203125
0 0.154296875 0.0 0.072265625 0.072265625
0 0.5576171875 0.15625 0.1201171875 0.076171875
0 0.5517578125 0.0146484375 0.0966796875 0.0810546875
0 0.5556640625 0.060546875 0.0634765625 0.0556640625
0 0.607421875 0.087890625 0.0810546875 0.068359375
0 0.0 0.2578125 0.0205078125 0.0478515625
