0 0.6171875 0.6474609375 0.0771484375 0.08984375
0 0.357421875 0.8994140625 0.1044921875 0.08984375
0 0.8291015625 0.369140625 0.087890625 0.080078125
0 0.5224609375 0.6474609375 0.107421875 0.0673828125
0 0.794921875 0.2841796875 0.064453125 0.0751953125
0 0.3291015625 0.7646484375 0.0908203125 0.125
0 0.412109375 0.58203125 0.1875 0.08203125
0 0.8916015625 0.169921875 0.087890625 0.126953125
0 0.0068359375 0.3798828125 0.123046875 0.0966796875
0 0.744140625 0.109375 0.140625 0.15234375
0 0.6591796875 0.01953125 0.1181640625 0.1650390625
0 0.0224609375 0.484375 0.064453125 0.0849609375
0 0.4541015625 0.216796875 0.0908203125 0.1904296875
0 0.0625 0.0693359375 0.126953125 0.1025390625
0 0.5771484375 0.3720703125 0.2373046875 0.1025390625
0 0.619140625 0.779296875 0.158203125 0.1328125
0 0.0166015625 0.7265625 0.1083984375 0.0830078125
0 0.1796875 0.421875 0.08203125 0.134765625
0 0.2666015625 0.001953125 0.1181640625 0.1796875
0 0.162109375 0.1142578125 0.080078125 0.125
0 0.162109375 0.2841796875 0.22265625 0.16015625
0 0.876953125 0.76953125 0.09765625 0.1103515625
0 0.0849609375 0.822265625 0.0673828125 0.08984375
0 0.392578125 0.7197265625 0.1533203125 0.1552734375
0 0.0244140625 0.6494140625 0.09765625 0.0830078125
0 0.32421875 0.001953125 0.1923828125 0.1396484375
0 0.734375 0.7548828125 0.0576171875 0.064453125
0 0.9599609375 0.75 0.0400390625 0.0693359375
0 0.814453125 0.6767578125 0.1103515625 0.09765625
0 0.388671875 0.4375 0.08984375 0.09765625
0 0.8818359375 0.02734375 0.115234375 0.1220703125
0 0.3515625 0.25 0.078125 0.0791015625
0 0.5947265625 0.08984375 0.1318359375 0.169921875
0 0.5771484375 0.5048828125 0.1044921875 0.0771484375
0 0.626953125 0.546875 0.1923828125 0.0673828125
0 0.671875 0.7392578125 0.072265625 0.0927734375
0 0.904296875 0.654296875 0.052734375 0.0673828125
0 0.236328125 0.4697265625 0.0732421875 0.1357421875
0 0.9091796875 0.482421875 0.05078125 0.0517578125
0 0.01171875 0.76171875 0.0703125 0.1005859375
0 0.001953125 0.1416015625 0.052734375 0.1953125
0 0.1123046875 0.162109375 0.0751953125 0.107421875
0 0.3369140625 0.3974609375 0.0771484375 0.125
0 0.1298828125 0.8271484375 0.126953125 0.0673828125
0 0.0 0.919921875 0.033203125 0.0673828125
0 0.859375 0.744140625 0.0625 0.078125
0 0.5947265625 0.5966796875 0.099609375 0.05078125
0 0.07421875 0.52734375 0.0927734375 0.0693359375
0 0.71484375 0.001953125 0.0576171875 0.08984375
0 0.5234375 0.0 0.095703125 0.0380859375
0 0.6494140625 0.3046875 0.080078125 0.109375
0 0.572265625 0.14453125 0.0576171875 0.087890625
0 0.4873046875 0.8642578125 0.0439453125 0.0419921875
0 0.6396484375 0.7421875 0.0595703125 0.046875
