0 0.0 0.705078125 0.0185546875 0.12109375
0 0.0 0.359375 0.080078125 0.1845703125
0 0.0 0.126953125 0.1533203125 0.068359375
0 0.18359375 0.21484375 0.134765625 0.1533203125
0 0.2421875 0.4208984375 0.0576171875 0.12890625
0 0.1572265625 0.4970703125 0.0947265625 0.16015625
0 0.09375 0.33984375 0.0751953125 0.1640625
0 0.2958984375 0.3837890625 0.07421875 0.1201171875
0 0.3955078125 0.455078125 0.1884765625 0.13671875
0 0.4130859375 0.5458984375 0.103515625 0.119140625
0 0.130859375 0.6484375 0.169921875 0.11328125
0 0.1298828125 0.810546875 0.2255859375 0.08203125
0 0.6708984375 0.705078125 0.2060546875 0.0771484375
0 0.765625 0.8623046875 0.1328125 0.076171875
0 0.7939453125 0.9228515625 0.0947265625 0.0771484375
0 0.9072265625 0.8720703125 0.0859375 0.1279296875
0 0.8681640625 0.6650390625 0.1064453125 0.12890625
0 0.86328125 0.6201171875 0.13671875 0.080078125
0 0.5703125 0.3515625 0.14453125 0.138671875
0 0.728515625 0.33203125 0.255859375 0.1748046875
0 0.703125 0.4169921875 0.1123046875 0.0888671875
0 0.931640625 0.365234375 0.068359375 0.0703125
0 0.255859375 0.0 0.1103515625 0.107421875
0 0.697265625 0.00390625 0.0888671875 0.09765625
0 0.8974609375 0.0341796875 0.1025390625 0.0634765625
0 0.837890625 0.0361328125 0.0634765625 0.0751953125
0 0.453125 0.7470703125 0.0771484375 0.123046875
0 0.0 0.9267578125 0.0947265625 0.0732421875
0 0.6806640625 0.7099609375 0.3193359375 0.14453125
0 0.6181640625 0.689453125 0.0869140625 0.0673828125
0 0.2890625 0.8603515625 0.1064453125 0.07421875
0 0.4521484375 0.26171875 0.0537109375 0.0849609375
