0 0.5791015625 0.5498046875 0.0654296875 0.0732421875
0 0.564453125 0.1708984375 0.0986328125 0.0791015625
0 0.580078125 0.7392578125 0.04296875 0.1435546875
0 0.3330078125 0.5078125 0.0869140625 0.12109375
0 0.08984375 0.1953125 0.1396484375 0.060546875
0 0.9580078125 0.63671875 0.0419921875 0.0849609375
0 0.1826171875 0.37109375 0.1005859375 0.07421875
0 0.3564453125 0.8271484375 0.0830078125 0.140625
0 0.7412109375 0.6875 0.029296875 0.0849609375
0 0.5009765625 0.8857421875 0.0400390625 0.1142578125
0 0.8291015625 0.7197265625 0.1220703125 0.087890625
0 0.83984375 0.4140625 0.12890625 0.05859375
0 0.4482421875 0.0 0.1162109375 0.0712890625
0 0.3515625 0.9365234375 0.1181640625 0.05859375
0 0.5068359375 0.2138671875 0.09375 0.05078125
0 0.7578125 0.9052734375 0.0791015625 0.03515625
0 0.46484375 0.69140625 0.0810546875 0.12109375
0 0.505859375 0.7099609375 0.068359375 0.0693359375
0 0.3671875 0.6865234375 0.052734375 0.1220703125
0 0.0498046875 0.5830078125 0.109375 0.048828125
0 0.134765625 0.2197265625 0.0634765625 0.107421875
0 0.1103515625 0.7939453125 0.099609375 0.0546875
0 0.7568359375 0.4169921875 0.1025390625 0.0380859375
0 0.6513671875 0.779296875 0.0458984375 0.1005859375
0 0.1611328125 0.0048828125 0.1025390625 0.09765625
0 0.2490234375 0.6845703125 0.123046875 0.037109375
0 0.181640625 0.62890625 0.15234375 0.05859375
0 0.92578125 0.9072265625 0.056640625 0.046875
0 0.8486328125 0.466796875 0.1513671875 0.126953125
0 0.4931640625 0.861328125 0.06640625 0.0439453125
0 0.224609375 0.7607421875 0.0498046875 0.0390625
0 0.845703125 0.3505859375 0.154296875 0.0498046875
0 0.771484375 0.6474609375 0.107421875 0.0390625
0 0.3671875 0.0185546875 0.052734375 0.052734375
0 0.0390625 0.107421875 0.0703125 0.0576171875
0 0.0947265625 0.0 0.083984375 0.03125
0 0.7861328125 0.8623046875 0.138671875 0.0302734375
0 0.0 0.6640625 0.1171875 0.1220703125
0 0.0849609375 0.7255859375 0.138671875 0.0302734375
0 0.865234375 0.880859375 0.0478515625 0.064453125
0 0.7607421875 0.0205078125 0.1533203125 0.0380859375
0 0.005859375 0.939453125 0.0693359375 0.037109375
0 0.9365234375 0.0654296875 0.0634765625 0.0283203125
0 0.5888671875 0.96484375 0.1044921875 0.03125
0 0.08984375 0.837890625 0.1083984375 0.041015625
0 0.091796875 0.3017578125 0.0908203125 0.0361328125
0 0.9033203125 0.0 0.095703125 0.0302734375
0 0.5556640625 0.8955078125 0.091796875 0.048828125
0 0.1923828125 0.4658203125 0.1064453125 0.0361328125
0 0.4892578125 0.619140625 0.103515625 0.0263671875
0 0.58203125 0.322265625 0.1279296875 0.1904296875
0 0.095703125 0.556640625 0.0703125 0.0712890625
0 0.7724609375 0.7099609375 0.1328125 0.08203125
0 0.7119140625 0.4560546875 0.154296875 0.0458984375
0 0.3359375 0.380859375 0.0478515625 0.0615234375
0 0.16796875 0.1962890625 0.1484375 0.060546875
0 0.0 0.17578125 0.11328125 0.083984375
0 0.6806640625 0.556640625 0.119140625 0.09765625
0 0.0283203125 0.0 0.0732421875 0.0341796875
0 0.1845703125 0.9462890625 0.0771484375 0.041015625
0 0.7548828125 0.5263671875 0.1416015625 0.0400390625
0 0.0615234375 0.6884765625 0.0419921875 0.03125
0 0.453125 0.59765625 0.09765625 0.02734375
0 0.01953125 0.873046875 0.09765625 0.0302734375
0 0.0966796875 0.388671875 0.1748046875 0.1845703125
0 0.693359375 0.544921875 0.1962890625 0.0703125
0 0.1796875 0.4287109375 0.0869140625 0.0341796875
0 0.900390625 0.578125 0.0830078125 0.033203125
0 0.0029296875 0.45703125 0.0986328125 0.0869140625
0 0.0078125 0.4931640625 0.08203125 0.087890625
0 0.6640625 0.0 0.052734375 0.0224609375
0 0.0390625 0.9150390625 0.21875 0.0498046875
0 0.146484375 0.8837890625 0.064453125 0.02734375
0 0.3994140625 0.623046875 0.0615234375 0.0556640625
0 0.0 0.3837890625 0.0302734375 0.0546875
0 0.6845703125 0.060546875 0.2294921875 0.0517578125
0 0.2470703125 0.2490234375 0.0693359375 0.0361328125
0 0.4384765625 0.0244140625 0.1533203125 0.0419921875
0 0.78125 0.0 0.1259765625 0.0244140625
