0 0.2177734375 0.0 0.0859375 0.11328125
0 0.669921875 0.12890625 0.0537109375 0.1123046875
0 0.0166015625 0.0439453125 0.056640625 0.087890625
0 0.3115234375 0.0478515625 0.080078125 0.1025390625
0 0.0 0.873046875 0.0595703125 0.068359375
0 0.919921875 0.1689453125 0.041015625 0.0869140625
0 0.8701171875 0.0 0.0625 0.0849609375
0 0.0341796875 0.1513671875 0.0615234375 0.0771484375
0 0.158203125 0.2177734375 0.080078125 0.10546875
0 0.0 0.6611328125 0.0673828125 0.0595703125
0 0.880859375 0.923828125 0.0556640625 0.076171875
0 0.931640625 0.673828125 0.0400390625 0.0576171875
0 0.7958984375 0.5458984375 0.0498046875 0.0751953125
0 0.8125 0.40234375 0.056640625 0.1064453125
0 0.0146484375 0.5771484375 0.08984375 0.0927734375
0 0.34765625 0.1806640625 0.0703125 0.060546875
0 0.380859375 0.3544921875 0.0615234375 0.06640625
0 0.0732421875 0.7861328125 0.0556640625 0.0654296875
0 0.2607421875 0.5390625 0.060546875 0.0712890625
0 0.533203125 0.00390625 0.0947265625 0.0947265625
0 0.427734375 0.53125 0.0361328125 0.072265625
0 0.841796875 0.1435546875 0.0869140625 0.0693359375
0 0.97265625 0.0908203125 0.02734375 0.0810546875
0 0.251953125 0.7060546875 0.0419921875 0.0693359375
0 0.220703125 0.42578125 0.0546875 0.0673828125
0 0.0029296875 0.47265625 0.0419921875 0.0693359375
0 0.1435546875 0.1513671875 0.037109375 0.076171875
0 0.501953125 0.6943359375 0.037109375 0.07421875
0 0.359375 0.4208984375 0.0576171875 0.0595703125
0 0.556640625 0.0458984375 0.0546875 0.076171875
0 0.2685546875 0.1552734375 0.0712890625 0.1044921875
0 0.4423828125 0.515625 0.06640625 0.0439453125
0 0.8115234375 0.69921875 0.0849609375 0.0390625
0 0.59375 0.1142578125 0.0595703125 0.0654296875
0 0.5732421875 0.44140625 0.099609375 0.0615234375
0 0.41796875 0.1513671875 0.0625 0.037109375
0 0.8984375 0.7275390625 0.048828125 0.06640625
0 0.3046875 0.1953125 0.0751953125 0.046875
0 0.669921875 0.35546875 0.095703125 0.0869140625
0 0.359375 0.96875 0.0791015625 0.03125
0 0.86328125 0.73046875 0.03125 0.0693359375
0 0.6357421875 0.810546875 0.05078125 0.0595703125
0 0.654296875 0.251953125 0.04296875 0.056640625
0 0.08115234375 0.95654296875 0.09619140625 0.04345703125
0 0.216796875 0.7998046875 0.052734375 0.0595703125
0 0.0732421875 0.1181640625 0.037109375 0.0537109375
0 0.091796875 0.1005859375 0.048828125 0.0361328125
0 0.826171875 0.1728515625 0.0615234375 0.0400390625
0 0.09375 0.73046875 0.0458984375 0.0673828125
0 0.9462890625 0.095703125 0.0234375 0.0693359375
0 0.462890625 0.8330078125 0.064453125 0.0458984375
0 0.91796875 0.830078125 0.037109375 0.046875
0 0.767578125 0.4736328125 0.0927734375 0.0595703125
0 0.9111328125 0.41796875 0.037109375 0.0625
0 0.181640625 0.4560546875 0.0634765625 0.037109375
0 0.76171875 0.8310546875 0.0283203125 0.0546875
0 0.130859375 0.4365234375 0.11328125 0.05859375
0 0.0 0.8359375 0.046875 0.0419921875
0 0.794921875 0.9619140625 0.0625 0.0380859375
0 0.69140625 0.392578125 0.0390625 0.0556640625
0 0.1630859375 0.783203125 0.06640625 0.048828125
0 0.9716796875 0.4384765625 0.0283203125 0.0634765625
