0 0.8134765625 0.0 0.1064453125 0.0546875
0 0.9453125 0.376953125 0.0546875 0.0693359375
0 0.865234375 0.3583984375 0.060546875 0.126953125
0 0.9091796875 0.6015625 0.0908203125 0.091796875
0 0.7099609375 0.341796875 0.1044921875 0.0634765625
0 0.6923828125 0.4130859375 0.0673828125 0.083984375
0 0.66796875 0.48046875 0.0654296875 0.1201171875
0 0.736328125 0.4931640625 0.052734375 0.1279296875
0 0.8056640625 0.630859375 0.0634765625 0.064453125
0 0.5810546875 0.447265625 0.0595703125 0.1318359375
0 0.4912109375 0.3671875 0.1064453125 0.060546875
0 0.47265625 0.2978515625 0.05859375 0.08203125
0 0.50390625 0.1083984375 0.08203125 0.046875
0 0.5361328125 0.017578125 0.1572265625 0.0546875
0 0.6455078125 0.1162109375 0.1025390625 0.205078125
0 0.2939453125 0.4658203125 0.0703125 0.0859375
0 0.400390625 0.5029296875 0.1201171875 0.080078125
0 0.375 0.5224609375 0.107421875 0.083984375
0 0.2578125 0.646484375 0.1259765625 0.0986328125
0 0.4091796875 0.7255859375 0.080078125 0.0830078125
0 0.4892578125 0.783203125 0.13671875 0.1328125
0 0.5185546875 0.806640625 0.05859375 0.0546875
0 0.6044921875 0.8291015625 0.134765625 0.109375
0 0.7939453125 0.7646484375 0.08984375 0.07421875
0 0.8134765625 0.837890625 0.1083984375 0.0625
0 0.904296875 0.8935546875 0.0888671875 0.1064453125
0 0.943359375 0.7412109375 0.056640625 0.1220703125
0 0.4560546875 0.9150390625 0.0546875 0.0849609375
0 0.6064453125 0.947265625 0.1201171875 0.052734375
0 0.794921875 0.916015625 0.0849609375 0.083984375
0 0.3056640625 0.9091796875 0.0869140625 0.060546875
0 0.2509765625 0.8779296875 0.0625 0.0458984375
0 0.2705078125 0.82421875 0.1328125 0.0556640625
0 0.306640625 0.7666015625 0.0732421875 0.068359375
0 0.1455078125 0.80859375 0.0908203125 0.044921875
0 0.056640625 0.8525390625 0.0927734375 0.060546875
0 0.0 0.8505859375 0.060546875 0.0625
0 0.0400390625 0.642578125 0.0732421875 0.119140625
0 0.14453125 0.568359375 0.06640625 0.06640625
0 0.1865234375 0.31640625 0.060546875 0.0947265625
0 0.0546875 0.234375 0.15625 0.076171875
0 0.1376953125 0.1748046875 0.1123046875 0.0517578125
0 0.1201171875 0.1337890625 0.0986328125 0.05078125
0 0.1318359375 0.0439453125 0.1572265625 0.0693359375
0 0.421875 0.1337890625 0.16796875 0.154296875
0 0.0 0.22265625 0.0546875 0.126953125
0 0.05078125 0.0 0.076171875 0.0791015625
0 0.287109375 0.0 0.09765625 0.06640625
0 0.896484375 0.2763671875 0.083984375 0.05859375
0 0.0 0.455078125 0.12890625 0.0400390625
0 0.298828125 0.517578125 0.0498046875 0.060546875
0 0.0673828125 0.5966796875 0.09765625 0.10546875
0 0.15625 0.95703125 0.0595703125 0.04296875
0 0.439453125 0.1708984375 0.0576171875 0.0576171875
0 0.419921875 0.048828125 0.0439453125 0.052734375
0 0.9072265625 0.3173828125 0.0625 0.0400390625
