0 0.0 0.66796875 0.0830078125 0.0693359375
0 0.0 0.7373046875 0.0498046875 0.052734375
0 0.0634765625 0.7998046875 0.0615234375 0.068359375
0 0.1240234375 0.6005859375 0.080078125 0.076171875
0 0.1630859375 0.55859375 0.0625 0.0615234375
0 0.0 0.97265625 0.0498046875 0.02734375
0 0.0 0.1748046875 0.0302734375 0.076171875
0 0.0 0.330078125 0.0185546875 0.068359375
0 0.01171875 0.3271484375 0.07421875 0.05859375
0 0.109375 0.33203125 0.076171875 0.076171875
0 0.11328125 0.2138671875 0.07421875 0.0625
0 0.31640625 0.189453125 0.0634765625 0.0537109375
0 0.328125 0.23828125 0.0732421875 0.056640625
0 0.2177734375 0.2685546875 0.068359375 0.078125
0 0.5048828125 0.19921875 0.06640625 0.0703125
0 0.423828125 0.306640625 0.0986328125 0.0830078125
0 0.546875 0.408203125 0.0654296875 0.0625
0 0.4638671875 0.439453125 0.0830078125 0.0791015625
0 0.3857421875 0.81640625 0.0595703125 0.064453125
0 0.3349609375 0.6953125 0.0849609375 0.0595703125
0 0.607421875 0.7646484375 0.060546875 0.0625
0 0.6044921875 0.82421875 0.0615234375 0.05859375
0 0.490234375 0.830078125 0.0732421875 0.08984375
0 0.5146484375 0.7509765625 0.0625 0.0576171875
0 0.53125 0.8701171875 0.056640625 0.056640625
0 0.74609375 0.744140625 0.083984375 0.095703125
0 0.8388671875 0.7421875 0.0830078125 0.0771484375
0 0.3916015625 0.6220703125 0.0556640625 0.0537109375
0 0.5693359375 0.6513671875 0.0576171875 0.0625
0 0.625 0.6279296875 0.0654296875 0.0634765625
0 0.6806640625 0.51953125 0.0888671875 0.08984375
0 0.896484375 0.6103515625 0.0673828125 0.0712890625
0 0.876953125 0.677734375 0.109375 0.095703125
0 0.9697265625 0.4111328125 0.0302734375 0.126953125
0 0.9404296875 0.306640625 0.0595703125 0.072265625
0 0.75390625 0.3779296875 0.10546875 0.0751953125
0 0.6123046875 0.3017578125 0.07421875 0.0673828125
0 0.5986328125 0.359375 0.0732421875 0.052734375
0 0.578125 0.1923828125 0.068359375 0.0625
0 0.751953125 0.1962890625 0.076171875 0.0791015625
0 0.8916015625 0.15234375 0.0927734375 0.087890625
0 0.9228515625 0.0 0.0771484375 0.033203125
0 0.9775390625 0.0126953125 0.0224609375 0.060546875
0 0.7236328125 0.3701171875 0.0576171875 0.0625
