0 0.0 0.1533203125 0.0703125 0.0986328125
0 0.1455078125 0.3681640625 0.0693359375 0.0673828125
0 0.2900390625 0.083984375 0.109375 0.13671875
0 0.44921875 0.0 0.1025390625 0.18359375
0 0.4384765625 0.1748046875 0.072265625 0.087890625
0 0.5703125 0.1513671875 0.0810546875 0.12109375
0 0.6650390625 0.1455078125 0.0576171875 0.0810546875
0 0.6923828125 0.0 0.0439453125 0.0126953125
0 0.0 0.693359375 0.103515625 0.0673828125
0 0.1708984375 0.833984375 0.0634765625 0.0947265625
0 0.208984375 0.8017578125 0.0888671875 0.1298828125
0 0.1201171875 0.5322265625 0.0888671875 0.1328125
0 0.044921875 0.5517578125 0.0703125 0.103515625
0 0.37890625 0.3681640625 0.076171875 0.1142578125
0 0.365234375 0.2744140625 0.0400390625 0.0634765625
0 0.501953125 0.326171875 0.056640625 0.0849609375
0 0.6923828125 0.34375 0.099609375 0.1015625
0 0.6455078125 0.2880859375 0.0712890625 0.103515625
0 0.5380859375 0.4130859375 0.09765625 0.23046875
0 0.353515625 0.556640625 0.0751953125 0.2607421875
0 0.203125 0.5673828125 0.142578125 0.1474609375
0 0.4306640625 0.5341796875 0.064453125 0.0693359375
0 0.357421875 0.83203125 0.099609375 0.16796875
0 0.4541015625 0.7978515625 0.095703125 0.1484375
0 0.5126953125 0.7802734375 0.0849609375 0.08984375
0 0.59375 0.8056640625 0.123046875 0.064453125
0 0.615234375 0.833984375 0.107421875 0.0771484375
0 0.6015625 0.8974609375 0.1630859375 0.0908203125
0 0.7607421875 0.6591796875 0.107421875 0.1494140625
0 0.828125 0.5419921875 0.0693359375 0.12890625
0 0.84375 0.4609375 0.0595703125 0.0712890625
0 0.9267578125 0.3916015625 0.0732421875 0.12109375
0 0.84765625 0.1220703125 0.1015625 0.173828125
0 0.8857421875 0.8056640625 0.1142578125 0.13671875
0 0.2373046875 0.0 0.072265625 0.0244140625
0 0.8310546875 0.9521484375 0.083984375 0.0478515625
0 0.8359375 0.0380859375 0.046875 0.0634765625
