0 0.2216796875 0.234375 0.0888671875 0.0654296875
0 0.38671875 0.314453125 0.0859375 0.0576171875
0 0.44140625 0.3583984375 0.072265625 0.0595703125
0 0.3837890625 0.3935546875 0.0751953125 0.1083984375
0 0.466796875 0.451171875 0.0625 0.0439453125
0 0.44921875 0.521484375 0.126953125 0.0576171875
0 0.255859375 0.4130859375 0.080078125 0.1337890625
0 0.33203125 0.53125 0.083984375 0.109375
0 0.0791015625 0.421875 0.1279296875 0.0634765625
0 0.185546875 0.337890625 0.1064453125 0.07421875
0 0.140625 0.5283203125 0.0703125 0.083984375
0 0.15234375 0.58984375 0.0947265625 0.1005859375
0 0.0 0.654296875 0.0537109375 0.158203125
0 0.33203125 0.7216796875 0.1103515625 0.091796875
0 0.447265625 0.705078125 0.2451171875 0.1328125
0 0.2998046875 0.8359375 0.087890625 0.0439453125
0 0.2998046875 0.8798828125 0.0634765625 0.083984375
0 0.626953125 0.87109375 0.060546875 0.056640625
0 0.529296875 0.84375 0.064453125 0.078125
0 0.7490234375 0.9091796875 0.0869140625 0.06640625
0 0.7763671875 0.744140625 0.078125 0.06640625
0 0.6884765625 0.615234375 0.080078125 0.080078125
0 0.529296875 0.640625 0.115234375 0.0478515625
0 0.8291015625 0.6376953125 0.0673828125 0.0556640625
0 0.76171875 0.5458984375 0.0810546875 0.060546875
0 0.130859375 0.9296875 0.0869140625 0.05859375
0 0.0 0.837890625 0.0771484375 0.0654296875
0 0.6376953125 0.3876953125 0.1181640625 0.0576171875
0 0.7080078125 0.4482421875 0.0908203125 0.0703125
0 0.791015625 0.4521484375 0.076171875 0.068359375
0 0.8896484375 0.4404296875 0.0986328125 0.091796875
0 0.951171875 0.537109375 0.048828125 0.0654296875
0 0.6669921875 0.240234375 0.0732421875 0.12109375
0 0.5244140625 0.0419921875 0.0986328125 0.142578125
0 0.70703125 0.01171875 0.0732421875 0.1123046875
0 0.783203125 0.0 0.0546875 0.064453125
0 0.962890625 0.2724609375 0.037109375 0.109375
0 0.9033203125 0.1318359375 0.0849609375 0.1162109375
0 0.8134765625 0.16015625 0.07421875 0.1103515625
0 0.669921875 0.1953125 0.0751953125 0.0693359375
0 0.505859375 0.185546875 0.10546875 0.05859375
0 0.455078125 0.1171875 0.0947265625 0.068359375
0 0.37890625 0.03515625 0.0732421875 0.056640625
0 0.48046875 0.0 0.0693359375 0.0390625
0 0.0263671875 0.0 0.1259765625 0.1015625
0 0.0 0.1279296875 0.0771484375 0.0830078125
0 0.15234375 0.1171875 0.08203125 0.1259765625
0 0.3388671875 0.470703125 0.0849609375 0.0625
0 0.67578125 0.533203125 0.064453125 0.0712890625
0 0.595703125 0.4443359375 0.09765625 0.072265625
