0 0.0146484375 0.2978515625 0.060546875 0.08203125
0 0.091796875 0.255859375 0.1279296875 0.064453125
0 0.0 0.154296875 0.0537109375 0.052734375
0 0.033203125 0.1318359375 0.0625 0.072265625
0 0.1591796875 0.087890625 0.0732421875 0.076171875
0 0.1787109375 0.173828125 0.083984375 0.0693359375
0 0.306640625 0.1337890625 0.0859375 0.0810546875
0 0.283203125 0.0830078125 0.05078125 0.05859375
0 0.3642578125 0.0 0.083984375 0.060546875
0 0.537109375 0.0 0.0634765625 0.056640625
0 0.349609375 0.0859375 0.0927734375 0.0625
0 0.4384765625 0.0947265625 0.0537109375 0.080078125
0 0.4970703125 0.0791015625 0.0751953125 0.1455078125
0 0.5458984375 0.1064453125 0.1025390625 0.0791015625
0 0.673828125 0.1064453125 0.125 0.08984375
0 0.673828125 0.1748046875 0.0625 0.0693359375
0 0.5986328125 0.310546875 0.1123046875 0.0673828125
0 0.8759765625 0.0 0.06640625 0.0498046875
0 0.8173828125 0.21484375 0.080078125 0.06640625
0 0.806640625 0.1279296875 0.05078125 0.0576171875
0 0.9501953125 0.28515625 0.0498046875 0.078125
0 0.7451171875 0.474609375 0.068359375 0.064453125
0 0.6650390625 0.5498046875 0.1005859375 0.0654296875
0 0.345703125 0.357421875 0.0439453125 0.0498046875
0 0.26953125 0.38671875 0.0732421875 0.0537109375
0 0.279296875 0.4775390625 0.11328125 0.06640625
0 0.1162109375 0.466796875 0.0625 0.08984375
0 0.7880859375 0.587890625 0.0908203125 0.076171875
0 0.865234375 0.5869140625 0.09765625 0.072265625
0 0.5419921875 0.6630859375 0.0986328125 0.05078125
0 0.4921875 0.5576171875 0.05859375 0.0556640625
0 0.3974609375 0.6259765625 0.076171875 0.0634765625
0 0.302734375 0.609375 0.0908203125 0.0810546875
0 0.3974609375 0.6904296875 0.068359375 0.0712890625
0 0.6357421875 0.66796875 0.083984375 0.0615234375
0 0.724609375 0.6845703125 0.056640625 0.0634765625
0 0.7998046875 0.685546875 0.1123046875 0.0439453125
0 0.810546875 0.7880859375 0.060546875 0.05859375
0 0.908203125 0.7919921875 0.0693359375 0.095703125
0 0.0693359375 0.517578125 0.056640625 0.0576171875
0 0.017578125 0.5322265625 0.0537109375 0.0771484375
0 0.0615234375 0.6279296875 0.0595703125 0.0712890625
0 0.09375 0.71484375 0.0771484375 0.0478515625
0 0.3349609375 0.798828125 0.0849609375 0.1142578125
0 0.4521484375 0.76953125 0.0576171875 0.076171875
0 0.5078125 0.7705078125 0.076171875 0.0654296875
0 0.626953125 0.84375 0.0693359375 0.107421875
0 0.71484375 0.9306640625 0.080078125 0.0693359375
0 0.8125 0.94921875 0.06640625 0.05078125
0 0.478515625 0.8828125 0.0712890625 0.1103515625
0 0.5185546875 0.8359375 0.0615234375 0.0576171875
0 0.068359375 0.765625 0.1474609375 0.0576171875
0 0.0283203125 0.861328125 0.0810546875 0.09765625
0 0.205078125 0.9619140625 0.068359375 0.037109375
0 0.7626953125 0.0 0.1171875 0.0498046875
0 0.4443359375 0.22265625 0.041015625 0.0419921875
0 0.396484375 0.7802734375 0.0595703125 0.0615234375
