0 0.203125 0.2900390625 0.142578125 0.0654296875
0 0.103515625 0.087890625 0.0673828125 0.0849609375
0 0.212890625 0.05859375 0.0634765625 0.0888671875
0 0.697265625 0.2109375 0.0869140625 0.0634765625
0 0.609375 0.349609375 0.1572265625 0.0888671875
0 0.6513671875 0.34375 0.2099609375 0.087890625
0 0.455078125 0.50390625 0.134765625 0.0634765625
0 0.0 0.5322265625 0.130859375 0.0927734375
0 0.216796875 0.60546875 0.1005859375 0.0869140625
0 0.326171875 0.556640625 0.0634765625 0.0751953125
0 0.4951171875 0.599609375 0.15234375 0.0693359375
0 0.5419921875 0.6572265625 0.1328125 0.109375
0 0.6650390625 0.705078125 0.111328125 0.0908203125
0 0.4921875 0.7705078125 0.109375 0.0849609375
0 0.6201171875 0.80859375 0.1201171875 0.1064453125
0 0.728515625 0.8955078125 0.1015625 0.1015625
0 0.34765625 0.9609375 0.10546875 0.0390625
0 0.9072265625 0.6181640625 0.0927734375 0.1484375
0 0.8681640625 0.751953125 0.1064453125 0.1015625
0 0.9404296875 0.33984375 0.0595703125 0.10546875
0 0.8837890625 0.107421875 0.0986328125 0.091796875
0 0.8125 0.0 0.0908203125 0.0458984375
