0 0.6376953125 0.2685546875 0.1787109375 0.1259765625
0 0.3798828125 0.2109375 0.1953125 0.119140625
0 0.8095703125 0.1162109375 0.1162109375 0.1123046875
0 0.2412109375 0.9423828125 0.080078125 0.0576171875
0 0.8818359375 0.5673828125 0.1181640625 0.1728515625
0 0.7109375 0.4541015625 0.1142578125 0.1611328125
0 0.462890625 0.4208984375 0.07421875 0.1416015625
0 0.2890625 0.306640625 0.078125 0.1064453125
0 0.22265625 0.0029296875 0.1689453125 0.0888671875
0 0.1435546875 0.5732421875 0.087890625 0.0703125
0 0.3251953125 0.650390625 0.0849609375 0.12890625
0 0.27734375 0.8984375 0.099609375 0.0595703125
0 0.5068359375 0.9072265625 0.107421875 0.0927734375
0 0.75 0.873046875 0.0859375 0.126953125
0 0.16015625 0.90625 0.1044921875 0.09375
0 0.5439453125 0.3369140625 0.0576171875 0.0498046875
0 0.53125 0.0986328125 0.103515625 0.1142578125
0 0.462890625 0.0 0.0859375 0.0810546875
0 0.64453125 0.0 0.1357421875 0.1123046875
0 0.0751953125 0.0654296875 0.1025390625 0.0849609375
0 0.0947265625 0.0 0.1123046875 0.0439453125
0 0.0 0.3193359375 0.140625 0.0791015625
0 0.0 0.38671875 0.1337890625 0.103515625
0 0.0 0.4736328125 0.0419921875 0.0654296875
0 0.3408203125 0.46875 0.0517578125 0.0400390625
0 0.30078125 0.517578125 0.11328125 0.0546875
0 0.333984375 0.564453125 0.1015625 0.0654296875
0 0.53125 0.623046875 0.080078125 0.109375
0 0.435546875 0.6962890625 0.095703125 0.0556640625
0 0.4375 0.7451171875 0.078125 0.037109375
0 0.509765625 0.7939453125 0.0654296875 0.0556640625
0 0.625 0.8876953125 0.0703125 0.0712890625
0 0.83203125 0.796875 0.16796875 0.1591796875
0 0.7783203125 0.728515625 0.072265625 0.1123046875
0 0.0703125 0.6064453125 0.056640625 0.087890625
0 0.1572265625 0.6611328125 0.0732421875 0.173828125
0 0.0 0.828125 0.052734375 0.0576171875
